----------------------------------------------------------------------------------------------------------------------------------------------------------------------------------------------------------
----------------------------------------------------------------------------------------------------------------------------------------------------------------------------------------------------------
----------------------------------------------------------------------------------------------------------------------------------------------------------------------------------------------------------
----------------------------------------------------------------------------------------------------------------------------------------------------------------------------------------------------------
-------------------------------S--------------------------------------------------------------------------------------------------------------------------------------------------------------------------
----------------------------------------------------------------------------------------------------------------------------------------------------------------------------------------------------------
-------------------##-------------------------S!SS----------------SSSSSS--------------------------------------------------------------------------------------SS----------------------------SS!S----------
------------------###-------------------------------------------------------------------------------------------------------------------------------------------------------------------------------------
---------------#-####--------------------------------------@------------------------SS--------------------------------------------------------------------------------------------------------------------
--------------##--###-------------------------------------------------------------------------------------------------------------------------------------------------------------------------------------
-----------#-###--####-------------------------SS-------S----------------------t------------------------S----------------------#####----------------------##----#-----S------------------SSS--S---S@S-----
----------###-##--####--------------------------------------------------------------------------------------------------------######--#------------##----###----##--------------#-------------------------
---------####-###--###------------t-----------------tt-------------------------t----------------t-----------------tt------t--#######----tt-------t###---#####---##---------#-----##-----------------------
-M------#####--###--##------------t--------------g--tt-g-----------------------t-----------g----tt-----------g----tt------t-########----tt------t#####--####----##---------------###----------------------
XXXXXXXXXXXXX--XXX-XXXXXXXXXXXXXXXXXXXXXXXXXXXXXXXXXXXXXXXXXXXXXXX----XXXXXXXXXXXXXXXXXXXXXXXXXXXXXXXXXXXXXXXXXXXXXXXXXXXXXXXXXXXXXX-XXXXXXXXXXXXXXXXXXXXXXXXX-XXXXXXXXXXXXXXXXXXXXXXXXXXXXXXXXXXXXXXXXXX-
XXXXXXXXXXXXXX-XXXXXXXXXXXXXXXXXXXXXXXXXXXXXXXXXXXXXXXXXXXXXXXXXXX---XXXXXXXXXXXXXXXXXXXXXXXXXXXXXXXXXXXXXXXXXXXXXXXXXXXXXXXXXXXXXXX-XXXXXXXXXXXXXXXXXXXXXXXXX-XXXXXXXXXXXXXXXXXXXXXXXXXXXXXXXXXXXXXXXXXX-