----------------------------------------------------------------------------------------------------------------------------------------------------------------------------------------------------------
----------------------------------------------------------------------------------------------------------------------------------------------------------------------------------------------------------
----------------------------------------------------------------------------------------------------------------------------------------------------------------------------------------------------------
----------------------------------------------------------------------------------------------------------------------------------------------------------------------------------------------------------
----------------------------------------------------------------------------------------------------------------------------------------------------------------------------------------------------------
----------------------------------------------------------------------------------------------------------------------------------------------------------------------------------------------------------
---------------------SS-----------------!---------------SS--------------------SSSS------------SS------------------------SSS----------------------------SSS------------------------------------------------
----------------------------------------------------------------------------------------------------------------------------------------------------------------------------------------------------------
--------------------------------------------------------------------------------------------------------##------------------------------------------------------------------------S-SSSSSS!S--------------
-------------------#------------------------------------------------------------------------------------##--#---------------------------------------------------------------------------------------------
------------------S#--!-----SSSSS---------t------------#--------tt--------S---------------------------####--#--------------------------#--tt----!---!S------tt------S-------------------------------------
-------------t----------------------------tt----------##--------tt-----------------------------------######---------------------------#---tt----------------tt--------------------------------g-g---------
-------tt----t--#--------------------------t------t--###--------tt----------------------------------########-------------------------##---tt----------------tt----------------------------------t---------
-M-----tt----t-##-#------------------g---g-t--------#-###-------tt--------------gg-----------------##########------------------g----###---------------------tt----g-g----------------------#----tt--------
XXXXXXXXXXXXXXXXXXXXXXXXXXXXXXXXXXXXXXXXXXXXXXXXXXXXXXXXXXXXXXXXXXXXXXXXXXX-XXXXXXXXXXXXXXXXXXXXXXXXXXXXXXXXXXXXX-XXX--XXXXXXXX-XXXXXXXXXXXXXXXXXXXXXXXXXXXXXXXXXXXXXXXXXXXXXXXX---XXXXXXXXXXXXXXXXXXXXXXX
XXXXXXXXXXXXXXXXXXXXXXXXXXXXXXXXXXXXXXXXXXXXXXXXXXXXXXXXXXXXXXXXXXXXXXXXXXX-XXXXXXXXXXXXXXXXXXXXXXXXXXXXXXXXXXXXX-XXX-XXXXXXXXX-XXXXXXXXXXXXXXXXXXXXXXXXXXXXXXXXXXXXXXXXXXXXXXXX---XXXXXXXXXXXXXXXXXXXXXXX