----------------------------------------------------------------------------------------------------------------------------------------------------------------------------------------------------------
----------------------------------------------------------------------------------------------------------------------------------------------------------------------------------------------------------
----------------------------------------------------------------------------------------------------------------------------------------------------------------------------------------------------------
----------------------------------------------------------------------------------------------------------------------------------------------------------------------------------------------------------
----------------------------------------------------------------------------------------------------------------------------------------------------------------------------------------------------------
----------------------------------------------------------------------------------------------------------------------------------------------------------------------------------------------------------
------------------------SSSSSSSS--------------------------SS----------------------------------SS!S---------------------------------------------------------#SSSS------------------------------SSSSSS------
----------------------------------------------------------------------------------------------------------------------------------------------------------##----------------------------------------------
--------!-------------------------------------------------------------------------------------------------##---------------------------------------------###----------------------------------------------
----------------------------------------------------------------------------------------------------------##-----------------------------------------#--####----------------------------------------------
------------S------SSSS---S-------------------------------!---------------------------------S@S!S--------#####----------!-----------------!S------------####----------!-----------------------------!S----
----------------------------------------------------------------------t---------------------------------######-----------------------------------------#####----------------------------------------------
--------------------------------------tt---------------------------t--t-------------------------------########-------------------------------------#--######----------tt----t----#------------------------
---M-----#-----------------------g----tt------g-g---g-g------------t--t------------#-----------------#########---------------g-----g----------gg---#--######----------t------t--###-----------------------
---XXXXXXXXXXXXXXXXXXXXXXXXXXXX-XXXXXXXXXXXXXXXXXXXXXXXXXXXXXXXXXXXXX-XXXXXXXXXXXXXXXXXXXXXXXXXXXXXXXXXXXXXXXXXXXXXXXXXXXXXXXXXXXXXXXXXXXXXXXXXXXXXXXXXXXXXXXXXXXXXXXXXXXXXXXXXXXXXXXXXXXXXXXXXXXXXXXXXXX-
---XXXXXXXXXXXXXXXXXXXXXXXXXXX--XXXXXXXXXXXXXXXXXXXXXXXXXXXXXXXXXXXXXXXXXXXXXXXXXXXXXXXXXXXXXXXXXXXXXXXXXXXXXXXXXXXXXXXXXXXXXXXXXXXXXXXXXXXXXXXXXXXXXXXXXXXXXXXXXXXXXXXXXXXXXXXXXXXXXXXXXXXXXXXXXXXXXXXXX-