----------------------------------------------------------------------------------------------------------------------------------------------------------------------------------------------------------
----------------------------------------------------------------------------------------------------------------------------------------------------------------------------------------------------------
----------------------------------------------------------------------------------------------------------------------------------------------------------------------------------------------------------
----------------------------------------------------------------------------------------------------------------------------------------------------------------------------------------------------------
----------------------------------------------------------------------------------------------------------------------------------------------------------------------------------------------------------
----------------------------------------------------------------------------------------------------------------------------------------------------------------------------------------------------------
------SSSSSS-----------------------------------------------------------------------------------------S-----------------------------S!SS------ggS--------------------------S-S-----------------------!-----
----------------------------------------------------------------------------------------------------#-----------------------------------------------------------------------------------------------------
---------------------------------#------------------------------------SSSSSSS------------#--------------------------------------------------S-------------------------------------------------------------
--------------------------------###-----------------------------------------------------##--------#-------------------------------------------------------------------------------------------------------
----------------------#----##---####--------------!-------S--------------------------#-###--------#---------------------------------S-------!----S!SS------------tt-------S-----!------------###----------
--------------------------####--####------------------------------------------------######--##----#-----------------------------------------------------------------------------------------###-----------
-------------------------#####-#####-----------------------------------------------#######--###---#-tt----tt------tt-----t------------------------------#--------------------------------#-###------------
-M---------------t-g----#####---####----------------------g-g-------------------g-########--####----tt----tt-g----tt-g---t------------------------------##---------------g--------------##-####-----------
XXXXXXXXXXXXXXXXXXXXXXXXXXXXX---XXXXXXXXXXXXXXXXXXXXXXXXXXXXXXXXXXXXXXXXXXXXXXXXXXXXXXXXXX--XXXXXXXXXXXXXXXXXXXXXXXXXXXXXXXXXXXXXX---XXXXXXXXXXXXXXXXXXXXXXXXXXXXXXXXXXXXXXXXXXXXXXXXXXXXXXXXXXXXXXXXX----
XXXXXXXXXXXXXXXXXXXXXXXXXXXXXX-XXXXXXXXXXXXXXXXXXXXXXXXXXXXXXXXXXXXXXXXXXXXXXXXXXXXXXXXXXX--XXXXXXXXXXXXXXXXXXXXXXXXXXXXXXXXXXXXXX---XXXXXXXXXXXXXXXXXXXXXXXXXXXXXXXXXXXXXXXXXXXXXXXXXXXXXXXXXXXXXXXXX----