----------------------------------------------------------------------------------------------------------------------------------------------------------------------------------------------------------
----------------------------------------------------------------------------------------------------------------------------------------------------------------------------------------------------------
----------------------------------------------------------------------------------------------------------------------------------------------------------------------------------------------------------
----------------------------------------------------------------------------------------------------------------------------------------------------------------------------------------------------------
----------------------------------------------------------------------------------------------------------------------------------------------------------------------------------------------------------
----M-----------------------------------------------------------------------------------------------------------------------------------------------------------------------------------------------------
----S----------SSS----------------------------------------------------------------------------------------SS-------SSS-SS---------------------------------------------------------------------------------
----------------------------------------------------------------------------------------------------------------------------------------------------------------------------------------------------------
------------------------------------------------------------------------------------------------------------SS--------------S-SSSSSS!S--------!S----------------------------------------------------------
-----------------------------------------------------------------------------------------------------------------------------------------------------------------#-----------------------------##---------
----------SS!SSS!-------------------------------------------------SSSS--------S-SS!S-----------#----!-----------S@S-------------------------!-------------------###---------SU-----S----------###---------
-----------------------------------------------------------------------------------------------#---------------------------------------------------------------#####----#-------------------#####---------
--------------------------tt-------tt----------------------------------------------------tt---##--------------------------------------------------------------######----#------------------######---------
-------------------g-g----tt---g---tt-----------gg-------#-------------------------------tt--####---------------g-g----------g-------------------------------#######----##--------g-g-----########--------
--------XXXXXXXXXXXXXXXXXXXXXXXXXXXXXXXXXXXXXXXXXXXXXXXXXXXXXXXXXXXXXX---XXXXXXXXXXXXXXXXXXXXXXXXXXXXXXXXXX-XXXXXXXX-------XXXXXXXXXXXXXXXXXXXXXXXXXXXXXXXXXXXXXXXXX---XXXXXXXXXXXXXXXXXXXXXXXXXXXXXXXXXXX
--------XXXXXXXXXXXXXXXXXXXXXXXXXXXXXXXXXXXXXXXXXXXXXXXXXXXXXXXXXXXXXX---XXXXXXXXXXXXXXXXXXXXXXXXXXXXXXXXXXXXXXXXXXX-------XXXXXXXXXXXXXXXXXXXXXXXXXXXXXXXXXXXXXXXXXX-XXXXXXXXXXXXXXXXXXXXXXXXXXXXXXXXXXXX