----------------------------------------------------------------------------------------------------------------------------------------------------------------------------------------------------------
----------------------------------------------------------------------------------------------------------------------------------------------------------------------------------------------------------
----------------------------------------------------------------------------------------------------------------------------------------------------------------------------------------------------------
----------------------------------------------------------------------------------------------------------------------------------------------------------------------------------------------------------
----------------------------------------------------------------------------------------------------------------------------------------------------------------------------------------------------------
----------------------------------------------------------------------------------------------------------------------------------------------------------------------------------------------------------
--------SS------------------------------------------------------------SS------------------------------------------------------------------------SSSS------------SS!S-----------SSSSS----------------------
----------------------------------------------------------------------------------------------------------------------------------------------------------------------------------------------------------
----------------!---------------------------------------------------------------------------------------------------------------------------------------------------------!S------------------------------
----------------------------------------------------------------------------------------------------------------------------------------------------------------------------------------------------------
----------------------------S!------!S------------------S----SSSSS-----------###--#------------#----tt----------------S@S---------!------------S---------SSU--------tt------------!---------!-------------
-------------------------------------------------------------------------#--####--#-----------#-----tt--------------------------------------------------------------tt------------------------------------
--------------------------------------------------tt---------------------t--####--#tt--------##-----tt----------------------------t---------------------------------tt----------------tt------tt----------
-M----------------gg-----g-----------------t-#----tt-----------#---------#--####--#t---------###----tt-------g-------------g-g----t------------------g-g------------tt-g--------------tt-g----tt-g--------
XXXXXXXXX-XXXXXXXXXXXXXXXXXXXXXXXXXXXXXXXXXXXXXXXXXXXXXXXXXXXXXXXXXXXXXXXXXXXXXXXXXXXXXXXXXXXXXXXXXXXXXXXXXXXXXXXXXXXXXXXXXXXXXXXXXXXXXXXXXXXXXXXXXXXXXXXXXXXXXXXXXXXXXXXXXXXXXXXXXXX-XXXXXXXXXXXXXXXXXXXX
XXXXXXXXX-XXXXXXXXXXXXXXXXXXXXXXXXXXXXXXXXXXXXXXXXXXXXXXXXXXXXXXXXXXXXXXXXXXXXXXXXXXXXXXXXXXXXXXXXXXXXXXXXXXXXXXXXXXXXXXXXXXXXXXXXXXXXXXXXXXXXXXXXXXXXXXXXXXXXXXXXXXXXXXXXXXXXXXXXXXX-XXXXXXXXXXXXXXXXXXXX