----------------------------------------------------------------------------------------------------------------------------------------------------------------------------------------------------------
----------------------------------------------------------------------------------------------------------------------------------------------------------------------------------------------------------
----------------------------------------------------------------------------------------------------------------------------------------------------------------------------------------------------------
----------------------------------------------------------------------------------------------------------------------------------------------------------------------------------------------------------
----------------------------------------------------------------------------------------------------------------------------------------------------------------------------------------------------------
------------------------------------------------------##--------------------------------------------------------------------------------------------------------------------------------------------------
---------------------------@-------------------------###----------------------------------------------------------SS!S-------#-----------------------------#----------------------------------------------
-------------------------------------------------------##--------------------------------------------------------------------#----------------------------##----------------------------------------------
----------------------------S--------------------------###------------------------------------------------------------------##---------------------------###----------------SSSSSSSS----------------------
-------------------------------------------------------####---------------------------##-----------------------------------###--#-----------------------####----------------------------------------------
----------------!----@----!-------tt----!-------tt----#####-------------SSSS!S--S@S---##--------------------------S------#####--##----S-----------##----####------------!-------------------S-!S----S-----
----tt----------------------------tt------------tt---#####--#------------------------###--#-------------#---------------######-###------------##--##--######----------------------------------------------
----------tt----------------------tt------------tt---#####--##-----t----------------####--##--------tt-###-------------#######-###-------------#--##--######----------------------------------------------
-M--------tt-----------------g-g--tt-------g----tt--######--##----tt-------------g-#####--##--------tt#####------g----############---g-------#-#--##--######---------#----------------------k------g------
XXXXXXXXXXXXXXXXXXXXXX---XXXXXXXXXXXXXXXXXXXXXXXXXXXXXXXXX--XXXXXXXXXXXXXXXXXXXXXXXXXXXX-XXXXXXXXXXXXXXXXXXXXXXXXXXXXXXXXXXX-XXXXXXXXXXXXXXXXXXXXXXX--XXXXXXXXXXXXXXXXXXXXXXXXXXXXXXXXXXXXXXXXXXXXXXXXXX--
XXXXXXXXXXXXXXXXXXXXXX--XXXXXXXXXXXXXXXXXXXXXXXXXXXXXXXXXX--XXXXXXXXXXXXXXXXXXXXXXXXXXXX-XXXXXXXXXXXXXXXXXXXXXXXXXXXXXXXXXXX-XXXXXXXXXXXXXXXXXXXXXXX--XXXXXXXXXXXXXXXXXXXXXXXXXXXXXXXXXXXXXXXXXXXXXXXXXX--