----------------------------------------------------------------------------------------------------------------------------------------------------------------------------------------------------------
----------------------------------------------------------------------------------------------------------------------------------------------------------------------------------------------------------
----------------------------------------------------------------------------------------------------------------------------------------------------------------------------------------------------------
----------------------------------------------------------------------------------------------------------------------------------------------------------------------------------------------------------
----------------------------------------------------------------------------------------------------------------------------------------------------------------------------------------------------------
----------------------------------------------------------------------------------------------------------------------------------------------------------------------------------------------------------
----------------------------------------------------------------------SS--SSS---------------------------------------------------------------------SS!S----------------------------------------------------
----------------------------------------------------------------------------------------------------------------------------------------------------------------------------------------------------------
---------------#--------------------------------------------------------------------------------------------------------------------------------------------------------S---------!-------S---------------
--------------##---------------------------#--------------------------------------------------------------------------------------------------------------------------------------------------------------
-------------#-##-------------S-----!------#---------------SSSSSSS--S@S-SS!-----S-!---tt--------S@----!----------------------------#---------S!-----#----##-------SS!S-----t----------------------tt------
------------#####------------------------###------------------------------------------tt------------------------------------------###--------------###--####--------------tt----------------------tt------
------------######-----------------------###------------------------------------------tt--------------------tt----##-----------#--####--------------##--###--tt-----------tt--------tt------------tt------
-M------g-g########-----------------g-g-####------------------------------g-g----g----tt--------------------tt----##----t-----###-####--------------##--###---t-----------tt--------tt-------g----t-------
XXXXXXXXXXXXXXXXXXXXXXXXXXXXX-XXXXXXXXXXXXXXXXXXXXXXXXXXXXXXXXXXXXXXXXXXXXXXXXXXXXXXXXXXXXXXXXXXXXXXXXXXXXXXXXXXXXXXXXXXXXXXXXXXXXXXXXXXXXXXXXXXXXXXXX--XXXXX-XXXXXXXXXXXXXXXXXXXXXXXXXXXXXXXXXXXXXXXXXXXX
XXXXXXXXXXXXXXXXXXXXXXXXXXXX--XXXXXXXXXXXXXXXXXXXXXXXXXXXXXXXXXXXXXXXXXXXXXXXXXXXXXXXXXXXXXXXXXXXXXXXXXXXXXXXXXXXXXXXXXXXXXXXXXXXXXXXXXXXXXXXXXXXXXXXX--XXXXXXXXXXXXXXXXXXXXXXXXXXXXXXXXXXXXXXXXXXXXXXXXXX