----------------------------------------------------------------------------------------------------------------------------------------------------------------------------------------------------------
----------------------------------------------------------------------------------------------------------------------------------------------------------------------------------------------------------
----------------------------------------------------------------------------------------------------------------------------------------------------------------------------------------------------------
----------------------------------------------------------------------------------------------------------------------------------------------------------------------------------------------------------
----------------------------------------------------------------------------------------------------------------------------------------------------------------------------------------------------------
----------------------------------------------------------------------------------------------------------------------------------------------------------------------------------------------------------
----------------------------------------------------------------------------------S------------------------SSS------------------------------------------------------##------------------------------------
-------------------------------------------------------------------------------------------------------------------------------------------------------------------###------------------------------------
--------#---------------------------------------------------------------S-----------------------------------------------------------------------------------------####------------------------------------
--------##--------------------------------------------------------------------------------------------------------------------------------------------------------####------------------------------------
------#-###-------------------#S----------!----#--#------#------S--------------S!S------------------!-----------------------------S@S----------------------------#####-------------##-----------SS!-------
-----#######--#-----------#--------------------#--##----####--------------------------------------------------##------##----------------------------------------#######-----------###---------------------
----########--#-----------##-#----------------##--###-######-----t------------------------------------------------tt-###----------------------t----------------########-#------#-#-###--------------------
-M-#########--##----------#####-----------k-#-##--###---####-g---t-------------------------g-------------------#--tt#-####---------------g----t---------------k#######--##----#----####------g------------
XXXXXXXXXXXX--XXXXXXXXXXXXXXXXXXXXXXXXXXXXXXXXXXXXXXX---XXXXXXXXXXXXXXXXXXXXXXXXXXXXXXXXXXXXXXXXXXXXXXXXXXXXXXXXXXXXXXXXXXXXXXXXXXXXXXXXXXXXXXXXXXXXXXXXXXXXXXXXXXXXXXXXXXXXXXXXXXXXXXXXXXXXXXXXXXXXXXXXX-
XXXXXXXXXXXX-XXXXXXXXXXXXXXXXXXXXXXXXXXXXXXXXXXXXXXXXXXXXXXXXXXXXXXXXXXXXXXXXXXXXXXXXXXXXXXXXXXXXXXXXXXXXXXXXXXXXXXXXXXXXXXXXXXXXXXXXXXXXXXXXXXXXXXXXXXXXXXXXXXXXXXXXXXXXXXXXXXXXXXXXXXXXXXXXXXXXXXXXXXXX-