----------------------------------------------------------------------------------------------------------------------------------------------------------------------------------------------------------
----------------------------------------------------------------------------------------------------------------------------------------------------------------------------------------------------------
----------------------------------------------------------------------------------------------------------------------------------------------------------------------------------------------------------
----------------------------------------------------------------------------------------------------------------------------------------------------------------------------------------------------------
---------------------------------------------------------------------SSS----------------------------------------------------------------------------------------SS----------------------------------------
----------------------------------------------------------------------------------------------------------------------------------------------------------------------------------------------------------
----------------------------------!-------S---------------------------------------------------------------------------SS------------------------------------S------------------SSS------------------------
----------------------------------------------------------------------------------------------------------------------------------------------------------------------------------------------------------
--------------------------------------S-------------------------------------------------------------------------------------------------------------------------------------------------------------------
-----------------------------------------------------------------------------------------------------------------------------------------#----------------------------------------------------------------
--------------------!-----------------------------SS!SS---!-S---------------SS--!---------------tt----!-------------!-----!-------tt-----##--------##---S-!S----!-----------tt---------#--S---------------
------------------------------------------------------------------------------------------------tt--------------------------------tt----####------###-----------------------tt--------##------------------
----------------------------tt------------------------------------------------------------------tt--------------------------------tt---####---##--###-----------------tt----tt----------#-----------------
-M------------g-g------g----tt-g--g-g---------------------------g-gg----gg---g--g-g----------g--tt-------------g------------------tt--######--##--####--------gg------tt----tt-----g---####---------------
XXXXXXXXXXXXXXXXXXXXXXXXXXXXXXXXXXXXXXXXXX----XXXXXXXXXXXXXXXXXXXXXXXXXXXXXXXXXXXXXXXXXXXXXXXXXXXXXXXXXXXXXXXXXXXXXXXXXXXXXXXXXXXXXXXXXXXXXX--XX--XXXXXXXXX----XXXXXXXXXXXXXXXXXXXXXXXXXXXXXXXXXXXXXXXXXXX
XXXXXXXXXXXXXXXXXXXXXXXXXXXXXXXXXXXXXXXXXX---XXXXXXXXXXXXXXXXXXXXXXXXXXXXXXXXXXXXXXXXXXXXXXXXXXXXXXXXXXXXXXXXXXXXXXXXXXXXXXXXXXXXXXXXXXXXXXX--XXX-XXXXXXXXX----XXXXXXXXXXXXXXXXXXXXXXXXXXXXXXXXXXXXXXXXXXX