----------------------------------------------------------------------------------------------------------------------------------------------------------------------------------------------------------
----------------------------------------------------------------------------------------------------------------------------------------------------------------------------------------------------------
----------------------------------------------------------------------------------------------------------------------------------------------------------------------------------------------------------
----------------------------------------------------------------------------------------------------------------------------------------------------------------------------------------------------------
----------------------------------------------------------------------------------------------------------------------------------------------------------------------------------------------------------
----------------------------------------------------------------------------------------------------------------------------------------------------------------------------------------------------------
----SSSS--SS--------------------------------------------S@S---------------------------------------------------------------!-------------------------------------------------------------------------------
-------------------------------------------------------------------------------------------------------------------------------------------------------#--------------------------------------------------
-------------------------------------------------------------------------------------------------------------------------------------------------------##--------------------------------SSS--S-----------
-------##--------------------------------------------------------------------##-----------------------------------------------------##----------------###---#---------------------------------------------
------###-------##--!-------S!!S--------!-----------SS!SS---SS!S-----S-S----#----SS---S-------SSS-S--------------------------------###---------------####---##----------SSS-S---------S---------!---------
-----####------###----------------------------------------------------------##----------------------------------------------------######------------#####---##--#-----------------------------------------
----######----####---------------------------------------------------------###------------tt-------------------------------------#######------tt----######-###--#t----------------------------------------
-M-########--#####---------------------g------------------------------------###--------g--tt--g-g------------------------g-g---#########------tt---###########--#t-------------------g--------------------
XXXXXXXXXXXXXXXXXXXXXXXXXXXXXXXXXXXXXXXXXXXXXXXXXXXXXXXXXXXXXXXXXXXXXXXXXXXXXXXXXXXXXXXXXXXXXXXXXXXXXXXXXXXXXXXXXXXXXXXXXXXXXXXXXXXXXXXXXXXXXXXXXXXXXXXXXXXXXXXXXXXXXXXXXXXXXXXXXXXXXXXXXXXXXXXXXXXXXXXX--
XXXXXXXXXXXXXXXXXXXXXXXXXXXXXXXXXXXXXXXXXXXXXXXXXXXXXXXXXXXXXXXXXXXXXXXXXXXXXXXXXXXXXXXXXXXXXXXXXXXXXXXXXXXXXXXXXXXXXXXXXXXXXXXXXXXXXXXXXXXXXXXXXXXXXXXXXXXXXXXXXXXXXXXXXXXXXXXXXXXXXXXXXXXXXXXXXXXXXXXXX-