-----------------------------------------------------------------------------------------------------------------------------------------------------
---------------------------------------------------------------------------------------------------------------------------------------------------|-
-----------------------------------------------------------------------------------------------------------------------------------------------------
---------o-------------------------------------------------------------------------------------------------------------------------------------------
-------%%%%%%%---------------------------------------------------------------------------------------------------------------------------------------
--------|||-|----------------------------------------------------------------------------------------------o-----------------------------------------
---------|--|------------------------------------------------------------%--------------------------------%%%%---------------------------------------
---------||-|--SSS-----------SSS--------------SS------SSS--------SSS-------------o-------------------o-----||----%%-%%%%------------o---S------------
------%%%%%%%%------------------------------------------------%%%------------%%%%%%-----------------%%%----||-%---|--||------------%%%%--------------
-------||||||-------------------------------------SS--------S-||--------------||||---------o---------|-----||-----|--||-------------||---------------
-------||||||--------------------------------------|-----------|--------------||||-------------------||%---||-----|--||-------------||---------------
-------||||||-----%%%-------------%%%%%%%%%%-%%%%%%%%-SSS------|---------%%%%%%|||-------------------||%%%-||-----|--||-------------|----------------
-------|-||||------|---------------|||||||||--||||||-----------|----------||||||||-------------------||%|%%%%%%---|--||---------|%%%%%%%-------------
-M-----|-|-||------|---------------|||||||||--||||||-----------|-----o----||||||||-------------%%%%%-|||||-|||----|--||-----%%%%%%||||---------------
XXXX---%%%%%%------|---------------||||||||||%||||||-----------|----%%%%%%||||||||---------XXXXX||||-|||||||||---%%%%%%%%%%%-|||||||||--------XXXXXXX
XXX---||||||%------|---------------|||||||||||||||||-----------------||-|-||||||||---------XXXXXX|||-|||||||||----||||||||||||||||||||--------XXXXXXX