-----------------------------------------------------------------------------------------------------------------------------------------------------
-----------------------------------------------------------------------------------------------------------------------------------------------------
-----------------------------------------------------------------------------------------------------------------------------------------------------
-------------------------------------------------------------------------o---------------------------o-----------------------------------------------
--------------------------------------------------------------------------%------------------------------------------------o%------------------------
------SSS----------------------------------------------o---------------------o--------------------------------------------%%%%---------%%%-----------
------------------------------------------------------%%%------------------%%%%---%%%---------------------------------oo---||-ooSSS-----|------------
------------------------SSS--------SSS-----------------|-------------------||--o---|-------------o----SSS--o---o-------%|--||--S--------|------------
--------------------------------------------%%%--------|--------%%%%%%%----||-%%%--|--------------------------%%%---%%%%|%-||-------------%%%--------
------SSSS-----------S--------SSS--------o---|---------|--------%||--|---|-||-||---|----SS--------SSS----------|-----||||--||------SSSS----||S-------
---------------------------%%-------------%--|---------|---------||--|-----|--||-%%|---------------------------|-----||||-|||--------------||--------
----------------------%%%%||---------%%%%%%%-|---------|---------||--|---|-|--|%%|-|-------|-----------------%%|-----||||-|||--------------||--------
----------------------|||-||----------||||||-|---------|-%-%%----||%%%%%%%%%%%||||-|--%%%%%%%----------------%%%%%%%%||%%%%%%--------------||--------
-M-------------o------|||-||----------||||||-|---------|-||||----||-|||||||||-||||-|---|||-|----------------|||||--|-||||||||--------------||--------
XX%X%%%%------%%%|-|--|||-||----------||||||-----------||||||--%-||-||||||||||||||%%%%-||--|-----XXXXXXXXXX||||||--|-|||||||-------------|-||--------
XX-X||------------||--|||-||----------||||||-----------||||||-|--||-|||||-|||-||||||||-||--|-----XXXXXXXXX-||||||--|||||||||-------------|-|---------