-----------------------------------------------------------------------------------------------------------------------------------------------------
-----------------------------------------------------------------------------------------------------------------------------------------------------
-----------------------------------------------------------------------------------------------------------------------------------------------------
-------------------------------------------o---------------------------------------------------------------------------------------------------------
------------------------------------------%%%--------------------------------------------------------------------------------------------------------
--------------------------------------%%---|-------o---------------------------o-----------------------------------o---------------------------------
------%%%%%SS--------------------------|---|----------------------------------%%%%------------------------------------%%%%---------------------------
--------||---------o-------------------|---|-o---------o---|-----------o--SS---||----------SSS-------------------------|---------SSSS-----------S----
--------||-----------------------------|%%%%%%%-------%%%--|------%%%----------||---------------------S----------------||----------------------------
--------||---SSSSS---------r----SS---o-|-|||-|---------|---|-------|---|-------||----SSSS------RSSS--SSS---------------||--SS------------------------
--------||------------%%%%%%%----------|-|||-|---------|---|-------|---|-------||--------------------------------------||-----------------%%%%-------
--------||-------------|||||-----------|-|||-|---------|---|---%%%-|---|--|%%%%||--------------------------------------||-------------%%%%|||--------
-----%%%||-------------|||||--------%%%%%%%%%%%%%%%%-|-||-------|--|-%-|%%%%|||||--------------------------------------||--------------||||||--------
-M---||-||-------------|||||-------%|||||||||||||||--|-||----|--|--|---|-||-|||||--------o-------------------------%%%-|---------------||||||--------
XX---||-||--------XXXXXX||||%%%--%--|||-|||||||||||-|||||-------|--||--|-||-|||||----------------------------------|||%%%%%%--XXXXX-%%%%%||||------XX
XX---||-||--------XXXXXX|||||||-----|||-|||||||||||-|-||||------|--||-||-||-|||||----------------------------------||||||||---XXXXX--||||||||--------