-----------------------------------------------------------------------------------------------------------------------------------------------------
-----------------------------------------------------------------------------------------------------------------------------------------------------
-----------------------------------------------------------------------------------------------------------------------------------------------------
-----------------------------------------------------------------------------------------------------------------------------------------------------
-----------------------------------------------------------------------------------------------------------------------------------------------------
------oo--------o------------------------------------------------------------------------------------------------------------------------------------
----------------%-----------------------%%----%%%---------------------------------------------------------------------------%%%%---------------------
--------------------oo-------------------------||---SS-----------o---------SS----------------------------SSS-----------------|-----------SSSS--------
--------------------------------SS------%%%%---||---------------%%%------------------------------------o---------------------|-----------------------
--------------------------------SS-------||----||---------SS-----|--oo------------SSSS----------------%%%--------------------|-----------------------
-----------------------------------------||-%--||----------------|-------------------------------------|---------------------|-----------------------
---------------%%%%%%%%%%%%%%%%%---------||||--||----------------|-%%%%%%%%%%--------------------o-----|---------------------|----%------------------
----------------|||||||-||--||-----------||||--||----------------||-||||||||----------------%%%%%%%----|---------------------|-----------------------
M-----%%%%%%%%%-|||||||-||--||-----------||||--|-----------------||-||||||||-------%%%%%%%%%-|||||-----|---------------------||----------------------
X------||||||---|||||||-||--||XXXXXXXXX--||||%%%%%%%----------%%-||-||||||||--------|||||-|--|||||---%%%%%%%--------XXXXXXXXXXX-%|%------------XXXXXX
X------||-|||---|||||||-||--|||-XXXXXX---||||||||||--------------||-|-||||||--------|||||----|||||-----||||---------XXXXXXXXXXX--|-------------XXXXXX