-----------------------------------------------------------------------------------------------------------------------------------------------------
-----------------------------------------------------------------------------------------------------------------------------------------------------
-----------------------------------------------------------------------------------------------------------------------------------------------------
-----------------------------------------------------------------------------------------------------------------------------------------------------
-----------------------------------------------------------------------------------------------------------------------------------------------------
---------------o-------------------------------------------------------o---o-----------------------------o---------S---------------------------------
----------%%----------SS--------%%%--------------------------------------------------------------------------S---------------------------------------
-----------|---------------------|-------------------------SS------S----------------SSS--o-------------------S--------------SSS---SSS---------S------
-----------|---------------------|--%%%-----------------%%-----------------------o------%%%----------------------------------------------------------
-----------|------SS----SSS------|---|------SSSS---------S-----------------------|-------|---------------------SSS---------------------SS---S--------
-----------|---------------------|%--|-------------------------------------------|-------|-----------%%-------------%|-------%-----------------------
-----------|----------------%%%%%%%%%%%------------------------------------------||--o---|--------%%%%%%%%%%%%-------||-------|---%%%%---------------
-----------------------------||||||-|||---------------------------------------%%-||%%%%--|---------||||||-|--|--%%%%-|||-----------||----------------
-M----------------o----------||||||-|||----------------------------------------|-||-||---|---------||||||-|--|----|--|||-----------||----------------
XXXXXXXXXXX||----%%----------||||||-|||---------XXXXXXX--------X---------------|-||-||--%%%%-XXXX--||||||-|-%%%%%%%--||||-%%--%%%%%||-----------XXXXX
XXXXXXXXXXX||----%|-----------|||||-|||---------XXXXXXX-----------X------------|-||-||---||-XXXXX--||||||||--||||||||||||-|----||||||-----------XXXXX