-----------------------------------------------------------------------------------------------------------------------------------------------------
-----------------------------------------------------------------------------------------------------------------------------------------------------
-----------------------------------------------------------------------------------------------------------------------------------------------------
-----------------------------------------------------------------o-----------------------------------------------------------------------------------
-----------------------------------------------------------------------------------------------------------------------------------------------------
-----------------------------------------------------------------------------------o-----------------------o---o-------------------------------------
------M------------%%%%-------------oo---------o---o----------------------o-------%%%----------------S-----------------------------------------------
------SS------SSSS--||--------------%%%-------%%%------------S-------SS------------|------SS------SS-------------------SSS----------SSS--------------
---------------|----||---------------|--%%%----|--%%%%%----------------------------|-----------------------------------------------------------------
---------------|----||--SS-----------|---|-----|---|||---SSS----------------SSSS---|S--------SSS------SSS--------S-|---------SS----------------------
--------------||----||---------------|--%%%%%%||---|||---------o-----------------------------------------------------------------------oo---%%%------
---------%%%%-||----||-------|-------|---||||-||---|||--------%%---------------------------o-------------------------------------------------|-------
----------||--||-%%%%%%%-----|%%-----|--%|||||||-%%%||---------|---------------------------%%------------------------------------------------|-------
----------||--|||-|-||-------||------|--||||||||--||||---------|--%%---|------------%%%%%%%|-----o-------------------------------------------|-------
----------||%-|||-|-||-------||----%%%%%%%||||||--||||---------|--||-%%%%%-----------|||||-|-----%----------------------------%%%XXXXXXXX----|X-XXXXX
----------|||-|||-|||||------||-----||||||||||||--||||---------|--||--||-------------|||||||-----------------------------------|||XXXXXXXX---|X-XXXXX