-----------------------------------------------------------------------------------------------------------------------------------------------------
-----------------------------------------------------------------------------------------------------------------------------------------------------
-----------------------------------------------------------------------------------------------------------------------------------------------------
---------------------------------------------------------o-------------------------------------------------------------------------------------------
--------------------------------------------------------%%%----------------%%%-----------------------------------------------------------------------
---------------o---------------------------------o-------|----------------%||--------o---------------------------------------------------------------
--------------%%%%------------------------------%%%------|-----------------||-------%%%%----------------------------------------%%%------------------
-------SSS-----||-oo----------------SS-----o-o---|--SS---|-------------o---||----S---||--------|-S-----------%-------------------||--o---------------
---------------||%%%-----------------------------|-------|------------%%%%-||%%------||-------%%%-----%-%%%--|-----|-------------||------------------
---------------|--|---SSSS----------------------S|-------|--SS--SSS----||--||--------||----%---|-----SS--|---|-o---|-------------||--SS--------------
---------------|--|------------------------------|-------|-------------||--||--------||----|---|---------|---|%%%--|--------%%%%-||------------------
---------------|--||---------%%%%%---------------|-------|-------------||--||--------|-----|---|----%%%%%%%%%|||---|---------||--|||-----------------
----------%%%%||-%%%%----------|-|---------------|-------|-------------||--||--------------|---|-----|||||||-|||---|---------||--|||-----------------
M---------|||-||--||-----------|-|---------------|-------|-%%%---------||--||--------------|---|---r-|||||||-|||---|------%%-||--|||---------------o-
X---------|||-||--||-----------|-|---------------|--%%%--|------------%%%%%%%----------XXX%|--%%%%%%%|||||||-|||---%%%%%--|--||--|||-------%%%%%%--%%
X---------|||-||--||-----------|||---------------|---|---||||----------||-|||----------|XX-|---|||||-|||||||-|||---||-----||-||--||||-------|||------