-----------------------------------------------------------------------------------------------------------------------------------------------------
-----------------------------------------------------------------------------------------------------------------------------------------------------
-----------------------------------------------------------------------------------------------------------------------------------------------------
-----------------------------------------------------------------------------------------------------------------------------------------------------
-----------------------------------------------------------------------------------------------------------------------------------------------------
---------------------|---------------o-----------------------------------o--------------------------SSS-----------------------%%%%-------------------
-----------------%%%%||-------------%%%--------------------------------------------------------o-----------S-------------------||--------------------
-------------o----||||---------------|-----o-----------------S---------SSS-------S-o----------------------S--------------------||-SSS-------SSSSS----
------------%%%%--||||---------------|----%%%---------------------------------%%%------------------------------------------%%%-||--------------------
----SSSSSS---||-|-||||---S-----------|-----|--------------------------------S--|-----SS-----SSSS-------------SSSS----------|---||--------------------
-------------||-|%%|||--------------%%%%%--|----------------------------r------|-------------------------------------------||%-||--------------------
-------------|--|--|-|---------------|||---|----------%%%%%------------%%%%%%%-|---------------------------------------%%%-||--||--------------------
-------------|%%%%%%%%%%%----%-------|||---|-----------|----------------||||||%%%%%-%%%---------------------------------||-||%-||------------o-------
M-------%%%%||-|||||||||-%%%%%%--|---|||---|-----------|----------------|||||||||-|--||--o------------------------------||-||--||------------------o-
X--------||-||-|||||||||-|||||-------|||---XXXXXXXXX---|XXXXXXXXXX------|||||||||-|--|-------------XXXXXXXXX---------%%%||-||--||------------------%%
X--------||-||-|||||||||-|||||-------|||---XXXXXXXXX---|XX-XXXXXX--------||||||||-|--|-------------XX-XXXXXX----------|||||||-|||--------------------