-----------------------------------------------------------------------------------------------------------------------------------------------------
-----------------------------------------------------------------------------------------------------------------------------------------------------
-----------------------------------------------------------------------------------------------------------------------------------------------------
-----------------------------------------------------------------o-----------------------------------------------------------------------------------
----------------------------------------------------------------%%%----------------------o-----------------------------------------------------------
------oo--%%%-%%-------------------------------------------------|-----------------------------------------o---------------o---------------oo--------
------%%%--|--||-------------------------------------------------|------------------o---------------------%%%%%%%-------------------------%%%--------
-------|---|--||----------------------SSSSS----------oo----------o------------------SS-------------o-------||----SSSS----------------------|---------
-----%%%--%%%%||------------------------------------%%%%---------%|-%%%%-------%-----------%%---------%%%--||-------------------------%%%%-|---------
------|----|--||-S----------------SS----------SS-----||----------||--|--------%||------------oo--------|---||-S------------------------||--|---------
------|----|--||-------------------------------------||---%------|---|---------||--------------%-------||--|------%%%-----r------------||--|---------
------|----|--||--------------%%%--------------------||--|-------|---|---------|||-------%%%%%%%%-%%%%%||--|-------|--%%%%%%%%%%%%%%%%-||--|---------
---%%%%%%%%%%%||---------------|-%%%-----------%%%%%%%%%%%%------|--||-%%%%%%--|||------%||||||||--||-|||--|-------|---||-||||||||||%%%%%%%%%%-------
-M--||||--|||-||---%%%%%-------||||-------------||||||||||-----r-||-|||-||||---|||-------|||||||---||-|||--|-------|---||-||||||||||||||||||-|-------
XX%X||||--|||-||---X|||-||-----||||-------------||||||||||---%%%%%%-|||-||||-|-|||-------||||||%%%-||-|||-||-------|--%%%%||||||||||||||||||-|-------
-X-X||||--|||-||----|||-||-----||||-------------|||||||||||||||||||-|||-|-||-|-|||-------||||||||--||-||||||-------|---||--|||||||||||||||||-||------