-----------------------------------------------------------------------------------------------------------------------------------------------------
-----------------------------------------------------------------------------------------------------------------------------------------------------
-----------------------------------------------------------------------------------------------------------------------------------------------------
---------------------------------------------------------------------------------------o-------------------------------------------------------------
--------------------------------------------------------------------------------------%%%------------------------------------------------------------
--------------o-----------------------------------------------%%%----------------------|--%%%--o---------------------o-------------------------------
----------------------------------------------------------%%%--|-----------------------|---|--%%%%---------------------------------------------------
----------SSS----------------SS----------o-------o-----o---|---|-R-------------o-o-----o---|---||----------------------------------------------------
----------------------------------------%%%--o--%%%---%%%--|--------------%%%%%%%--%-%%%%-%%%%-||----------------------------------------------------
---------------SSS-----------------------|--%%---|-----|---|---|---S-|-----|||||-------|---|||-||-SSS------------------------------------------------
------M----------------------------------|---|--||-----|--%|%%%------|-----|||||-------|---|||-|-----------------------------------------------------
------%%%--%%%---------------------------|---|--||-----|---|---------|---r-||-||-------|---|||-|--------------------------------------------%%%%%----
-------|----||-----------%%%%---------%%-%--%%%%%%%%---|---|---------|%%%%-||-||--o--|-|---|||------------%%%%%%%---------------------------||||-----
-------|----||-----%%%%%%%||----------%|||---||-||---r-|-r-|-----o---|||||-||-||--rr-|-|-%---|-------------||||||-------------------------%-|||||--o-
------||----||------||||||||----------||||---||-||---%%%%%%%%%%-%%---|||||-|%%%|%%%%-|||--|--|-------------||||||-------XXXXXXXXXXX--------||||||--X%
------||----||------||||||||----------||||---||-||--||-|||||||---|---|||||-||-||-|||-|||--|--|-------------||||||--------XXXXXXXXX---------||||||--XX