-----------------------------------------------------------------------------------------------------------------------------------------------------
-----------------------------------------------------------------------------------------------------------------------------------------------------
-----------------------------------------------------------------------------------------------------------------------------------------------------
-----------------------------------------------------------------------------o---------------o-------------------------------------------------------
-------------------o----------------------------------------------------%%%-%%%-------------%%%------------------------------------------------------
-------------%%%%-%%%-------------------------------------%%%------------|---|---------------|-----------------------------o--------------%%%--------
--------------||--||------S--------------------------------|----------%--|---|---------------|--------%%%-%%%------------%%%%---------%%%--|---------
--------------||--||----SSSS---------------------------o---|-----------|-|---|---o-----o-o---|-o---o---||--|---------|---||||------o---|---|---------
--------------||--||-------------------------------%%%%%%--|----------%%%|%--|--%-%---%%----%|%%%-%%%--||--|--------%%%--||||----------|---|---------
--------------||--||---------SSS-------------------|||||---|------%%%--|-|---|---|-----|---|||-|---|---||--|---------|-r-||||-%%%%%%%%-|-SS|---o-----
--------------||--||-------------------------------|||||---|---|---||--|-|---|---|-----|---|-|-|---|---|---|-----%%%%%%%%||||%-||---|------|--%%%----
-----%%%%%%%--||--||--------------------%%%%%%%%%%%%%|||---|---%-%-|---|-|---|------%%%|-r-|-||||--|---|---|------||||||-||||--||---|--|-------|-----
------|||||---|||-||---------------------||||||||||||%%%%--|%%%%%%%%%%%%%%%%%-%%%----|-||%%%-||||--|---|---|------||||||-||||--||---|--|-------|-----
-M----|||||---|||--|---------------------||-||||||||||||---|--||||||||||||||-|-||--r-||||-||-||||--|-r-|---o-------||||--|-||--||---|--|-------|---o-
XXXXX-|||||---|||-|XXXXX--------XXXXXXXX-||-||||||||||||-%%%-|||||||||||||||---||-%%-||||-|%|||||-%%%%%%%%%%------%%%%%%%%%%%%%%%%%%%%%|------%%%----
XXXXX-|||||---|||-XXXXXX--------XXXXXX---||-||||||||||||-||-||||||||||||||||---|||||-||||-|-|||||-|||||||||%------||||||||||||||||||||-|-------||----