-----------------------------------------------------------------------------------------------------------------------------------------------------
-----------------------------------------------------------------------------------------------------------------------------------------------------
-----------------------------------------------------------------------------------------------------------------------------------------------------
-----------------------------------------------------------------------------------------------------------------------------------------------------
-----------------------------------------------------------------------------------------------------------------------------------------------------
--------o----------------------------o-------o-----o------------------------------------------------%%%------------------------oo--------------------
------%%%%----------------------------------%%%--------------------------------o---------------------|----------%SS-----o-----%%%----------%%%-------
-------||-------------------SS---------------|---------------------o---|---o-------o---------SSSSS---|-o------------------%%%%-|-----------||-SSS----
--------|------------------------------------|-------------------------|---o%-----------------------%|%-----%%%%%----S-o|--||--|%----------||--------
----------SS---------------------------------|%SS----------S-----------|---%%------------------------||------|||---S-|%|%--||--|-----------||--------
---------------%%%%-------------------------||-|------------------%%%--|---|-------------------------||----|-|||-------|---||--|-----------||--------
----------------||----------------------%%%%||-|------%%%%---------|---|---|---%---------------------||----r-|||-------|---||--||--------||||--------
------%%%%%%%%%%||---%%%%----------------||||%%%%------|-----------|---|-%-|---|--------------------%%%%%%%%%%%%%------|-%-||-%||--------||||--------
-M-----|-||||||-||-%|-||-----------------|||||||-------|-----------|---|---|---|---------------------||-||||||||-r---r-|---||--||--------||||--------
XXXXXXX|-|||||||||-||-||--XXXXXXXXXXXXXX-|||||||-------|---------%%%%%%%%%-|---|-X%%XX---------------|||||||||||%%%-%%%%%--|||-||--%%%%%-||||--------
XXXXX-||--|||||-||-||-||--XXXXXXXXXXXXXX-|||||||-------|----------||||||||||---|-X-||----------------||-||||||||-|---||||--|||-||---|||--||||--------