-----------------------------------------------------------------------------------------------------------------------------------------------------
-----------------------------------------------------------------------------------------------------------------------------------------------------
-----------------------------------------------------------------------------------------------------------------------------------------------------
-------------------------------o---------------------------------------------------------------------------------------------------------------------
------------------------------%%%----------------------------------------------------------------------o---------------------------------------------
-----M-o-----------------------|---o--------------------%%%----------o--------------------%%%o--------%%%--------------------------------------------
-----%%%%----%%%%----------------%%%%----------------%%%%|---oSS---------------------------|--%--------|------------------------------------%%%%%----
------||------||---------o-S------||------------------||||-----------------------------|---|-----------|-------------------SSSS----oo--------||------
------||------||--------%%%-------||------------------||||-----------------------------|---|-----------|----------------------------%%-------||------
------||------||--------||---SSS---|------------------||||------SSSSS----o----SSS------|---|-----------|----------------------------|--------||------
------||--|%--||----%%%-||---------|----------------|--|||-----------------------------|%%%------------|-------------------------------------|%%%%---
------||------||-----|--||-------------------%%%%%--|--|||---------------------------%-|||-------|-----|----------%%%----%%%%%%--------------||||----
------||--%%%-||-----||-||---------------------|||--|-|||%%%---------------------------|||%%%%%%-|-----|------------------||||-%%%%%%%%------||||----
------||---|--||-----||-||---------------------|||--|-|||||---------------------------|||||-|||--|------------------------||||-||||||--------||||----
------||---|--||-----|--||------------XXXXXX-|-|||-%%%%||||---------XXXXXXXXXXX-------|||||-|||--|------------XX---|------|||--||||||------%--|||X%XX
------||---|--||-----||-||------------XXXXXXX|-||||-|||||||---------XXXXXXXXXX---------||||-|||--||-----------XX---||-----|||--||||||---------|||--XX