-----------------------------------------------------------------------------------------------------------------------------------------------------
-----------------------------------------------------------------------------------------------------------------------------------------------------
-----------------------------------------------------------------------------------------------------------------------------------------------------
-----------------------------------------------------------------------------------------------------o---o-------------------------------------------
---------------------------------------------------------%-----------------o------------------------------%------------------------------------------
------------------------------------SS---o-------o-------|---------------------------o--------------SS-----------------------------------------------
--------o--%%%%%%%-------------SS-----------SS--%%%%-----|------------%%%--------------------------------------------------------------o---S---------
---M----o---||-------------------S-------|-S-----|---o---|-------------|----SSS----------------------------------o-----S-------SSS-------S-S---------
---%%%%%%---||--|-%%%--------------------|-------|-------|-------------|------------------------------------------%----------------------------------
-----|--|---||-----|---------------S-----|-----S-|%%--SSSS----------%%-|-SS---------------SSS----------------------SSS-------S-------SS------SS------
-----|--|---||-%%%||---------------------|-------|-|-----------------|-|------------%-%--------------------------------------------------------------
-----|--|---||--|-||---------------%%%%--|---o---|-|-----------%%%%%%|-|-------------|-------------------------|-|-----------------------------------
-----|%%%---||--||||----------------||---|--%%%----|-------------||--|-|--------%%%%%%%--------%%%%%%----------|-%%----------------------------------
-----|-||---|||-||||----------------||---|---|-----|-------------||--|-|---------|||-|----------||||-----------|||---o-------------------------------
-----||||-|-||||%%%|-%%%%-----------||--||---|-----|-------------||--|-|---------||-||----------||||-----------|||---%---------------------------XXXX
------|||||-||||||||-----------------|--||---------|-------------||--|-----------||-||----------||||-----------|||---|-----------X---------------XXXX