-----------------------------------------------------------------------------------------------------------------------------------------------------
-----------------------------------------------------------------------------------------------------------------------------------------------------
-----------------------------------------------------------------------------------------------------------------------------------------------------
-----------------------------------------------------------------------------------------------------------------------------------------------------
---------------------------------------------------------------------------------------------------------------------------------------o-------------
---------------------------------------------------o-----------------------o---------o---o---o----------------------------------------%%%%-----------
----------------------------------------------%%%%%%%---------------------%%%%----------%%%--|-----------------------------------------||------------
------------ooSS--------SSS--------------------||--|-o----SSS--------------||------------|---|--SSS------------------o------------o----||------------
-------%%%%------------------------------oo----||---%%%--------------------||--%%---------%%%%%---------------------%%%----------%%%-%%%%%%%---------
--------||--|----------------------------%%%---|-----|-----------------o---||--|-------%%%-|||-------------------o---|------------|--|-||||----------
--------||--|---%---------------------%%|||----|-----|----------------%%%--||--|---%%------|||-----------------------|------------|-%|-||||-----%----
--------||--|----|-------------%%%%%%%%%|||||--|-----|-----------------|---||--|---|-------|-|-----------------------|------------|--||||||-%%%|-----
------%%%%%%%%%--|--------------||||||||||||||-------|-----------------|---||--||--|-------|-|-----------------------|-----------||%-|%%%%%%%|||-----
-M-----|||--||---|--------------|||||||-||||||-r-----|---------------|-|---||--||--|------%|-|-----------------------||-----%%%%%||--||||||-||-||----
XXXXX---||--||---||XXXXXXXXX-----||||%%%%%%%%%%%%%%%%%%%%-----------%%%%%%-||-||%%%%%------||XXXXXXXXXXXXXXX---------||------|||-||%%%|||||-|||||---%
XXXXX-|-||--||----|XXXXXXXXX-----|||||||||||||||||||||||-----------||||||--||-||||||-------||-|-XXXXX-XXX-XX---------||------|||-||||||||||-|||||----