-----------------------------------------------------------------------------------------------------------------------------------------------------
-----------------------------------------------------------------------------------------------------------------------------------------------------
-----------------------------------------------------------------------------------------------------------------------------------------------------
-----------------------------------------------------------------------------------------------------------------------------------------------------
-----------------------------------------%%%---------------------------------------------------------------------------------------------------------
-----------------------------------------|-----------------------------------------------o-----------------------------------------------------o-----
-----------%-----------------------------||---------------------------------------------%%%%----------------------------------------------%%%%%%%----
-----------|-------So--------------------|-------o--------------------SS-------SSS-------||-SSS----------------------o---------SS----------||--|-----
------%%%%%%%----------------------------|-----------------------------------------------||-------------------------%%%--------------------||%%%-----
-------|--||---------------------S-------|------%%%--------------o-----------------------|-----------------SS--------|---o--SSS-----SSSS---||-|------
-------|--||------%%----------------%%%--|-------|--------o-----%%%----------------------|%%%--------o------------%--||--------------------||-|------
-------|--||-------|%%%%%%%----------|---|-------|---------%%%%--|--------------%%%%%%%%-|-|-o-----------------------||--|------------------|||------
-----%%%%%%%%------||||||||-%--------|---|-------|-----|----||---|---------------||||||--%||-------------------------||--|-------------------||------
---M--||||||-------||-|||||--|-------|---|-------|-----|----||---|-------%%%%%%%-||||||-||||------%%%%%%%%%----------||--|-------------------||------
---%%-||||||-------||-|||||||%%-----%%%%%%%------|----%%%%%%||---|--------|||||--||||||-||||-------|||||||-------|---||--|-------------------||----XX
----|-||||||-------||-||||||-||-----|||--|-------|----|||||-||---|---------||||--||||||-||||-------|||||||-----------||--|-------------------||----X-