-----------------------------------------------------------------------------------------------------------------------------------------------------
-----------------------------------------------------------------------------------------------------------------------------------------------------
-----------------------------------------------------------------------------------------------------------------------------------------------------
-----------------------------------------------------------------------------------------------------------------------------------------------------
-----------------------------------------------------------------------------------------------------------------------------------------------------
------Mooo----------------oo-------------------------------------------------------------------------------------------------------------------------
------%%%%%%%---%%%%------------------------%%%-----------------------%%%-------------------------%%%%----%%%-------------------------------o%-------
-------|||-------||--------S---------S-------|-o-SS--------------------|---------R-----------------||------|---o---------SS-------SSS----------------
-------|||-------||------------S---------%%%%|-------------------------|---------------------------||-----%%%%%%|------------------------------------
-------|||-------|-----SSS---------|-------|||------------SS-----------|----SSS--------------------||------||-|||----SS------SS----------------SS----
-------|||------||%%%%-------------|-------|||oo-----------------------|---------------------------||------||-|||%%%---------------------%%%%%%------
--------||------|||||---------%%---|-----r-|-|-------%%%%%%------%%%%%-|--------------%%%%%%%%-----||-%%%%-||||||||--------%%%%-----------||||-------
----------------|||||%%%%-----||---|--|-%%%%%%%%%%----|||-|%%%%%%%|||--|---------------||||||------||-|-|--%%%%||||---------||------------||||-------
----------------||||||||-------|---|-----|-||||-||----|||-|-|||||-|||--|---------------||||||------||-|-|-|||||||||---------||------------||||-------
--------%%%%%%%%||||||||----%%%%%%%%%%%%%|-||||-||----%%%%%%|||||-|||-||---------------||||||-XX-X%%%%%%%-|||||||||---------||--------XX%%||||-----XX
---------|||||||||||||||------|||-|||||||-|||||-||-----||||-|||||-|||-||---------------||||||-X|-X-||||||-|||||||||----------|-----------|||||-------