-----------------------------------------------------------------------------------------------------------------------------------------------------
-----------------------------------------------------------------------------------------------------------------------------------------------------
-----------------------------------------------------------------------------------------------------------------------------------------------------
---------------------------------------o-------------------------o----oo-----------------------------------------------------------------------------
--------------------------------------%%%-----------------------%o%-%%%%-----------------------------------------------------------------------------
---------------------------------------|---------------------o--%%%--||------------------------------o-----------------------------------------------
---------------------ooo---------------|-------------o----%%%%%--|---||---------------------%%%-----%%%----------------------------------------------
------SS------------------S------------|-----------o|--o---|-|---|---||--------SSS-----------|---o---|---o---------------oo-----SSSSS----------------
--------------------------------------%|%-----%%%%%%%%%o---|-|-o-|---|---o-------------------|--%%%%-|---%------%%%%----%%%%-------------------------
----------SS-----------------------o---|--SS---||--|||-----|--%%-|---|--%%%--------------o---o---||--|---|-------|-|-----||------------SS------------
----------------------------------%-%--|-------||-||||%%%--|---|-|---|---|------------------%%%%-||-%|---|-------|||%----||---%%%--------------------
----------------%%%%%-------------%%%%||-------||-||||-|---|---|-|---|---|----------%%%%%%%--||--||--|---|--%%%%%%||-----||-----%%%%%%%%%%%%%%%------
-----------------||---------------||||||-------||%%%||||---|-%%%%%---|---|--%%%%-----|--||---|||-||--|---|--||||||||-----|-------||||--||--|||-------
-M----------%%%--||---------------|||-||-------||-||||||---|---|||---|---|---||------|--||---|||-||--|---||-||||||||-----|-%%%---||||--||--||||------
XXXXXXXX-----|--%%%%%%---------%%%||||||-------||-||||||---|---||-%%%%%%%%%%-||-----%%%%||---%||||||%%%%%%%%%|||||||%%%%---|-----||||--%%%-|||---XXXX
XXXXXXX------|---||||-----------|-||||||-------||-|||||||--|---||--||||||||--||------||-||---||||||||||||||||||||||||-|----|-||--|||---||--|||---XXXX