-----------------------------------------------------------------------------------------------------------------------------------------------------
-----------------------------------------------------------------------------------------------------------------------------------------------------
-----------------------------------------------------------------------------------------------------------------------------------------------------
-------------------------------------------------------------------o---------------------------------------------------------------------------------
-----------------------------------------------------------------------------------------------------------------------------------------------------
-----------------------------------------------------o%------o----%%%--------------------------------------------------------------------------------
------------------------%%%-----%%%-----------------%%%------%%----|----------------------------------o---------%%%----------------------------------
--------------oo---------|-----S||--------SSS----o---|-------------|----SSS------o-------------o-o---------------||-------SSS------------------------
-------------%%%%------%%%%%%%---|--------------%%%%|||-----------------------------------%%%%%%------%%%%-------||----------------------------------
-------SSS----||--------|||||----|--SSSS---------||-|||----o-----SSSSS---------------------|||-|-------||--------||--S---o-----SS--------------------
--------------||--------|||-|----|---------------||-||-------------------------------------|||---------||---%%%--||-%%%------------------------------
---------------|--------||--|----|-----------%%%-||-||---------|---------------%%%%%%%-%%%%|||---------||---||---||-||-------------------------------
---------------|--------|%%%%----|------------|-%|%%%||--------|----------------|||||-|-||-||||--------||---||---||-||-------------------------------
M--------------|--------|||------|------------|-|||-|||--------|----------------|||||-|-||-|||---------||---||---||-||-----%%%%--------------------o-
X-------------%%%%%%%%%-|||------%----XX-----%%-|||-|||--------|----------XXXXX-|||||-|-||||||------%%-||---|||--||-|||-----|----XXXXXXXXXXXXXXXXXXXX
X--------------||||||||-|||------|-------|----|-|||-||||-------|----------XXX-X-|||||-|-|||||||-------|||---|||--||-|||-----|----XX-XXXXXXXXXXXXXXXXX