-----------------------------------------------------------------------------------------------------------------------------------------------------
-----------------------------------------------------------------------------------------------------------------------------------------------------
-----------------------------------------------------------------------------------------------------------------------------------------------------
-----------------------------------------------------------------------------------------------------------------------------------------------------
--------------------o--------------------------------------------------------------------------------------------------------------------------------
---------------------------------------------------------o----SSS----------------------------------------------------------------------------oo------
--------%%%%----------------------------------------%%%%%%%------------oooo-----------------------------------------------%%%%-%%--------------------
---------||--------o--SSS-----------------SSSS--%%%--|||||-o---o-------------o-------------------------------o---o---------||------------------------
---------|-------%%%%----------------------------|---|||||%%%-%%%------|----------------------------------------%%%-%%%%%--||--|---------------------
---------|--------||---------S----SSSS-----------|---||||-||---|---o---|-----|----------------------------%%%%%%-||--||----||--S-------------|-------
---------|-|%--|--||--%%%------------------------|-%-||||-||---|--%%%|-||-|--|-------------%---------------||||--||--||----||----------------%%------
----%%%-||-o---|--||---||-%%---------------------||--||||-||---|---|---|----||-%%%%%%----%%%%--------%%%%%-||||--||--||----||-------------%%%|-------
-----||%%%%%%%%%%%%%%--||-||---------------------||-%|%%%%%%%%%|---||%%%%%%%%%%-||||---||-||-----|----|||%%%%||-%%%%%|%%%%%%%-------%%%%%%||||-------
XM---||-|||||||||-||---||-||---------------------||-|||||||||||||--||||||||||||-||||---||-|||--%-|--|-|||||||||--|||-|||||-||--------|||||||||-----#-
XX-X-||-|||||||||-||---||-||---------------------||-|||||||||||||--||||||||||||-||||---||-|||----||-|-|||||||||--||--|||||-|---------|||||-|||--XXXXX
-X-X-||||||||||||-||---||-||---------------------||-|||||||||||||--||-|||||||||-||||---||-|||----||-|-|||||||||--||--|||||-|---------|||||-|||--XXXXX