---------------------------------------------------------------------------D------D------------D---------------D------------------D---------------D----
---------------------------------------------------------------------------D------D------------D----------------------------------D---------------D----
---------------------------------------------------------------------------D------D------------D----------------------------------D---------------D----
---------------------------------------------------------------------------D------D------------D--------------------------------------------------D----
---------------------------------------------------------------------------D------D------------D---------------------------------D----------------D----
---------------------------o-----------------------------------------------D------D------------D---------------------------------DD--------------------
--------------------------o-----------o------------------------------------D------D------------D---------------------------------D---------------------
M-------------------------#----DD-----o------------------------------------D------D-------oo-----------------------------------------------------------
XXXXXXXXX---##------o----##---#-##XXX--o---------------------------XXXXXX--D------D--D---oot------XXXXXXXXXXXXX-oD---##-XXXXX----D------------D--------
XXXXXXXXS--###--#--###--#-#-##----XXXXDDDDDDDDSS-D----SSS-------XXXXXXXXX--SSSS---D--DDTXXXtTXXXXXXXXXXXXXXXXXX-##---##-XXXXX----DDDDDDD-D----D--------
----------------#---##-y#--##-------------------------g--D---TT-XtXXXXX----------------tXXXttXXXXX---------------#---#-----------------------DD--------
----------------##---###------------------------SSDDSDDDDDD--tto-t---------------------t---tt--------------------##--------------------------DD--------
-------------#--#----------------------T--------oDDoo-DDDD---ttoot-------t-o-----------t---tt----------------------------------------TT--D---DD--------
---------oo--#--#----------------------t--------oDD----------ttoot-------tooo--o------tt---tt----------------------------------------tt--D----D----#---
---------XXXXXX-X------------------T---t---TTTXXXXXXXXXXXXXXXXXXXXXX---XXXXXXXXXXXX---tt---tt-------------------------------X-XX-TX--tt--XXXXXXXXXXXXXX
--------XXXXXXXXXX-----------------t--tt---ttt-XXXXXXXXXXXXXXXXXXXXXX-XXXXXXXXXXXXXXX-tt---tt-------------------------------XXXX-tX--tt--XXXXXXXXXXXXXX