-------------------D-----------------------------------------------------------------------------------------------------------------------D-----------
-------D-----------D---------------------------------------------D-------------------------------------------------------------------------D-----------
-------------------D---------------------------------------------D-------------------------------------------------------------------------D-----------
-------------------D---------------------------------------------D-------------------------------------------------------------------------D-----------
-------------------D---------------------------------------------D-------------------------------------------------------------------------D-----------
-------------------D------------------------------------X--------D-------------------------------------------------------------------------D-----------
-------------------D---------------------------------------------D------o----------------------------------------------------o-------------------------
M------------------D---------------------------------------------D-----o-o--------------------------------------------------o-o------------------------
XXXXXXXX-----------D-----o-----------------------o---XXXXXXXXXX--D-D-DD-o-oD-----XXXXXXX-----#--------DD---------------------o-o----o--o------TTo------
XXXXXXXXX-SSSSS----D----o-o------------------D-DXXTXXXXXXXXXXX---DDDDDDDDDDDDDDDDXXXXX#--##-##SSSSSSSSSS-------D-----SSS---DDDDDDDDDDDDDDD----to-------
-------------------D---o-o-D-D------------------XXtt------------------------------------y#-------------------------------------------------T-ott-------
------------------DD---DDDDDDD---D----------------tt------------------------------------#------------------------------#-------------------toott-------
----------o-------DD-------DDD----ooD------TT-----tt-------------------TT----------------------------------------#-----#--##---------Tt----toott-------
---------ooo-----ooD--------DD-----o-------tt-----tt-------------------tt---------------------------------------##-----#--#----------tt----tgggt-------
----XXXXXXXXXXXXXXXXXXXXXXXXXXXXXXXXXXXXXX-tt--T--tt-----------TT--TT--tt---TT----------------------XXXXXXXXXXX-XXXXXXXXXXXX--TT-----tt--TTXXXXXXXXXXXX
----XXXXXXXXXXXXXXXXXXXXXXXXXXXXXXXXXXXXXX-tt--t--tt---X-----X-tt--tt--tt---tt---------------------XXXXXXXXXXXX-XXXXXXXXXXXX--tt-----tt---tXXXXXXXXXXXX