-----------------------------------------DD--------------------D--------------------------------------D------DD-------D--------------------------------
-------------D----------------------------D--------------------D--------------------------------------D------DD-------D--------------------------------
-------------D----------------------------D--------------------D--------------------------------------D------DD-------D--------------------------------
-------------D----------------------------D--------------------D--------------------------------------D------DD----------------------------------------
-------------D----------------------------D--------------------D--------------------------------------D------DD---------o------------------------------
-------------D----------------------------D--------------------D--------------------------------------D------DD-------D!-------------------------------
-------------D---------------o----oo------D--------------------D--------------------------o-----------D------DD------------------o---------------------
M------------D---------------o------o--------------------------D-------------------------o-o----------DD-----DD-----------------oo---------------------
XXXXXXXXXX---D--------o---o-Do-D---o-o---------------o----o-o--D--------------D---oo----o-o-o--D-------D----DDD-------XXXXXXXX-o--o--------------------
XXXXXXXXXX---DDDD-D#-##DDDDDDDDDDDDXXXXXXXXXXSSS-DDDDDDDDDDDDDDDDDDDDDD----#--##--######-DDDDDDDDDDDDDDD---Xo-D-XTXXXXXXXXXXXXXXDDDDDD-DDXXX-----#-----
------------------------------------XXXXXXXX--TX-------------------------------#-y##--##---------------D--XX-TTXttt------------------------------------
-----------------------------------------------SS-------------------------------##-----#---------------------ttottt------------------------------------
---------------------------TT-------------------oo-----------------------------------------------------------ttottt------------------------------------
---------------------------tt------------------ooo---------------------------------------------------t--tt---tt-ttt------------------------------t-#---
----------TT----TT-----TT--tt-----------------XXXXXXX-TTT------TT----T-----------------------TT--X-XXXXXXXXXXXXXXXXXXX-----------------------TT--tXXXXX
----------tt--X-tt------t--tt-----------------XXXXXXX-ttt------tt----t-----------------------tt--XXXXXXXXXXXXXXXXXXXXXXX---------------------tt--ttXXXX