-------D--------D---------------------------------------------------------------------D--------------------------------D-------------------------------
-------D--------D---------------------------------------------------------------------D--------------------------------D-------------------------------
-------D--------D---------------------------------------------------------------------D--------------------------------D-------------------------------
-------D--------D---------------------------------------------------------------------D--------------------------------D-------------------------------
-------D--------D---------------------------------------------------------------------D--------------------------------D-------------------------------
-------D------------------------------------------------------------------------------D--------------------------------D-------------------------------
-------D-------------------o----------------------------o----------------------------DD--------o-----------------------D-------------------------------
M------D-------------------o-------------------o-------o------------------------o----DD--o----o-o----------oo----------D-------------------------------
XXXXXX-D--------TT---XXXXXXXXX----------------o-o-o----oo--------oo---o---DD--Do-o---D--o-o--oDoDDD--------ooo---------DD------------------------------
XXXXXX-D--------tt---XXXXXXXXX#--###----------SD-DDDDDDDDD-------#----##-####DDDDDD--DDDDDDDDDDDDDDDDDDD-DDDDDDD---#---DD-----DDDD-------D----TT-------
X------D---o----tt-------------y#-----#---------------------------#-yy##y#----------------------------------------##---#D---gggDDD----o-o#----tt-------
-------DDDDD----tt-------------#-------S---------------------------##---#-----------------------------------------##--##DDDDDDDDD----o#-##--oott-------
----------DD----tt---------------------ooD-------------TT----------------------------o--------TT------------------##--##-------------##-##-toott-------
----------oD-----t---------------------ooD-------------tt----------------------------oD-------tt------------------##--##-------------##-##ot-ott---#---
-------XXXXXXXXXXXXXX------------------ooXXXXX-----TT--tt-------------------------XXXXXX--TT--tt----TT---TT----T--XXX-XXXXXXXXXXXXXX-XX-XXXXXXXXXXXXXXX
--------XXXXXXXXXXXXX-----------------XXXXXXXXX-XX-tt--tt--------------------------XXXXXX-tt--ttt---tt---tt----X--XXX-XXXXXXXXXXXXXX-XX-XXXXXXXXXXXXXXX