---------------------------------------------------------------------------------------------------D---------------------------------------------------
---------------------------------------------------------------------------------------------------D---------------------------------------------------
------------------------------------------------------------------------------------D--------------D---------------------------------------------------
---------------------------------------------------------------------------------------------------D---------------------------------------------------
---------------------------------------------------------------------------------------------------D---------------------------------------------------
---------------------------------------------------------------------------------D-----------------D---------------------------------------------------
----------o---------------------------o------------------------------------------D-----------------D---------------o-----------------------------------
M--------ooo-------------------------o-o------------------------------o----------D---------------------------------------o-----------------------------
XXXXXXXXXX--o-----o-------D-------o-o-o-o------------------TT--------o-o---------D---------ooo------D--------XXXXXXX-o--o--o-o-XXXXXXXXXXXXX-----------
XXXXXXXXXXXDDDDX-XXo-----#D----DDDDDDDDDXXXXXSS----D-------tt-----SSSSD---SSS----D---DDD----##--#---##----------XXXXDDDDDDDDDDXXXXXXXXXXXXXXXX-D-------
--------------XXXXXXTT-----------------XXXXXXX-X---D----TToot--------------------D-----------#--##--DD---------------------------t-XX----------D-------
--------------------tt--------------------------SSSD----ttooo-------------------DD-------##--##------D-------------------------------------------------
--------------------tt-----t--TT---T-------------ooD----ttooo-----oT-------------D-------------------D-----o-----------------------------------oo------
--------------------t------t--tt---t-------------ooD----ttggt-----ot-------------D------------------------ooo----------------------------------oo--#---
---------TT-----TT--XXXXXXXXXXtX---t-------------XoX-XX-XXXXXXXXXXXXXXXXXXXXXXXX-DX---------------------XXXXXXXXXXX---TT---TT------------------XXXXXXXX
---------tt-----tt-XXXXXXXXXXXtt--tt------------XXXXXXXXXXXXXXXXXXXXXXXXXXXXXXXXXXX----------------------XXXXXXXXXXXX-tt---tt--tt------------XX-XXXXXXX