-------------------D-------------D---------D-----------------------------------------------------------------------------------------------------------
-------------------D-------------D---------D-----------------------------------------------------------------------------------------------------------
-------------------D-------------D---------D-----------------------------------------------------------------------------------------------------------
-------------------D-------------D---------D-----------------------------------------------------------------------------------------------------------
-------------------D-----------------------D-----------------------------------------------------------------------------------------------------------
-------------------D-----------------------D-----------------------------------------------------------------------------------------------------------
------o------------D-----------------------D-----------------o----------------------------D------------------------------------------------------------
-----o-------------D-----------------------D----------------o-o--------------------------DD---------------------------o--------------------------------
-----X-------------D--D---D-----XXXXX-o----D-----o---------o-o-o------------------------------------X----------------ooT--X------#-------TTTT----------
----##-##XXXXXXX---DDDDDDDDDDDDXXXXXXX#--##D----XSSS--------SSSS-----------D-------------DDDDDXXXXXXX-#----------TT-XXttXXXXX#---##--#T-oottt--D-------
--My#-----XXXX------------------------#-y#---------------------#----------##------------------XXXXXX--#-##-#-D---ttXXottt-X--#--##---ttooo-tt----------
--##-----------------------------------##----#---------------o------------#D-----D-------------------#---#DDDDD--ttooottt-----#--#---ttoottt-----------
----------------TT---------T---------------t--------o--------oo----------ooD-------------------------------------ttooottt------------ttoottt-----------
----------------tt---------t---------------t-#------oo-------go----------ooD-------------------------------------ttgggttt------------ttggttt-------#---
--------------T-tt----TT---t--------------XXXXXXXXXXXXXXXXXXXXXXXXXXXXXXXXXXXXXXXX---------TT------------XXXXXXXXXXXXXXXX----X---XXX-XXXXXXXXXXXXXXXXXX
-----------------t----tt--tt--------------XXXXXXXXXXXXXXXXXXXXXXXXXXXXXXXXXXXXXXXX---------tt--X---------XXXXXXXXXXXXXXXX--------XXX-XXXXXXXXXXXXXXXXXX