-------------------D---------------------------------------------------------DD---------------------------------------------------D--------------------
-------------------D---------------------------------------------------------D----------------------------------------------------D--------------------
-------------------D---------------------------------------------------------D----------------------------------------------------D--------------------
-------------------D---------------------------------------------------------DD---------------------------------------------------D--------------------
-------------------D----------------------------------------------------------D---------------------------------------------------D--------------------
-------D-----------D----------------------------------------------------------D---------------------------------------------------D-----D--------------
-------D-----------D------------------------------------------------------------------o------------------------------------------DD----DD--------------
-------D-----------D----o------------------------------------------------------------o-o----------------------------------------oD-----DD------o-------
M------D-----------D---o-o---------------------T------o-o----------------------------#o-------------------------D------o-------o-DD----DX-----oD-------
XXXXXXXD--------D--DDDDDDDDDDD---S----o-o------D-----###---####XXXXX---------XXX--#####------t---------D-------o------#-D--XXXXXXXXXXXXXXXDDDDDD-------
XXXXXXXX------------------------------gg-g-DggDtD-o----t#-y##--XXXXXXT-o-TXXX--X-XX---------otto-------D-DD-g-o-o----##-----XXXXXXXXXXXX---------------
-------D------------------------DDDDDDDDDDDDDDDtt-----tt-##---------tt-ottt-D--------------X-ttoo----D-DDDDDDDDDDD---##--------------------------------
-------#--------------TT-----------------------tt-o---tt------------tt--tt------------------ottoo----------------D---##------------------------TT------
-------#--------------tt----------------------Dtt-----tt------------tt--tt-------------------ttgg--D-------------o---##------------------------tt------
-------X---------TT---tt--TT---XXXXXXXXXXXXXXXXXXXXXXXXXX---------XXXXXXXXXXXXXXXXXXXXXXX-XXXXXXXXXXXXXXXXXXXXXXXXXXXXXXX-------------------TT-tt---X-X
-------X---------t----tt--tt---X-XXXXXXXXXXXXXXXXXXXXXXXX--------XXXXXXXXXXXXXXXXXXXX--X-XXXXXXXXXXXXXXXXXXXXXXXXXXXXXX-X-------------------tt-tt---X-X