-------------------------------------------------------------------------------------------------------------------------------------------------------
-------------------------------------------------------------------------------------------------------------------------------------------------------
-------------------------------------------------D-----------------------------------------------------------------------------------------------------
-------------------------------------------------D-----------------------------------------------------------------------------------------------------
-------------------------------------------------D-----------------------------------------------------------------------------------------------------
XXX---------------------------------------------DD-----------------------------------------------------------------------------------------------------
XXXXXX----------------------------oo------------DD-----------------------------------------------o--------------------o---------o----------------------
XXXXXX-----------------------------o------------DD----------------------------------------------o-o------------------o-o-------o-o-----#---------------
----XX-------------------------D-----------------D-----------------D----------o----------------o-o-o---o--------------o-o-----o-o-o---X#-XXXXX---------
------------------------------SS---SSSSSSSSSSSS--D---DD--------SSSSSSSSSSSSS#-##-D##DDDDDDDDDDDDDDDDDDDDDDXX---##---DDDDDDDDDDDDDDDDDDD-XXXXXXX#-------
---------DD-------------------------------------D-D----------------------------------------------------XXXXXXX#--------------------------------X-------
----------------------------------------------DD------------------------------------------------------------##---------------------------------##------
------------------------o--------------------------------------------------------------------------TT--------------------------------------------------
-M----------------------o----------------------------------------------------------------------tt--tt----------------------------------------------#---
XXXXXXXXXXXXXXXXXXXXXXXXXXXXXXXXXXXXXXXXXXXXXXXXXXX---------XXXXXXXXXXXXX-XTT--------------TT--tt--tt---------------TT------T-----tt--------------XXXXX
-XXXXXXXXXXXXXXXXXXXXXXXXXXXXXXXXXXXXXXXXXXXXXXXX-X---------XXXXXXXXXXXXXX-tt--X-----------tt--tt-ttt---------------tt-tt---tt-t--tt--------------XXXXX