-------------------------------------D-----------------D-----------------------D-----------------------D-----------------------------------------------
-------------------------------------D-----------------D-----------------D-----D-----------------------D-----------------------------------------------
-------------------------------------D-----------------D----------------DD-----D-----------------------D-------------------------------#---------------
-------------------------------------D-----------------D-----------------D-----D-----------------------D-----------------------------------------------
-------------------------------------D---------o-------D----------------DD-----D-----------------------D-----------------------------------------------
-XX----------------------------------D--------o--------D----------------DD-----------------------------D-------------------------------!------X--------
-----------------o-----o-------------D-------------o--------------------D------------------------------D-----------------------------------------------
M--------o------oo----o-o------------D-------o----o-o-------------------D---------------------o--------------------------------------------------------
XXXXXXXXXX----D---D--o-o-oo----------D------#-o--o-o-o---------------------------------------o-#-------X---------o---o---------o-XXXXXXXXXXXXXXXXXXX---
XXXXXXXXXXXDDDDDDDDDDDDDD##---###----DDDDDDD-DDDDDDDDDDDDDD---Do--------DDDDDDDDDD--##SSS--DDDDDDDDDDXXXXTXX--######DDD------####XXXXXXXXXXXXXXXXXX----
----------------------------yy#-----------------------------DDD---------------------------------------XXtt---y#------------#-tt------------------------
---------------------------###--------------------------------D-tD---------------#----------------------tt--##--------------#tt------------------------
--------------TT---TT----------------D--------------------------tt--------------##---------------T------tt-------------------tt------------------------
--------------tt---tt----------------o--------------------------tt--------------##--------------tt------tt-------------------tt--------------------#---
--------X-TT--tt---tt---TT----------------T---TT--------TT--XXXXXXXXXXXX----TTX-XX-----TT---T---tt------tt----TT---TT--XXX---tt-------------------XXXXX
-----XX-X-tt--tt---tt---tt-------------X--t---tt--------tt-XXXXXXXXXXXX-XXX--tt-XX-----tt--tt---tt-------t----tt---tt--XX----tt-------------------XXXXX