---------------------------------------------------------------D-------------------------D----------------------------------------------D--------------
---------------------------------------------------------------D-------------------------D----------------------------------------------D--------------
---------------------------------------!-----------------------D-------------------------D----------------------------------------------D--------------
---------------------------------------D-----------------------D-------------------------D--------o-------------------------------------D--------------
---------------------------------------D-----------------------D-------------------------D-------o--------------------------------------D--------------
---------------------------------------D-----------------------D---------------------D---D----------------------------------------------D--------------
-------------oo------------------------D-----------------------D------------o--------D---D------o---------o-----------------------------D-------D------
M--------------------------------------D-----------------------D-----------o-o-----------D-----o----------#------------------------DD--DD------DD------
XXXXXXXXXXXXXXXXXXXXXX-o---------------D--------------o-------o-o---------o-o-o-XXX-----oD-----Xo--------#------------T-------------D---DDD----DD------
XXXXXXXXXXXXXXXXXXXXXXX##--##-##-SSSS--DDDSSSSSDTTTSSSDD-DDDDDDDDD-------DDDDDDDDXXXXX--###DXXXXXTXXX---##-----SSSSSS-D-------------D-----D----DD------
------------------------#-y#--------------------tt--XX--------------o----------------XXX----XXXXXtXXXXT-##TT-------D--D---DDDg-g-g-------DD----DD------
-------------------------##---------------------tD---oo------------------------------------------t---tt--#tt-------SSSD--DDDDDDDDDD------DD----DDD-----
---------------------------------------------#o-tt---ooD-------TT--------------------------------t---tt-oott--------ooD-------------------D------------
-------------------------t----------o--------ooD-t---got-------tt-------------------------------tt---tt-oott--------ooD---------------g----D-------#---
--------------------T---tt---------XXXXXXXXXXXXXXXXXXXXXX--TT--ttXXXXXXX--TT---TT---------------ttXXXXXXXXXXXXXXXXXXXXXXXXXXXXXXXXXXXXXXXXXXXXXXXXXXXXX
-------------------tt---tt---------XXXXXXXXXXXXXXXXXXXXXXX-tt--tt--XXXXXXXtt---tt---------------XtXXXXXXXXXXXXXXXXXXXXXXXXXXXXXXXXXXXXXXXXXXXXXXXXXXXXX