-----------------------D-------D-------------------------------------------------------------------------------------------D---------------------------
-----------------------D-------D-------------------------------------------------------------------------------------------D---------------------------
-------------------------------D-------------------------------------------------------------------------------------------D---------------------------
---------------------o---------D-------------------------------------------------------------------------------------------D---------------------------
---------------------o---------D-------------------------------------------------------------------------------------------D---------------------------
--------------------o----------D-------------------------------------------------------------------------------------------D---------------------------
---o---------------------------D----------o---------------------------------------oo---------------------------------------D---------------------------
--Xo----------XX--X------------D-----------o----o--------------------------------o--o----o-o-------------------------------D---------------------------
M-XoT-----TTXXXXXXXXX---DD-----D---------DoDDD-o-o----#D--X----X-o-----o----XXX-o--D-DD-o-o------XXXXXXXXXXo--oo-----------D-----------DXXXXXXXX-------
XXXXXXXXXXttXXXXXXX-----DDD----D------DDDDDDDDDDDDD--D#D-XXXXXXXXXXX--#XTTXXXXXXDDDDDDDDDDDDDDDSSXXXXXXXXXX#--#-##---####--D-----#---SSSSXXXXXXXXXX----
XXXXXXXXXXtt-------------------DDD------------------------t---XXXXXXXyXXttXXX------------------------------#-y#--#--##-----D--#-###--------------X-----
----------tt-------------------------------------------------------t##--ttt---------------------------------##----###--------##-###--------------------
----------tt--------------------------------TT--------------------------ttt-------------TT-----------------------------------##-###--------------------
----------tt---------t----------------------tt--------------------------tt--------------tt-----------------------------------##-###--------------------
----------tt---------t--TT----TT------TTT---tt--TT----------------------tt------TT---TT-tt-----------------------------------XX-XXXXXX----------------X
-----------t--------tt--tt----tt--XXX-ttt---tt--tt----------------------tt------tt---tt-tt-----------------------------------XX-XXXXXXXX--------------X