---------------------------------------------------D-------------------------------D----------------------------------------------------------D--------
---------------------------------------------------D-------------------------------D----------------------------------------------------------D--------
---------------------------------------------------D-------------------------------D----------------------------------------------------------D--------
-----------------------------o---------------------D-------------------------------D----------------------------------------------------------D--------
----------------------------o----------------------D-------------------------------D----------------------------------------------------------D--------
---------------------------o-----------------------D-------------------------------D----------------------------------------------------------D--------
---------------------------#-----------------------D-----o-----D-------------------D---------------o----------------------------------o-------D--------
M-------------------------##---------------o-------D----o-o----D--------------D----D--------------o-o----o---------------------------oo-------D--------
X----------------------#--#--------o--o---ooo------D---o-o-o---D-----XXXXXXXXDD-D-DDD-----oooooo-o-o-oD-o-o-----------TTT------------o-o--D-D-D--------
XXXX----SSSSSSD-------##--#-------#--###DDDDDDD-DDDDDDDDDDDDDDDDD--SSSSXXXXX-DDDDDDDDDDD---######DDDDDDDDDDDDDDSSS-TTXott-####------oDDDDDDDDDDDDD-----
XXX-TT--------D-------##--#-------##------------------------------------------------------##-----------------------ttoott-------D-D--------------------
----tt------SSD-------##-------#--##-----------------------------------------------------#-------------------------ttoott------------------------------
----tt------ooD-------##-------#--#------------------------------------------TTT---------------------TT------------tt--tt-----------------TT-----------
----ttgg----ooD-#-----#--------#---------------------------------------------ttt---------------------tt------------tt--tt-----------------tt-------#---
----XXXXXXXXXXXXXXXX--X------------------TT----TT-------TT-----TT--------XX---tt--TT---TT--------T---tt--TT----T---tt--tT-------------TT--tt---TT--XXXX
----XXXXXXXXXXXXXXXX--X------------t-----tt----tt-------tt-----tt--X-----XXX--tt--tt---tt-------tt---tt--tt----t--ttt--tt-------------tt--tt---tt--XXXX