-----------------------------D-----------------------------------------------------------------D-------------------------------------------------------
-----------------------------D-----------------------------------------------------------------D-------------------------------------------------------
-----------------------------D-----D-----------------------------------------------------------D-------------------------------------------------------
-----------------------------D-----D-----------------------------------------------------------D-------------------------------------------------------
-----------------------------D-----D-------------------------------------------------------------------------------------------------------------------
-----------------------------D-----D-------------------------------------------------------------------------------------------------------------------
----------------o------------------D-------------------------------------o----------------------------------o--------o---------------------------------
-------D-------o-o-----------------D---D-------------------------D------o----------------------------o-----o-o------o-o----o-----------o-----o-o-------
-------D---D--o-o-o----------------D--D-----------TTT------------D-------o--------------------------o-o---o-o-o----o-o-o--o-o-o-----D-D-DD-D--o-o------
-------D---DDDDDDDDDDDD----DDDDDDDDDDDDDDD---#TTXXtttXXXXXXXX-X-DDDDDDDDDDDDD----------------D---DDSSDDDDDDDDSSSD-DDDDD-D#-DDDDDDDDDDDDDDDDDDDDDDD-----
------DD--------------##----------------------ttootttXXXXXXXX-g--------------D---------------D---------------------------#o----------------------------
---DDDDD--------------##----------------------ttoottt-------DDDDD-------------------------DDDD-----------#---------------##----------------------------
---DoDDD-------TT-----##----------T-----------ttoottt----------------TT----------------------D----------##---------------#-----------------------------
-M-o-oDD-------tt-----##----------tt----------ttDgttt----------------tt--------------------o-D----------##-----o---------#-------------------------#---
XXXXXXXXXX--T--tt---TT--X----TT---tt---TT---XXXXXXXtt------------TT--tt---TT------XX--XXXXXXXXXX-XTT--X-XX--XXXXXXXXX---XXX---TT----------TT---TT-XXXXX
--XXXXXXXXX-Xt-tt---tt--X----tt--ttt---tt--X-XXXXXXtt----------X-tt--tt---tt---X-XXXXX-X-XXXXXXXXXtt--X-XX--XXXXXXXX-XX-XXX-X-tt---ttt----tt---tt--XXXX