-----------------------D---------------------------------------------------------------------------------------------DD--------------------------------
-----------------------D---------------------------------------------------------------------------------------------DD--------------------------------
---------------------------------------------------------------------------------------------------------------------DD--------------------------------
--------------------------------------------------------o-------------------------------------------------------------D--------------------------------
----------------------------------------------------------------------------------------------------------------------D--------------------------------
-------------------------------------------------------o--------------------------------------------------------------D--------------------------------
-----o-------------------------------------------------#------------------o-------------------------------------------D--------------------------------
M----o-D---o-------------------o----------------------#------------------o--------------------------------------------D----o---------------------------
XXXXXXoD--o-oo----------DD--------o-oXXXX-------------#------------------D-----X---------oo------------------TT-------D---D-D---------oTT--------o-----
XXXXXX-DDDDDDDDD----#gg-DDD###DD#####XXXXX-----------#-----DD---SSSS-----D----XXXXXXXXXXXXXXXXXXXXXXXT-------tt--X----DDDDDDDD----XXXXXtt-----o--------
-------------------g-g-g-D--------------------------#-----SS------X#--D#-D-------XXXXXXXXXXXXtXXXXXXXt---TTXott-X--------------XtXXXXXott-----#--#---#-
-----------------DDDDDDDDD------------------SSD----###-------#-----#DSDD-D------------------ttt------tt--ttoott----------------tt--tXXott----##---##---
--------------------------------------------oo-D----#--------##-------DD-D-------------------tt------tt--ttoott-------T----tt--tt--tt-ott----##---#----
--------------------------------------------oo-D--###---o----#o-oo---oDD-D-------------------tt------tt--tt--tt-------t----tt---t---t-gtt---oo#---#----
---------TT---XXXXXXXXXXXXXXX--------------XXXXXXXXXXXXXXXXXXXXXXXXXXXXXXXXX-----------------ttt--XXXXXXXXXXXXX--TT---tt---tt---t---XXXXXXXXXXXXXXXXXXX
-------X-tt--XXX-XXXXXXXXXXXXX-------------XXXXXXXXXXXXXXXXXXXXXXXXXXXXXXXXX-----------------ttt-XXXXXXXXXXXXXt--tt---tt---tt---tt-----XXXXXXXXXXXXXXXX