-------------------------------------------------------------------------------------------------------------------------------------------------------
-------------------------------------------------------------------------------------------------------------------------------------------------------
-----------------------------------------------------------------o-o-----------------------------------------------------------------------------------
------------------------------------------------------------------o------------------------------------------------------------------------------------
-----------------------------------------------------------------o-------------------------------------------------------------------------------------
-----------------------------------------------------------------o-------------D-----------------------------------------------------------------------
-------D--------oD------------------------------------------------------o--------------o-------o------------------o------------------------------------
------oD-------o-------------------------------------------------------o-o------------X-o-----o-----------#------oo------------------------------------
MXXXXXXX--DD--o-o---------------o-TT---#-------------TT----------DD---D-o-o---XXXXXXXXXXXX---o--o-----XXXXX------#-------------------D---------o-------
XXXXXXXXDDDDDDDDDDDDD-----SSSSS-Xott--##--#D--XX-----tt------------DDDDDDDDDDDXXXXXXXX-XXDDDDDDDD###XXXXXXXXXDD-DDD-----------------SS---#--o----------
XXXX-------------------D----------tt--##--XXXXXXXTXoott--X--ggDD--------------------------------------------------------------------------##-----------
---------------------SSD----------tt---#--------ttooott--DDDDDDD----------------------------------------------------------#---------------##-----------
-----------TT---------oD------Tt--tt------------tttoott-------DD---------------------------------------------------------##--------oo-----##-----------
-----------tt--------ooD------tt--tt-------------t-ggtt--------D---------------------------------------------------------#oo-------o------#o-------#---
-------TT--tt--t------oDX-XX--tt--TT---------------XXXXXXXXXXXXXXXXXXXXX---XX---TT---T-----TT---XT-----------TT--t----T--XXXXXXXXXXXXXXXXXXXXXXXXXXXXXX
-------tt--tt--t----XX-XXXXX--tt--tt---------------XXXXXXXXXXXXXXXXXXXXXXXXXt-XXtt---tt----tt--XX------------tt--t----t--XXXXXXXXXXXXXXXXXXXXXXXXXXXXXX