---------------D-------------------D-----D-------------------------------D-----D-----------------------------------------------------------------------
---------------D-------------------D-----D-------------------------------D-----D-----------------------------------------------------------------------
---------------D-------------------D-----D-------------------------------D-----D-----------------------------------------------------------------------
---------------D-------------------D-----D-------------------------------D-----D-----------------------------------------------------------------------
---------------D-------------------D-----D-------------------------------D-----D----------------------------------------------o------------------------
-----------------------------------D-----D-------------------------------D-----D----------------------------------------------#------------------------
-----------------------------------D-------o-----------------------------D-----D-------------oo-------o-------o----------------------------------------
---------------------------oo------D------o-o----------------------------D-----D------------o--o-----o-o----oo-o-------------#-------------------------
M------------------D------DD-D--D-DDD------o-o--o-o--o-------------------D-----D-----------oo-o-o-D-o-o-D--o--o-o-----Tk----------X------o-------------
XXXXX---DDDSSSSSSSDDDDDDDDDDDDDDDDDDDDDDDDDDDDDDDDDDDDtt------------------D----D--------DDDDDDDDDDDDDDDDDDDDDDDDDDDDXXXXX--------XXX--#-##-DDD---------
XXXXXT------------------------------------------------tt---TToD-----------D----D---TT----XXtt----------------------XXXXXXXT-o----------X---#-----------
-----t----------SSS-----------------------------------tt---tto----DDD-----DD---D---tt------tt--------------------------X---to----------#--------------t
-----t-----------oDD----------TT--TT------------------tt---ttoD----oD-----DD---D---tt------tt------T---------TT----TT-----tooo------------------------t
-----t-----------ooD----------tt--tt------------------tt---ttg-----oo-----DD---D---tt------tt------t---------tt----tt-----t-goo--------------------#---
----tt--TTXXXXXXXXXXXXXX---TT-tt--tt-----------TT---XXXXXXXXXXXXXXXXXXXXXXXXXXXXXX-tt------tt------t------T--tt-T--tt--XXXXXXXXXX--TT--X-----------XXXX
----ttX-tt-XXXXXXXXXXXXXXXXXX-tt--tt-----------tt---X-XXXXXXXXXXXXXXXXXXXXXXXXXXXX-tt--X---tt-----tt------t--tt----tt--XXXXXXXXXXX-tt---------------X-X