---------------------------------------------------------------------------------D---------------------------------------------------------------------
---------------------------------------------------------------------------------D---------------------------------------------------------------------
-------------------------------------------------------------------------D-------D---------------------------------------------------------------------
-------------------------------------D-----------------------------------D-------D-------------------------------------------------------------o-------
---------------D---------------------D-----------------------------------D-------D-------------------------------------------------------------o-------
---------------D---------------------D-----------------------------------D-------D------------------------------------------------------------o--------
---------------D------o--------------D-----------------------------------D-------D----------------o-------------------------------------------#--------
---------------D-----o---------------D--------------o-o-o----------------D-------D---------------oo-----------oo-----------------------------##--------
M--------------D-------T-------------D--D------D-D-D-D-DD----------------D-------D--o-o--XXX-----XX---oo---o---oo----------------------------##--------
XXXXTTT-#--D---D---T-ottXXDTXXX------DDDDDDDDDDDDDDDDDDDDDDD---SSSSSSD--DDDDDDDDDDDDDDXXXXXXXXXXXXXX--#---###--#-D---#D----------------DDDD--##-D------
XXXXtt--#---------TToott-XttXXX-----------------------------XT-------------------------XXXXXXXXXXX-----#-y#---#--#--###---g------DgggDD----------------
----tt---##-------ttoott--tt---------------------------------tt-----------------------------------------##--------###-D-DDDDD-DDDDDDDDDD---------------
----tt------------ttoott--tt------------TT-----TT----T--Tt---tt---------TT------TT------------------------------------D------DD--------D---------------
----tt--------D---ttggtt--tt------------tt-----tt----t--tt---tt---------tt------tt-------------------------------------------D----------------------#--
----ttX---XXXXXXXXXXXXXXX-tt---TT---TT--tt---TTtt----t--tt---Tt-XX-XTT--tt---TT-tt------------------------------------XXXXXXXXXXXXXXXX-X---T----TT-XXXX
----ttX---XXXXXXXXXXXXXX--tt---tt---tt--tt---tttt---ttt-tt---tt-XXXXtt--tt---tt-tt------------------------------------XXXXXXXXXXXXXXXXXXX--t----tt-XXXX