-------------------------------D---------D-------------D---------------------------------------------------D-------------------------------------------
-------------------------------D---------D-------------D---------------------------------------------------D-------------------------------------------
---------------------D---------D---------D-------------D-----------------------------------------------------------------------------------------------
---------------------D---------D---------D-------------D-----------------------------------------------------------------------------------------------
---------------------D---------D---------D-------------D-----------------------------------------------------------------------------------------------
---------------------D---------D---------D-------------D---------------------------------------------------D-----------------------------ttt-----------
---------------------D---------D-----------------------D-----------------------o----------------o----------D-------------------------------------------
M--------------o-----D---------D-----------------------D---------DD-----------o-o-------o------o-o---------D-------------------------------------------
XXXXXXXXXXX-XXXXo----o---------D---D----D-----o---oo---D----------------XXXXXo-o-o-----o-o----o-o-o---oo---oD-----XXXX-------------o--XXXXXXXXXXXXXX---
XXXXXXXXXXXXXXXXDDDDDDD-D------DDDDDDSSSSSS--##---###--DDDD-------------XXXXXXDDDDDDDDD-o-o--DDDDDDD-XXTTXXXXXXXXXXXXXSSSXXXXTXXXDDDDDDXXXXXXXXXXXXXX--
---------XXXXXDD---------D-------------------##--##-----------------------------------DD-------------X-ttXXtXXXXXXX----XX----t-------------------------
---------------D--------DDDD-----------------#--##-----------------------------------------------------ttoott----------#-------------------------------
---------------D-------T-D--------------T---##-----------------#---------------------------------------tt--------------------tt--------TT--------------
---------------D------tt---------------tt---##-----------------#---------------------------------------tt--------------------tt--------tt--------------
---------------XXXXXXXXXXXXXX--X---TXXXXXXX-XXX------------TT--X---TT--XXXX---TT---T--TT---TT--X---TXX-XtXX------------X-----tX-----T--tt-----------XXX
---------------XXXXXXXXXXXXXXXXXXX-tX-XXXXXXXXX-------X----tt--X---tt--XXXXX--tt---tt-tt--Xtt-XX-X-XX-XtXX-----------------XXtX--X--t--tt-----------XXX