--------------------------------------------------------------------------------------------------------------------------D----------------------------
--------------------------------------------------------------------------------------------------------------------------D----------------------------
--------------------------------------------------------------------------------------------------------------------------D----------------------------
--------------------------------------------------------------------------------------------------------------------------D----------------------------
---------------------------------------------------------o----------------------------------------------------------------D----------------------------
---------------------------------------------------------o------------------------------!!X-------------------------------D----------------------------
-------------------------------------------o------o-----o-------------------------------------------o---------------o-----D--------------o-----o-------
M-----------------------------------------o-o----o-o----#------------------------------------------o-o-------------o-o----D-------o-o---o-o----oo------
X-------X-------XXTXXXXXX----------------o-o-D-DD-o-D--o-o-D-D-----o---D--oo------XXXXXXXX----------o-o-o-o-o-----o-o-D---D------o-o---o-o-o--oo-o-----
XXXXXXXXX#SD#S-oXXtXXXXXXSSSS--D-----DDDDDDDDDDDDDDDDDDDDDDDDDDDDDDDD-##--XXXXXXXXXXXXXXXXXXXSS---DDDDDDDDDDDDDDDDDDDDDDDDDDDDDDDDDDDDDDDDDDDDDDDDD----
XXXXXXX--------#--ttXXX--------D---------------------------------------#-XXXttXXXXX------------#--D----------------------------------------------------
---------------#--tt--------oo-D-------------T-------------------------#----tt-----------------#SSD----------------------------------------------------
--------------##--tt--------oooD-------------tt------TT------T---------#----tt------------Too---ooD-------------TT-----------------T-------------------
--------------##--tt--------oooD-------------tt------tt---------------------tt-----------ttogo--ooD-------------tt-----------------t-------------------
-----------X--XX-ttt-------XXDoDTT----TT-----tt--T---tt--T-------TT------T--tt--------XXXXXXXXXXXXX--TT----TT---tt---TT--------TT------T---TT---TT-XXXX
-----------XX-XX--tt-------XXX-D-t--X-tt---X-tt--t---tt--t---t---tt---Xt-t--tt--------XXXXXXXXXXXXXX-tt--X-tt---tt----t--------tt--t---t---tt---tt-XXXX