---------------------------------D-----DD------D-------------------------------D-----------------------------------------------------------------------
---------------------------------D-----DD------D-------------------------------D-----------------------------------------------------------------------
---------------------------------D-----DD------D-------------------------------D-----------------------------------------#-----------------------------
-------------------------o-------D------D------D-------------------------------D-----------------------------------------------------------------------
------------------------o--------D------D--------------------------------------D-----------------------------------------------------------------------
-----------------------o---------DD-----D------D-------------------------------D-----------------------------------------------------------------------
-------o---------------#---------D------D------D-------------------------------D--------------------------------o--------------------------------------
------o---------#-----##---------DD-----D------D-----oo--------------------------------------------------------o-o-------------------------------------
M-----Xooo------##----##----------DD----DD-----D----oX------------------------#-----------------------------XXXXXXo----------------D-------------------
XXXXXXXX###--##-##----##-----DD---------DD-----D-SSSXXTTDDDDD#------XXXXXX---##--#----#--------SSSSSSSSSSSSSSXXXXXDDDD##XXXXXX-XX--D-------------------
XXXXXXXX--#--#--##----##---S------------DD---gg----XXXtt----------XTXXXXXX---##--#---##----------D---------------------#--XXXXXX---D----gg-------------
-----------##---##----##----S-D---------DDDDDDDD---o--tt-----------t---------##-#D---##--------SSD-----------------------------D---DDDDDDDD------------
----------------------##----ooD--------------------o--tt-----------t---------##-#D---#D--------ooD-----------------TT----------------------------------
-----------------------#----ooD-------------------t---tt---------------------##-#D---#---------ooD-----o-----------tt------------t-----------------#---
-----------------------X--XXXXXXXXXT--X-XXXXXXXXXXXXX-tt------------------X--XXXXXXXXXXXXXXXXXXXXXXXXXXXX------TT--tt------------t----XXXXXXXXXXXXXXXXX
-----------------------X--XXXXXXXXXt--X-XXXXXXXXXXXXXXtt-------------------XXXXXXXXXXXXXXXXXXXXXXXXXXXXXX------tt--tt------------tt---XXXXXXXXXXXXXXXXX