-------------------------------------------------------------------------------------------------------------------------------------------------------
-------------------------------------------------------------------------------------------------------------------------------------------------------
----------------------------------------------------------------------------------------------------------------------D---D----------------------------
---------------------------------------------o------------------------------------------------------------------------D---D----------------------------
---------------------------------------o----o-------------------------------------------------------------------------D---D----------------------------
--------------------------------------o----o--------------------------------------------------------------------------D---D----------------------------
-------o---------------o---------------------------------------------o----------------------------------------DD------D---D-----------o----------------
M------#--------------o-o------------#----#------------o-------------#-----------------------oo---------------DD------D---D----------o-o-------DD------
XXXX--##--##-----D-----o-o-----TTT--------------------oD---------------D----------o--#-------o-o---o---------DDD-----DD---D---------o-o-o---o--DD------
XXXX--##--##-----D------DDDD----tt--#---###----------XXT-XXX--------##-----------o---#--####DDDDDDDDD--#-----DD-DD----D---D----SSDDDDDDDDDDDDD-DD------
------##--##-----------------T-ot---##yX---XD---D-----XtXXXXX--T-o-tX--D---D-g--###--#-y#--------------#-------------DD---D---g----------------DD------
------##--##------------------ott----##------D-SD------t-------too-t#--DDDDDDDDDD##---##--------------##-#---#------DDDDDDDDDDDD---------------DD------
------##--##----------TT------oot--------------oD-----tt-------ttoot#-----------D#--------------------##-#---#------------D----------TT--------D-------
------##--##----------tt--------t--------------oD-----tt-------ttoot#---------------------------------##----##------------D----------tt--------D---#---
------XX-XXXXXXXXXXX--tt----T-XXXX----------XXXXXXX---tt--------XXXXXXXXXXXXXXXXXXX------------T-------XXXX-XXXXXXXXXXXXXXXXXXXX-XTT-tt--TT--TXXXXXXXXX
------XX-XXXXXXXXXXXX-tt----tt-XX----------XXXXXXXXXX-tt--------XX-XXX-XXXXXXXX-XXX------------t-------XX---XXXXXXXXXXXXXXXXXXXXXXXX-tt--tt--tt-XXXXXXX