-----------D-----------------------D-----------------------------------------------------------D---------------------------------------DD--------------
-----------D-----------------------D-----------------------------------------------------------D---------------------------------------DD--------------
-----------D-----------------------D-----------------------------------------------------------D---------------------------------------DD--------------
-----------D-----------------------D-----------------------------------------------------------D----------------------------------------D--------------
-----------D-----------------------D-----------------------------------------------------------D----------------------------------------D--------------
-----------D-----------------------D-----------------------------------------------------------DD------------------------------D-------DD--------------
M----------------------------------D-----------o-----------------------------------------------DD------------------------------------------------------
X--------------------------o-------D----------o-o-----------------------------------o----------DD------------------------------------------------------
XXXXXXXXXXXXXX-oo---------o-o------D----#----o-o-o---o---#---oo-------o-D-----------o--D-------DD----------o-o-----------T-------------X-------TT------
XXXXXXXXXXXXXXX###---#####-#XDTD---DDDDDDDDDDDDDDDDDDDD-##--##---###--#-#-XXXXXTTXXXX--#-------DD----DDDDDDDSDSDDD-----o-t-------XTXXXXXXXX----D-------
----XXXX---------#-y##--#--XX-t-------------------------------#-y#-#-y#------XXttXXXX--#-----------------------------TToot-------XtXXXXXX--X---D-------
------------------##-------------------------------------------##---##--------Xtt--XX--#-----------------------------ttoot--------t---------SSSD-------
-------------------------------------T--------TT-------------------------------ttt----##--------D--------------------ttoot--------tt---------oDD-------
------------------------------tt-----t--------tt-------------------------------tt-----##--------t-------Dt-----------ttggt-------ttt---------oDD-------
------------------------------tt-----t---TT---tt---TT--------------------XXXXXXXXXXXXXXXXXXXXXXXXXXXXXXXXXXXX--t-----XXXXXXXXXXXXXtt-------XXXXXXXXXXXX
------------------------------tt----tt---tt---tt---tt--------------------XXXXXXXXXXXX-XXXXXXXXXXXXXXXXXXXXXXX--t-----XXXXXXXXXXXXXtt-------XXXXXXXXXXXX