-----------------------------------------------D-------------------------------------------D-----------D-----------------D--------------------------D--
-----------------------------------------------D---------------D---------------------------D-----------D-----------------DD-------------------------D--
-----------------------D-----------------------D---------------D---------------------------D-----------D------------------D-------------------------D--
---o-------o-----------D-----------------------D---------------D----------------------------------------------------------D-------------------------D--
M----------------------D-----------------------D--------------------------------------------------------------------------D-------------------------D--
XXXX-------------------D-----------------------D---------------D----------------------------------------------------------D-------------------------D--
XXX--------------------D-----------------------D--------------------------------------------------------------------------D-------------------------D--
X----------------------D---------o-------------D-------------------------------o---o-o------------------------------------D---D------XXXXXXXX-------D--
----XXXXXXXXXXXX-------D---o----o-o------------D----oXXXXXXXXXXXXXXX------o-----o-o-oXXXXXX----------o----TTXXXXXXXXXXXX--D--DD------XXXXXXXXXXXX---DD-
----XXXXXXXXXXXD---DDDDDDDDDDDDD-o-o------D----DDDDDXXXXXXXXXXXXXXX-SSSSSSSDDDDDDDDDDDDXXXXXXXXXXXXXXXX--##X--XXXXXXXXXX--SSS-D--#------------XXX---D--
---------------------------------DD-----------------t------------------------------------XXXXXXXXXXXXXXXX--t---------------#DDD--#---------------------
----------------------------------------------------------------------------------------------------------------------------SDD--D---------------------
------------------------------------------------------------------o--------------TT-----------------------------------------oDD--D------------------TT-
-----------------------------------------------------------------o---------------tt-----------------------------------------oDD--D------------------tt-
--------X-XX--TT----TT-------TTT---TT---------------------------XXXXXXXX---TT----tt-------------------------------------XXXXXXXXXXXXXXXXXXXXX---TT--t--
--------XXXXX-tt-XX-ttt------ttt---tt--t-----------------------XXXXXXXXXXX-tt----tt-------------------------------------tt-XXXXXXXXXXXXXXXXXXXX-tt-ttX-