-------------------D-------------------D-----------------------------------------------------D---------------------------------------------------------
-------------------D-------------------D-----------------------------------------------------DD--------------------------------------------------------
-------------------D-------------------D-----------------------------------------------------DD----D---------------------------------------------------
-------------------D-------------------D-----D-----------------------------------------------DD----D-------------------------------------------D-------
-------------------D-------------------D-----D------------------------------------------------D----D-------------------------------------------D-------
-------------------D-------------------D-----D------------------------------------------------D----D-------------------------------------------D-------
-------------------D-------o----------oD-----D------------o--------o-----D--------------------D----D-------------------------------------------D-------
--------------o----D------o-o-------oo-o-----DD--o-------o-o------o-o----D--------------------D-----D------------------------------------------D-------
------M------o-D---D----o--o-o---D-oo-o-D----DD-D-D-----o--------o--o----D----o----o----------------DD---------TT----o-----------T-------------D-------
------D-DDDDDDDDD--DDDDDDDDDDDDDDDDDDDDDDDDDDDDDDDDDDDD-DDDDDD--##DDDDDDDD---o----#----#-t----SD----DD---------tt-----#-S#SSSS---tT-----XXX----D-------
----------------------------------------------------------------#-----------DX#--###--##-------o----DDD----TToott--#-##------DToottooot----------------
----------------------------------------------------------------#------------#----##--##------ooD----DD----ttoott---##-------Toootttooto---------------
--------------------------TT-------T--TT------TT---D------------#-----------------##--##------ooD----DD----tto-t-------------tto-tttoot----------------
----------------D---------tt-------tt-tt------tt---t---------##-#----------------------#------o-D----DD----tog-t-------------ttg-tttggtD----------tt---
---------TT--X--XXX--T-TT--t---TT--tt-tt--TT--tXXXXXXXXX-XXX-XX-X--T------------------XXXXXXXXXXXXXXXXXXXXXXXXXXXX--X--XXXXXXXXXXXXXXXXXXXXXX-TT--XX---
---------t---XXXXXXXXX-tX-tt---tt--tt-tt--tt--tX-XXXXXXXXXXt--X-X--t-------------------X-XXXXXXXXXXXXXXXXXXXXXXXXX-XX--XXXXXXXXXXXXXXXXXXXXXX-tt--tX---