--------------------------------DD-----D---------------D---D-------------------------------------------------------------------D-----------------------
--------------------------------DD---------------------D---D-------------------------------------------------------------------D-----------------------
--------------------------------DD----D----------------D---D-------------------------------------------------------------------D-----------------------
---------------------------------D----D----------------D---D-------------------------------------------------------------------D-----------------------
---------------------------------D----D----------------D---D-------------------------------------------------------------------D-----------------------
---------------------------------D----D----------------D-----------------------------------------------------------------------D-----------------------
-----------------------------o---D----D-------------o--D-----------------------------------------------------------------------D-----------------------
M-XX-----o-o----o------o----o-o--D----Do-o---------oo--D-------------------------------------o-----o---------------------------D-----oo----------------
XXXX----D-DDDo---oo---o-o-DD-o-o------DDD-o--D------#o-D------D----------------o------------o-o---o-o----#------------TT----D--D----o-oo----oTT--------
-XXXDDDDDDDDDDDDDDDDDDDDDDDDDDDDDDDDDDDDDDDDDDDD----DD-DD----##-##---TXXXXXXXXXXX-##--##---###D-DDDDDDD--D--XXX-#----ott----DD-DDDDDDDDDD--X-tt--------
-------------------------------------------------------------##-#----t-XXXXXXXXX--##-X#---#--------------#---XX---TTX-tt------------------T-ott--------
-------------------------------------------------------------##-#----t--------------#---##------------------------tToott--------------------ott--------
-------TT-----TT---------TT------------TT--------------------##-#----t---------------------------------------------toott-----TT-----TT------ott--------
-------tt-----tt-------#-tt------------tt--------------------##-#----t---------------------------------------------tggtt-----tt-----tt------gtt----#---
----TT-tt--TT-tt---TT--X--t-------TT---tt------------TT--T---XX-XXXXXt-------------------------T---TT--TT-------X-XXXXXXXXXX-tt--TT-tt---T---tXXXXXXXX-
--X-tt-tt--tt-tt---tt--t--tt---t--ttt--tt-------t----tt--t---XX-XXXXXXX----------------------X-t--ttt--tt-------XXXXXXXXXXXXXtX--tt-tt---tt--tXXXXXXXXX