---------------------------------------------------------------------------------------------------------------------------D-----------D---------------
---------------------------------------------------------------------------------------------------------------------------D-----------D---------------
---------------------------------------------------------------------------------------------------------------------------D-----------D---------------
---------------------------------------------------------------------------------------------------------------------------D-----------D---------------
---------------------------------------------------------------------------------------D-----------------------------------D-----------D---------------
---------------------------------------------------------------------------------------D-----------------------------------D-----------D---------------
M-------o------------------------------oo--------------------------------#-------------D------------o----------------------D----------D-------o--------
X------o-o-----------------------------o-o-----------------------D---o---#-------------D-----------oo--------------------o-D----------DD-----o---------
XXXXXXXXo-o----------T----------------o-o-o----------------------D--o-o--#-------------DD------------D--------o--o-o----o--D-----------D---------------
XXXXXXXXDDDDDDDDDDDD-tt----DDDDD--DDDDDDDDDDDD-------D---#-------DDDDDD-##----SS---D---DD-------DDDDDDDDDDDDDDDDDDDDDDDDDDDDDDDDDDDDDD-DD----DD--------
-------------------Xott--------------------------#---D----#---g---------##---------D---DD--g-g-DD------------------------------------------------------
--------------------ott--------------------------#-SSD---##DDDDD--------##------DSSD---DDDDDDDDDD------------------------------------------------------
---------------------tt---------TT--------------#---DD---#--------------##-------ooD------------DT--------------------TT-------------------------------
---------------------tt---------tt-------------##---oD---#-----------------------ooD-------------tt----t--------------tt-------------tt----------------
------------TT--TT---tt----TTT--tt----TT--TX-XXXXXXXXXXXXXXXXXXX-TT--------------ooXXXXXXXXXXXX--tt---TT---TTT--TT----tt---TT--TT---TTt----TT--TT---X--
------------tt--tt---tt----ttt--tt----tt--tt-XXXXXXXXXXXXXXXXXXX-tt---------------XXXXXXXXXXXXXXXtt---tt---tt---ttt---tt---tt--tt---ttt----tt--tt---X-X