---------------------------------------------------------------------------------------D------------------------------------------D--------------------
---------------------------------------------------------------------------------------D------------------------------------------D--------------------
---------------------------------------------------------------------------------------D------------------------------------------D--------------------
---------------------------------------------------------------------------------------D------------------------------------------D--------------------
---------------------------------------------------------------------------------------D------------------------------------------D--------------------
---------------------------------------------------------------------------------------D------------------------------------------D--------------------
---------------------------------------------------------------o-------oo--------------D------------------------------------------D--------------------
--------------------------------------------------------------o-o-----o-oo-------------D-----------------#------------------------D--------------------
--#---------------------------------------------------oo-----D-o-o-D-o-DD-DD-D-------T-D----------------#D------------------------D-----------o--------
XXX--------------------SSSSSSDDDDD-----o-t------------#---####SDDDDDDDDDDDDDDDDD-------D--------------#-##-------SSSSDD--DDD---D-DD-SSS---D--SSSS------
--X#---gg-g-g--X-XX-T-o--------------TToott-----TTT---##-##-------------------------o--D----D-ggD-----#----------t----------D--D-D----S---D-----D------
--DDDDDDDDDDDDDD---t--o--------------ttoott----Tttt#---##-----------------------------DDDDDDDDDDD----------------t-----------DDDDD-----SSSD------------
--------------------t-oo-------------tt-ott----ttotD-------------------------T-------ttD-------DD--------------o-t----------------------oDD---o--------
---M--------------##--ggt------------tt-ttt----ttDtt------------------------tt-------tt---------D--------------oot---D------------------ooD--gD----#---
---XXXXXXXXXXXXXXXXXXXXXXXXXX-TT----TXX-XXXXXXXXXXXXX-X-----------------TTT--t---T---XXXXXXXXXXXXXXX-------XXXXXXXXXXXXX-XXX--XXXXXXXXXXXXXXXXXXXXXXXXX
----XXXXXXXXXXXX-XXXXXXXXXXXXXtt----ttX-XXXXXXXXXXXXX-XX--------------X-ttt--tt-tt--XXXXXXXXXXXXXXXXXX--XX-XXXXXXXXXXXXXXXt---XXXXXXXXXXXXXXXXXXXXXXXXX