-------------------------------------------------D---D-------------------------------------------------D-----------------------------------------------
-------------------------------------------------D---D-------------------------------------------------D-----------------------------------------------
-------------------------------------------------D---D-------------------------------------------------D-----------------------------------------------
-------------------------------------------------D---D-------------------------------------------------D-----------------------------------------------
-------------------------------------------------D---D-----------------o-------------------------------D-----------------------------------------------
-------------------------------------------------D---D-----------------o-------------------------------D-------------------------------!--!------------
------o----------------------------------------------D-----o----------o-o------------------------------D-----------------------------------------------
-M---o-o-----o--------------------------------------------o------Do------------------------------------D-------------------D---------------------------
-XXXX-o-o---X-------TTT-----------------XXXXX--------XXXXXXDD----D-DD----------D-----o-o---------------DD-----------------DD------D-------XX-----------
-XXXXDDDDDDDXDSSSSXXXtt--------D---#XXXXXXXXXXXXXXXXXXXXXXXDDDDDDDDDDD--XXXXXXXX----##-----##D-----TT--DD---------------DDDD------D----XXXXXDDDDD------
----------------TTXo-tt-------DD-----XXXX---XXXXXXXXXXXX-----------------XXXXXXX--#--#-y#---DD-----tt---D-----D-g-g-gg-----D------D-g-g-D--D-----------
----------------ttooott-------DD-----------------------------------------------DDDDDD-###-DDDD-----tt---D-DDDDDDDDDDDDDD---DD----DDDDDDDDD-------------
----------------ttooott-------DD--------------------------------TT------------------------DoDD-----tt----------------------DD--------------------------
----------------ttogttt------oDD--------------------------------tt------------------------ooDD-----tt----------------------DD--o-------------------#---
-----------TT---tXXXXXXXXXXXXXXX----------------------------TT--tt---TT----------XXXXXXXXXXXXXXXXXXXXXXXXXXXXXXXXXXXXXXXXXXXXXXXXXXXXXXXXX----TT--XXXXX
-----------t----ttXXXXXXXXXXXXXX--t-------------------------t---tt---tt----------XXXXXXXXXXXXXXXXXXXXXXXXXXXXXXXXXXXXXXXXXXXXXXXXXXXXXXXXXXX--tt--XXX-X