-------D-------------------D-----------DD------------------D-----------D--------------------------------------------------D----------------------------
-------D-------------------D-----------DD------------------D-----------D--------------------------------------------------D----------------------------
-------D-------------------D-------------------------------D-----------D--------------------------------------------------D----------------------------
-------D-------------------D-------------------------------D-----------D--------------------------------------------------D----------------------------
-------D---------------------------------------------------D-----------D--------------------------------------------------D----------------------------
-------D------XXttttt----------------t-!tt-----------------------------D-----------------------------o----------------t!--D----------------------------
-----------------------------------------t-----------------------------D---------------o------------o---------------------D----o-----------------------
M-------------------------------------------------------------D--------D--------------o-o-------------------o-------------D-----o--------------D-------
XXXXXXXX------TXXXXXXXX--------XXXXXXXXXX-XX--o--------D------D--------D---------------o-------XXXXXXXX----o-o------------D----o-o----o------XXD-------
XXXXXXXX-----XXXXXXXXXXX#XXXXXXXXXXXXXXXXXXXX--#-------D------D------o-tt---SS----------------XXXXXXXXX---o-o-##--SSSSSX-DDSS-o---#--###--##DXXX-------
---------T-o------------#XXXXXX---------------##---D--D-D-g-g-D----TToott--------D-------T-----------------o---#-XXXX-X------------##-##-y#----D-------
---------SSSD---------------------------------##--SDDDDDDDDDDDD----ttoott-----DSSD-------DDDD-------------D------------------------##---##-------------
----------ooD---------------------------------##--DD----------D----ttoott-------ooD------D-------------------------------------------------------------
----------ooD-#-------------------------------#D--oD---------------ttggt--------oDD----------------------------------------------------------------#---
------XXXXXXXXXX------------------------------XXXXXXXXXXXXXXXXXXXXXXXXXXXXXXXXXXXXXXXXXXXXXXXXXXXXXXXXXXXXXXXXXXX---------T------------------------XXXX
------XXXXXXXXXX-----------------------------XXXXXXXXXXXXXXXXXXXXXXXXXXXXXXXXXXXXXXXXXXXXXXXXXXXXXXXXXXXXXXXXXX-X--------tt---X--------------------XXXX