-------D-----------------------------------------------------------------------------------------------------------------------------------------------
-------D-----------------------------------------------------------------------------------------------------------------------------------------------
-------D------------------------------------------------------------------------------------------------------------------------------D----------------
-------D-----------------------------------D-------------------------------------------------------o---------------------------------------------------
-------D------------------------------------------------------------------------------------------o----------------------------------------------------
--------------------------------------------------------------------------------------------------#-----------------------------------D----------------
-------o-----------------------------------------o-----------------------------------------------#------------------------------------D----------------
------o-o---------------------------------------o-o----------o--------------o-------------------##---------------------oo-------------D----------------
-MX--o-o-oo-o-o--------D-----------------D-XX--o-o----------o-o------------X-ooo-oo-------------##XXXXXXXXXXX---------o-oo-----------DD----------------
-XXDDDDDDDDDDDDDDSSSSSSS----------------DXXXXXXDDDDDD--DDDDDDDDDDD---o----oXD##D-###-X#XXXX---X-t#XXXXXXXXXXX----DDDDDDDDDDD--------DDD----------------
------------------------------#----D-Dg---------------------------TTo--D---------#---Xt-XXXXTXXtt--------------------------------DDD-D-----DD----------
---------------------o-------#----DDDDD----------------------------t-oSDD-------#-----------t-ott------------------------------DDDDDDD---SSSD----------
--------------------oo-----------#----------------Tt--------------tt-ooD--------------------toott---------------------TT-------D---DDD----ooD----------
-------------------o-o----------##----------------tt-------------ott--oD--------------------togtt---------------------tt------oD----DD----ooD------#---
---------TTT--XXXXXXXXXXXXXXXXX-XXXXXXX--TT---TT--tt---TT-------TXXXXXXXX---TT--------------XXXXXX---------------TTT--tt---XXXXXXXXXXXXXXXXXXXXXXXXXXXX
---------ttt--XX-XXXXXXXXXXX-XX-XX-XXX-X-tt---tt--tt---tt--tt---tt-XXXXXXXX-tt--------------XXXXXX-------------X-ttt--tt----X-XXXXXXXXXXXXXXXXXXXXXXXXX