--------------------------------------------------------------------------------------------------D----------------------------------------------------
--------------------------------------------------------------------------------------------------D----------------------------------------------------
-------!-------------------------#----------------------------------------------------------------D----------------------------------------------------
-----------------D----------------#---------------------------------------------------------------D----------------------------------------------------
-----------------D--------------------------------------------------------------------------------D----------------------------------------------------
-----------------D-------------tttt---------------------------------------------------------------D----------------------------------------------------
----------------DD---------------------------------------------------------------------o----------D-------------------------------o--------------------
----------------DD----------------------oo---------------------------------------o----o-o--------DD------------------------------o-o-------------------
----------------DD-----o---------XX-----oo-----S-----o-------XTTXXXXXXXX---o-----#o--o-o-o-Do----DD--------D------TT------------o-o-o-------ooo--------
M-----------D---DD-----#TTXXXXXXXXXXXXXXXXt-##SSSS###-#-##--XXttTXXXXXXXXXXX---#-###D-DDDDDDDDDD-DD--------DD-XXXXXX-----------DDDDDDDDXXXXXXXXT-------
XXXXXXXX--------D-----g-ttXXXXXXXXXXXXXXXX-----------#-o--XTXXttt-XXX-----t---##--#---------------D--------D-XXXXttX-------------------XXXXXXXtt-------
XXXXXXX-------SDD---DDD-tt--------------Xot-----#---##oD---t-ottt-----------##--------------------D--------DDD---tt-----DDDD-------------------t-------
--------------oDD-------tt---------------o---------DD#o----t-ottt--------------------T--TT-------DD--------------tt--DD------------------------t-------
----------D---oDD-------tt---------------oo---------D#-----t-gttt-----------------------tt-------DD--------------t---DD------------------------t----#--
-------XXXXXXXXXXXXXXXX-tt--------------XXXXXXXXXXXXXXXXXXXXXXttt------------T-------T--tt---TT---XXXXXXXX-XXX-XXXXXXXXXXXXXXXX-XX--TT----------XXXXXX-
------XXXXXXXXXXXXXXXXXXtt--------------XXXXXXXXXXXXXXXXXXXXXX-tt------------t-------tt-tt---tt--XX-XXXXXXXXX-XXXXXXXXXXXXXXXXXXXtt-tt---------XX--XXXX