-------------------------------D-----------------D---------------------------------------D-----D-------------------------------------------------------
-------------------------------D-----------------D---------------------------------------D-----D-------------------------------------------------------
-------------------------------D-----------------D---------------------------------------D-----D-------------------------------------------------------
-------------------------------D-----------------D---------------------------------------D-----D-------------------------------------------------------
-------------------------------D-----------------D---------------------------------------D-----D-------------------------------------------------------
-------------------------------DD------D---------D--------------------------------------DD-----D-------------------------------------------------------
-------------------------------DD------D---------D-----------------o---------------------D-----D------------------------o-------o--------------o-------
M------------------------------DD------o---o-----D----------------o-o--------------------------D-----------------------o-o-------o------o-----o-o------
XXXXXXXXX--oo-----------------XXX-----o-DDD-DD---D-----D---o-D-D-o-o-o-------------D---D-------DD------------------X--o-o-oo-o-o--o----o-o---o-o-o-----
XXXXXXXXXXXX#--XD#XXXXXXXXXXXXXXXDDDDDDDDDDDDDD--D-----DDDDDDDDDDDDDDDDDDD-----SSSSSD--DDDDDD--DD---T-XXXXXXXXXXXXXXDDDDDDDDDDDDDDDDDDDDDDDDDDDDDDD----
-----XXXXX--X--X-XXXXXXXXXXXXXXX-----------------D-----D------------------S--------D----------------tXXXXXXXXXXXXX-------------------------------------
-------------#---------------------------------------SSD------------------#------------------------tt--------------------------------------------------
-------------tt----------------------------T----------oD-------TT-----T----o------------TT------Do-tt--------------------T--------------------TT-------
-------------t----------------------------tt---o-------D-------tt-----tt---oDD----------tt------D--tt-------------------tt--------------------tt---#---
--------------X-------------TT--TT----TT--Tt--XXXXXXXXXXX--TT--tt--TT-tt-XXXXXXXXXXXXTX-tt---TT-XXXXXXXX-------------TT-tt---TT----T---TT-----tt---XXXX
----------------------------tt--tt----tt--tt--XXXXXXXXXXXX-tt--tt--tt-tt----XXXXXXXXXXX-tt---tt-XXXXXXXXXX-----------tt-tt---tt----tt--tt-----tt---XXXX