----------------D----D-----D----------------------------------------------------------------------------------------------D----------------------------
-----------D----D----D-----D----------------------------------------------------------------------------------------------D----------------------------
-----------D----D----D-----D-------------------------------------------------------------------------------D--------------D----------------------------
-----------D----D----D-----D-------------------------------------------------------------------------------D--------------D----------------------------
-----------D----DD---D-----D-------------------------------------------------------------------------------D--------------D----------------------------
-----------D----DD---D-----D-------------------------------------------------------------------------------D-------------------------------------------
-----------D-----D---D-----D----o-------o--------------------o-D-------------------------------------------D----------------------------------o--------
-----------D-----D---D-----D---o-o-----o-o------------------o--D---------------------------------------D---D--------------------------o------o-o-------
M---D------D-----D---D-----D--D-o-o---o-o-o---o--oo-----o---D-D-------o----------------D-------TT------D---D-----o-o------------XXX-XX-TXXXXXXXX-------
XXXXX------DDDD-DDDDDDDDDDDDDDDDDDDDDDDDDDDDD##---##DDDDDDDDDDDDDDD---#D##D-DD------SS-DDSSSS--tt------DD--DDDD--To-------------XXXXXXttXXXXXXXX-------
XXXXX---D----------------------------------------#-------------------y#----------------DD---TT-tt------D-------XXt-------g----------XXtt---------------
----DDDDD---------------------------------------#-------------------##-----------------DD---tSoott-----DD-------#---DDDDDDDD----------tt---------------
---------------T----------T---TT------------------------------------#--------DD--------DD---tto-tt-----DD------------D-----D----------tt---------------
---------------t----------t---tt----------------------t------------tt--------tt--------DD---ttg-tt-----DD-----------------------------tt-----------#---
-----XX--tTT---tt----T----TT--tt---TT-------T---------t---TT---TT--tt----TTXXXXXXXXXXXXXXX--XXXXXXXXXXXXXXX--T-------XXXXXXXXXXX------tt----------XXXXX
------XX-ttt---tt----tt---tt--tt---tt--X--------------t---tt---tt--tt----tt-XXXXXXXXXXXXXXXXXXXXXXXXXXXXXXXX---------XXXXXXXXXXX------tt----------XXXXX