---------------------------------------------------------------D-----------------------D---------------------------------------D-------------DD--------
---------------------------------------------------------------D-----------------------D---------------------------------------D-------------DD--------
---------------------------------------------------------------D-------!---------------D---------------------------------------D--------------D--------
---------------------------------------------------------------D---------------D-------D---------------------------------------D--------------D--------
---------------------------------------------------------------D---------------D-------D---------------------------------------D--------------D--------
---------------------------------------------------------------D-------!-------D-------D------------------tto---------------------------------D--------
-------------------------------o------------------oo--------o--D-------o-------D------DD-------------------o----------------------------------D--------
M------o----o-o--------o-----o--o-o-----------------o------o-o-D------o--------D------DD---------o--------o-------------o---------------------D--------
XXXXXXo-o--o-oD-D-----##----o-oo-o-o--XXXXXX-------D-DDDD-o-o-oX-X---XXo-------D-------D--D-----o-o--o-o-o-D-D---------o-o---ooo-------------DD--------
XXXXXXXDDDDDDDDDDDD---##--DDDDDDDDDDDDXXXXXX---DDDDDDDDDDDDDDDDDXXXXXXXTXXDDDDDD-------DDDDDDDDDDDDDDDDDDDDDDDDDDDDDDDDDD#---###--#####SSSSSSSDD-------
X---------------------##------------------------------------------XXXXtt-------D-----------------------------------------#--y#-#-y#--------------------
----------------------##----------------------------------------------tt-------D-------------------------------------------##---##----SS-------S-------
------------------T#--##--------TT-----------------------T------------tt-------D-------TT--------------T---TT--------TT---------------ooD-------o------
------------------t#--##--------tt-----------------------t------------ttt--------------tt--------------t---tt--------tt---------------ooD---o--ooo-o---
---------XT---TT--XX--XX-X-X----tt---------------TT---TT-t---t--------ttt----TTXXXXXX--tt---T--T----TT-t---tt----TT--tt---T-----------o-XXXXXXXXXXXXXXX
------XX-tt---tt--XX--XX-XXX----tt---------------tt---tt-t---tt-------ttt----tt-XXXXXX-tt---t--t--X-tt-t---tt--X-tt--tt---t----------X-XXXXXXXXXXXXXXXX