-----------------------------------------------D-------D------------------------------------------------------------D----------------------------------
-----------------------------------------------D-------D------------------------------------------------------------D----------------------------------
-------------D---------------------------------D-------D------------------------------------------------------------D----------------------------------
-------------D---------------------------------D-------D------------------------------------------------------------D----------------o-----------------
-------------D---------------------------------D-------D------------------------------------------------------------D-----------o---o------------------
-------------D---------------------------------D-------D------------------------------------------------------------D----------o-----------------------
--------D----D---------------------------------D-------D----------------------------------------------------------------------o-----#------------------
M------oD----D---------------------------------D-------D-----------------------------------------------------------DD---------o----##------------------
XXXXXXX-D---D----oo---o--------o---------------D-------D------------TT----X-XXXXXXXXX-XD---------------------------DD-------DDDD---ooo------XXXX-------
XXXXXXX-DDDD-DDD-##---#-------o-o------o-------D------SSSSSSS--oSSSo-tXXXXXX#XXXXX##-X###---------------SS-----SSSSSS--------------###--#####XXXX------
XXX---------------#-y##--#--DD-o-------#-o-----D-D-g----S----T--tTXoott-XX-----------y-------------TTo---#----------T----------------#-y#------X-------
-------------------##--##---DDDD--##--##--DDDDDDDDDDD-------tSS-ttt--tt-------------##------D------tt-o----DDDDD-----SSSD-------------##---------------
----------------------------------##--##----------D----o----too-ttt--tt---------------------------ott-oo------D-------ooD--------------------------#---
--------------tt------------------##--##----------D-----o---toggtt---tt--------------------oo-----Dtttgoo------o------oDD--------t-----------------#---
---------TTT--tt-------------TT-XXXXX-XXXXXXXXXXXXXXXXXXXXXXXXXXXXXX-tt--------------------XXXXXXXXXXXXXXXXXXXXXXXXXXXXXXXXXXTX--t-------------XX-XXXXX
---------ttt--tt-------------tt--XXXXXXXXXXXXXXXXXXXXXXXXXXXXXXXXXXXXtt---------------------XXXXXXXXXXXXXXXXXXXXXXXXXXXXXXXXXXX--tt------------XXXXXXXX