-------------------------------------------------------------------------------------------------------------------------------------------------------
-------------------------------------------------------------------------------------------------------------------------------------------------------
-------------------------------------------------------------------------------------------------------------------------------------------------------
-------------------------------------------------------------------------------------------------------------------------------------------------------
-------------------D---------------------------------------o-------------------------------------------------------------------------------------------
-------------------D---------------------------------------o-------------------------------------------------------------------------------------------
M-------o--------DDD--------------------------------------o--------------------------------------------------------------------------------------------
XX-----o-o---------D----o------o-------------------------D-D---------------D--------o------------------------------------------------------------------
XXXXXXXXo-o------------o------o-o--------------------------D---DXXXX-------D----D--o-o--ooo---ooo--------------------TTXXXXXXXXXXXXXXXXXXXXXXXXXX------
XXXXXXXDDDDDDDDDDDDDDDDDDDDDXXXXDSSSSSSSSSSSSS-------------D---------T-----D----DDDDDDDD##---###-###---D-------SSSSS-ttXXXXXXXXXXXXXXXXXXXXXXXXX-------
----------------------------XXX----------------------#---gDD---------t-----D-------------#-yy#-#--#D--X#--D------D---tt-----------XXXXXXX--------------
---------------------------------------------S------##--DDDD---------tt----D--------------###----------DSSD------S---tt--------------------------------
---------------------T-----------------oo-----------##-----D---------tt---oD----------------------------ooD------D---tt--------------------------------
---------------------tt--------tt------og-----o--#####-----D---------tt---oD----------------------------ooD------D---tt----------------------------#---
--------TT------TT---t---------tt---TT-XXXXXXXXXXXXXXXXXXXXXXXXXXXXXXXXXXXXXXXXXXXXX--tt--------------XXXXXXXXXXXXXXXXX-------------------------XXXXXXX
-----t--tt------tt---t---------tt---tt-XXXXXXXXXXXXXXXXXXXXXXXXXXXXXXXXXXXXXXXXXXXXt--tt---------------XXXXXXXXXXXXXXXX------------------------XX--XXXX