------------------------------------------------DD---------------D-------------D-----------------------------------------------------------------------
-------------------------------------------------D---------------D-------------D-----------------------------------------------------------------------
-------------------------------------------------D-----------------------------D-----------------------------------------------------------------------
-------------------------------------------------D-----------------------------D---------------------------------------------------D-------------------
-------------------------------------------------D-----------------------------D---------------------------------------------------D-------------------
------------------------------------------------DD---------D-------------------D---------------------------------------------------D-------------------
M----------o-----------------------o-------------D---------D-------------------D---------------------------------------------o-----D-------------------
X----------oo---------------------oo-------------D---------D--o----------------D-------o-------------------------------------oo----D-------------------
XXXXXXXX--XXo--o--#---##---------o-o-------------D---------D-o-o----XXXXX------D-------Xo-XXXXX-Xoo------o------T----------D-o-o---DXXXXXXXXXXXXXX-----
XXXXXXXXttXX--##--##--##---SSSSSDDDDDD----------DDDXX---#SSDDDDDDDXXXXXX-SSSS--D---XXXXXttXXXXXXXXTTXXX-XXX----tt---------DDDDDDDDDDDXXXXXXXXXXttXX----
--------tt----##--##--##-------------------------------------------XX----T-ooo-DD--XXXXXtt----XXXXttXXXXXX-TTTott------------------------------tt------
--------tt----##--##--#--------------------------------------------------tt-ooSDD-------tt--------ttt------tttott------------------------------tt------
--------tt----##--#-----------------TT-------------------------T---------tt-oooDD-----------------ttt------tttoot------------------------------tt------
--------tt----##--#-----------------tt-------------------------t---------tt---oD--------t---------ttt------tttggt------------------------------tt------
------XXXXXX--X#--XX---X--------TT--tt--XXXXXXXXXXXXXXXXX-TT---TT-----XXXXXXXXXXXXXXXXX-----------ttt--XXXXXXXXXXXXXXXXXX--TT------------------tt-XXXXX
-----XXXXXXX--XX--XX---X-----XX-tt--tt--XXXXXXXXXXXXXXXXXXtX---tt----XX-XXXXXXXXXXXXXXX-t----------tt--XXXXXXXXXXXXXXXXXXX-tt------------------tt--XXXX