---------------D-----D-------------------------D----------------------------------D----------------D---------------------------------------------------
---------------D-----D-------------------------D----------------------------------D----------------D---------------------------------------------------
---------------!-----D-------------------------D-------D--------------------------D----------------D-----------------------------------!---------------
---------------------D-------------------------D-------D-------------------------DD----------------D---------------------------------------------------
---------------------D-------D-----------------D-------D-------------------------D-----------------D---------------------------------------------------
---------------!-----D-------D-----------------D-------D-------------------------D-----------------D-----------------------------D-----!---------------
---------------------D-------D--------o--------D-------D-------------------------D------o----------D---------------------------------------------------
M----------------------------D-------o-o-------D-------D-------------------------D-----oo----------D-------------------------------------------o-------
XXXXXXXXXXXXXXXXXXX----------D-----oD-o-o---o--D-------DD------oo------D---------DDDXXXXX----------D---oo---------------------------oo--------o-o------
XXXXXXXXXXXXXXXXXX#---##--------DDDDDDDDDDDDDDDD--------D------##---####-------------DXXXX-----------XXXXtXXXXXXX--o----SSS-#-D--XXXX#--XD##--##D------
------------------#---##-----------------------D--------D---Dt--##-y#-------------------------------TXXXttXXXXXX--g-gDgg---o--DDXXXXXtt-#--#-y#--------
------------------#---##---D-------------------D--------D-D-------##-------------------------------tt---tt-----DDDDDDDDDD--SSSDDDt---tt#----##---------
------TT-------#--##--##-oDD------------TT---------------------------------------------------------tt---tt-------------------DDD-t---tt---------T------
------tt------##--##--#--ooD------------tt--------o--------------------t---------------------------tt---tt-------------------oD--tt--tt--------tt------
------tt------XX--XXXXXXXXXXXX-TT----TT-tt---TTXXXXXXXXXXXX--TT--T-----t--XXXXXXXXXXXXXXXTXXXXX-XX-tt---tt------XXXXXXXXXXXXXXXX-tt--tt--------tt------
------tt-------X-XXXXXXXXXXXXXXtt----tt-tt---tt-XXXXXXXXXXXX-tt--t-----t--XXXXXXXXXXXXXXXt---XX-XXXtt---tt----X-XXXXXXXXXXXXXXXXXtt--tt--------tt------