-------D-------D-----------------D------------------------------------------------------------------------------------D---D----------------------------
---------------D-----------------D------------------------------------------------------------------------------------D--------------------------------
---------------D-----------------D-------------!----------------------------------------------------------------------D---D----------------------------
---------------D-----------------D------------------------------------------------------------------------------------D---D----------------------------
---------------------------------D-------------!----------------------------------------------------------------------D--------------------------------
-------------------------D-------D-------------!------------------------------------------------X--!------------------D--------------------------------
-------------------------D-------D----------o--------------o---------------------------------------------------------DD------------------------o-------
M------------------------D-------D-----D---o--------------o-o--------------------------------------------o------------D-----------------------o-o------
XXXXXX------------T------D-------D-----D--oXXXXXXXXooo--#--o-oo-----------------------T------------XX---X-o----------DD--------o---#D--X-X---o-o-o-----
--XX--###---XXXXXXt------D-------D-----DDDDDXXXXXXXX##-y#DDDDDDDDDDDDXXXX------------tt--------SSDDXXXXXDSSSSS---DDD-DDDDD##---#########-XDDDDDDDDDD---
-----y#------XXXXXt-----DD-------DD----D-----------X##-y#------------------------TToottt--------gDD------------------------##-y#---##------------------
----##------------t-----DD------DDDDDD-D----------#---##----------------------D--ttoottD----DDDDDDD-------------------------###------------------------
-----------------------oDD-----oDD-----D----------------TT-----------------------ttoottt-----------------------o---------------------------------------
-----------------------oDD----Do-------D----------------tt-------------g------o--ttggttt-----------------------o---------------------------------------
------------------XXXXXXXXXXXXXXXXXXXXXD----------------tt----TT---X-XXXXXXXXXXXXXXXXXXXXXXXXXXXXXXXXX-XTX-XXXXXXXX---TT----------------------o-TTXXXXX
------------------XXXXXXXXXXXXXXXXXXXX-X----------------tt----tt---------XXXXXXXXXXXXXXXXXXXXXXXXXXXXXXtt--XXXXXXXX-XXtt---------------------tt-ttt-XXX