-------D---------------------------------------------------#-------------------------------------------------------------------------------------------
-------D-----------------------------------------------------------------------------------------------------------------------------------------------
-------D-----------------------o---------------------------!-------------------------------------------------------------------------------------------
-------D----------------------o------------------------------------------------------------------------------------------------------------------------
-------D--------------------------------o----D---------------------------------------------------------------------------------------------------------
-------D---------------------o---------o-----D---------------------------------------------------------------------------------------------------------
-------D--------------------o----------#-----D-------------------------------------------------------------o-------------------------------------------
M--------------------o----------------#------D------------------------------------------------------------o-o------------------------------------------
XXXXXX----------------D------oDDD----o---o---#----------XXD-XXXXXXXX--ooT----------XXXXXXXXXXXXXXXXX-----o-o-D-----------------------------------------
XXXXXXXXXXXXXXXXSSSSSSSSSSDDDDDSS-----#--#---#------SSSSXXTTXXXXXXXXXXXtSS-----XXXXXXXXXXXXXXXXXXXXXDDDDDDDDDDD-DDDDDD---o------------------t----------
-----XXXXXXXXXXXX-------S-------------##-#---#----------X-tt--------T-ot----ttXXXXX---------------------------------------o----------------ott---------
--------------------------S--------SSS--#----------tt-----tt--------toott--ott------------------------------------------t-------DSSDD----ooot----------
--------------------------ooo-------oo-------------tt-ot--tt--------toott-oott-----------------------------------------tt---------oDD---tooot----------
-------------------oo-----ooDo------oo--------t----tt-gt-gtt-------ttggt---oDt-----------------------------------------tt---------ooD---ttggt------#---
-------------------XXXXXXXXXXXXXXXXXXo--------XXXXXXXXXXXXXXXXXXXXXXXXXXXXXXXXX--TT--------------------------------TXXXXXXXXXXXXXXXXXXXXXXXXXXXXXXXXXXX
------------------XXXXXXXXXXXXXXXXXXXXXX------tXXXXXXXXXXXXXXXXXXXXXXXXXXXXXXXXX-tt--------------------XX----X--XX-tX-XXXXXXXXXXXXXXXXXXXXXXXXX-X-XXXXX