--------DD------------------------------------------------------------------------------------------------------------D--------DD----------------------
--------D--------------------------------------------D------------------------------D--------------------------------DD--------DD----------------------
--------DD-------------------------------------------D------------------------------D--------------------------------DD--------DD-----D----------------
--------DD-------------------------------------------D------------------------------D--------------------------------DD--------DD-----D----------------
--------DD-----------------------------------------o-D------------------------------D--------------------------------DD--------DD-----o---------D------
--------DD------------------------------------------DD-----------------o------------DD--------------------------------D--------DD-----D---------D------
--------DD----DD-------------------------------------D------------------------------DD------------------o-------------D---------D-----D---------D------
M-------D------o------o-------Do----------------------------------------------------DD-----------------o-o----o-------D---------D----#D---------D------
XXXXXX--D-----o-o------o------o-o--------o-----XXXXXXXXXXXX----o-o-o-o-D-D-----------D--------------D-o-DDDDDD-D------D-----D---D----DD----D---DD------
XXXXXXX-DDDDDDDDDDDDDDDDDDD--DDDDDD---#--#TTXXXXXXXXXXXXXXX###SSSDDDDDDDDDDDD--------D---------S---DDDDDDDDDDDDDDD----------D---DDDDDDDDDDDDDD-DDD-----
X-------------------------------------#-XXttXXXXXX----------------------------------DDD---g-g------D------------------------D--------------------------
---------------------------------------#--tt-------------------------------------DDDDDDDDDDDDD--SSSD-------------------D-DDDD--------------------------
--------------------TT--------------------tt-----------------------T----------#-D------------D---ooD---T---TT-----------o-DDD--------------TT----------
--------------------tt--------------------tt-----------------------t---------##-o------------D---ooD---t----t--------o--D--D---------------tt------#---
----------------TT--tt--TT---TT-XT----TT--tt-----------------------TT----TT--XXXXXXXXXXXXXXXXXXXXXXXXX-X---tt--TT-XXXXXXXXXXXXXXXXXX---TT--tt--TT--XXXX
----------------tt--tt--tt---tt-Xt----tt--tt-----------------------tt----tt--XXXXXXXXXXXXXXXXXXXXXXXXX-tt--tt--tt--XXXXXXXXXXXXXXXXX-X-tt--tt--tt--XXXX