---------------D-----------------------------------D-----------------------------------------------D---------------------------------------------------
---------------D-----------------------------------D-----------------------------------------------D---------------------------------------------------
---------------D-----------------------------------D-----------------------------------------------D------------------------------------------!--------
---------------D-----------------------------------D-----------------------------------------------D-----------------------------------------o-D-------
---------------D-----------------------------------D-----------------------------------------------D-------------------------------------------D-------
---------------D-----------------------------------D----------------------------------X---------tt-D----------------------------------------D--D-------
--X------------D-----------------------------------D-----------------------------------------------D------------o---------------------------D--D-------
XXXX--D--------D----------------o--------------o---D-----------------------------------------------------o-----o-o----------------------o---D----------
---------------D----o--D-------o-oo-oTT-------XD---D---D---------oooo---------o--XXXXXXXXXXXXXXXXXXXXXX-o-o----Xo-o---o------------------o--D--D-------
---------------D---DD-DD--o-o-SDSSSXDttXXXXXXXXD---DDDDDD-----D-#####XTTXXXXXXXT-XXXXXXXXXXXDXXXXXXXXXXXXXXTX-XDDDDDDD#-#--------TT--##-#-DDDDXD-------
---------------D-D-D-D-D-D-D-o-D----XttXXXXXXX---------------#-------XttXXXXXXtt----------------------tt-X--t--------#--##--#---Xtt--##----------------
-------------DDDDD-----DDDDDDD-D-toottt----------------------#--------tt------tt-----------------------t----------------#--------tt---#----------------
------TT----DD------------------ttoottt----------------------#--------tt------tt-----------------------t-------T-----------------tt--------------------
---M--tt-----D------------------tt-g-tt---------------------##--------tt------tt----------------------tt-------t-----------------t-----------------#---
---XX-XX-XXXXXXXXXXXXXXXXXXXXXXXXXX-ttt--------T------Tt--X-XX--------ttt-----ttt---------------------tt---TT--t-------------------------T-----TX-XXXXX
--XXXXXX-XXXXXXXXXXXXXXXXXXXXXXXXX-Xttt--------t--X---tt--X-XX--------tt-------tt---------------------tt---tt--tt------------------------t------X-XXXXX