-------------------------------------------------------------------------------------------------------------------------------DD----------------------
-------------------------------------------------------------------------------------------------------------------------------DD----------------------
-------------------------------------------------------------------------------------------------------------------------------DD----------------------
-------------------------------------------------------------------------------------------------------------------------------DD----------------------
-------------------------------------------------------------------------------------------------------------------------------DD----------------------
-------------------------------------------------------o-----------------------------------------------------------------------DD----------------------
----------------------------------------------------------------------o-----------------------------------o----------o---------DD---------------o------
-M-------------------------------------------------------------o--------------o-------------o-----------DDD---------o----------DD---------------oo-----
-XX----------------------------o-oo---o------------------------#X-XXXXXX-----o-o-----X-X---o-o----------------o----oo-------D--DD--------------o-------
-XXXXXXXXXXXX--SSSSS--#-##SS--##-##---#-####-----------------#####XXXXXXDDDDDDDDD#DXXXXXXXXXXDD--------------DDD---#DDDXXXXXXX--D-------------oDD------
--X-XXXtXXXXX--------y#--------#--#--y#--#-------------------#-----------------------XXXXXXXXt-------------------##----XXXXXXX-------------------------
-------t------------##---------#---###-----------------------#---------------------------------------------------#-------------DDDDD-------------------
-------t-----------------------#--##---------------------------------------TT----------------------------T---TT--------------------D----------oo-------
------------------------------##--#----------------------------------------tt----------------------------t---tt----------------------D--------oo---#---
-----------XXXXXXXXXX----TT---XX-XXX-----------------------------------TT--tt---TT-----------T---XXXXXXX-t---tt---------------XXXXXXXXXXXXXXXXXXXXXXXXX
-----------XXXXXXXXXXX-X-tt--XXX-XXX-----------------------------------tt--tt---tt-----------tt-XXXXXXXXXtt--tt------------------XXXXXXXXXXXXXXXXXXXXXX