---------------------------------------------------------------D-------------------------------------------------------D-----------------------D-------
---------------------------------------------------------------D-------------------------------------------------------D-----------------------D-------
---------------------------------------------------------------D-------------------------------------------------------D-----------------------D-------
---------------------------------------------------------------D-------------------------------------------------------D-----------------------D-------
---------------------------------------------------------------D-------------------------------------------------------D-----------------------D-------
---------------------------------------------------------------D------o------------------------------------------------D-----------------------D-------
---------------------------------------------------------------D--------------o---------------oo-----------------------D------o----------------D-------
M----------------------------------------------------------------------------o---------------oo-o-----------------------------o------------------------
XXXXX--D---------T-----oo---oo--oo------o-oooo----oooo---o---XXXXXXXXX------o-o-------o-----o--o-o---------------o-o---D-------o----oTT----------------
XXXXSSSSS----T-o-tXXXX###--####-#---########DD##-#####--###XTTXXXXXXXX-----DDDDDD----o--DDDDDDDDDDDDDDDD------#######SS#--##S---S--XXtt--------T-------
------------TTXottXXXX--#-y##---##-y##---------#-#------#---tt-------D---------------Dg-----------------D--------------#---#---#-TTXXttXXXX---tt-------
------------ttoott-------##-------##------------#-----##-------------D---------------DDDD-----------------D------------#---#---#-ttoott--X----tt-------
------------tttott-------------------------------------------------o-D-----o-------------------------------------------#--##---#-ttoottt------tt-------
------------tttgtt------------------------------------------tt-----o-------o-------------------------------------------#--##--##-ttg--tt------#t---#---
----XXXXXXXXXXXXXt-------------------------------------XXXXXXXXXXXXXXXXXXXXX--TT---TTX-X--T----TT---T--T-XXXXXX--------XX-XXXXXXXXXXX-tt------XXXXXXXXX
---XXXXXXXXXXXXXtt-------------------------------------XXXXXXXXXXXXXXXXXXXXXX-tt---tt--XX-t----tt---t--t--XXXX---------XXXXXX-XXXXXXX-tt------XXXXXXXXX