-----------------------------------------------------------------------------------------------D-------------------------------------------------------
-------------------------------------------------------------------------------------------------------------------------------------------------------
-------------------------------------------------------------------------------------------------------------------------------------------------------
-------------------------------------------------------------------------------------------------------------------------------------------------------
------------------D------------------------------------------o-----------------------------------------------------------------------------------------
------------------D-----------------------------------------o-------------D----------------------------------------------------------------------------
-------o----------D------------------------------------------D-----o------D------------#---------o-----------------------------------------------------
M-----ooo-#D------D-----o-----------------o------------------D----o-o-----D------------#-----o--o-o------------------------------------------o---------
XXXXXXXX---#------D----o-o----DD---------o-------------------DD-D-DDDD---DD----o------o#--oDo-Do-DDD------------o--D-o-o---oo---------------o----------
XXXXXXXXX---DDDDDDDDDDDDDDDDDDDD---D--DDDDD------------------DDDDDDDDDDDDDDDT-oX-D##--#DD#DDDDDDDDDDDDDDDD---DDDDDDDDDDDD-###XXXXXXXXXXX---o-----------
--X----------------------------D-----------TT-o-D----DD---------------------t-##-o-#-y#------------------D-------------------XXXXXXXXXXXX--#-----------
-------------------------------D----------tt-oooDD---DD---------------------t-------#--------------------D-----------------------------X---#-----------
------------------------------DD-------T-ott--ooDD---DD---------TT--------Ttt-------------------TT-------D-------TT------------------------#-------#---
-------------------------------D-------#ggtt--goDD--oDD---------tt--------ttt-------------------tt-------o-------tt---------t--------------##------#---
--------------------TT--TT---XTXX---T--XXXXXXXXXXXXXXXXXXXXX-TT--t---TT---ttt---------------TT--tt---TT-XXX---TT-tt---TT----T-------------XXXXXXXXXXXXX
--------------------tt--tt---XXXXXX-XX-XXXXXXXXXXXXXXXXXXXXX-tt--tt--tt--tttt----------------t--tt---tt-XXXXX-XX-tt---ttt--ttt------------XXXXXXXXXXXXX