----------------------------D--------------------------------------------------------------------------------------------------------------------------
----------------------------D--------------------------------------------------------------------------------------------------------------------------
---------------------------DD--------------------------------------------------------------------------------------------------------------------------
----------------------------D--------------------------------------------------------------------------------------------------------------------------
-------------------------------------------------------------------------------------------------------------------------------------------------------
---------------------------D---------------------------------------------------------------------------------------------------------------------------
---------------------------D---------------o---------------------------o-------------------------------DD--------------------------------------o-------
M--------------------------D--------------o-o-------------------------o-o---------D---------------------D------------------------o-----o-oo---o-o------
XXXXXXX------------TTT-----D---D-------D-DDD-o---D--------------o-D--o-o-o------o--S--D-----TTTX-------DD------------------D-----o-o--o-oDDD-o-o-o-----
XXXXXX-SSSSSSSS-----tt-----DDDDDDDDDDDDDDDDDDDDDDDDDDDDD--##--#DDDDDDDDDDDDDDD-X-TTXo--S----XttXX--S---DD-D----------------D-----DDDDDDDDDDDDDDDDDD----
----------------TToott---TT---------------------------------------------------XXtttXo---TTXXott---------D-------------TTSoDD---------------------------
----------------ttoott---tt-----------------------------------------------------tttoo---tttoott------SS-D-------------ttoo-----------------------------
--------oo------ttoott---tt---TT--------TT------T----------------------T--------tttoot---ttoott-------oDD-------------ttoo-------------TT--------------
--------ooo-----ttggtt---tt---tt--------tt------t----------------------t--------tt-ggt---ttggtt-------oDD-------------tog--------------tt----------#---
------XXXXXXXXXXXXXXXXXXXXXXXXtt---T--T--t---T--t---TT-----------TT----tT-------ttXXXXXXXXXXXXtX----XXoXXXXXXXX-TT---XXXXXXXXXXT---T---tt----------XXXX
------XXXXXXXXXXXXXXXXXXXXXXX-tt---ttttttt--tt--t---tt-----------tt--X-tt-------tt--XXXXXXXXX-tX----XXXXXXXXXXXXtt--XXXXXXXXXXXX--ttt--tt----------XXXX