------------------------D--------------------------------------D-----------------------------D---------------------------------------------------------
------------------------D--------------------------------------D-----------------------------D---------------------------------------------------------
----------------------#-D--------------------------------------D-----------------------------D------------------------!--------------------------------
------------------------D--------------------------------------D-----------------------------D---------------------------------------------------------
------------------------D--------------------------------D-----D-----------------------------DD--------------------------------------------------------
------------------------D--------------------------------D-----D-----------------------------D----------------------t-!--------------------------------
------------------------D---------------------o----------D-----------------------------------DD---------------o----------#-----------------------------
M-----------------------D------------o-------o-----------D-----------------o-----------------D--------------------------##-----------------------------
XXXX---------XXXXXXX----DD-----D-------o----XXTT---------D-------S--------o-oo----D----------DD---------------XXXXXXXXX-##-------o-----------o--o------
XXXX----------XXXXXXXXXXXX-----D-------DD--TXott---------D----#T-##----#DDDDDDDSSSSSSSSSSSSSSSDDDSSSSSSSDXXTXXXXXXXXXX--###--#--##----------#--y#D-----
-------#------------XXXXXX-----g-ggggg----Ttoott-----#-----X--X#------D------------------------D--------XXXtXXXXXX---#-y##---#--#----##------#-y#------
------##-------------------DDDDDDDDDDDD---ttoott-----#-----#--X#---DDD-----------------------SSD--------TXtt----------#y#-------------#t------##-------
------##----------------------------------ttoott-o--##----o#--##-------------TT------oo-------oD-------tt-tt--------------------------#t-----------#---
------##----------------------------------ttggtt-o--##----o#--##-------------ot------oo--g----ooD------tt--t---------------------------tt----------#---
------XX-X---------------XXXXXXXXXXXXXXXXXXXXXXXXXXXXXXXXXXX--XXXXXXXX--TT--XXXXXXXXXXXXXXXXXXXXXXXXXX-tt--t--------------------------XtX----------XXXX
------XX-X---------------XXXXXXXXXXXXXXXXXXXXXXXXXXXXXXXXXXXX-XXXXXXXXXttt--XXXXXXXXXXXXXXXXXXXXXXXXXX-tt--t--------------------------XtX----------XXXX