------------------------DD-----------------------------------------------------------------------------D---------D-------------------------------------
-------------------------D-----------------------------------------------------------------------------D----------D------------------------------------
------------------------DD-----------------------D-----------------------------------------------------D------D----------------------------------------
-----------------------o-D-----------------------D-----------------------------------------------------D------D---D------------------------------------
----------------------o----------------D---------D-----------------------------------------------------D------D---D------------------------------------
---------------------------------------D---------D-----------------------------------------------------D------D---D------------------------------------
------------o--------#-----------------D---------D-------------------------------D---------------------D------D---D------------------------------------
M----------o-o-------#-----------------D--------------------------#---o----------D---------------------D------D---D----------------------------D-------
XXXXXX----o-o-o------#-----------------D-----------------------T--#----o-----DD--D--------TT-----------D------D---D------------------------------------
XXXXXXXDDDDDDDDDD------o--------D------D--------SSSSSSSSSSDD---#--##--DDSSS--DD--D----XTTXtt-----------DDDDDDDDDDDD-----------#--------------DDD-------
----------------------##------------D--DD------XD-------------tt--#----------DD-DD-----ttoot---g-ggDgD-DD----------------o---##-----D-ggDggD-----------
----------------------##-------------D-DD-----D-D-------------tt-------------DD--D-----ttoottDDDDDDDDDDDD------------SS-to---##--DDDDDDDDDDD-----------
-----T------------##--##----------------D----#--#------D--oD--tt-------------DD--DD----tt--t-----------DD----TT-------oott---##------------------------
-----t---------o--##--##---o-----------------##-#-----o---o---tt-----------o-----DD----tt--t-----------D-----tt-------ootto--##------------------------
-----t---TT---XXXXXXX-XXXXXXXX--TT------XXXXXXXXXXXXXXXXXXXXXXXXXXXXX----XXXXXXXXXX----tt--XXXXXXXXXXXXXXTT--tt--TTXXXXXXXXXXXXXXXXXXXXXXXXXX--TT--XX--
-----t---tt---XXXXXXXXXXXXXXXXX-tt------XXXXXXX-XXXXXXXXXXXXXXXXXXX-X--XXXXXXXXXXXXXX--tt--t---XXXXXXXXXXXX--tt--tt-XXXXXXXXXXXXXXXXXXXXXXXXXX-tt--XX-X