---------D------------------------------DD---------------------------------------------------------------------------------------------D---------------
---------D-------------------------------D---------------------------------------------------------------------------------------------D---------------
---------D-------------------------------D---------------------------------------------------------------------------------------------D---------------
---------D-------------------------------D---------------------------------------------------------------------------o-----------------D---------------
---------D-------------------------------D----------o---------------------------------------------o-----------------o------------------D---------------
---------D-------------------------------D---------o---------------------------------------------o-----------------------------------------------------
--------oD-------------------------------D-----------------------o-------------------------------------------------------------------------------------
M------oo-------o------------------------D--------##--#---------o----o--------o--------------------------------------------------oo--------------------
XXXXXXXX----#--------------------oooo----D-----o--##-------XXX-o--o-o-o-D-D--o-o------To---------------------------#------------o--o-------------------
XXXXXXXX---##------------DD---#--#####-##D--X-X#--##--#-#-XXXXXDDDDDDDDDDDDDDDDDD---TToott---------------#-----#---#-tt-------DDDDDDDD-----------------
X----------##------------DD---#--#---###-XXXXXX#--##-------------------------------TttXottX---------T----#--------TXott----------------TT--------------
-----------##---------o-SDD----##-----#--------#--##-------------------------------ttDoott----ot----t--###--------t-ott----------------t---------------
-------#---##--------o-o-DD--------------------#--##---------------TT--T-------T---ttDoot----oot----tt-#----------t-ott-------o--------t---------------
-------#---##-------o-oooDD-----------------------##---------------tt--t-------#---ttDggt----oot---#t-#--#--------t-gtt----------------t---------------
-------X---XXXXXXXXXXXXXXXXXX-X-TT-------------X--XXX----------TT--tt--t---TT--Xt-XXXXXXXXXXXXXXXXXXXXXXXXXXXXXXXXXXXXXXXXXXXXXXX--TT-XXXXXXXX----T--X-
-------X---XXX-XXXXXXXXXXXXXX-X-t--------------X--XXX----------tt--tt--t---tt--tt-XXXXXXXXXXXXXXXXXXXXXXXXXXXXXXXXXXXXXXXXXXXXXXXX-tt-XXXXXXXX---tt--XX