---------------------------------------------------------------D------------------------------------------D--------------------------------------------
---------------------------------------------------------------D------------------------------------------DD-------------------------------------------
---------------------------------------------------------------D-------------------------------------------D-------------------------------------------
---------------------------------------------------------------D-------------------------------------------D-------------------------------------------
---------------------------------------------------------------D-------------------------------------------D-------------------------------------------
---------------------------------------------------------------D-------------------------------------------D------------------------------D------------
---------------o----------------------------o------------------D------------------------------------------------------------------o--------------------
--------------oo-------------------oo------o----------------o--D-----------oo----------------#-------------------------------------o-------------------
MXXX---o------#-------------------o--DD---o-o-o------------DD--D-----------o-------------o---D---D---o-----D-D--------------------o-o----------TT------
XXXXXXXXTTXXXDDD----------------DDDDDDDDDDDDDD-o-----------DD---##XXXXXXXXXXX--D--------##--##--##--###########-###SSS---DSSSSD-DDDSSSS---D----tt------
----XXXXttXX------------oo--------------------DDDDDD-D------D-----XXXXXXXXXX---D---------#---#--##-y##-------#-------#--DD----------------D----tt------
--------tt-------------So---------------------------DD------D----------------------------##---#---##----------#------DSSDD--------------SSD----tt------
--------tt-------------o-D------TT-------------------D------D-------------------------------------------------#--------oDD--------o-----oDD----t-------
--------tt------------ooDD------tt------------------oDD----DD--------------------------o---------------------#---------oDD---D----D-----ooD--------#---
--------tt-----------XXXXXXXXXX-Xt--TT-----TT---TTXXXXXXXXXXXXX--------------TT---TT---XXXX------------------XX-XXXXXXXXXXXXXXXXXXXXXXXXXXXXXXXXXXXXXXX
--------tt-----------XXXXXXXXXX-Xt--tt----ttt--XtX-XXXXXXXXXXXX--------------tt---tt--XXXXX--------------X---XX-XXXXXXXXXXXXXXXXXXXXXXXXXXXXXXXXXXXXXXX