-------------------------------------------------------D--------------------------------------------------D--------------------------------------------
-------------------------------------------------------D--------------------------------------------------D--------------------------------------------
-------------------------------------------------------D----------------------o---------------------------D--------------------------------------------
-------------------------D-----------------------------D---------------------o----------------------------D--------------------------------------------
-------------------------D-----------------------------D-----------------------------------------------------------------------------------------------
-------------------------D---------------------------!-D-----------------------------------D-----------------------------------------------------------
-------------------------D---o-------------------------D-----------------------------------D--------o------------------o-------------------------------
M---------o--------------D--o-o--------o---------D--------------#--------------------------D-------o-o----------------oD-------------------------------
XXXXXXXXXXXo----------T--D---o-o------o#---------D-----D-XXXXXX-##---o----D#--XXXXXXX------D------o-o-o--------------o-D-------o-----------------------
XXXXXXXXXXXXXXXSSS---ot--DDDDDDDDD----##--------DD--DD-D--XXXXX-##--###---##XXXXXXXXX------DSSSSSSDDDD-D----#####D--XXXDDDDDDDDt---#T--S#--------------
----------XXX-XXX-TTXot---------------##--------DD------------------#----------------------------------D---##--#---------------#---#D---##-------------
------------------ttoott--------------##-----D--------------------#------------------------------------D---#-------------------#----t---##-------------
------------------ttoott--------------##-----o-------#D------------------------------------------------D---#----------------T--#----to--##-------------
------------------ttggtt----------tt--##----oo-------#Do----------------------------------------o------D-------------------tt--##---too-##---------#---
---------------XXXXXXXXXXX----TT--tt--XX--XXXXXXXXXXXXXXX-------------X-------------TT---TT--TX-XXXX---X-------------------tt--XXXXXXXXXXXXXXX--XT-XXX-
---------------XXXXXXXXXXXXt--tt--tt---X--XXXXXXXXXXXXXXXX------------XXX-----------ttt--t---XX-XXX------------------------tt--XX-XXXXXXXXXXXXX-Xt--XXX