-------D-------------------------------------D---------------------------------------------------------------------------------------------------------
-------D-------------------------------------D----------------------------------------------------D----------------------------------------------------
-------D-------------------------------------D-----D---------------------------!------------------D----------------------------------------------------
------DD-------------------------------------D-----D----------------------------------------------D----------------------------------------------------
------DD-------------------------------------------D-------------------------------------------!--D----------------------------------------------------
---D--DD-------------------------------------------D---------------------------!-D-------------!-------------------------------------------------------
---D--DD-------------------------------------------D-----------------------------D---------------------------------------------------------------------
M--D---D-------------------------------o-----------D-----------------------------D--------------------------------------o---------o-oo-o---------------
XX-X---D---o-o------------TT----------o-D---DDDD---o-------o------#--------------D---------------D----o----------------oo--------o-o----D-------o-o----
XXXDDDDDDDDDDDD-----------tt------DDDDDDDDDDDDDDDDDDDDDDXXDD----#-#---SSSSSDDD---D---------T---T-D---o#--#---TT-------oDDDDDDDDDDDDDDDDDDDDDDDDDDDDDD--
----------------------TToott---------------------------XXXX-##-y#----------------D---------t---#-D---##-##---TT-----ggDo-------------------------------
----------------------ttoott---------------------------------##y-----------------------D--tt---#-D---##-##---ttoDDDDDDDD-------------------------------
----------T-----------ttoott---------TT-------------TT--------#------------------------D--tt---#-----##-##---tt----------------TT---T---------------T--
---------tt-----##---ottggtt---D-----tt-------------tt---------------------------------t--tt---#-----#--##---tt----------------tt---t---------------t--
---TT--t--t-----XXXXXXXXXXXXXXXXXXX--tt--TT----TT---tt---------------TTX---TT--TT-----Tt--ttX--X-XXX-XX-XXXXXXXXXXXXXXXXXXXXT--tt---t----T-----TT--tt--
---tt-tt--tt----XXXXXXXXXXXXXXXXXXX--tt--tt----tt---tt-------------X-ttt-X-tt--tt-----tt--tt---X--XXXXX-XXXXXXXXXXXXXXXXXXXXX--tt--tt---ttt----tt--tt--