-----------------------------------D--------------------------------------------------------------------------------------D----------------------------
-----------------------------------D--------------------------------------------------------------------------------------D----------D-----------------
-----------------------------------D--------------------------------------------------------------------------------------D-----------D----------------
-----------------------------------D--------------------------------------------------------------------------------------D----------DD----------------
-----------------------------------DD------------------------------------------------------o------------------------------D----------DD----------------
------------------------------------D-----------------------------------------------------o-------------------------------D----------DD----------------
--------------o---------------------D----------------------------o--------------------------------------------------------D----------DD-----D----------
-------------oo-----------D---------DD---------TT---------------o-o----------------------#--------------------------------D-----------D-----o----------
M------------o-D--------o-D----------D--------tt-------o-----o-o-o-o----------------T---XXXXXXXXXXXXXXXXX-----------------D----------DD----DD-D--------
XXXXXXX-----S-S----SSSSS--D----------DD------ott------DD--DDDDDDDDDDSD-------------ttXX-XXXXXXXXXXXXXXXXXXXXXXXXXTT---S---DDDDDDDDD--DDDDDDDDDDDDD-----
XXXXXX-------#-----#------D------g-gDDD---TToott--------------------------D--------tt--------------------tXXXXXXXttX---S-------------------------------
-----------------SSS----SSD---DDDDDDDDDDDDttoott-----------------------SSDD-------otD---------------------------tttoo--SS-D----------------------------
------------oo----oD----o-D-----------D---ttoott-------TT--------T------ooD------oott---------------------------tttoo---o-D----------------------------
-----------tgo---ooo------D-----------D---ttggtt-------tt-------tt------ooD------ggtt--------------------t-------ttgg---ooD------------------------#---
-----XXXXXXXXXXXXXXXXXXXXXXXXXXXXXXXXXXXXXXXXXXXXXXXXXXXX----TT-tt---TT-XXXXXXXXXXXXXX------------------tt------ttXXXXXXX-D--T--TT----TTT---t---X-XXXXX
----XXXXXXXXXXXXXXXXXXXXXXXXXXXXXXXXXXXXXXXXXXXXXXXXXXXXX--X-tt-tt---tt-XXXXXXXXXXXXXX------------------tt-------tXXXXXXX-X-Xt--tt--X-ttt--Xtt--X-XXXXX