-------------------------------------------------------------------------------------------------------------------------------------------------------
-------------------------------------------------------------------------------------------------------------------------------------------------------
----------------------------------------------------------------------------------------------o--------------------------------------------------------
-------------------------------------------------------------------------------------------------------------------------------------------------------
-------------------------------------------------------------------------------o-----------------------------------------------------------------------
------------------------------------------------------------------------------o------------------------------------------------------------------------
-----------------------------------------------------------------------------o---------------o--------------------------------o------------------------
--------D----------D------o--------------------------o---------------------------oo------o----o------------------------------o-o-----------------------
M-------DD---------D-----o-o----------------o-o-----o-o-XXXooo---XXX---T-----D-D-D-DD---o-o--o-o---------oo--------o---D------o-o----------------------
XXXXXXX-D----------D---D--DDDDDD---------DDDDDDDDDDDDDDDDXXX##XXXXXXX--DD---DDDDDDDDDDDDDDDDDDDDDD----#--##-------#--SS-------D#D------D------o---#----
XXXXXX--DD--g-g--g-DD-DD---------------------------------------XXX-----tt-----------------------------#--X----#--#---#-D-g-D-D#----#---#-----##--#-----
------DDDDDDDDDDDDDDDDDD----------------------------------------------ot------------------------------####---##-D##--DDDDDDDDDD-----D-##-----##--#-----
-----------------------D------------o---------------------------------oD--------------TT---------------#-----##-###---------oDD-------##-----##--#-----
-----------------------D---DD-----tt--tt------------------------------oo--------------tt--------------##-----##-###---------o-D-------##-----##--##----
------XXXXXXXXXXXXXXXXXXXXXXXXXXXXXXX-tt---T--TT------TT-------------XXXXXX--TTT---T--tt---TT--XXXXXX-XXXXX--XX-XXXXXXXXXXXXXXXXXXXXXXXXXXX--XX-XXXXXXX
------XXXXXXXXXXXXXXXXXXXXXXXXXXXXXXX-tt------ttt--X--tt-------------XXXXXXX--tt---t--tt---tt--XX-XXX-XXXXX--XX-XXXXXXXXXXXXXXXXXXXXXXXXXXX--XX-XXXXXXX