-------------------#-----------------------------------------------D------------------------------------------D-------------------------------D--------
-------D-----------------------------------------------------------D------------------------------------------D-------------------------------D--------
-------D-----------#-----------------------------------------------D-----------------------------o------------D-------------------------------D--------
-------D-----------D-----------------------------------------------D----------------------------o-------------D-------------------------------D--------
-------D-----------------------------------------------------------D-----------------D------------------------D-------------------------------D--------
-------D--------!--o-----------------------------------------------D-----------------D---------o--------------D-------------------------------D--------
-------D----------o--------------------o---------------------------D-----------------D---------#----------------------------------------------D--------
M------D------------------------------o-o--------------------------D-----D-----------D--------------------------------------------------------D--------
XXXXXXDD--------X--------------------oXo-o------------------------------#D-------D---D-------------------------------------------TT-----------D--------
XXXXXXDDDDDDDXTXXXXXXXXX------#-XXDXXXXXXXDD-----#-------------D---#--##DD------DD---DD--#------------------------SSSSSSSSSSS----t------##---#D--------
--------------ttXXXXXXXD---DD------XXXX---------##----#---DgDg-g--##--##------DDDD---DD-D-D----TTo-o-------------------------TT-ot------##--y#---------
--------------tt-------DDDDDD-------------------##----#DDDDDDDDD--##---------DDDDDDDDDDDDDDD---tt-oo--------------------------toot----#---##-----------
----------T---tt--------------------------------##---#---------D--##------------------D---DD---ttooD--------oD---------oD-----toot---------------------
---------tt---tt-----------------------------#--##---#---------#--##-----------------------D---ttggo---#---oDD---------oDD-----ogt-----------------#---
------TT--t---tt------XXXXXX-TT--------------XX-XXXXXXXXXXXXXXXXX-XX-----------XXXXXXXXXXXXXXXXXXXXXXXXXXXXXXXXXXXXXXXXXXXXXXXXXXXXXXXX---------XXXXXXX
------tt-ttt--tt------XXXXXXX-t--------------X--XXX--XX-XXXXXXXX-XXX-----------XXXXXXXXXXXXXXXXXXXXXXXXXXXXXXXXXXXXXXXXXXXXXXXXXXXXXXXX---------X-XXXXX