-----D-----D---D---------------------------------------------------------------------------------------------------------------------------------------
-----D-----D---D---------------------------------------------------------------------------------------------------------------------------------------
-----D-----D---D---------------------------------------------------------------------------------------------------------------------------------------
-----D-----D---D-----------------------o---------------------------------------------------------------------------------------------------------------
-----D-----D---DD------------------------------------------------------------------D-------------------------------------------------------------------
-----D-----D---DD-----------D------------------------------------------------------D-------------------------------------------------------------------
-----D-----D----D------------------------------------------------------------------D---------------------------o---------------------------------o-----
-----D-----D----------------------------------o------------------------------------D--------------------------o-o---o-------------------------o-o-o----
-----D-----D---DD-----TT-------------#-------o-o-----o----o-o-ooo-o----D-XXXXXXX---D-------------------------o-o-o-o-o-#-------------##-----DD-o-o-----
-----DM----D---SSS----tt------#T-----#-----SSSSSSS--oDD--D-DDDDDDDDDD###-XXXXXXXD--D-----------------##-DDDDDDDDDDDDDDDXD----#--##---##-#DDDDDDDDDD----
-----DD----D------ST--tt------tt----Dgg--------------D-----------------------------------T-o---------------------------------#--#----#-----------------
-----DD----D-------SSDtt------tt-DDDDDDD-----------SSD-----------------------------------SSD-------#-------------------------##------------------------
----------DD--------oot-------tt--------------------oD---------TT-----------------##-----ooD-------#-----------------TT--------------------------------
----------DD---o----ooD-------t---------------g----oo----------tt-----------------##---D-ooDD------#-----------------tt----------------------------#---
------XXXXXXXXXXXXXXXXXXXXXXXXXXXXXXXXXXXXXXXXXXXXXXXXXX--TT---tt-------------TT--XXXXXXXXXXXXXXXXXXXXX--------TTT---tt-------------------------TTXXXXX
------XXXXXXXXXXXXXXXXXXXXXXXXXXXXXXXXXXXXXXXXXXXXXXXXXXX-tt---tt-------------tt--XXXXXXXXXXXXXXXXXXXXX--------ttt---tt-------------------------tt--XXX