-------------------D-----------------------------------------------------------------------------------------------------------------------------------
-------------------D-----------------------------------------------------------------------------------------------------------------------------------
-------------------D-----------------------------------------------------------------------------------------------------------------------------------
-------------------D-----------------------------------------------------------------------------------------------------------------------------------
-------------------D-------------------------------------------------------------------------------------o---------------------------------------------
-------------------D-----------------------------------------------------------------------------------------------------------------------------------
----------------D-DD---------------o-------------------------------------------------o------------------------------o-----------------D----------------
----------------------------------o-o------------------------------------------D----o-o---------------------------o--o----------------D----------------
M--------XXXXXX-X--------------D-o-oD--------------o---D--------------oo-------D-----o-o------o-------##---------o--o-o-------X-------D-----XXXXXX-----
XXXXXXXXXXXXXXXXXXDDDDDDDDDDDDDDDDDDDDDDDDDDXXXXXXDDDDDDDDDD-D##-----##--------DDDDDDDDDDD---o-----#--##-----DDDDDDDDD-----XX-##XXXTTXXXXXXXXXXXX------
XXXXXXXXX-----XX----------------------------XXXXX-------------##-----##-------------------------------##-------------------------XXttXXXXXXtt----------
--------------------------------------------------------------##-----##-------------------------------##-------------TT------------tt------t-----------
--------------------------------TT----------------------------##-----##--------o-D--------------------##-------------tt------------tt------------------
--------------------------------tt----------------------------##-----##--------oDD--------------------##-------------tt------------tt------------------
------------------TT---------T--tt---TT----------------TT--X--XXXXXX-XXXXXXXXXXXX--TTT---T---TT--TT---#X--------TT---tt------------tt------------------
------------------tt---------tt-tt---tt----------------tt--X--XXXXXXXXX-XXXXXXXXXX-ttt---t---tt--tt---#X--------tt---tt------------tt------------------