--------------------------------------------D----------------------------D--------------------DD-------------------------------D-------D---------------
--------------------------------------------D----------------------------D--------------------DD-------------------------------D-------D---------------
-------------------------------D------------D----------------------------D--------------------D--------------------------------D-------D---------------
-------------------------------D------------DD---------------------------D--------------------D--------------------------------D-------D---------------
-------------------------------D-------------D---------------------------D--------------------D--------------------------------DD------DD--------------
-----------!t------------------D-------------D---------------------------D-----D--------------D--------------------------------D-------DD--------------
-------------------------------D-------------D-----o---------------------D----DD--------------D----D---o-----------------------DD------DD--------------
M------------------------------D-------o-----D----o----------------------D----D---------------D----D--o-o----------------------D-------D------o--------
XXXXXXXXXXXXX-----------o---#--D------o-o----D---o-o------oo----o-----o--D-------------o------D----D-o-o-o---XXXXX-----#-------DD------DD----D-o-------
XXXXXXXXXXXXXXX#--#----o-#-##--DDDDDDDDDDDDDDDDDDDDDDD#---##---o-o---o---D-----D------o-------D----DDDDDDDDDD#XXX-X---SSS------DD---D--DDDDDDDDDD------
---------------#--##----#------------------------t-------y##--o-o-D-D----D-----D-----o---T--D-DD-------------------------------DD---D------------------
---------------#--##----------------------------tt------##----DDDDDDD---------------o#---tSDDDDDDDDD------------------------o---D---D------------------
---------------#--##------------------TT--------tt-----------------------------------#---tDDD------------------------------ooo--------TT-------TT------
--------------##--#-------------------tt--------tt----------------------------------##---t---------------------------------oooo-------tt-------tt------
------------X-XX-XXX---TT---------TT--tt--TT----tXXXXX--------XXXXXX--TTT----XXXXXXXXXXXXXXXXXXXXXXXX---TT------------T-XXXXXXXXXXXXX-tt---TT--tt----TT
------------X-XX-XXXXX-tt--------ttt--tt--tt---Xtt---X---------XXXXXX-ttt--X-XX-XXXXXXXXXXXXXXXXXXXXXXX-tt------------X-XXXXXXXXXXXXX-tt---tt--tt-----t