---------------------------------------------------------D-----------------D-----------------------D------------------D-----------D--------------------
---------------------------------------------------------D------------------------------------------------------------D-----------D--------------------
---------------------------------------------------------D---------D--------------------------------------------------D-----------D--------------------
---------------------------------------------------------D---------D--------------------------------------------------D-----------D--------------------
---------------------------------------------------------D---------D--------------------------------------------------D---D-------D--------------------
---------------------------------------------------------D---------D--------------------------------------------------D---D-------D--------------------
--------------o------------------------------------------D---------D--------------------------o-----------------------D---D-------D--------------------
-------------o-o-----------------------------------DD----D---------D---------------------------o---------------------DD---D-------D--------------------
M----XXXXXXXXXXDo----------------------------------------D-----D---D---------------DXXXXXXXXXXXXo------D-------------DD---D----------------------------
XXXXXXXXXXXXXXXDDDDDD-D---##--#XXXXXXXXD---DDDDDDDDDDD---DDDDDDDDDDD----########-###-XXXXXXXXXXXXDDDSSSSSSSS---------DD---D----------------TT----------
XXXXXX---------------#--#-#X-XXXXXXXXX-------------------------------#-y#-XXX--------------------------D--------g-ggDD-D-DD----g-g-D-D-----tooo--------
------------------------#----------------------------D----------------##-------------------------------D---DDDDDDDDDDDDDDDDDDDDDDDDDDDD----ttott-------
--------------------------------------TT--------TT---D------TT---------------------------------------o-D-----D---------------------oDDD----too---------
--------------------------------------tt--------tt---D------tt---------------------------------------o-------o--------------------oooDD----tggD--------
--------------TT----------------------tt---TTT--tt----DTTT---t---T-----------------------------TT---XXXXXXXXXXXXXXXXXXXXXXXXXXXXXXXXXXXXXXXXXXXXXXXXXXX
--------------tt----------------------tt---ttt--tt---X-ttt--ttt--t-----------------------------tt--XXXXXXXXXXXXXXXXXXXXXXXXXXXXXXXXXXXXXXXXXXXXXXXXXXXX