-----D---------------------D-----------------------------------------------D-----------D---------------------------------------------------------------
-----D---------------------D-----------------------------------------------D-----------D---------------------------------------------------------------
-----D---------------------D-----------------------------------------------D-----------D---------------------------------------------------------------
-----D---------------------D-----------------------------------------------D-----------D-------------------------------o-------------------------------
-----D-----------------D---D-----------------------------------------------D------------------------------------------o--------------------------------
-----D-----------------D---D-------------D---------------------D-----------D---------D--------------------------------#--------------------------------
-----------------------D---D-------------D---------------------D-----------D----------D--------o---------------------##-----------------o--------------
-----------------------D---D-------------D---------------------DD----------D---------D--------o-o--------------------##----------------o-o-------------
M----------TTT---------D---D---D-o------D----------o-o---------DD------o---D---D-D---D-----D-o-o-----T-----------o---##---------D-D-----o-o------------
XXXXXX------tt---------D---DDDDDDDDDDDDDDDDDDDDDDDD##D---DDD---DD-----oDo--DDDDDDDD--DDDDDDDDDDDDD---TT---XXXXXXXXT--##------oSDDDDDDDDDDDDDDDDDD------
-XXXXX-TT-oott------gg-D-----------------------------#----------D------------------------------------tt------XXXXXt--##-----##-------------------------
-------ttooott--DDDDDDDD-----------------------------##---------D------------------------------------tt-DDDDDD-------##-----##-------------------------
-------ttoott---DD-----D--------------------------------------------------TT---TT--------------------DD---------------------#----TT--------------------
-------ttogtt---D-----DD--------------------------------------------------tt---tt-------------------oDD---------------------#----tt----------------#---
-----XXXXXXXXXXXXXXXXXXXXX---TTT----TTT-----TT--tT---------TT-----TT--TT--tt---tt--TT--T--TT---XTXXXXXXXXXXXX---------------XX-XXXTT-----TT----TT--XXXX
-----XXXXXXXXXXXXXXXXXXXXXXX-ttt----ttt-----tt---t---------tt-----tt--tt--tt---tt--tt--t--tt---XtXXXXXXXXXXXXX-------------XXXXXXttt-----ttt---tt--XXXX