-------------------D----------------------------DD----------------------------D----------------------------------------D-------------------------------
-------------------D-----------------------------D----------------------------D----------------------------------------D-------------------------------
-------------------D-----------------------------D----------------------------D--------------------------------D-------D-------------------------------
-------------------D-----------------------------D----------------------------D--------------------------------D-------D-------------------------------
-------------------D-----------------------------D----------------------------D--------------------------------D-------D-------------------------------
-------------------D-----------------------------D----------------------------D-------------------------------oD---------------------------------------
-------------------D----------------------------DD-----o-------------o--------D------------o-----------------o-D---------------------------------------
----MD-------------D-----------------------------D----o-o---o-o-----o-o-------D-------------o----o-ooo------o--D--------------------------------o------
----Do----o--------D--D-------------------------DD---o-o-oD-DD-o---o-o-o-o-----XX-XXXXXXXXXo-o--o--DD-o----o-o-D--------------oooooo--oo-------o-o-----
-----DDDDDDDDDDDD--DDDDDSSSSS-TT-XXXX----------o-D-DDDDDDDDDDDDDDDDDDDDDDDD-XXXXXTXXXXXXXXXXDDDDDDDDDDDDDDDDDDDDDDDDD---------######--#####DDDDDDDD----
----------------------------X-ttXXXXXX--D--D-ggg-D-------------------------y#---tt------------------------------------#-------###-#--y#----------------
-----------------------------Stt-----DDDDDDDDDDDDD------------------------##-----t------------------------------------#--------#---##------------------
-----------------------------oot----------------------TT--------TT--------------tt-------T-ooT---------------TT---------------------------------o------
-----------------------t------ot----------------------tt--------tt--------------tt------tt---tt--------------tt---------o----------------------oo--#---
----TT--TTT------------X--X-X-ttX--XXXXXXXXXXXXXXXXX--tt---TT---tt----TT--------tt----T-tt-X-tt--TT-----TT---tt--TT--XXXXXXX-----------------TTXXXXXXXX
----tt--tt-------------X---XXXttX--XXXXXXXXXXXXXXXXXX-tt---tt---tt----tt--------ttt---t--t-X-tXX-tt-----tt---tt--tt--XX-XXX------------------ttXXXXXXXX