---------------------------------------D---------------------------------------------------------------------------------------------------------------
---------------------------------------D---------------------------------------------------------------------------------------------------------------
---------------------------------------D---------------------------------------------------------------------------------------------------------------
---------------------o-----------------D---------------------------------------------------------------------------------------------------------------
-----o--------------o------------------D-------------------------------o-------------------------------------------------------------------------------
-XXXX--------------o-------------------D-----------------------D------o----------D---------------------------------------------------------------------
M------------------#-------------------D-----------------------D--------o--------D---------o-----------------------------------o-------o---------------
X-----------------##-----#-------------D-----------------------D-----D-o-o-------D--------o-o------o--------------------------o-o-----o-o--------------
XXXXXXXXTTo-TT-X--#----------#----oo---D-----------------------DDD-----DD--------D---------o-o-----------------o----o-o-o-o----o-o---oXoXXXXXXXX-------
XXXXXXXXtTXXttXX--#-------#--##--####--D---XXXXXSSSSSS-----------D---------DD----D----------SSSSSSSSSSDD-----oDDDDDDDDDDDDDDDDDDDDDDXXXXXXXXXXXXX------
--------ttXXtt-X---------#-------#-----D------XX---------DD------D---------------D---------#----------------D------------------------------------------
-------ott--tt----------##------##-----D---------------SSSD------D--------------DD--------------------SSDDDDDD-----------------------------------------
-------ott--t--------------------------D----------------ooD-----DD-----D-------oDD-----------o--------ooD---------TTT----------------------------------
------ogtt-----------------------------D----------------ooD------D-----t------oooD----------oo--------ooD---------ttt----------------------------------
-----XXXtXX------------------T----------------XXXXXXXXXXXXXXX-XXDXXXXXXXXXXXXXXXXXXXXXXXXXXXXXXXXXXXXXXXXXXXXXXT---tt---TTT----------------------T-XXXX
-----XXXXXX------------------t----------------XXXXXXXXXXXXXXXX-X-XXXXXXXXXXXXXXXXXXXXXXXXXXXXXXXXXXXXXXXXXXXXXXXX-ttt---ttt----------------------tt-XXX