--------DD-----------------------------------------------------------------------------------------D---------------------------------------------------
--------DD-----------------------------------------------------------------------------------------D---------------------------------------------------
--------DD-----------------------------------------------------------------------------------------D---------------------------------------------------
--------DD-----------------------------------------------------------------------------------------D---------------------------------------------------
--------DD-----------------------------------------------------------------------------------------D---------------------------------------------------
--------D---------------------------------o--------------------------------------------------------D---------------------------------------------------
----------------------o------------------o-o----o----------o-------------------o----------o--------D---------------------------------------------------
----------------------Xo---------------DDDDDDD---o--------o-o-----------------o-o--------o-oo-o----D---------------------------------------------------
---------------XXXXXXXX-------XXD-----------DDD-o-o-----oo-o-o-oo------ooo-----o-o------o-DD-D-D---D---D---X---o-------------------------------D-------
--------TT--XTXXXXXXXXXXTXXXXXXXD----------------####SDDDDDDDDDDDDDD--####--##--SSSSSSSDDDDDDDDDDD-DD--D#DDXXXXXXXX-------------------SSSSSDD--D-------
--------tt--tt-X---XXXXXXXXXX------------T----------------------------X-#--y#--------------------------------XXXX-XXD----#---------------------#-------
--------tt--tt----------------------D------D-t----------------------S-----##----------------------------------------D#--##-----D---------------#-------
--------tt--tt----------------------D----t---tt---------------------o-D-------------o-----------------------------------##---------D----------##-------
--------tt--tt------------------o---DD--tt---tt---------------------ooD------o-----o------------------------------------##---------t---t------##---#---
------M-tt--tt----------------XXXXXXXXXXXXXXXXXXX-X-----TT---TT--T----D-----XXXXXXXXXXXXXXXXTT--TT---TT--T----------XXX-XXXXXXXXXXXXXX-XTT----XXXXXXXXX
------X-tt--tt---------------XXXXXXXXXXXXXXXXXX-XX-X----tt---tt--t--X-X------XXXXXXXXXXXXXX-tt--tt--Xtt--t-----------XXXXXXXXXXXXXXXXXXtt-----tXX-XXXXX