-------------------------------------------------------------------------------------------------------------------------------------------------------
-------------------------------------------------------------------------------------------------------------------------------------------------------
-------------------------------------------------------------------------------------------------------------------------------------------------------
-------------------------------------------------------------------------------------------------------------------------------------------------------
------------------------------------------------------------------------------------o---o-------------------------------------------------t------------
-----------------------o-----------------------------------------------------------o---o--------------------------------------------------tt-----------
-------------------------------------------------------------------------------o-------#---------------------------------------------------------------
--------------------------------------------------------------DD------o-------o-o------#---------------------------------------------------------------
M---------DD--------XXXXXXX----#-----------------TT---DD-----DD------o-o-D-----o-DD----#---------------o-ooo---------------TT-----------o--#-----------
XXXXXXX#-###-XXXXXXXXXXXXX##--##--------o--------tt---------SSD---DDDDDDDDDD--S---D----D----SSSSSS#---##-D##-t###X---------tt-DDDDDDD--#---##-##-------
XXXXXXX#-X##XXXXXXX----------y##----gg-o-----TToott------#--oDDD---------------S--D--------------------#-----tt--DDXX-TTXoott---------##---##--#-------
-------#-#-------t---------###---DDDDDD-SSD--ttoott------#-o--DD---------------SSSD----#---------D----------#t----to--ttXoott---------##----#----------
-------------------------------#---------oD--ttoott------##---D-----TT----------ooD----#---#-----D-----------tt---to--tt--tt----------##---------------
-------------------------------#---------oD--ttggttDD-D--###--t-----tt----------ooD----#---#----o------------tt-------tt---tt---------##-----------#---
--------XXXX-------------------XXXXXXXXXXXXXXXXXXXXXXXXXXXXXXXXTT---tt--TT----XXXXXXXXXXXXXXXXXXXXXXXX---T---tt-X-XXXXXXX--tt----TT---XX----------XXXXX
------XXXXX-X-X-XXX-----------XXXXXXXXXXXXXXXXXXXXXXXXXXXXXXXX-tt---tt--tt----XXXXXXXXXXXXXXXXXXXXXXXXXX-t---tt-XXXXXXXXXX-tt----tt--X-X----------XXXXX