---------------------------------------------------D-----------------DD-------------------------D------------------------------------------------------
---------------------------------------------------D-----------------DD-------------------------D----------D-------------------------------------------
---------------------------------------------------D-----------------D-------D------------------D------------------------------------------------------
---------------------------------------------------D-----------------D-------D------------------D-----------o------------------------------------------
-------------------------------D--------o----------D-----------------DD------D------------------D----------ot--o---------------------------------------
---------------#---------------D-------------------D-----------------D-------D-----------------DD-----------o--t---------------------------------------
--------------##---------------D-------o-----------D----------o------DD------D-----------------DD--------------D--------o--------------o---------------
--------------##--#------------D------o#-----------D---------o-o-----DD------DD----------------DD-------o--------------o-o-------------oo--------------
-M-----D------##--X------------D------##-----------D----------o-o-----D------DD----------------DDD-D-o-o-oDXXXXXXXXX--o-o-o-----------X--o------o------
-XX---DD------##---------------DDDD#--##---DD------D-------DDDDDDDDDDDDDDDDD-DD--oo-------------DDDDDDDDDDDDXXXXXXXXXD-DDDDD---------XXXXXDD---#-------
-------D------##-------------------#--##--#-D---DggDD-------------------------D---#---------------------------------------------D-D---X----------------
-----DDD------##----------------------##----DDDDDDDDDD------------------------#--##-------------------------------------------DDDDD--------------------
----oDDD------##------------TT----------------------DD-----------TT------------#----------------TT-----TT----------------------------------------------
-----oDD------##------------tt-----------------------D-----------ttt----------##----------------tt-----tt--------------#---------------------------#---
-----XXXXXXXXXXXXXXXXX--TT--tX--XTT---------XXXXXXXXXXXXXX--TT----tt-----TTT--XX-X--TXXXXXXXXT------T--tt--TT------TT--XXXXXXXXXXXXXX-X------------XXXX
----XXXXXXXXXXXXXXXXXXX-tt--XXX-Xtt---------XXXXXXXXXXXXXXX-tt---ttt-----ttt---X-X--t--XXXXXXX--Xtt-t--tt--tt------tt--XXXXXXXXXXXXXX--------------XXXX