-------------D-----------------------------------------------------------------------------------------------------------------------------------------
-------------D-----------------------------------------------------------------------------------------------------------------------------------------
--------D----D-------------------------!-----------------------------------------------------------------!---------------------------------------------
--------D----D--------------------------------------------------------------------------------------------------------------------o--------------------
--------D----D-------------------------------------------------------------------------------------------------------------------!t--------------------
--------D----D-------------------------!-----------------------------------------------------------------o-----------------------t---------------------
--------D----D-------o-------------------------------------------------------------------------------------------------o--------------------------o----
--------D----D------------------------------------------------------oo-----o-----------------------------------X---------------------------------o-o---
--------D----DD----XXXXXXXXX---o------XXXXXXXXXXXXX----------------o-D----o-o--#-XXXXX-----------o-------XXXXXXXo-XXXXXXXXX----XXXXXXXXXXXXXXD-D--o-o--
M--X----DD---DDD-##XXDDXXXXX---####--XXXXXXXXXXXXXXX-DDDDDDDDDDDDDDDDDDDDDDDDD-D-X---X-SSSSS-----DDDDDD--DXXXXXXXTXXXXXXXXX--##XXXXXXXXXXXXXXDDDDDDDDD-
XXXXTT--TToo----------XXX------#--#--t#----------------------------------------------------#------------------XXttt----------##------------------------
X-X-tt--ttoo------------------#-----#------------------------------------------------------#D-------------------tt-----------##------------------------
----ttoottoo-t--------------------------------------------------TT------------------------##--t-----------------tt------------#-------------------TT---
----ttggttgg-tt-------------------------------------------------tt------------------------oo--tt----------------tt--------------------------------tt---
----XXXXXXXXXXX-----------------------------------X-XX--TT---TT-tt---T----------------XXXXXXXXXX---T--TT--------tt-----------------------------T--tt---
-----XXXXXXXXXX-------------------------------XXXXXXXXX-tt-Xttt-tt---t-----------------X-XXXXXXXX-----tt---t-----t-----------------------------t--tt---