----------------------------------------------------------------------------------------------------------------------------------D--------------------
----------------------------------------------------------------------------------------------------------------------------------D--------------------
-------------------------------------------D-----------------------------------------------------------------------D--------------D--------------------
-------------------------------------------D--------------------------------------------------------------------------------------D--------------------
-------------------------------------------D--------------------------------------------------------------------------------------D--------------------
-------------------------------------------D--------------------------------------------------------------------------------------D--------------------
-------------------------------------------D--------------------------------------------------------------------------------------D--------------------
M----------------------------------D-------D--------------------------------------------------------------------------------------D--------------------
XXXXXXXXX------D--------------##---D-------D---------TT------------------------o----------XX--------------------------o-----------D---o---ooo--#-------
XXXXXXX#T##---DD--------###---##---DDDDD---DDD-------tt---------------o-##---##----------SSS------o----o-D--SSSS-----DDD------D---DD--#---####-#-------
XXX------------D--------#-----##----------------TTToott--------D-----##-##--##----------------#--D-gggg-D-----XS----------#----D--D----#-T#------------
--------------DD--------------##----------------tttoott---DDDDDD-----##-###------------------DDDDDDDDDDDD------SSS-------##---DDDDDD----##-------------
-------------DDD--------------##--------TToo----tttoott--------D-----##-##-------#----DD---------------DD-------ott------##----------------------------
------------ooDD------------------------tto-----tttggtt------o-D-----##-#--------#---oDD----------------D-------oot-----tt#--------------------#---#---
--------------DXXXXXXXX-------------TT--XXXXXXXXXXXXXXXXXXXXXXXXXXXX-XX-XX---TT-XXXXXXXXXXXXXXXXXXXXXXXXXXXXXXXXXXXX-XTXXXXXXXXXXXXXXXX------T-XX-XXXXX
---------------XXXXXXXX-------------tt--XXXXXXXXXXXXXXXXXXXXXXXXXXXX-XX-XX---tt-XXXXXXXXXXXXXXXXXXXXXXXXXXXXXXXXXXXXX-tt-XXXXXXXXXXXXXXX-----t--X-XXXXX