------------------------------DD---D-----------------------------------------------DD--D-------------------D-----------------DD------------------------
-------------------------------D---D---------------------------------------------------D-------------------D-----------------DD------------------------
----------------D-------------DD---D---------------------------------------------------D-------------------D------------------D------------------------
----------------D--------------D---D-----------------------------------------------D---D---------------o---D------------------D------o-----------------
-------------------------------D---D---D-------------------------------------------D---D-------------------D------------------D------------------------
-----------------D-------------D---D---D-------------------------------------------D---D---------o----o----D-------------D----D------------------------
----------------DD-------------D---D---D-------------------o-----------------------D---D--------o----------D------------------D----o------o--------D---
----------------DD---------------------D------------------o-o----------------------D---D-------------------D---o---------D----D----#------oo-------D---
M-X-------------DD-------------XXX----DD-----------------o-o-------oo----------D---D-----------------------D--o-o--------DD---D---##--o--o-oo-------D--
XXXX----o-------DD----------#-XXXXXXXXDD----SSS--SSSSSSSDDDDDDDDDDD-D------SSSSSSS-D---DD-----SSSSS--------DDDDDDDDD------D---D#--##--##-XXDDDD--------
-XX----D-DDg-g--DD---------#------XXXX-D----------------------------------------D--SS---D---------S---D------------D------D---D----##---------------D--
---DDDDDDDDDDDDDDD---------------------D------------S--------------------o----------DSSSD----------SSSD-------------------D--SD---------------------D--
----------------DD---------------------D-----o-D----oo-----------#------ooo------------oD-----------ooD---------TTt----------oD---------------------D--
----------------DD-------#-------------D----o-o-----oo----------#--------oo-----D------oD-----#-----ooD---------tt---D--------o--------------------#---
-----XXXXXXXX----D---TX-XX-------------DXXXXXXXXXXXXXXXX-TTT----XXX-XXXXXXXXXXXXXXXXXXXXXXXX-TX-XXXXXXXXXXX--TT-ttXXXXXXXXXXXXX------------------XXXXXX
-----XXX-XXX---X-XXX-X--X--------------XXXXXXXXXXXXXXXXX-ttt--X-XXX-XXXXXXXXXXXXXXXXXXXXXXXX-tX-XXXXXXXXXXXX-tt-ttXXXXXXXXXXXXXX------------------XXXXX