-----------------------------------------------------------------------D-------------------------------------------------------------------------------
-----------------------------------------------------------------------D-------------------------------------------------------------------------------
-------------------------------!---------------------------------------D-------------------------------------------------------------------------------
-----------------------------------------------------------------------D-------------------------------------------------------------------------------
-------------------D---------------------------------------------------D-------------------------------------------------------------------------------
-------------------D---------------------------------------------------D------D------------------------------------------------------------------------
-------------------D---------------------------------------------------D------D-------------------------o-----o----------------------------------------
-------------------D-------------------------------o-D-----------------D------D----------D--------o-----o-----o----------------------------------------
-------------------D---D---------------------------------XXX---Xoo-----DD-----D----------D-------o-o---o-o---o-o-o------o-------------------o----------
XXX----------------D----o----D---DDDD----------XXXXXXXTT-XXXXXXXXXTT---t-----DDD---------D------oDDDDDDDDDDDDDDDDDD-----#---##-#--------ot---o---------
------------------DDg-gg-g-gDD---------T-------T--X---tt----XXXXXXttXott-----------------D--g-DD------------------------##-y#--#----TT-oott-D-D--------
-----------------DDDDDDDDDDDDD---------t------tt------tt----------ttooott----------------DDDDDDDD--------------oot---tt---##---#----ttooot--DDDDD------
---------------oD------------DD--------t------tt------tt----------ttooott---t-----#---------------------------Toot---tt--------#----ttooot-----------t-
--M-----#-----ooo------------DD-------ot------tt------tt----------ttgggtt---t-----#t---o----------------------tggt---tt--------#----ttogtt------------X
--XXXXXXXXXXXXXXXXXXXXXXXXXXXXXXXXXXXXXXXXXXXXXXXXXXXXXX-------XXXXXXXXXX---t--X--XTT--X-XXXXXXX--TT--TT---XXXXXXXXX-tt--------XXXXXXXXXXXXXXXXXXXXXXXX
---XXXXXXXXXXXXXXXXXXXXXXXXXXXXXXXXXXXXXXXXXXXXXXXXXXXXX--------XXXXXXXXXX--t--X--ttt--XXXXXXXXXX-tt-ttt--XtXXXXXXXX-tt--------XXXXXXXXXXXXXXXXXXXXXXXX