-------------------D-----------------------------------------------------------D---------------D-------------------------------------------------------
-------------------D-----------------------------------------------------------D---------------D-------------------------------------------------------
-------------------D-----------------------------------------------------------D---------------D-------------------------------------------------------
-------------------D--------------------------------------D--------------------DD--------------D-------------------------------------------------------
-------------------D-----------------------------------------------------------DD--------------D-------------------------------------------------------
-----------------------------------------------------------D-------------------DD--------------DD------------------------------------------------------
-----o-----------------------------------o-----------------D------oo-----o-----DD---------------D----o-------------------------------------------------
M---Xoo---------------------------------o-o----------------D------------o-oo---D----------------D---o-o------------------------------------------------
XXXXXX----o-------------------------XXXXXX-----------------D----oo-o-D-D-oD-D--D------o-T------D---o-o-o-o-o-o-------------------------o-----o---------
-XXXXXT---DDDDDDD---TTTo------------XXXXXXXXXXX------------DD-D-DDDDDDDDDDDDDD-DDD---o-otX-----DDDDDDDDDDDDDDDD------------SSSS-------o-o-XXXX--#------
------tt-------------t-X----------------XXXXXXXX-----DggDgDDD-----------------------oXX-t-XXXX-------------------T-------------------Dt--XXXXX-y#------
------tt------------tt----------------------------DDDDDDDDDDD-----------------------XX-tt------------------------t------------------ott-------##-------
------tt---T---------t-------------TT-----------------------D-------------TT-----------tt--------TTT-------------t---------o-------oott----------------
------tt---t---------t-------------tt-----------------------D-------------tt-----------tt--------tt--------------t---------o-------oott----------------
------tt--tt----TT---t--XXXXXX-TT--tt------------XXXXXXXXXXXX---TT----TT--tt---TT------tt-XXXXXX-ttt----TT---TT--TT---XX--XX---TT--XXtX------------XXX-
---XX-tt--tt----tt---t--XXXXXXXtt--tt-------------XXXXXXXXXXX-X-tt----tt--tt---tt------tt--XXXXX-ttt----tt---tt--tt---X--XXX---tt--XXtX------------XX-X