--------D----------D-------------------------------------------------DD--------------------------------------------------------------------------------
-------DD----------D-------------------------------------------------DD--------------------------------------------------------------------------------
-------DD----------D-------------------------------------------------D-----------------------------D--------------------------!------------------------
-------DD----------D------------o------------------------------------DD----------------------------D--------------------------!------------------------
-------DD----------D-------------------------------------------------DD----------------------------D--------------------------!------------------------
-------DD----------D-----------o-------------------------------------DD----------------------------D---------------------------------------------------
-------DD----------D-----------#----o------------o-------------------D----------o-------o----------D-------------o----------------------------o--------
M------DD---------------------##---#--o--------oo-o------------------DD--------o-------------------D------------o-o--------------------------oo--------
XXXXXXXDD-------o-------oT----##--#--o-o------DD-o-o--o--D--o--o-----DD----D--DD-D-----o---------XXXXX---------o-o--oXXXXXXXXXXX---T---------#---------
XXXXXX##SSS##---#-------ot----##--#DDDDDDDDDDDDDDDDDDDDDDD-o-o-DD---DDDDDDDDDDDDDDDDDXXTTXXXXXXXXXXXXXX-----DDDDDDDDDDDXXXXXXXX-D--t--------DDDDD------
---------------X#---g-g-o-----##--#----------------------D--D--D---------------------X-ttXXtXXXX-----------------------------------t-------------------
-------------###DDDDDDDoD------#-------------------------------------------------------tt----------------------------------------oot-------------------
--------------#-------oDD----------------------TT--------T-----------------TT---------ttt----------------------------------------oot---------TT--------
--------------o---------D----------------------tt--------t-----------------tt---------ttt---------------------------------------toot---------tt--------
------------XXXXXXXXXXXXXXXXX----------------T-tt---TT---t-----X----T--TT--tt---TTT---ttt--------------------TT-----------XXXXXXXXXXXXXX-TT--tt--------
------------XXXXXXXXXXXXXXXXXXX--------------t-tt---tt--Xt----X-XX-tt--tt--tt---tttt--ttt--------------------tt----------XXXXXXXXXXXXXXX-tt--tt--------