-------------------------------------------------------------------D-----------------------------------------------------------------------------------
-------------------------------------------------------------------D-----------------------------------------------------------------------------------
-------------------------------------------------------------------D-----------------------------------------------------------------------------------
-------------------------------------------------------------------D-----------------------------------------------------------------------------------
-------------------------------------------------------------------D-----------------------------------------------------------------------------------
-------------------------------------------------------!-----------D-----------------------------------------------------------------------------------
M----------------------------------o-------------------D------o----D-------------D---------------------------------------------------------------------
X------------D--------------------o-o------------------------o-----D------------DD---------------------------------------------------------------------
XX-----------D-------------D-------o-D-------ooo-----X-X-o--o-o-D--D-----D------DD---------------TT----ooo----o--------------#-------------------#-----
XXXXXT-------D----------TTSS--------D-D------###-----X-DDDDDDDDDD--DDD---D-------D------D--------tt----o###---#-------o-##--###D-------#SSSS----##-----
XXXXXt-------D------g---ttoo-----D-----D----#--#--#----------------------D--g-g-DD------#----TToottt--ot-----y#-------#--#-y#--X---TT--#--------##-----
-----t-------D----DDDDD-ttoo--DDDDDDDDDDDD##----###------------------------DDDDDDD------D----ttoottt-oot---##---##---X#-####-------ttDDDDD-------------
-------------DD-----D---ttoo---------------------------------------------D-------DD----oD----ttoottt--ot-------------##-------------D------------------
-------------DDo--------ttggD----------------------------------D---------o-------D-----o--oo-ttggtttt-gt-------------##-#--------------------------#---
--------X----DDXXXXXXXXXXXXXXXXXXXXXXXXXXXXX-----------TTT-----D--TT--XXXXXXXXXXXXXXXXXXXXXXXXXXXXXXXXXXX------------XX-X-----------XXXXXXXXXXX-XXXXXX-
--------X------XXXXXXXXXXXXXXXXXXXXXXXXXXXXX-----------tt---------tt--XXXXXXXXXXXXXXXXXXXXXXXXXXXXXXXXXXX------------XX-X----------XXXXXXXXXXXX-XXXXXXX