---------------------------------D----------------------------------------------------------------------------------------------------D----------------
--------------------------------------------------------------------------------------------------------------------------------------D----------------
---------------------------------#----------------------------------------------------------------------------------------------------D----------------
-------------------------------------------------------------------------------------------------------------------------------------------------------
----------------------------------------------------------------------------------D--------------------------------------------------------------------
--------------------------------!-------------------------------------------------D----------------------------------------------tt--------------------
---------------------------------------------------oo-----------------------------D------------------------o-------------------------------------------
M---------oo--------------------------------------Xo------------------------------D--------------------------------------------------------------------
XXXXXXXXXX--o-o-o-o------D-----XXXX--oo--o--------XXo---XXXXXXXXXXX---------------D---------------o-oXXXXXXXXXXX-----------o----------------o----------
XXXXXXXXXXDDDDDDDDDDDD---#-S###-XXXX-##--##DDXXXXXXXTTXXXXXXXXXXXXXXXX---------SSSDD------SD-----DDDDXXXXXXXXXXXXXXXXXXXXXXXXTXXXXXXXX--##-------------
--------------------------------------#-y#----XXXX--ttXXX---------XXX-----##------DD----g--D--gDD--------------XXXXXXXXXXXXXXtXXXXXXXXX-###------------
---------------------------------------##-----------tt-----------------#-D--------DD--DDDDDDDDDDD---------------------------ttt----------##D-----------
----------TT---------------------------#------------tt----------------------------DDDDD--------------------------------------tt----------#-------------
----------tt--------------------------#-------------tt----------------------------DD-----------------------------------------tt----------#---------#---
----------tt---T-----T----------XXXXXXXXXX----------tt------------------XXXXXXXXXXXXXXXXXXXXXXXXXXX--TT----------------------tt----------XXXXXXXXXXXXXX
----------tt---t-----tt-X--------XXXXXXX-X------------------------------XXXXXXXXXXXXXXXXXXXXXXXXXXXX-tt---------------------ttt---------XXXXXXXXXXXXXXX