---------------------------------------------------------------------------D-----------D---------------------------------------------------------------
---------------------------------------------------------------------------D-----------D---------------------------------------------------------------
---------------------------------------------------------------------------D-----------D---------------------------------------------------------------
---------------------------------------------------------------------------D-----------D---------------------------------------------------------------
---------------------------------------------------------------------------D-----------D---------------------------------------------------------------
---------------------------------------------------------------------------D-----------D---------------------------------------------------------------
-----------------------------------------------o------------------o--------D---------------------------------------------------------------o-----------
--X-------o--o---------------------------------D-----------------o---------------------------------------------------o--------------------o-------o----
XXX------o-Do-o-------TT------TT-----D--D------D---o-------o----o-o----------------------TT-XXXXX-------------------oD-------------oo----o-----D-o-----
XXX----DDDDDDDDD------tt------tt--SSSSS-DD-----D---DD-----##D##DDDDDD---------SSSSSSS----ttXXXXXXXTT-XX--------------D-------------#--####DDDDDDDDDDD--
--D-------------SSTToott---T--tt--------D-D-D-DD---D------#--------------------------TToott-XX---Xtt---------------------------#---#-------------------
----D-------------tto-tt-----ott---------DDDDDDD---D---------------------t-----------ttoott-------tt-----------D---------------X-----------------------
---------T--------tt-ott-----ott-o------------DD---D---------------------t------o----ttoott-------tt-----------------------oo--#-----------------T-----
-M-------tg---D---otggtt------ttDg-------------D---D-----#--------------t#-------o---ttggtt-------ttt---oo-----------o-----oo-##-----------------t-----
XXXXXXXXXXXXXXXXXXXXXXXXXXXXXXXXXXXXXXXXXXXXXXXXXXXXXXXX-XX-----TT---TT-XXXXXXXXXXXXXXXXXXXXXXXXXXXXXXXXXXXXXXXXXXXXXXXXXXXXXXXXXXXX---------TT--tt----
XXXXXXXXXXXXXXXXXXXXXXXXXXXXXXXXXXXXXXXXXXXXXXXXXXXXXXXX-XXX----tt---tt-XXXXXXXXXXXXXXXXXXXXXXXXXXXtX--XXXXXXXXXXXXXXXXXXXXXXXXXXXXXX--------tt--t-----