-------------------------------------------------------------------------------D---------------------------------------------DD------------------------
---------------------------D---------------------------------------------------D---------------------------------------------DD------------------------
---------------------------D---------------------------------------------------D---------------------------------------------DD------------------------
---------------------------D---------------------------------------------------D----------------------------------------------D------------------------
---------------------------D-------D-------------------------------------------D---------------------------------------------DD------------------------
---------------------------D-------D-------------------------------------------D----------------------------------------------D------------------------
------------------oo-------D-------D-------------------------------o-----------D-------o--------------o-----------------------D------------------------
-----------------o--o------D-------D------------------oD----------o-o----------D------o-o------------o-o--o----------o-o-o----D------------------------
-----------D----o-oo-o-----D-------D-------D----o---oo-o--------DD-o----------oDD----#-o-o---o--D-D-o-DDDo-D---o-o-o--DDDD---DD------D-----------------
----------DD---DDDDDDDDDD--SSSS----D-------D---##--##DDD-----SSSDDDDDD-DDDDDDDDDDDDDDDDDDDDDDDDDDDDDDDDDDDDDDDDDDDDDDDDDDDDDDDDDD---##-XXTXXXXXXXXX----
--------S-DD------------------S--DDD---g-g-D-------y#------------------#----------------------------------------------------------XXXXXXXttXXXXXXXXXX--
--------SSSD-------------------SSSDD-DDDSSDD------#--------------------#--------------------------------------------------------tt------ttt------------
---------ooD--------------------ooD------oDD--------------------------##---T---------------------T------TT----------T-----------tt------ttt------------
-----M---oDD---------------g----ooD-------DD----------------#---------##-------------------------t------tt----------t---t-------tt------ttt------------
-----XXXXXXXXXXX--------XXXXXXXXXXXXXXXXXXXX-----------TT--XXXXX-XTX--XXXTt----TT-----------TT--tt---TT-tt----TT----t--tt-------tt------ttt------------
-----XXXXXXXXXXX--------XXXXXXXXXXXXXXXXXXXXXX----t----tt-XXXXXXXXX---XXttt----tt-----------tt--tt---tt-tt----ttt---tttttt------tt----X-ttt------------