---------------------------------------------------------------D---D---D---D-----------------------D---D-----------------------------------------------
---------------------------------------------------------------D-------D---D---------------------------D-----------------------------------------------
---------------------------------------------------------------D-------D---D------------------------D--D-----------------------------------------------
---------------------------------------------------------------D-------D---D------------------------D--D-----------------------------------------------
---------------------------------------------o-------------------------D---D------------------------D--D-----------------------------------------------
-----------------------------------------------------------------------D---D------------------------D--D-----------------------------------------------
-M------o----------------------------------------------o--------#------D---D-------------------------D--------------------------------------o----------
-X-----o-o-----------------------o-----o------o-o-----o-o-------##-----D---D-------------------------D-------------------------------------o-o---------
------o-o-o-------T--------X-o--o-o---o-o--o-DDo-o---D-o-o------##-----D---D-----------------T-------D-----D-------------o---------------oo-o-o--------
----DDDDDD-D-----ottXXXXXXX##S-X#DDDDDDDDDDDDDDDDDDDDDDDDDDD#---##D-DD-DDDDDDDSSSSSSSSSSSSSSSSt------DD-DDDDDD-----------DDDDDD--SSS--DDDDDDDDDDD--#---
--------------TT--ttXXXXXX-----y------------------------------#-##------------------------Toott--TT--D-----------g-DDD-------------#--D-----------#----
-----------SSStt--tt----------#-----------------------------------------------------------toott--tto-D---------DDDDSD---------------#SD----------#-----
-----TT-----oott--ttt-------------------------TT-----------------------------------------ttooot--tto-DD-------------D----------------oD------T---------
-----tt-----oott--ttt-------------------------tt------------------------------------o----ttogttg-tt---t------------oD---------------ooD------t---------
-----tt--X-XXXXXXXXXX----------TT----X----TT--tt---TT------------------TT----TT----XXXXXXXXXXXXXXXXXX-tt---TTT-XXXXXX--TT---TT------o----TT--t---------
-----tt--X-XXXXXXXXtt----------tt--XXX-X-ttt--tt---tt------------------tt----tt--XXXXXXXXXXXXXXXXXXXXttt----t--XXXXXXX-tt--ttt---------X-tt--t---------