-----------------------D---D-------D---------D---D------------------D----------------------------------------------------------------------------------
-----------------------D---D-------D---------D---D------------------D----------------------------------------------------------------------------------
-----------------------D---D-------D---------D---D------------------D----------------------------------------------------------------------------------
-----------------------D---D-------D---------D---D------------------D----------------------------------------------------------------------------------
-----------------------D---D-------D---------D---D------------------D----------------------------------------------------------------------------------
-----------------------D---D-------D----------D--D------------------D----------------------------------------------------------------------------------
----------------------DD---D-------D---------D----------------------D----------------------------------------------------------------------------------
---------------o-------D---D-------DDDDD-----DD---------------------D----------------D-------------------------------------------------------oo--------
XXXXX---------o-o------D-----------D------------------o-------------D----o-----D-----D---ooo------------------------------------------------o-o--------
XXXXX-------DDDDDD-----DD----------------XXXXXXXXXXX-X#-XXX--------D--#---##---DD----D---###DXXXXXXXXXX--D-------------------------------DDDDDDDD------
--------DD--------------D------o-------TXXXXXXXXXXXXXXXtXX-t-------D---#-y#------D---D--D----XXXXXXXXXX--#--------------t------------------------------
------SSS------------DDDD-----ooD------t--------------tt---------SSD----##-------D---DDDD---------------##----D---------tt-----------------------------
-------ooD------------DD-----tooo-----tt--------------tt---------oDD-------------D-----------------------D---oD-----oo--t------D---#--------T-tt-------
-M------oD------------DD-----tggt-----tt---------------t-----oo--ooD-------------D----------------------#D--ooD-----o----------#---#--------tttt---#---
XXXXXXXXXXX------XXXXXXXXXXXXXXXXXXXX-tt-----------------XXXXXXXXXXXXXX---------XXXXXXXX----------------XXXXXXXXXXXXXXXXXXXXXXXXXXXXXXXXXXXXXXXXXXXXXXX
XXXXXXXXXXX-ttt--XXXXXXXXXXXXXXXXXXXXXtt-----------------XXXXXXXXXXXXXX-------X--XXXXXXX----------------XXXXXXXXXXXXXXXXXXXXXXXXXXXXXXXXXXXXXXtXX-XXXXX