-----------------------------D-------------------------------------------------------------------------------------------------------------------------
-----------------------------D------------------------------------------------------------------------------------------------------------D------------
--------Do-------------------D------------------------------------------------------------------------------------------------------------D------------
--------D--------------------D------------------------------------------------------------------------------------------------------------D------------
-----------------------------D------------------------------------------------------------------------------------------------------------D------------
-------D---------------------D-------------------------------------------------------------------------------------------------------------------------
M------DD--------------------D-----------o-------------------oo----------o----------------o----o-------------o---------------------------o-------------
X-------D------------D----------o-------o-o------------------o----------o-o-----o--------o-o--o-o-----------o-o----------------D--------o-o------------
XXXXXXXDD-DD---------D----------DD-----o-o--o---XXXXXXXX------o-----------D-D--D-D------o-o-o-oo-o-----XXX-o-o-o-o---------o---D--D-D-DD-DDDDD---------
XXXXXX-DDDDDDDDD-DDDDDDDDDDDDDDDDDDDDDDDDDDDDDDDDXXXXXXXXXXXXXtt----DDDDDDDDDDDDDDDDDDDDDDDDDDDDDDDDDDDXXXXXDDDDDDDDDDD---DDDDDDDDDDDDDDDDDDDDDDD------
---------------------------------------------------------XXXXXtt-----------------------------------------------------X---------------------------------
--------------------------------------------------------------tt----------------------------------------------------t----------------------------------
------------------------TT-----------D-------------------------------------TT---TT--------TT-----T------------------t------TT----TT--------TT------#---
------------------------tt-----------D-----------------------------t-------tt---tt--------tt----tt------------------t------tt----tt--------tt------#---
------TT--TT--------TT--tt---TT--tT--TT---XT----TT-----------------t---TT--tt---tt----TT--tt---Ttt--------T--------TT--TT--tt-TT--t---TT---tt--TT--XXXX
------tt--ttt----XX-tt--tt---tt-Xtt--tt-X-XX----t----t-------------t---tt--tt---tt----tt-ttt---ttt--------t--------tt--tt--tt----tt---ttt--tt--tt--XXXX