------------------------------------------------------------------------------------------------------D---D---------------D----------------------------
------------------------------------------------------------------------------------------------------D---D---------------D----------------------------
------------------------------------------------------------------------------------------------------D---D---------------D----------------------------
------------------------------------------------------------------------------------------------------D---D---------------D----------------------------
----------------------------------------------------------------------------------------------------------D---------------D----------------------------
---------------------------------------------------------------------------------D------------------------D---------------D----------------------------
---------------------------------------------------------------------------------D------------------------D-------o-------D----------------------------
-------------------------------------------------------------D-------------------D------------------------D------o-----D-DD----------------------------
-M---XXXXX--------XXXXXXXXXXX---TT------o--o-ooo-ooo---------#---D---------------D-D-------o-----------D--DD----o-o------D-------o----------T----------
-XXXXXXXXXXXXSSSSXXXXXXXXXXXXXD-tt------DDDDDDD--###-##--SSSSD-DDD---------DDDDDDDDDDDDDDDDDDDD-D#--TTTD-DDDDDDDDDD----DDD-------#----------t----------
-XXX---------tt-X---------------tt--------------y###-X---##-----------------------------------------tt------------------D--------#------D---DD---------
--------------------------------tt-------------##---#--------X--------------------------------------tt------------------D--------#-----DDDDDDD---------
--------------T--------------T--tt---------------------------t----tt------------------------T--------t----------T------oD-----#-##------DDDDDD---------
-------------tt--------------t--tt---------------------------t----tt---------t--------------t--------tt---------t------oD-----#-##------o----D-----#--X
----------T--ttT--tt---------t--tt------TT-------------------XXTXXXXXXXXXXXXXXX-TTT----TT---t--------tt----TT--Tt---XXXXXXXXXXX-XXXXXXXXXXXXXXXXXXXXXXX
----------t---tX--tt---------t--tt--X-X-tt----------------X-XXXXXXXXXXXXXXXXXXXXttt--X-tt---t--------tt----tt--tt---X-XXXXXXXXX-XXXXXXXXXXXXXXXXXXXXXXX