-------------------------------------D-------------------------------------------------------------------------------------------------DD---------D----
-------------------------------------D-------------------------------------------------------------------------------------------------DD---------D----
-------------------------------------D-------------------------------------------------------------------------------------------------DD---------D----
-------------------------------------D-------------------------------------------------------------------------------------------------DD---------D----
-------------------------------------D-------------------------------------------------------------------------------------------------DD---------D----
-------------------------------------D-------------------------o-----------------------------------------------------------------------DD---------D----
-----------------------o-------------D----D-------------------------------------------------------o---#---------------------------o----DD---------D----
-----------------------oo------------D-----------------------------------D-----------------------o---##-o--------o---------------oo----DD---------D----
XXX--------------------#-o-----------D----XXXXXXXXXX----------t----------D-----------------------##--X-o-o--------o--D--------T-X##X----D----X----D----
XXXX---------TSSSSSSSS#--------------DTT--XXXXXXXXXX------TTXXXTXXXXXX--#D-----------XXX--X---#-###--#--D-----D-DDDSDD---o---Tt-XXXXXXXXXXXXXXD---D----
XXX----##----tt-----#----#------------tt-----------------XXtXXttXXXXXX-y#------DD-g-g-XXXXX#--#-###------D--gg-DD----D---#T--tt----t-XXXXXXXX----------
------DDDDDD-t-----------#------------tt------------------tt--tt------##-------DDDDDDDDD-----##--#-------DDDDDDDD----D---tt-ott------------------------
------D--DDo------o-----##------------tt------------------tt--tt---------------------------------#-------------Dooo------tt--tt--------------------TT--
---Moo----oD-t---oo-----##------------tt------------------tt--tt-----------------------------------------------D-gg------#t--tt--------------------tt--
---XXXXXXXXXXXXXXXXXXXX-XX-X-X--XXXXXXXXXXXX--------------ttt-ttt-----------TTt---XXXXXX------------------XXXXXXXXXXXXXXXXXXXXXXX--------------TT--tt--
---XXXXXXXXXXXXXXXXXXXX-XX-XXXX-XXXXXXXXXXXXX-------------tt---tt-----------ttt--XXXXX-X------------------XXXXXXXXXXXXXXXXXXXXXXX--tt----------tt--tt--