-------------------------------------------------------------------------------D----------------------------------------------D------------------------
-------------------------------------------------------------------------------D----------------------------------------------D------------------------
-------------------------------------------------------------------------------D----------------------------------------------D------------------------
-------------------------------------------------------------------------------D------D---------------------------------------D------------------------
-------------------------------------------------------------------------------D------D---------------------------------------D------------------------
-------------------------------------------------------------------------------D------D---------------------------------------D------------------------
-------------------------------------------------------o-----------------------D-----DD------o------o-------------------------D-------------------o----
M-------------------o-------o----o--------------------o-o----------------------D------o-----o-o----o---------o-----------------D-----------------o-o---
XX-------------o---o-o----o---o-o------o-o-----------o-o-o------X------X-T-----D-------o---o-o-D--o---D-----o-o-------------D--D----------D-----o-o----
XXXXXXXXXXXX-####DDDDDDDDDDDDDDDDD-D#--####XXXXXXXXDDDDDDDXXXXXXXXXXXXXXtXXX---DDDDDDDDDDDDDDDDDDDD--DD--D##--##-----TT-----D--D----------D-----DDDD---
XXXXXXXXXXX--------X------------------##--XXXXXXXX-------XXXXXX----XXXXXtt---------------------------DD-------#------tTo----D--D---Dg-g-gDDD-D---------
--------------------------------------#---------------------------------tt----------------------------D------#-------tt----DDD-DDDDDDDDDDDDDDD---------
----------------TT------TT-----------##-------------TT-----------------tt------o----TT--------TT---------------------tt----DD--------------------------
----------------tt------tt-----------#t--------------t------------------og----oo----tt--------tt---------------------DD----DD--------------------------
----------------tt---T--tt------TT---XX--------TT---tt-----------------XXXXXXXXX-TT-tt---TT---tt-XXXXXXX-X--------XXXXXXXXXXXXXXXXXXXXXXXXXXXXX-TTXXXXX
---------------ttt----t-tt----X-tt--XXX--------tt---tt-----------------XXXXXXXXX-XX-tt--ttt---tt-XXXXXXX-------X--XXXXXXXXXXXXXXXXXXXXXXXXXXXXXXtt--XXX