-------------------------------------------D------------------------------------------D--------D-----------------------------DD------------------------
-------------------------------------------D------------------------------------------D--------D-----------------------------DD------------------------
-------------------------------------------D------------------------------------------D--------D------------------------------D------------------------
-------------------------------------------D------------------------------------------D--------D-----------------------------DD------------------------
-------------------------------------------D------------------------------------------D---------------------------------------D------------------------
-------------------------------------------D---------------------tt------------------DD---------------------------------------D------------------------
-------------------------------------------D-------------o------o--------------------DD--------o------------------------------D----o-------------------
-------------------------------------------D------------o------------------D---------DD--------D------------------------------D-----oo-----------------
M------------------------------------------D----oo--o--o-o--D-XXXXXXXXXX---D--ooo-o--D--------oD---------------XXX-------D----D-----D-------XXXX-------
XXXXXXXX---o-------#DD----T----t-------DDD-DDDD-##DDDDDDDDDDDDDXXXXXXXXXXXXDDDDDDDDDDDD--D----#D---#----###XXXXXXX-------D----D--DDDDDDDDDDDXXXXX------
XXXXXXXD--g-g--------------TXoot----------------#----------------------XXX---------------t----#----#------------------DDgDD--DD------------------------
------tDDDDDDDDD----------tt-oot-----SS------------------------------------------------o------#----------------------DDDDDDDDDDD-----------------------
-------D------------------tt-oo---------D-------------TT-------------------------------otT---##--------------------------DD-----------TT---------------
--------------------------tt-g---oo-----D-------------tt-----------------------o--------tt---##---------------------------------------tt-----------#---
------XXXXXXXXXXXXXX--TT--tXXXXXXXXXXXXXXT------------tt---T-----------------XXXXXX--TT-tt---#X----TT--------------XXXXXXXXXXXXX-TT---tt-------T---XXXX
------XXXXXXXXXXXXXXX-tt--XXXXXXXXXXXXXXtt------------tt---t-----------------XXXXXXX-XX-tt---Xtt---tt--------------XXXXXXXXXXXXXXtt---tt-------t---XXXX