-------D---------------D---------------D-----------------------D---------------------------------------------------D-----------------------------------
-------D---------------D---------------D-----------------------D---------------------------------------------------D----------D-------D----------------
-------D---------------D---------------D-----------------------D---------------------------------------------------D----------D-------D----------------
-------D---------------D---------------D-----------------------D---------------------------------------------------D----------D-------D----------------
-------D---------------D---------------D-----------------------D---------------------------------------------------D----------D-------D----------------
-------D-----D---------D---------------D-----------------------D---------------------------------------------------D----------D-------D----------------
------DD-----D---------D-----o---------D-----------------------D-------------o-----------------o-------------------D----------D-------D------o---------
------DD-----D-------------------------D-----------------------D------------o-o---------------o--------------------D----------D-------D-----o-o--------
-------D-----D--DD-----D---------------D--o---oD-o-o-----------D-----------o-o--------TT-----##--------o--------o--D---D------DD------D----o-o-o-------
-XX----D-----DD-D-DD---D--------D------#--##--#D-#####XXXXXXXX-D-----DDDDDDDDDDDSSS---tt----###-XXXXX---#-#----o#--DD--DD-----DDDDDDDDDDDDDDDDDDD------
----g-DD-------------------------------#--##-y#--------XXXXXXX--------------------XX--tt----###XXXXXX-y#---#---##-------D------------------------------
-DDDDDDD----------------------#--------#---##--------------------------------------SSott-----##-------#----#--##--------D------------------------------
--D----D----------#----oo-----#--------#----------------------------o------TT-------oott-----##-----------##--##--------D----------TT--------TT--------
---M---D---------##----oo-----#-------##----------------------------o-------t-------oo---#---##-----------##--##--------D----------tt--------tt----#---
X--XXXXXXXXX-TX-XXXXXXXXXXXX--XX--TT--XX--XX------------------------o----TT-t-----XXXXXXXXX--XX-----------XX--XXXXXX-XX-X-----TTT--tt--TT----tt--XXXXXX
---XXXXXXXXX-XX-XXXXXXXXXXXXX-XX--tt--XX--X------------------------X--X--tttt-----XXXXXXXXX--XX-----------XXX-XXXXXXXXX-XXXXX-tt---tt--ttt---tt--ttXXXX