----------------DD-----D-----------D-----------------------D-------------------------------------------------------------D---DD----D-------------------
----------------DD-----D-----------D-----------------------D-------------------------------------------------------------D---DD----D-------------------
----------------DD-----D-----------D-----------------------D-------------------------------------------------------------D---DD----D----------o--------
-----------------D-----D-----------D-----------------------D-------------------------------------------------------------D---DD----D-------------------
-----------------------D-----------D-------------------------------------------------------------------------------------D---DD----D-------------------
-----------------------D-----------D-------------------------------------------------------------------------------------D----D----D----------!--------
-----------------------D-----------D-----------o---o---------------------------------o-----o---------------------------------DD----D-------------------
--------------------------------D--D------------o-o-o-------------------------------o-o---o-o--------------o------------------D----DD------------------
-------D-------ooooo---D-----------D----------D-D--o-o---o---------X-------XX----X-o-o---o-ooo------XX------DD----------D-----D-----D------------------
--M---#D-------##-##---#D-------DDDD-----DDDDDDDDDDDDDDDo-o-TTXXXXXXXXXXXXXX##--XXX-DDDDDDDDDDD##-XXXX-------DD-----D--DD-----D-----D------------------
yy#---X#-##--------#----D-----------DDDD---------------D-o-XttXXXXXXtXXXXXX-----------------------XX---------DD---------------D-D--DD---Dg-DDD---------
##----##-##-------#-----D------------------------------DDDD-tt--------------------------------------------DDDDD--------D----DDDDDDDDDDDDDDDDDD---------
------##-#---o--------ooD-------------------TT--------------tt-----------------------------------------------DD--------D-------------------------------
------##-#--oo--------ooD--------------------tt-------------tt-----------------------------------------------DD--------D--------------------------##---
------XX-XXXXX--------XXXXXXXXXX-XTtt---TT---tt--TT--XXXXXXXXXX--------------XXXXX---T--------------------XXXXXXXXXXXXXXXXXXXXXXXXXXXXXXXXXXXXXXXXXXXXX
------XX-XXXXXX------XXXXXXXXXXX-tttt---tt--tt---t---XXXXXXXXXXX------------XXXXXXX--tt-------------------XXXXXXXXXXXXXXXXXXXXXXXXXXXXXXXXXXXXXXXXXXXXX