-----------------------------------------------------------------------------------------------------------------------------------D-------------------
-----------------------------------------------------------------------------------------------------------------------------------D-------------------
-------------------------------------------------------------------------------------------------------------------------------#---D-------------------
-----------------------------o-----------------------------------------------------------------------------------------------------D-------------------
----------------------------o------------------------------------------------------------------------------------------------------D----D--------------
-----------------------------------------------------------------------------------------------------------------------------------D----D--------------
M-----o---------o----------#-----------------------------------------------------------o--o--------------oo------------------------D----D------------X-
XXXX-o-o--o------o--------#-----------------------------------------------------------o-oo-o------------o-oo----------------------------D---------XXXXX
------o-o--D----XXXXXXXX--#---o---o---#D-XXXXXXXXXXXXXXXXX-----D------------o--------o-D---o------XXXXX-DDD-o-------------XXXXXXXXXXX--DD----XXXXXXX---
----DDDDDDDDDDDDXXXXXXXX-###--##-###--##-XXXXXXXXXXXXXXXXXX----D-----------o-o---DDDDDDDDDDDDDDXXXXXXXXXDDDDDDDD-----------XXXXXXXXXX--DDDDDDDXXX------
-----------------------#--#--y#---#----------------------------D-----D--g-g-o-------------------XXX----------------------------------------------------
-----------------------D--###----------------------------------D---DDDDDDDDDDDD------------------------------------------------------------------------
-------TT-----------------------------------------------------DD-----D---------------TT----TT-------------------------------------------T--------------
-------tt-----------------------------------------------------DD-----D---------------ttt---tt---------------------o---------------------t--------------
----T--tt-----------------------------------------------------XXXXXXXXXXXXX----------ttt---TT--X-----------T--TTXXXXXXXXXXXXX--TT---T--tt----TT--------
----tt-tt-----------------------------------------------------XXXXXXXXXXXXX----------ttt---tt--X-----------t--tt-XXXXXXXXXXXXX-tt---t--tt----tt--------