-------------------------------------------D---------------D-----------------------D-------------------------------------------------------------------
-----------D-------------------------------D---------------D-----------------------D-------------------------------------------------------------------
-----------D-------------------D-----------D---------------D-----------------------D-------------------------------------------------------------------
-----------D-------------------------------D---------------D-------D---------------D-------------------------------------------------------------------
-----------D-------------------------------D---------------D-------D---------------D-----------------D-------------------------------------------------
-----------D-------------------D-----------D---------------D-------D---------------D-----------------D-------------------------------------------------
-----------D-------------------D-----------D-----------o---D-------D---------------D-----------------D---------------------------------#-----o---------
-----------D-------------------D-----------D----------o----D-------D---------------D-----o-------o-------------------------------------#----o-o--------
M----------D-------------------D------DD---D---------oDoD--D-------T-------o--o----D--g-o-o-----o---DD--------o------------o-------o--##--o------------
XXXXXXXD--DDDDDDDDDDDD---------D---DDDDDDD-DDDDDDDDDD--S---D--D-D--D---DDD#DDD############DDDDDDD---DDDDD-##--#####--##---##---##D##--#DDDDDDDD--------
-XX---------------------------tt-------------------------------TXo-t---------------------------------------#-y#--##---##---#--y#---#-------------------
-----------------------------ott------------------------------ttooot----------------------------------------##--------##----###------------------------
-----------T-----------------ott------TT----------------------ttooot--------------------------TT----------------------##---------------------TT--------
-----------t-----------------gtt------tt-------------g--------ttogtt--------------------------tt---------------------------------------------tt----#---
------TTT--t---TT--------XXXXXXXXXXXX-tt-------TTT-XXXXXXXXXXXXXXXXXX-TT----------------------XtXXX-X---TT-------------------------------T---tt----XXXX
------tt--XtX--tt--------XXXXXXXXXXXX-tt-------tt--XXXXXXXXXXXXXXXXXXXtt----------------------XXXXXXXX--tt-----------------------------------tt----XXXX