-----------D---------------------------------D-------------------------D------D------------------------------------D-----------------------------------
-----------D---------------------------------D-------------------------D------D------------------------------------D-----------------------------------
-----------D---------------------------------D-------------------------D------D------------------------------------D-----------------------------------
-----------D---------------------------------D-------------------------DD-----D------------------------------------D-----------------------------------
-----------D---------------------------------D-------------------------DD----o-------------------------------------D-----------------------------------
-----------D-----------------------------------------------------------DD----DD------------------------------------D-----------------------------------
-----------D-------------o-------------------------D-----o-------------DD------------------------------------------D-----------------------------------
M-----------------------o-o------------------------D----o-o------------DD-----------------------------------oo-----D---------------------oo------------
XXXXXXXXX--D-D-D-------D-DDDD----D---------------------o-ooo--o-----D--D---XXXX--XTT------------------D----oo-o------oo-ooo-------------o--o-----------
XXXXXXXXXXDDDDDDDDD-DDDDDDDDDD---------------DDDDDDDDDDD-##---#-###DDDDDDDDXXXXXXXTXXXXXX-------------D----######XXXXXD-####D----------DSSSSSD---------
---------------------------------DD-g-g-gggg--------------#--y#----------------X-XttXXXXXX--T---------D----------XXXXX---------------------------------
---------------------------------DDDDDDDDDDD---------------##y--------------------tt--------t--o-----DDDDDD--------------------------------------------
-------------------T---------T------------------------TT--------------------------tt--------t-oo---ooD---------------------------------TT--------------
-------------------t---------t------------------------tt-------------------------ott--------t-go---oDD---------------------------#-----tt-----oo---#---
-------------TTT---t----TT---t---XXXXXXXXXXXX----TTT--tt---------------------TT---tt------XXXXXXXXXXXXXXXXXX----------------XXXXXXXXXX-Xt---XXXXXXXXXXX
-------------ttt--ttt---tt--ttt--XXXXXXXXXXXXX---ttt--tt---------------------tt---tt------XXXXXXXXXXXXXXXXXX-t-------------XXXXXXXXXXXXtt---XXXXXXXXXXX