----------------------------------------DD-----------------------D-------D--------------------------------D-----------------------D--------------------
-----------------------------------------D-----------------------D-------D--------------------------------D-----------------------D--------------------
-----------------------!-D---------------D-----------------------D-------D--------------------------------D-----------------------D--------------------
-----------------------------------------D-----------------------D-------D--------------------------------D-----------------------D--------------------
-----------------------------------------D-----------------------D-------D--------------------------------D-----------------------D--------------------
-------------------------D--------------DD-----------------------D-------D------o-------------------------D--------------------D-----------------------
--------o--------------------------------D-------o---------------D-------D-----o-------------------------D-------------oo------D-------o---------------
XX-----o-o------o-o----------------------D------o-o--------------D-------D-----------------------------D-D-------------o-o-----D------o----------------
XXXXXXXXX-o-D--o-o----XXXXXXXXXXXXXXXXX--X-------o-o----------o--D-------------#-----------------------D-X------oo----o-o-D----D-----o-o-X-----D-------
-XXXXXXXDDDDDDDDDDDDDDDXXXXXXXXXXXXXXXXXXXSSSSS--DDDDDDDDDDDDDD--D------D-----##----SSSS-T-X-T---TXXXX-XDDDDD#--#SDDDDDDDDDDD--DDDDDDDXXXSSSSSSS-------
-----------------------------------------D----S##----------------D-----DD-----##------S-tt-X-tXXXttXXX-------#-y#--------------------------------------
---------------------------------------o-------SSS---------------DDDDDDDD-----##-------ott---tt-ttt-----------##---------------------------------------
--------TT-----------------------------oo-------oDD--------------DDD----D--#--##-------ott---tt--tt-------------------------------------------oD-------
-M------tt----------------------------togD------oo---------------oD-----D--#--##--------tt---tt--tt----------o--------------------------------oo---#---
-XXXXXXXXXXXX--TT----TTT-------------XXXXXXXXXXXo---TT-----TTX-XXXXXXXXXXXXXX-XXXXXXXXXXtXt--tt--tt------TT--X-----TT---TT----TT------------XXXXXXXXXXX
-XXXXXXXXXXXXX-tt--X-ttt-----------XXXXXXXXXXXXXXXX-tt-----ttX-XXXXXXXXXXXXXX-XXXXXXXXXXXtX--tt--tt------tt--X-----tt---tt----tt-----------XXXXXXXXXXXX