-----------------------------D---------D--------------------------------------------------------------------D----------D------------------D------------
-----------------------------D---------D--------------------------------------------------------------------D----------D------------------D------------
-----------------------------D---------D--------------------------------------------------------------------D----------D------------------D------------
-----------------------------D---------D--------------------------------------------------------------------D----------D------------------D------------
-----------------------------D---------D-----------D--------------------------------------------------------D----------DD----------o------D------------
-----------------------------DD--------D-----------D--------------------------------------------------------D----------DD----------o------D------------
-----------D---o--------------D--------D-----------D-----o--------------------------------------------------D----------DD-----------------D------------
M-------------o-o------o------DD-------D-----------D----o-o------------------------------------------------DD-----------D-----------------D------------
XXXXXXX------o-o-o----o-oo-----DD------D-----------D---D-o-o-----#--------------------------------------D--DD--------D--D-----------------D--D-o-------
XXXXXX----DDDDDDDDDDDDDDDDD-----D------D---DDDDDD--DDDDDDDDDDD--#D-------#---o----oTT-X--SSSSSSTXXXXXXXXXXXXXXXDX----D--D------DD--DDDDDDDDDDDDD-------
-------------------------------DD----------------------------#-y#----##-##----TTToott-X-----X--tXXXXXXXttXXXXXXt-----D--DD-g-ggD-----------------------
----------------------------DDDDDD----------------------------##-----##-##----tttoott---------tt-------tt-----tt--------DDDDDDDD-----------------------
----------------------TT--------DD----------------------TT-----------##-##----tt-o-tt---tt----tt-------tt------t-----------------------------------#---
----------------------tt---------D----------------------tt-----------##-##----tt-ggtt---tt----tt-------t-------t--------------------------------t-##---
-----X---TT---tT--TT--tt--XXXXXXXXXXXXX---TT----TT----T-tt---TT------XX-XXXXXXXXXXXXXXXXXXXXX-tt-------t-------tT----XXXXXXXXXXXX--TT--TT---TT-XXXXXXXX
-----XXX-tt---tt--tt--tt--XXXXXXXXXXXXX-X-t---X-tt---X--tt---tt------XX-XXXXXXXXXXXXXXXXXXXXXXtt-------t-------tt--XXXXXXXXXXXXXXX-tt--tt---tt--X-XXXXX