-----------------------------------D---------------------------------------------------------------------------D---------------------------------------
-----------------------------------D---------------------------------------------------------------------------D---------------------------------------
-----------------------------------D---------------------------------------------------------------------------D---------------------------------------
-----------------------------------D---------------------------------------------------------------------------D---------------------------------------
-----------------------------------D---------------------------------------------------------------------------D---------------------------------------
-----------------------------------D---------------------------------------------------------------------------DD--------------------------------------
-----------------------o-----------D---------------------------------------------------#-------o---------------DD--------------------------------------
M------o-o------------o------------D---------------------------------------------------#------o-o---oo---------D-----o---------------------------------
XXXXX-o-o-oD----o-o--o-o--D----D---D-----------------TT--#-----------------------------#-----o-o-o-oo-o--------DD---o-o-----------------o--------------
XXXXDDDDDDDDDD--#DSSST-SSSSSS--D---D-----------o-----tt--#-------------------DD------------DDDDDDDDDDDDDDDDDDD-DDDDDDDDD-----o-o-------#-D-------------
-------------#-y#-X-tt---------D---D------#---#--TT-ott--#-------------------D----------------------------------------------gDg-g-Dgg-D-o--------------
--------------##----tt---------S---D-----#----#--ttoott-##-----------D-------DD-------------------------------------------DDDDDDDDDDDDDD---------------
-------TT-----------tt--oo---------D---------##--ttoott-##----------------oo-D-----#---------TT--------------TT----------------------------------------
-------tt-----------tt--go-------------------##--ttggtt-##---------------ooo-D----##---------tt--------------tt----#--o----------------------------#---
--TT---tt-----X--XXXXXXXXXXXXXXX-------XXXXXXXXXXXXXXXXXXXXXXXXXXXXXXXXXXXXXXXXXXXXXXXX-TT---tt---TT-----TT--tt---TTXXXXXXXXXXXXXXXXXXXXXXTT---TT--XXXX
--tt---tt-----X-XXXXXXXXXXXXXXX----------XXXXXXXXXXXXXX-XXXXXXXXXXXXXXXXXXXXXXXXXXXXX-XXtt---tt--ttt--XX-tt--tt---ttXXXXXXXXXXXXXXXXXXXXXXt----tt--XXXX