-------------------------------------------------------------------------------------------------------------DD---------------------------D------------
--------------------------------------------------------------------------------------------------------------D---------------------------D------------
-----------D--------------------------------------------------------------------------------------------------D---------------------------D------------
-------------------------------------------------------------o------------------------------------------------D---------------------------D------------
-------------------------------------------D----------------o-------------------------------------------------D---------------------------D------------
-----------D-------------------------------D---------------o--------------------------------------------------D---------------------------D------------
-----------D-------------------------------D---------------#---------o----------------------------------------D---------------------------D------------
M--------o-o-------------------------------D--------------##---------o---------------------o----------------------------------------------D------------
XXXXXXX-o-oXXXXXXXXXXXXXXXX-oo--o----D-----D---------TTo--##---------------TT---------o-o-o-o-----o-o---------o-ooo-----oo----------------D------------
XXXXXXX-DDDDDXSSSD--XXXXXXXX#--y##---D-D---DDD------XTT#X-##--#--##D#---X-XttXX#XDDDDDDDDDDDDDDDDDDD##--#-##--#####D----##---#---------#--D------------
----------------------------##yy#------D-------------t----##--##-X-----TXoott------------------------#-y#--#--#---------##--##-----T#-tt-XXt-XX--------
-----------------------------###---------------------t----#----#-#-----tooott-------------------------##----#------------#####-----tt-tt---------------
----------------------oo--------------------DD-------t-----------------tooott------TT-------------------------------------------------tt---------------
-----------------------g---------------------D-------t-----------------ttggtt------tt-----------------------------o-------------------tttg--t-----##--X
------------------XXXXXXX--------------XXXXXXXXXXXXXXt------------XXXXXXXXXXXXX--T-tt----T-------------------XX---XXXXXXXXXXXXXXXXXXXXXXXXXXXXXXXXXXXXX
------------------XXXXX-X--------------XXXXXXXXXXXXXXt------------XXXXXXXXXXXXXX-tttt---tt-----------------X--X-XXXXXXXXXXXXXXXXXXXXXXXXXXXXXXXXXXXXXXX