---------------------------D--------------------------------------------------------------------------------------------------D------------------------
---------------------------D--------------------------------------------------------------------------------------------------D------------------------
---------------------------D--------------------------------------------------------------------------------------------------D------------------------
---------------------------D--------------------------------------------------------------------------------------------------D------------------------
-----------o---------------D--------------------------------------------------------------------------------------------------D------------------------
----------o----------------D---------------------------------------------------------------D----------------------------------D------------------------
M--------------------------D-------------o-----------------------------D------------o------D-----------------------------------------------------------
X--------------------------D-------------------------------------------D-----------ooo-----D---------o------------o--------------T---------------------
XXXXXXXD------D------D--D-DD--D--D--D-----------------##---#D-XXXXXXXX-Do-----------o-o----D--------o-o----------o-D-------------tX-XXXXXXXXXXXXXX-----
-XXXXXX-------D------DDDDDDDDDDDDDDD-DD----------------#---###XXXXXXXXXDDDDD-----D-X-DDDD--D##--##XXXXXTTXXSSSSSDDDDDD-DD----TTXottXXXXXXXXXXXXXXX-----
---------DD-g-D----g---------------------#-----oo------#-------------------------t-----#--------XXXXXXXttXX---------------D--ttoott--------------------
--------DDDDDDDDDDDDDD-------------------D---ttoo------D-------------------------tt----#--------------Xtt-----------------DD-ttoott--------------------
--------DD--------------TT-------TT-----DD---tt-o-----oD-------------------D-----tt---##---------------tt--------------------ttoott--------------------
--------o---------------tt-------tt-----#D---tto------o--------------------t-----ttt--#t---------------t---------------------ttg-tt----------------#---
------XXXXXXXXXXXXXXXXX-tt---TT--tt--XXXXXXXXXXXXXXXXXX----------------t---tT--XTXXX--XX--T----T-------t-------TT-----TT-XXXXXXXXtt------------XXXXXXXX
------XXXXXXXXXXXXXXXXX-tt---tt--tt---XXXXXXXXXXXXXXXXX----------------t---tt--XtXXX--XX-------t-------t-------tt-----tt-XXXXXXXXtt------------XXXXXXXX