---------------D-------D---------------------------------------------------------------------------------D---------------------------------------------
---------------D-------D---------------------------------------------------------------------------------D---------------------------------------------
---------------D-------D-------!-------------------------------------------------------------------------D---------------------------------------------
-------D-------D-------D---------------------------------------------------------------------------------D---------------------------------------------
-------D-------D-------D---------------------------------------------------------------------------------D---------------------------------------------
-------D-------D-------D---------!-----------------------------------------------------------------------DD--------------------------------------------
-------D------DD-------D-----------------o-----------------o---------------------------------------------DD--------------------------------------------
M------D-------D-------D----------------Xoo------------o---o-----------------------o-------------o--------D--------------------------------------------
XXXXXX-D-------D-------D---D----XXXXXXXXXXX--o-oo-----#---##-----------oo---oo-D--o-oo--oo------o-o-------D---T--------TT------------------------------
XXXXXXXDDDDDDDDDDDDD-D-D---DD---XXXXXX--Xt-D#####---#D-#-D#D------TTXXXX#---####-XXD##--#D##XXXXXXXX------D---t--------tt-XX-----SD------D-------------
-XX-------------------TToott--------------------#-y##-------------ttXXXX##-y#--------#-X#-XXXXXXXXXXX-----TT--tD--TTToott-XX--TT---------D-------------
----------------------ttoott---------------------##---------------tt------##----------##------------------tto-t----ttoott-----tt---------D-------------
-----------TT---------ttoot-----TT---------------------------T----ttt-------------------------------------tto-t----ttoott-----tto------DDDD--D---------
-----------tt---------ttggtt----tt---t--tt-------------------t----ttt-------------------------------------ttggt----ttggtt-----ttg------o-DDD-D---------
-------TT--tt-----TTXXXXXXXXXXXXtt---t--tt---------------T---X-XX-ttt--------------------t---------------XXXXXXXXXXXXXXtX--XXXXXXXXXXXXXXXXXXXXXXXXXXXX
-----X-tt--tt--t--tt-XXXXXXXXXXXXt--tt--tt---------------t---t-XXXttt--------------------t----------------XXXXXXXXXXXXXtX-XXXXXXXXXXXXXXXXXXXXXXXXXXXXX