-----------------------------------------------------------------------D------------------DD-----------------------------------------------------------
---------------D-------------------------------------------------------D------------------DD-----------------------------------------------------------
---------------D-------------------------------------------------------D-------------------------------------------------------------------------------
---------------D---------------------------------------------------------------------------D--------------------------o--------------------------------
-----------------------------------------------D------------------------------------------D--------------------------o---------------------------------
-----------------------------------------------D---------------------------------------------------------------------o---------------------------------
----------o------------------------------------D------------------------------------------D--------------------o----o----------------------------------
---------o-o-----------------------------------D--------------------------------------------------------------o-o--o-o-----------------------D---------
M-XXXXX-o-o--D---DD-oo----ooo------------------D-------------------------------o---------D-----------------D-D-o-o--o-oXXXXXXXXXXXXX---------DD--------
XXXXXXXXDDDDDDDDDDDDDDDD-##D--##-###XX-----DD--DDDDDD----------##--------------#---------D--DDD--DDD--DDDDDDDDDDDDDDDDDXXXXXXXXXXXXXX---t----DD--------
XXX------------------------#-o#----XXXX----t---------------#-y#---------------##------D-DDD--------------------------------------------#-t---DD--------
----------------------------##------------tt----------------##-------------#--##----DDD-DD---------------------------------------------##DDDDDDDD------
--------------TT--------------------------ttt--------------------------o--##--#----------D---------------------TT----TT----------------##--------------
--------------tt--------------------------ttt----------o--------------o#--##--#--------------------------------tt----tt----------------##----------#---
--------TT----tt---TT---------------------ttt---TTT--XXXX--------XXXXXXXXXXXXXXXXXXXXXXXXXX-TTX-XXXXXX-XX--TT--tt----tt----------------XXXXXXXXXXXXXXXX
------X-tt----tt---tt---------------------ttt---tt---XXXX--------XXXXXXXXXXXXXXXXXXXXXXXXXXXttX-XXXXXXXXXX-tt--tt----t-----------------XX-XXXXXXXXXXXXX