--------DD-----D---D-----------------------------------------------------------------------------------------------------------------------------------
---------D-----D---D-----------------------------------------------------------------------------------------------------------------------------------
---------D-----D---D-----------------------------------------------------------------------------------------------------------------------------------
--------DD-----D---------------------------------------------------------------------------------------------------------------------------------------
---------D-----D---------------------------------------------------------------------------------------------------------------------------------------
--------DD-----D-----------D-------------------------------------------------------------------------------------------!--------------!----------------
---------------D--------------------------------o------------------------------------------------------------------------------------------------------
M--------------D-------------------------------ot---#D--o-------------------------##-------------------------------------------------------------------
XXXXXXXXXXXXXXoD-------o---------D------------X-#-y##--o-o-o----------o---oDDDXXXX##--##----o---TTT------TTXXX------XXXXX-XXXXXXXXXXXXXXX------#-------
XXXXXXXXXXXXXXXXXXXXX-##---D----#DD--------#-----###---DDDDDD--------##--####XXXX-##--##---o-TTXXtXXX----tt---------XXXXDDDXXXXXXXXXXXXXSSSSSSDD-------
-----------------XXXX-X#----D--gDD----------##----#--------------#----#-y##--------#------X--tXXXtXX-TToott---------------------XX---------------------
-----------------------#--DDDDDDDDDD--------##-------------------#-----##----------#---------tto-t---ttoott------------------------------------D-------
-----------------------#---------------##---##-------TT----------#---------------------------ttott---ttoott-----------TT----------------------#D-------
---------------------------------------##---##-------tt---------##---------------------------ttgtt---ttggtt-----------tt---------t-------------D-------
--------------------------XXXXXXXXXXXX-XXX--XXX------tt---TT--XXXXXXX--------------------XXXXXXXXXXXXXXXXXXXXXXX--TT--tt----TT--tt---TT---TT---TT--XX--
--------------------------XXXXXXXXXXXXXXXX--XXX------tt---tt--XXXXXXX------------------XXXXXXXXXXXXXXXXXXXXXXXXXX-tt--tt----tt--tt---tt---tt--Xtt--XX--