-------------------------------------------------------------------------------------------------------------------D------------------DD---D-----------
---------------------------------------------------------------------------------------------------------------------------------------D---D-----------
---------------------------------------------------------------------------------------------------------------------------------------D---D-----------
---------------------------------------------------------------------------------------------------------------------------------------D---D-----------
---------------------------------------------------------------------------------------------------------------------------------------D---D-----------
-----------------------------------------------------------t---------------------------------------------------------------------------D---D-----------
-----------------o-----o------------------------------------------------------o--------------------------------------------------------D---D-----------
M---------------o-o---o-o------------------------------------------------o---o-o-----------------------------------------------o-------D---------------
XXXXXXX----------o-o-o-o-o----------------XX---o------XXXXXXXXXXXXX-----o-oDD-o-o-D------T-------------o---XXXXX------#D------o-o------D----D----------
XXXXXXX-#D----DDDDDDDDDDDDDDDD---###--##XXXXXX-X#D##--XtXXXXXXXXXXXX-DDDDDDDDDDDDDDDDS-X-T------------####XXXXXX--##--##----##DDDDDDD--D----DDDDDD-----
-------------------------------#-###---t-----XXy#-----tt---------------------------------tt--------D-D-----------y#---##---------------D---------------
-------------------------------####-----------##------tt--------------------------------ott--------D------------##-----#---------------D---------------
---------------------------------#--------------------tt--------------------T----------oott--D-------------------------#--------tt---------------------
------------------------------------------------------tt--------------------tt---------oott--D-------------------------#--------tt---------------------
-------------TT-----TT-----T--------------------------ttT--------------TT---tt--TTT--XXXXXXXXXXXXX---------------------XX----TT-tt--XXXX--TT-----TTXXXX
----------XX-tt-----tt-----t---------------------------tt------------X-tt---tt--ttt--XXXXXXXXXXXXXX--------------------XX----tX-ttX--XXXXXtX--XX-tt-XXX