-------------D------------------------------------------------------------------------------------------------------------------------D----------------
-------------D------------------------------------------------------------------------------------------------------------------------D----------------
-------------D------------------------------------------------------------------------------------------------------------------------D----------------
-------------D------------------------------------------------------------------------------------------------------------------------D----------------
-------------D------------------------------------------------------------------------------------------------------------o-----------D----------------
-------------D-------------------------------------------------------------D---------------------------------------------oo-----------D----------------
-------------D-------------------------------------------------------------D-----------------------------------------------o---------------------------
XXX-----------D--------------o-o-------------------------------------------D------------------------------------------------o---oo---------------------
-XXXX----D---DD-------------DDo-o----oo-o--------------o--##---------------D-----------------ooTXXXXXXXXXXX--------o-TT-oD-D---D-D-o-D-o---------------
--------------D-DD-------DDDDDDDDDDDDDDDDD-------D----##--##--#-##--X--D---D----oDSSSSS-#----XttXXXXXXXXXXXTTXXXXTTX-tt-DDDDDDDDDDDDDDDDDDDD-----------
-----------------------#-----------------------#-D----##--#---#-XDDXX-DDDDDDDDDD---------------t-----------ttXXXXtXXott--------------------------------
----------------#-----#-------------------------SD----##--#----------DDDDDDDDDDDD---------#----t-----------tt----tt-ott--------------------------------
---------------##----###---------TT-------------oD----##--#------------------------------------t-----------tt----tt--tt-----------TT-----TT------------
-M------D------##-----##---------t-----o--------oD----##--#-----------------------------------tt-----------tt----tt--tt-----------tt-----tt--------#---
XXXXXXXXXXXXXX-XXXX-XXXXXXX---TT-t---XXXXXXXXXXXXXXXX-XX-XXX-----------XXXXXXXXXX--TT------XXXXtX----------tt----tt--tt-------TT--tt-----tt-----XXXXXXX
XXXXXXXXXXXXXX-XXX---XXXXXXXX-tt-t-----XXXXXXXXXXXXXX-XX-XX----------XXXXXXXXXXX-X-tt-----XXXXXXX----------tt----tt--tt------tttt-tt-----tt-----XXXXXXX