---------------------------------------D---------D-------------D-------------------------------------------DD------------------------DD---D------------
---------------------------------------D---------D-------------D-------------------------------------------DD------------------------DD---D------------
---------------------------------------D-----------------------D-------------------------------------------DD------------------------DD---D------------
---------------------------------------D-----------------------D--------------------------------------------D-------------------------D---D------------
---------------------------------------D-----------------------D--------------------------------------------D-------------------------D---D------------
---------------------------------------D-----------------------D--------------------------------------------D------------------------DD---D------------
---------------------------------------D-----------------------D---o----------------------------------------D------------------------DD----D-----------
M--------------------------------------------------------------D----o---------------------------------------D-------------------------D----D-----------
XXXXXX---------o-------XXXXXXXooo---##XXXXXXXXXXXXXXXXXXXXXXX---D----o-----------TTXXXXXX-------------------DD---D---------TTT-T-----DD----D------D----
XXXXXt--------XXXXXXXXXXXXXXXX###-####XXXXXXXXXXXXXXXXXXXXXXDDDDDDDDDDD---o------ttXXXXXXXXXXXXX------------D---DD----------ttXXtXX--DD----D------D----
X----t-----------XXXXXXX-------#-y#-------------------------------------To---TT-ott-----XXXXXXXXX--------------ttD-----DD-o-ttXXtXX--------DDDD--DD----
-----t---DDDDDD-----------------##--------------------------------------oo----toott----------------------------tt----DDDDoottt-tt----------DDDDDDDD----
---------------------------------------------------------------TT-------oo----toott------------------------t---tt--------oottt-tt-----------------D----
---------------------------------------------------------------tt-------to----togtt-----------------------tt---tt--------gg-t--tt-----------------D----
-----XXXXXXXXX----------------------------------------------T--tt----TT-XXXXXXXXXXXX-------------------T--tt---tXXXXXXXXXXXXXXXXX---TT---XXXXXXXXXXXXXX
-----XXXXXXXXXX---------------------------------------------t--tt----tt-XXXXXXXXXXXXX---------------------tt---ttXXXXXXXXXXXXXXXXXX-tt--XXXXXXXXXXXXXXX