-----------------------------------------------DD------------------D-------D---------------------------------------------------------------------------
-----------------------------------------------DD------------------D-------D---------------------------------------------------------------------------
-----------------------------------------------DD------------------D-------D---------------------------------------------------------------------------
-----------------------------------------------DD------------------D-------D---------------------------------------------------------------------------
-----------------------------------------------DD------------------D-------D---------------------------------------------------------------------------
------------------------------------------------D------------------D-------D---------------------------------------------------------------------------
--------------------o---------------------------D------------------D----------------------------------------------------o------------------------------
-------------------o--o--------------------o-------------------o---D---------------------------------------------------o-o-----------------------------
---------------D--o-oo-o--TT--------------##----D------D------o-o--D-------------------TT---D-----------oo----------o-o-D-oD---------------------------
---------------DDDDDDDDDDXtt-XXSX---SS----##-#--XXXX---D-------o-o-D-------T----SSS----D---DDDDDDD------##D####DDDDDDDDDDDDDD--------------------------
------TT-----g-D----------tt--ttXo--------##----XXXX---D----------DD-----ott---t---SS--t----------------#----------------------------------------------
------tt-D-DDDDD----------tt--tt-o--------#-----------SD-----------D---#--tt--ot----So-D---------------#----------------------------o------------t-----
------tt-D-----D-----TT---tt--ttto-----#--#-----------oD--------------##--tttoot-----ooD----------------------------TT-------------ooo-----------tt----
-M----ttoD-----D-----tt---tt--tt-g-----#--#-----------oo--------------##--tt--tt-----o---------o--------------------tt------------ooo------------tt#---
XXXXXXXXXXXXXXXXX-TT-tt---tt--tXXXXXXXXX-XX-----------oXXXXXXXXXXXXX--XX--XXXXXXXXXXXXXXXXXXXXXXXXXXX-TT--------T---tt---TT-XXXXXXXXXXXXXXX--TT--XXXXXX
-XXXXXXXXXXXXXXXX-XX-tt---tt---XXXXXXX-X--X----------X-XXXXXXXX-XX----XX--XXXXXXXXXXXXXXXXXXXXXXXXXXXX-t------------tt--ttt--XXXXXXXXXXXXXXX-tt--tXXXXX