-----------D-------------------------------------------D-----------------------------------------------------------------------------------------------
-----------D-------------------------------------------D-----------------------D-----------------------------------------------------------------------
-----------D-------------------------------------------D-----------------------D-----------------------------------------------------------------------
-----------D-------------------------------------------D-----------------------D------------------------------------------------------------------o----
-----------D-------------------------------------------D-----------------------D-----------------------------------------------------------------o-----
-----------D-------------------------------------------D-----------------------D-----------------------------------o----------------------------o------
-----------D-----o-----o-------------o----------o------D-----------------------D---------------o-------------------#----o----------------------o-------
-----------D-----oo---o-o----------------------o-o-----D------------D----------D-----oo--------#------------------##---o--o------------------------XXXX
M-----TT---D----o-oD-o-o-o-o----XXXXXXXXXX----o-o-o----XXXXXXX------D----------D----o--o------##-------X-XXX------##--o--o-o-------------------DD-DXXXt
XXXXXXXD---DDDDDDDDDDDDDDD#DDXXXXXXXXXXXXXXDDDDDDDDDDDXXXXXXXXD-----D----------DDDDDDDDD--##--##--###-##-XXX---#--##--DDDDDDD--------------------------
XXXXXXtt--------------------XXXX-----------------------X------------D---------------------##--#--------#-----------------------tt---------DD-----------
-----Xt-------------------------------------------------------------DD----------------------#------------------D---------------tt-------DDDDDDD--------
------o-------TTT---------------------------------------------------DD----o--------TT-------------------------Xo---------------#t--#-----D----D--------
------oo------ttt--------------------------------t-------------------D----o--------tt--------------------------o---------------tt--#--------o-D----#---
-----XXXXXXX--ttt--------------------T--------TT-t-----------TT--XXXXXXXXXXXXXXXT--tt-------------------------X----TT-----TT---XXXXXXXXXXXXXXXXXXXXXXXX
------XXXXXXX-ttt--------------------t--------tt-t-----------tt-XtXXXXXXXXXXXXXXX--tt------------------------------tt-----tt---XXXXXXXXXXXXXXXXXXXXXXXX