-------------------------------------------D-------------------------------------D---------------------------------------------D-----------------------
-------------------------------------------D-------------------------------------D---------------------------------------------D-----------------------
-------------------------------------------D-------------------------------------D---------------------------------------------D-----------------------
-------------------------------------------D-------------------------------------D---------------------------------------------D-----------------------
-------------------------------------------D-------------------------------------D---------------------------------------------D-----------------------
-------------------------------------------D-------------------------------------D---------------------------------------------D------D----------------
-----oo---------o------------o--------o------------------------D-----------------D----------------------------o------o---------D------D----------------
M----X---------o-o-----o----o-o-----X#-o-----------------------D-----------------D-----------oo-------------oo-o-----oo--D-----D------D----------------
XXXXXXXXXXXX--o-o-o---o-o---o-oo---o--o----------o------XXXXX--D-----T-----------D-------------------------o--o-D----o-o-------D-----------------------
XXXXXXXXXXXX--##-DDDDDDDDDDDDDDDDDDDDDDDD-------o#-----XXXXSSSSS-----D--------D--D-----------SSSD------DDDDDDDDDDDDDDDDDDD-----DDDDDDDDD---D-----------
--------------##--------------------------DDDD-o----o----------------t--------------------------D---------------------------------------#SDD-----------
---------------------------------------------DDDDDDD--------------SSSt-------------------o------D----------------------------------------DDD-----------
-------------------------------------------------------------------ooD------------------ooo-----DD----------TT-----------------TT----------------------
-------------------------------------------------------------------ooD----------------o-ooo-----DD----------tt-----------------tt------------------#---
---------------------T---TT------------------T-----------X------XXXXXXXXXXX--TTt---TTXXXXXXXXXXXXXXXXXXXXX--ttt---TT---TT--TT--tt----TX-XXXXXXXXXXXXXXX
---------------------t---t---------------------------------------XXXXXXXXXXX-ttt---tt-XXXXXXXXXXXXXXXXXXXXXXttt--ttt---tt--tt--tt----tt-XXXXXXXXXXXXXXX