-----------D-------------------------------------------------------------------------------------------------------------------------------------------
-----------D-------------------------------------------------------------------------------------------------------------------------------------------
-----------D---------------------------------------------------!---------------------------------------------------------------------------------------
-----------D---------------------------------------------------------------------------------------------------------------------------o---------------
-----------D--------------------------------------------------------------------------------------------------------------------------o----------------
-----------D---------------------------------------------------!----------------------------------------------------------------------#----------------
-----------D-----------------------------------------------------------o------------------------o---------------------------o--------##-------o--------
-M---------D-----------o---------D------------------------------------o------------------------o-o-o-----------------------o-o---o---##------oo--------
-XXXXX-----D----------o-o--o----DD------------------------D----o-DDo-oDDDDDD-----------D------o-oDo-o--D-----D-----TT-----o-o-o-o-o--##-#----#-o-------
--XX-X-D---DD--DDDDDDDDDDDDDSD--DD---DT--XXXXXXXXX--------DDDDDDDDDDDDDDDDDDDD---SSSSSSSS---DDDDDDDDDDSSS--SSSSSS--tt--DDDDDDDDDDDD--##-#---####-------
---------------------------------D---tto-X------------gggD----------------------------------------------SS-----DXX-tt----------------##--#-y#----------
--------------------------------DD---tt-ot-------DDDDDDDDD--------------------------------SS--------------S----D-Sott---------------------##-----------
-------------------TT-----------DD---tt--t-------D---------o----------TT----------oooo-----o-TT-----------oo---t-oott--------TT------------------------
-----o-----D-------t-------------D---tt--o-------D---------o----------tt----------ggggg----o-tt-----------ooD--t---tt--------ttt-------------------#---
-----X-XXXXX----TT-t----TT-XXXXXXXXXXXXXXXXXXXXXXXXXXXXXXXXXXX--TT----tt---TTXXXXXXXXXXXXXXX-tt--TT--XXXXXXXXXXXXXXtt---TT---ttt------------------XXXXX
-----XXXXXXXXXX-tt-t--XXtt-XXXXXXXXXXXXXXXXXXXX-XXXXXXXXXXXXXXX-Xttt--tt---tt-XXXXXXXXXXXXXX-tX--tt--XXXXXXXXXXXXXttt---t---tttt------------------XXXXX