-------------------------------------------------------------------D-----------------------------------------------------------------------------------
-------------------------------------------------------------------D-----------------------------------------------------------------------------------
-------------------------------------------------------------------D-----------------------------------------------------------------------------------
-------------------------------------------------------------------D-----------------------------------------------------------------------------------
-------------------------------------------------------------------D---------------------------D-------------------------------------------------------
-------------------------------------------------------------------D---------------------------D----------------------o--------------------------------
-------------------------------------D-----o-----------------------D-----------------------------------------------------------------------------------
-------------------------------------o----o-oo---------------------D-----------------------------------------------------------------------------------
-------D----D-D-------T------------o--D--o-o-----------------------D--------o-----o----------D-DDDD-D-----------o-----X--XXXXXXX##---------XXXXXXX-----
XXXXX--D---SSSSSSSXXTTXXXXXXXXX##DDDDDDDDDDDDDDD----------------------------TTTXXXDDDDDDDDD-DDDDDD-------------#--####XXXXXXXXX###--###XXXXXXXXXXX-----
X------D--------XXXXtXXXXXXXX------------------#--------DD---------DD-g-Dg--Xtto-------------------------------#-##----XX--------#-----XXXXXXXX--------
-------DDDDD------#Dt--------------------------#--#----SSD--------DDDDDDDDDDDtt----------------------------tt-##---------------------------------------
------DD-----o------t---------------TT--------##--#-----oD-------------------tt---------TT-------T--------ott-##---------------------------------------
---M--oD-----o-----tt---------------tt--------##--#-----oD-------o-----------tt---------tt-------t---t-----tt--#-----------------------------------#---
---X-XXXXXXXXXX-XX-tt-----------TT--tt----TT--XX-XXXXXXXXXXXXXXXXXXXXXXXXXXXXXXX---TT---tt---TT--t---tT-XXXXX--X-----------------------------------XXXX
---XXXXXXXXXXXXXXX-tt-----------tt--tt----tt--XX-XXXXXXXXXXXXXXXXXXXXXXXXXXXXXXX-X-tt--Xtt---tt--tt--tt-XXXXX--X-----------------------------------XXXX