-------------------------D---------------------D-------D-----------------------D-----------------------------------------------------------------------
-------------------------D---------------------D-------D-----------------------D-----------------------------------------------------------------------
-------------------------D---------------------D-------D-----------------------D---------------------------------------!-------------------------------
-------------------------D---------------------D-------D-----------------------D-----------------------------------------------------------------------
-------------------------D---------------------D-------D---------------------------------------------------------------!-------------------------------
-------------------------D---------------------D-------D----------------------D----------------------------------------!-------------------------------
-------------------------D--------------o------D-------D----------------------D--------------------oo-------------------------o------------------------
M------------------------D--------------o------D------------------------------D-------------------o----------------------------------------------------
XXXXXX---o---------------o------o-----XXXXXD---D-------D------TTT-------------D---------oo-------XXX-D---------------#------oo--o--o-o----o------------
XXXXXXX-#SSD------------oD--##--#---TXXXXXXDDDSSSSSSSSS--SSSSS-DX----SSSS-----D--------XXXTTXXXXXXXXDDDDDDDD--#---##-##---####--#D####---#--TT---------
--------#--D---------#--#D---#-y#--tt--------------------------D--------------D---------XXttXXXX---------------#-y#----#-y#--#-y#------###XXXtXXX------
--------#--D---------#--#-----##--#-t----------------------tSo-D--------#----#D-----------tt--------------------##------##----##-------##---tt---------
--------#--D-----------tt----------tt---------T#--o--------too-D-----o-------#--t---------tt---------T---------------------------------------t---------
-------##--D-----------tt----------tt---------##--go-------ttg-D----oo-------D--tt--------tt---------tt-------------------------------------ttt--------
-------XX--D---------T--t----------ttt---TTT--XX-XXXXXXXXXXXXXXXXXXXXXXXXXXXXXX-Xt---TTT--tt---------tt--t-----------------------------------tt--------
-------XX--X---------t--tt---------ttt---ttt--XX-XXXXXXXXXXXXXXXXXXXXXXXXXXXXXX-Xt-X-tt---tt---X-XX--tt--t----------------------------------ttt--------