-------------------------------------------------------------------------------D-------D---------------------------------------------------------------
-------------------------------------------------------------------------------D-------D---------------------------------------------------------------
-------------------------------------------------------------------------------D-------D-------------------------------------------------------!-------
-------------------------------------------------------------------------------D-------D---------------------------------------------------------------
-------------------------------------------------------------------------------D-------D--------------------------------------o------------------------
-------------------------------------------------------------------------------D-------D-------------------------------------------------------!-------
-----------------------o-------------------------------------------------------D-------D-----------------o-------------------o-------------------------
----------------------o-o------------------------------------------------------D-------D----------------o-o--------o-oo-----o-o------------------------
-MX-----------------DD-o-DDD-o---o-o------o----o----o-DD-XXXXXXXXX-------------D-------D--------o------o-o-o------o--o-o-----o-o-D-----o--------D------
-XX------------DDDDDDDDDDDDDDDDDDD##--TT-ot---##-T-DDDDDDXXXXXXXXD-----------D-D-SSSS--D-------o-o-----DDDDDD-##-DDDDDDDDDDDDDDDDDDD--###DDDDDDDDD-----
--------------------------------------tTXXtt-o#--T-----------------------#---------o----------g-g-gDD---------##---------------------------------------
---------DDDDD------------------------ttoott##--tt-----------------------#-----D---#-------DDDDDDDDDDD--------##---------------------------------------
----------------------TT--------------ttoott#---tt---T------------------##----oD--##-------------------D------##---------TT-----------------T----------
------o---------------tt--------------tt-gtt----tt---tt---------------#-##---ooD--##-------------------D---#--##---------tt-----------------t----------
-----XXXXXXXXXX-TT----tt---TT---TT--X-XXXXXXXXXXXX---tt------------T--XXXXXXXXXXXXXXXX-------XXXXXXXXX-XX--XX-XXX-----TT-tt---TT--------T---tt--TTXXXXX
-----XXXXXXXXXX-tt---ttt---tt---tt--XXXXXXXXXXXXXXX--tt------------t--XXXXXXXXXXXXXXX--------XXXXXXXXXXXX--XX-XXX--XX-tt-tt---tt--------t--ttt--tt--XXX