----------------DD-------------------------D-----D-----------------------------D-----------------------------------------------------------------------
----------------DD-------------------------D-----D-----------------------------D-----------------------------------------------------------------------
----------------DD-------------------------D-----D-----------------------------D---------------------------------------------------------------!-------
-----------D----DD-------------------------D-----D-----------------------------D-----------------------------------------------------------------------
-----------D----DD-------------------------D-----D-----------------------D-----D-----------------------------------------------------------------------
----------------DD-------------------------D-----D-----------------------D-----D--------------o------------------------X--o----------------------------
-------o---------D-----o-------------------------D--------------o--------D-----D-------------------o---------------------o-----------------------------
------Xo---------D----o-o----------------------------------------o-------------D-----o------------o-o------------------------------o-------------------
M-XXXXXX---D-D---D---D-o-o----TT-XXXXXXXXXXX-----D------------DDo-o---D-DDD----D----D--D----D-D--o-o-o-----------D-------D---D----o-o---------XXXX-----
XXXXXXXXDDDDDDDDDDDDDDDDDDDDDDtt-XXXXXXXXXXXXXXXXX-SSSSSSS-DDDDDDDDDDDDDDDDDDD-DDDDDDDDDDDDDDDDDDDDDDDDDDD-------DDDD----DDDDDDDDDXXXTXXXXXXXXXXXX-----
XXX---------------------------tt------------XXXXXXX-------------------------------------------------------------------------------XXXttXXXXXXt---------
-----------------------------ott---------------------t----So---------------------------------------------D---------------------------tt------t---------
----------------------TT-----ott---------------------t---tooot-----T-----TT------------------------TT----D---------TT---------------ttt------t---------
----------------------tt---t-gtt--------------------ot---ttggtt----t-----tt------------------------tt----D---------tt---------------ttt------t---------
--------TT----TT--TT--tt--TTXXtXX------------------XXXXXXXXXXXXXX--t---T-tt---TTT--T---TT------TT--tt--TTXXXXXXXX-XXX--XXXXXXXXXXX--ttt------t---TTXXX-
------X-tt----tt--tt--tt--ttXXXXXXX----------------XXXXXXXXXXXXXXX-t---t-tt----tt--t---tt------tt--tt--ttXXXXXXXXXXttX-XXXXXXXXXXX--ttt------t---tt--XX