-------------------------------------D-----D-----------------DD----D-----------------DD----------------D--------------------------D--------------------
-------------------------------------D-----D-----------------D-----D-----------------D-----------------D--------------------------D--------------------
-----------------------D-------------D-----D-----------------D-----D-----------------D-----------------D--------------------------D--------------------
-------------------------------------D-----D-----------------D-----D-----------------D-----------------D--------------------------D--------------------
-------------------------------------D-----D-----------------D-----D-----------------DD----------------D----------o---------------D--------------------
-------------------------------------D-----D-----------------D-----D-----------------DD----------------D---------o----------------D--------------------
-------------------------------------D-----D-----------------D-----D-----------------DD----------------D--------o-o---------------D--------------------
M--------------------o---------------D-----D-----------------D-----D------------------D----------o-----D-------o-o----------------D--------------------
XXXXX-----oo--------o-o--------------DD----D-o-oo------------D----oD-------o---D------D----o----o-o----DD-----o-------------------D------TT------------
XXXXXXXXXXXXX-----DDDDDDD------T-----DDDDDDDDDD###---#-#-##-XXTTXXXTXXXX-XXDS-SD------D-----o----o-D---DD--D-XXTXXXXXXXXXXXXXXX---D------tXXXXX--------
---XXXXXXXXXX--------------TXott-------------------#--##--#XXXttXXtttXXXXXX----D---T-oD----D-D---------D------XtXXXXXXXXXXXXXX----D--TTo-t-------------
---------------------------t-ott-----------------###--##------tt--ttt--------------tSDD---DDD------------------t---------------------ttoot-------------
--------------------------tt-ott--tT--------------------------tt--tt--------o------toD-------------------------t---------------------tt-o--------------
-----------------------#--tt--tt--ttt-------------------------tt--tt-------ooo-----toD-----------------------------------------------tt------------#---
-----------XXXXXX-XTT--X--ttX--XXXXtX---TT--TT----------------tt--tt-------XXXXXXXXXXXXXXXXXTT--TTT-------------------------------X--ttt----------XXXXX
----------XXXXXXXXXtt--X--tt--XXXXXtX-X-tt--tt----------------tt--tt------XXXXXXXXXXXXXXXXXXttX-ttt-------------------------------X-Xttt-----------XXXX