-------D---------------D-----------D------------DD---D---------------------D-------D----------------------------------------------------D--------------
-------D---------------D-----------D-------------D---DD--------------------D-------D-------------------------------------------------------------------
-------D---------------D-----------D-------------D---D---------------------D-------D-------------------------------------------------------------------
-------D---------------D-----------D-------------D---DD--------------------D-------D-------------------------------------------------------------------
-------D--------------DD-----------D-------------D---DD--------------------D-------D-------------------------------------------------------------------
-------D--------------DD-----------D-------------D---DD--------------------D-------D-----------------------------------------------------------D-------
M------D--------------DD-----------D-------------D---DD---------------o----D-------D-----------------------------------------------------------D-------
X------D--------------DD----------DD-------------D----D--------------o-o---D----------------------------------------------------------D--------D-------
XXXXXXXXXX-----------D-----------o-D-------------D----D-----D-D---D-o-o-D--DD----------o----------------o----------o-o----------------D-------DD-------
XXXXXXXXXXDDD----o---D-----XT-XXXXXXXXXXD--------D----DDDDDDDDDDDDDDDDDDD--DDDD-------#----------------------#--##-#####-XXXXX--------D-------DD-------
----------------o-o--D---XXXtXXXXXXXXXXXX--------D------------------------------------#--#---##---------#---##--#------XXXXXXX-----oo-D----D-D-D-------
-----------------o-D-D---tt-tt----------D--------DDDDD-----------------------DD-----tt####---##----DSSD--##--#--------------D----DDooDD--DDDSDD--------
----------------#----D------tt----------DD----------------TT-------TTT-------DD------t-#-----##------oD--#---#-------------------toooDD-------D-----T--
----------------#o---D---t--tt----------DD----------------tt-------ttt-------DD------tt#-----#-------oD--#---#-------------------to--DD-------D----tt--
-------------TT-XXXXXXXXXXX-tt----------XXXXXXXXXXXXXXXX-XtXX--TT-XXXXXXXTXXXXXXXXXXXXXX-XX--XXXXXXXXXXXXXX--X----------T---XXXXXXXXXXXXXXXXXX-TT--tt--
-------------tt-XXXXXXXXXXX-tt----------XXXXXXXXXXXXXXXX-XXXXX-tt-XXXX-XXXXXXXXXXXXXXXXX-----XXXXXXXXXX-XXX--X--------------XXXXXXXXXXXXXXXXXX-tt--tt--