----------------------------------------------------------------------------------------------------------------------D--------------------------------
---------------------------------------------------------------------------------------------------------------------DD--------------------------------
---------------------------------------------------------------------D------------------------------------------------D--------------------------------
-----------o---------------------------------------------------------D------------------------------------------------D--------------------------------
-----------o---------------------------------------------------D-----D------------------------------------------------D--------------------------------
----------o----------------------------------------------------D-----D-----------------------------------------------DD--------------------------------
---------o-----------------------------------------------------D-----D------o--------o-------------------------------DD---------o-------------o--------
--------o---------------#--------------------------------------DD----DD---oo-o------o-o--------o------o---------------D----------o-----------o-o-------
M-------#--o-----XXXXX--##----##--XXX----ooooo----------TTTT---D-----DD--o--o-D---oo-o-D--------o----o-o-D-----D-----DD----XXXXXXX-o---o----o-o-o------
XXXXXX-X#--SSS---XXXXX--##------XXXX-##--######---------tttt---DDD---DDDDDDDDDDDDDDDDDDDDDDDDDDDDDDDDDDDDDDDDDDDDD---DD-DDDDXXXXXXD##DD#DDDDD##--------
XXXX----##--------------##------------#--#----##-#--TToooot---------------t------------------------------------------------------------------##--------
--------##---------------#-------------##------##---tooooDt---------------t------------------------------------------------------------------##--------
------------------oo----##--------------------------tooooot---------------tt-------TT--------T---------------------ttt-------------------T---##--------
------------------oo----##--------------------------t-gggtt---------------tt-------tt--------t---------------------ttt------------------tt---##----#---
---------------XXXXXoXX-XX----TT----------------------XXXXXX---------TT---tt---TT--tt---TT---t---TT---XX-XT---TT---ttt---TT----TT---T---tt---XX---XXXXX
--------------XXXXXXXXX-XX----tt-----------------------XXXXX---------tt--Xtt-X-tt--tt---tt---tt--tt-XXXXXtt---tt---ttt--tt-----tt---t---tt---XX---XXXXX