-------------------------------------------------------------DD--------------------------------------------------------------------D------D------------
-------------------------------------------------------------DD--------------------------------------------------------------------D------D------------
-------------------------------------------------------------D---------------------------------------------------------------------D------D------------
-------------------------------------------------------------D---------------------------------------------------------------------D------D------o-----
-------------------------------------------------------------D---------------------------------------o-----------------------------D------D-----o------
----------------------------------------------------------------------------------------------------o------------------------------D------D-----#------
---------------------------------------------------------------------------------------------------o--------------------------------------D----#-------
-----------------------------------------------------------------------------------------#---------#--------------------------------------D----#-------
M--XXX-oo------------X------------##--------------TT--------------ooo-----XXXXXXXXXX----##---##---##--------------------------------------D---##-----XX
XXXXXXX##---##------XXX-#--#--##--##------SD--SSS-SD----SSSS--DD--##---#--##XXXXXXX------#---##---##----------DD----DDD---------------D---D---##-----tX
XXXXX---#-y#---------D--#--#--##--##-----SDD----#--D-------o---D--##--X#-------------#---#---##---##------DDDDDDDDD--------gT-oo----gDD---D----------tt
---------##---------------##--##--##----DSDD----DSSD--------SSSD--##--#-----------------##---##---##------DDD--------DDDDDDDtooDDDDDDDD----------------
---------------------------#--##--##------oD-----oDD---o-----ooD--##--------------------##---##---##------------------------tooD------D----------------
------------------------------##--##--o----D-----ooD---o-----o-D--##--------------o-----##----t---##------------------------tDgD------D----------------
--------------------------XX--XX-XXXXXXXXXXXXXXXXXXXXXXXXXXXXXXXXXXXXXXX---------XXXXXX-XXX--TTX--XXXX--XXXXX-TT---TTXXXXXXXXXXXXXXXXXXXXX-------------
---------------X-----------X--XX-XXXXXXXXXXXXXXXXXXXXXXXXXXXXXXXXXXXXX-X---------XXXXXX-XXX--ttX--XXt---XXXXXXtt---tt-XXXXXXXXXXXXXXXXXXXX-------------