-------------------D---------------------------------------------------------------------------------------D-----------------------------------DD------
-------------------D---------------------------------------------------------------------------------------D-----------------------------------DD------
-------------------D-------------------D-------------------------------------------------------------------D-----------------------------------DD------
-------------------D-----------D-------D-------------------------------------------------------------------D-----------------------------------DD------
-------------------D-------------------D------------------------------------------D------------o-----------D-----------------------------------DD------
-------------------D-----------D-------D-------------------------------------------------------o-----------D-----------------------------------DD------
-------------------D--------o--D-------o-------o---------------D-----------------D------------o---------o--D---------o----o--------------------DD------
-----------------------D-----o-D------o-o-----o------------o---o-------------------------------------o-o-o----------o-o--o-o-------------------D-------
M-----TT---------------DD--DDDDD----DD-o-o---D-----------o-oDD--o------------------------D----------D-D-D-D--------D-o-o--o-o----------------XXXXXX----
XX----tt-----DD---D----DDDDDDDDDDDDDDDDDDDDDDDDDSSSSS--DDDDDDDDDDDSSSS-----------DDDD--#--D------DDDDDDDDDDDDDDDDDDDDDDDDDDDDDDD-D------XTXXXXXXXXX----
X-TTXott-------DDgDg-g-D----------------------------S---D------------D-----------------#-----------------------------------------D------tt-XXX---------
--ttoott-------DDDDDDD------------------------------SSSSD-----------oDD---DDDD---------#-----------------------------------------D------tt-------------
--ttoott---------------D-------TT--------------------oooD----------ooD----------------##---------------TT----------------TT------D---#--tt-------------
--ttogttt--------------D-------tt---------------------ooDD---------oo------------------#-----o---------tt----------------tt----o-DD-D#--tt-------------
---XXg-tt---TTX-XXXXXXXXX--TT--tt---TT---TT--T---XXXXXXXXX---TT-XXXXXXXXXXXXXXXXX-TTT-XXXXXXXXXXX-XTT--tt--TT--TT-----TT--t---XXXXXXXXX-tt-------------
----XTTtt---tt--XXXXXXXXXX-tt--tt---tt---t---t---X-XXXXXXXX--tt-XXXXXXXXXXXXXXXXX-ttt--XXXXXXXXXXXXXt--tt--tt--tt-----tt-tt----XXXXXXXXXtt-------------