----------------------------------------------------------------------------------------------------------D--------------------------------------------
-----------D----------------------------------------------------------------------------------------------D--------------------------------------------
-----------#D---------------------------------------------------------------------------------------------D---------------------------------------D----
----------------------------------------------------------------------------------------------------------D---------------------------------------D----
-----------------------------------------------------------------------------------------------oo---------D-------------o-------------------------D----
-----------------------------------------------------------------------------------------------o----------D----------------------ttt--------------D----
-----------D--------------o--------o----------------------------------------------------------o-----------D---------------o-----------------------D----
M-----------D------------o-o-----------------------------------------------------------------o#-----------D------#---------o---------------------------
XXXX----------XXXXXX-o--o-o-o--D-------------o------------D----#-----------ooo---------------##-----------D------#---D--D-D-o-XXXXXXXXX----------------
XXXXXX--T-XXXXXXXXXXDDDDDDDDDDDDDDDDDDD-D----##-----##--####--##-----D--##--##---###-##########---#-SSS---D------DDDDDDDDDDDDDXXXXXXXXXXXXXXXXXX-------
--------t#------------------------------#----#---#--##-y#-#---##--------##-----y#--#X--##----##T-X#----TTDD----------------------------XXXXXXXXX-------
--------##------------------------------##--##--##---##--------#----------##---#----#----------#-------SooD--------------------------------------------
--------##------------TT----------------##---#-------------------o--------------------------------------ooD--------------------------------------------
--------##------------tt----------------#------------------------o-t------------------------------------ooD----------------------------------------#---
--------tX---------TT-tt---T---TT--XX--XXX---------------------Xo--tt-------------------------------XXXXXXXXXXXXXXXX---TT-------------------------XXXXX
---------t---------tt-tt--tt---tt--XXX-XX----------------------X--ttt------------------------------XXXXXXXXXXXXXXXXX-X-tt--------------------------XXXX