-------D---------------------------------------------------------------------------------------------------------DD------------------------------------
-------D------------------------------------------------------------------D--------------------------------------D-------------------------------------
-------D------------------------------------------------------------------D--------------------------------------D-------------------------------------
-------D-----------------------------o-----------------------------------DD--------------------------------------D-------------------------------------
-------D----------------------------o-------------------------------------D--------------------------------------D-------------------------------------
-------D---------------------------o-------------------------------------DD--------------------------------------D-------------------------------------
M------D-----------o------------------------o----------------------------D---------------------------------------D------------o--------------o---------
XX-----D------o---o-o-----o----o--#---------oo-----D-------------------------------------------o---------o-------D-----------o-o--------------o--o-----
XXXXXX-D---DD--o-o-oDDDDDDDDD-o---#--------o-D-----D---D-----D----o-o-o--o------o--o--gD--------o-o--------D-----D------oo--o-o-o-D---------D--Do------
-XXXXXXXXXXXXDDDDDDDDDDDDDDDDDDD--#-------o-oD-----D--DD-----D--oD-#D#DDDDDDDDDDDD###-##-XXXDDDDDDDDDDSSSSSSS----DDDDDDD##DDDDDDDDDDDD------DDDDDD-----
---XXXtXXXX-----------------------##-------g-DD--gDDDD-D-DD--D--D------------------------XXX-----------------------------------------------------------
------t---------------------------##------DDDDDDDDDDDD-D-----DDDD------------------#-------------------------------------------------------------------
-----------------T--TT-----------------------D----------------------------T-------##-------------------o-----------------------TT--------------T-------
----------------tt--tt----------------------------------------------------t-------##--------------------o-o-----D--------------tt--------------tt--#---
-------------TT-tt--tt--TT---t----------XXXXXXXXXXXXXXX--TT---DX-----TT---t----T--XX---------TT---TXXXXXXXXXXXXXXX---T------T--tt---TT-----TT--tt-XXXXX
-------------tt-tt--tt--tt---tt---------XXXXXXXXXXXXXXX-ttt---tt--XX-tt---tt---t--XX---------tt-XXXXXXXXXXXXXXXXXXX--tt--------tt---tt--XXX-t--XX-XXXXX