-------------------------------D---------------------------------------------------------------D---------------------------------------DD--------------
-------------------------------D---------------------------------------------------------------D---------------------------------------DD--------------
-------------------------------D---------------------------------------------------------------D---------------------------------------DD--------------
-------------------------------D---------------------------------------------------------------D---------------------------------------DD--------------
-------------------------------D---------------------------------------------------D-----------D---------------------------------------DD--------------
-------------------------------D---------------------------------------------------D-----------D---------------------------------------DD--------------
----o--------------------o-----D----------------------------------------o----------D-----------D---------------------------------------DD--------------
M---o-------------------o-o-------------o------------------------------Xo----------D----------------------------oo-------o-------------DD--------------
XXXXXXXXXX---D#D--------o--o------------#------------------o-----------o-----------DD--------------------------o--o-----o-o------------DD--------------
XXXXXXXXX#######-----DDDDDDD---D-------D#-SSSSSSSSSDDDDDDDDDDD-SSSSSXXXXTT-----------D-----------oo-TTX-X-----DDDDDDDDDDDDDD---D----D--DDDDDD--#-------
--------------##----#------D---D-----##---------------------------XoXXXXtt-----------D---o---#D-XXXDtt-X-----------------------D---------------#-------
---------------#-----------D---D-----#---------------------------too---------------SSD---#---#t-X-#ttt-------------------------D---------------#-------
---------------------------D---D----##------------------TT-------too----------tt---ooD-------#t-o--ttt-----------------------#-D--------------##-------
---------------------------D---DD---##----o--------o----tt-------ttg----------tt---ooD------D#tt---ttt----------------------##----------------##---#---
-----------------------TT-XXXXXXXXXXXXXXXXXXXXXTX-XXXXX-tt----XXXXXXXXXXX--T--tt-XXXXXXXXXXXXXXXXXXXXX-------------TT---TTX-XXXXXXX--TT--tt---XXXXXXXXX
-----------------------tt-XXXXXXXXXXXXXXXXXXXXXXX-XXXXX-tt----XXXXXXXXXXXX-t--tt--XXXXXXXXXXXXXXXXXXtt------------ttt---tt--XXXXXXXX-tt--tt---XXXXXXXXX