-----------------------------------------------------------------------D---D-------------------------------------------DD------------------------------
-----------------------------------------------------------------------D---D-------------------------------------------DD------------------------------
-----------------------------------------------------------------------D---D-------------------D-----------------------DD------------------------------
----------------------o------------------------------------------------D---D-------------------D-----------------------DD------------------------------
---------------------o-------------------------------------------------D---D-------------------D-----------------------DD------------------------------
--------------------Xo-------------------------------------------------D---D-------------------D-----------------------DD------------------------------
-------o--------------------------o------------------------D---------------D------o---------o--D-----------------------DD------------------------------
M-----o-o------------------------o-o----o------------------D---------------D-----o-o-------o-o-D-----------------------DD------------------------------
XXXXXX-o-o--------D-------o-ooo-o-o---Do-o-----------------D---------T-----D----o-o-o--o--o-o--D-----------------------DD--------T---------------------
XXXXXXXDDDDDD----DDDXD---########DXXXXDDDDDD---T-----------D---------D---DDDDDDDDDDDDDDDDDDDDDDD------------------DDDD-DDXXXXTTX-t-SSS-----------------
---------------------------------XXXXX--------tt-----------D-------o---------------------------D-----Ttoot---------------XXXXtTXott---D-gDggD----------
----------------------------------------------tt--oot-------------#----------------------------D-----ttoot-------------------ttoot----DDDDDDDDDDD------
----------------------------------------------tt--oot--------------oo---------TT---------------D-----ttoot-------------------tt-ot------------DDD------
----------------------------------------------tt--g--t---------#-oooD--------------------------D-----ttggt---D---------------tt-gt--------------D------
-----TT----TT----TXXXX---TT---------------TT--XXXXXXXXX-----TTXXXXXXXXXX--TT---t---TT--TT---TTXXXXXXXXXXXXXXXXXXXX--TT-T------X-XXXXXXXXXXXXXXXXXXXXXXX
-----tt----tt--XXtX-X-XX-tt---------------tt--XXXXXXXXXt----tt-XXXXXXXXXX-tt---t---tt--tt---tt-XXXXXXXXXXXXXXXXXXXXXXX-t------X-XXXXXXXXXXXXXXXXXXXXXXX