---------------------------------------------------------------DD--------------------------------------------------------------------------------------
---------------------------------------------------------------D---------------------------------------------------------------------------------------
-------------------------------------------------------------------------------------------------------------------------------------------------------
----------------------------------------------------------------D--------------------------------------------------------------------------------------
----------------------------------------------------------------D----D---------------------------------D-----------------------------------------------
-------------D--------------------------------------------------D----D---------------------------------D-----------------------------------------------
-------------D---------o----------------------------------------D----D---------------------------D-----D-----------------------------------------------
-------------D--------oDo----o-o-----------------------------------------------------------------D-----D-----------------------------------------------
M----g-------D---------o-o--SSS-o-TT-------o-------o--o---o---o--o---D--XXXXXXXXX------XXX-------D-----D---------------------------TT--XXXXXXXXXXX-----
XXXX####DDDDDDDD------DDDDD----SXott-------#--#--###D##---##--#--#####-X##XXXXXXXXXXXXXXX--------DDDDD-D--------##-----XXXXXXX-----ttXXXXXXXXXXXXX-----
#-----------------------------TToott---D--##--##--##--##y#----#-y#------------XXXXXXXt-X------------------------##------XXXXXX-TToottt-----------------
------------------------------ttoott---D--##--##-------##-----###----------------------------------------------###---------t---ttoottt-----------------
------------------------------tooott---D--##--##-------------------------------------T---------#----------TT---##--------------ttoottt-----------------
-----------------------------ttgggtt---D--##--##--------------#----------------------tt--------#----------tt--###--------------ttogttt-----------------
---------------TTXXXXX-XTXXXXXXXXXXXXXXXXXXXX-XX--------------X----------t-----------tXXXXXXXXXXXX--TTT---tX---XXX-------------ttXXXXXXX---------TT-XXX
---------------tt-XXXXXXXXXXXXXXXXXXXXXXXXXXX-XX---------------X--------tt-----------tXXXXXXXXXXXXX-ttt--ttt---XXX--t----------ttXXXXXXX-------X-tt-XXX