-----------------------------------------------------------D-------------------------------------------------------------------D-----------------------
-----------------------------------------------------------D-------------------------------------------------------------------D-----------------------
-----------------------------------------------------------D-------------------------------------------------------------------D-----------------------
-----------------------------------------------------------D-------------------------------------------------------------------DD----------------------
-----------------------------------------------------------D-------------------------------------------------------------------D-----------------------
-----------------------------------------------------------D--------------------------D----------------------------------------DD----------------------
---------------------------oo------------------------------------------o------------------------------------------------o------DD----------------------
--------------------------o--o----------------------------------------o-o----------------------------------------------o-oo----DD----------------------
M--XXXX------------------D-DD-o--D-o----------------oo--oooo-----------o-o------------D--------o---------------DD-----D-o--D--------o-oD---------------
XXXXXXXXXX---D--------------DDDDDDDDDD-SSS---------###--####-------DDDDDDDDDDDDDDD--###--------DDD--DDD--------DDDDDDDDDDDDDDDDDDDDDDDDDDXXXXXXXXXXX---
-XXXX----XX-----D------------------------------------#-y#--------------------------T#------#---------------gD--------------------------ttXXXXXXXXXXXXXX
-------------DD-D-------------------------------------##--------------------------##--------------------DDDDDD-------------------------tt------------tX
-------------DDDDo---------------------o-------------------------o-------------------------------T-------D-------------TT----T---------tt-------------t
------------o---oD--------------------og------------------------oo-------------------------------t---------------------tt----t---------tt--------------
------------XXXXXXXXXXXXXXXXXXTX-XXXXXXXXXXXXXXX---------------XXXX----TT-----TT-----XXXX-X--TT-tt---TT-XXXXXXX-X----T-tt----t----TT---tt--------------
------------XXXXXXXXXXXXXXXXXXtX--XXXXXXXXXXXXXX---------------XtXXXXX-tt--t--t------XXXX-XX-tt-tt---tt--XXXXXXXXX---t-tt----tt---tt---tt--------------