---------------------------------------------------------------D-----------------------------------------------D---------------------------------------
---------------------------------------------------------------D-----------------------------------------------D---------------------------------------
-------------------D-------------------------------------------D-----------------------------------------------D---------------------------------------
-------------------D-------------------------------------------D-----------------------------------------------D---------------------------------------
-------------------D-------------------------------------------D-----------------------------------------------D---------------------------------------
-------------------D-------------D-----------------------------D-----------------------------------------------D---------------------------------------
---------------------------------D-----------------------------D-----------------------------------------------D---------------------------------------
XXX------------------------------D--------------o--------------D------D----------------------------------------D---------------------------------------
XX------------------------------DD--------o----D-o-------------D------D------------------D-------------D-------D----------------o----------T-----------
-------------------DDDDDDDDD--#-DD---DDDDDDDDDDDD-D------S-----DDDDDDDD--------------TT--D------------##-SSSSS-D-SSSSSS---DD---oDSXXXXXX---D-----------
------------------------------#--D-----------------D--D-gD-----D------D--------------tt--------TT---D-D--#-----#-----##---DD-gD-oXXXXXXX---D----TXot--X
----------------DD---------------D-----------------DDDDDDD------------D----o---------tt-o------tt--DDDDDD------D-----#D-SSDDDDDDD-------SSSD---TToot--X
-----o----------------TT-----------------------D--------DD-----D-----DD---oo---------tt-oT-----tt--------------D-----#--ooD--------------ooD---ttoottt-
---M-o----------------tt-----------------------D---------D------------D---Dg---------tt--tt----tt---------o----#---#-#--oo---------------ooD----toot---
---XXXXXXXXXXXXXXXXXX-tt------------------TTT--DX-XXXXXXXXXXXX--TTX-XXXXXXXXXXXXXXXXXXXXXXXXXXXXXXXXXXXXXXXXXXXXXXXXXXXXXXXXXXXXXXXXXXXXXXXXXXXXXXXXXXX
---XXXXXXXXXXXXXXXXXXXtX---------------X--ttt----XXXXXXXXXXXXXXXttX-XXXXXXXXXXXXXXXXXXXXXXXXXXXXXXXXXXXXXXXXXXXXXXXXXXXXXXXXXXXXXXXXXXXXXXXXXXXXXXXXXXX