----------------------------------------------------------------------------------------------------------D--------------------------------------------
---------------------------------------------------------------D------------------------------------------D--------------------------------------------
---------------------------------------------------------------!------------------------------------------D---------------------------o----------------
-------------------------------o--------------------------------------------------------------------------D--------------------------------------------
---------------------------------------o------------------------------------------------------------------D--------------------------------------------
----------------------------------------o-----------------------------------------------------------------D--------------------------!X----------------
--------------------------------------o--o--------------o-------------------------------o-----------------D-----o-----o--------------------------------
M-----------------------------------DD-Do-o------------o-o-----------------------------o-o----------------D----o-o---o-o-------------------------------
XXXXX----o--------D----------#---------DDD-D-----------D--o--o--oooo---------TT-------o-o-o---------------D-D-oXoXXXXXoXo-o-o-oXXX--XXXXXXoo---o-------
XXXXXSSDDDD---SSSSSS---------#--------------XXXX---DD-DDDDDDD#--#####SSS-----tt--DDDDDDDDDDDDDXXD----DDDDDDDDDDDXXXXXXXXX###X-X#DXXXXXXXXX##--###------
----------D-------D------D--##-------------------------------#-y#----XXD--T-oot--------------XXX----------------------------------XXXX-----#-y#--------
----------D-------D----SSS--##-----------T--------------------##----------ttoot-------------t-----------------------------------------------##---------
----------D-----ooD-----oD--##----------Tt--------------------------------tto-t--------TT--tt----------------------------------------------------------
----------D-------D-----oD---#----------tt--------------------------------toggtt-------tt--tt------------------------------------------------------#---
-------XXXXXXXXXXXXXXXXXXXXXXXX-Xt--TT--tt------------TT---T--------T--XXXXXXXXXX--TT--tt--tt---TT----TTT---TT----Tt-------------------------------XXXX
-------X-XXXXXXXXXXXXXXXXXXXXXX-Xt--tt--tt----------X-tt------------t--XXXXXXXXXXX-tt--tt--tt---tt----ttt--ttt----tt-------------------------------XXXX