-------------------------------------------------------------------------------------------------------------------------------------------------------
-------------------------------------------------------------------------------------------------------------------------------------------------------
-------------------------------------------------------------------------------------------------------------------------------------------------------
-----------------------------------------------D-------------------------------------------------------------------------------------------------------
-----------------------------------------------D-------------------------------------------------------------------------------------------------------
-----------------------------------------------D-------------------------------------------------------------------------------------------------------
------------------------o----------------------D-----DD--------------o--------------------------o------o---------o-------------------------------------
-----------------------o----o------------------D-----DD--------------o-------------------------o-o-----oo----------o--------o--------------------------
XXXXX--------------XXXXXXXXo-o-X---o--oo-------D-----D--------o-----o--------o----------XXXXX-o-o-o--o-o-o-------Do-o--D---o-------------------D-------
-XXXX---------------XXXXXXXXDDDD--##-###-##----DDD---DD--DDDDDDDDDDDDXXXXXX--##XXXTTXXXXXXXXXDDDDDDDDD##--##--#-DDDDDDDDDDDDDDD-####XXXXXXXXXD-#-------
----------------------------------##---#-X----------------------------XXXXXX--XXXXttXXXX---------------#--#--X#-----------------#--XXXXXXXXXX--#-------
----------------------------------------#-----------------------------------------tt------------------------##---------------------------------#-------
--------------------------------------------------TT------------------------------tt----------TT--------------------T----------------------------------
-M--------o---------------------------------------tt------------------------------tt----------tt--------------------tt--------o------------------------
XXXXXXXXXXXXXXXX-X----------------------------TT--tt---TT----------------------------------T--tt---TT---------------tt---TT---XXXX---------------------
-XXXXXXXXXXXXXXXX-----------------------------tt--tt---tt----------------------------------t--tt---tt--X------------tt---tt--XXXXXX--------------------