--------D-------------------------------DD-----------------DD------D---------------------------------------D-------------------------------------------
--------D-------------------------------DD------------------D------D---------------------------------------D-------------------------------------------
--------DD------------------------------DD------------------D------D---------------------------------------D-------------------------------------------
--------DD-----------------o-------------D------------------D------D---------------------------------------D-------------------------------------------
--------DD-------------------------------D-----------D------D------D---------------------------------------D-------------------------------------------
--------DD-----------------D------------DD-----------D------D------D---------------------------------------D-------------------------------------------
---------D-----------------D------------DD-----------D------DD-----D-----------------------------------------------------o-----------------------------
M--------D-------------------------------D-----------D-------D-----D------------------------------------D--------o------o------------------------------
XXXX-----D-------------#---D-------------D---D--DD---D-------D-----D----------TT-----------------------DD-------o-o----o-o----------------------DD-----
XXXXXXX-XXXXXXXX-XX---##-----------TTT---DDDDDDDDDDDDDDDD----D-----D-----TT-o-tt-----T---X-------DD-----D-----DDDDDDDDDDDDDXXXXXX-XXX-XXX--------D-----
---------XXXXXXXXX#---##------TTXoottt-----------------------------D-TTXtttXoott----ttXXXXX---DD-------DD---------------XtXXXXXXXXXXXXXXXX-D-gggDD-----
-------------------#--##------ttooottt-------------------------------t-o-ttooott----tt------SSS-oDD--DDDDD---------------tt--------------DDDDDDDDD-----
----------------------##------ttooottt-------T-----------------------tt--ttooott----tt----------ooD---------------------ttt----------------------------
-----------------------#------ttoggtt--------tt----------------------tt--ttgggtt----tt----------oDD---------------------tt-----------------------------
------T----------------XXXXXXXXXXXXXXXXX-TT--tt--TT-----TT---XX--XXXXXXXXXXXXXXXXXXXXXXXXXXXXXXXXXXXXXXXXXXXXXX---TT----tt--------------XXXXXXXXXXXXXXX
------tt---------------XXXXXXXXXXXXXXXXX-tt--tt--tt-----tt--XXXXXXXXXXXXXXXXXXXXXXXXXXXXXXXXXXXXXXXXXXXXXXXXXXX---tt----tt---------------XXXXXXXXXXXXXX