-----------------------------------------D-----------------------D-----------------------------------------D-------------------------------------------
-----------------------------------------D-----------------------D-----------------------------------------D-------------------------------------------
-----------------------------------------D-----------------------D-------------------------------------D---D-------------------------------------------
-----------------------------------------D-------------------------------------------------------------D---D-------------------------------------------
----------------------------o--------------------------------------------------------------------------D---D-------------------------------------------
-------------------------------------------------------------------D------------------o----------------D---D-------------------------------------------
--------o------------------#-----------------------------o---------D------------------#----------------D---D---------------------o------------o--------
M------o-o----------------#-----------------------------o----------D-----------------##----------------D---D--------------------o-o----------o-o-------
XXXXXXXXo-o-o---o--------------o----------------o------------------D---Do------------#--o----o-o-------D---D------------XXXX-D-oXXXX-XXXXXXXXXo-o------
XXXXXXXDDDDD#--y#######--#-----###S----#-T--SSSo-D---XTTXXXXXXXX---D---#-#-----------#--##D--#######D--DDD-DDDD-XXXTXXXXXXXXXDDDXXXTTXXXXXXXXXXXXo-----
------------#-y#--------#----##-------##-t-----XD-t-X-ttXXXXX------D--D-o-------##---#-y#---TT---------D--------XXXttXXX-----------ttX-----X-XXtt------
-------------##------#--#---###-------##tt------SSSD--tt-----------D---D-D------##---###---##----------------------tt--------------tt------------------
------T--------------#--#---##--------##tt-------oDD--tt----------DT------------##---#-----------------------------tt----------TT--tt------------------
------tt------------##--#-------------#-tt-------o----tt-----------t------------##---------------------------------tt----------tt--tt-------------##---
---T--tt--TT--------XX-XXXXXXXXXXXXXX-X-tt--X-XXXXXXXXttt------T---tXXXXXXXXX-X-XX---X---------------------TT------tt----------tt--tt------------XXXXXX
------tt--tt-----X---X--X-XXXXXXXXXXX-XXtt---X-XXXXXXXttt------t--ttt--XXXXXX-X-XXX--X---------------------tt------tt----------tt--tt-------------XXXXX