-----------------------------------------------------------------------D-------------------D------------------------------------D----------D-----------
-----------------------------------------------------------------------D-------------------D------------------------------------D----------D-----------
-----------------------------D-----------------------------------------D-------------------D------------------------------------D----------D-----------
-----------------------------------------------------------------------D-------------------D-----------------------------------------------D-----------
-----------------------------------------------------------------------D-------------------D-----------------------------------D-----------D-----------
--------------------------------D--------------------------------------D----------------ttt------------------------------------D-----------D-----------
------------o-------------------------o--------------------------------D-------------------------------------------------------------------D-----------
-------------------------------------o-o-------------------------------D-------------------------o-----------------------oo----D-----------D-----------
----------TTTX--------------XXXXXXX-o-o-o--o---D--------o--------------DD-----------------XXXXXXX-o--------------------o-------D-----------D-----------
------TT--tttX--D----SSSS---XXXXXXXDDDDDDDDSS-SD----XXX-X---##---T-----DD------XXXXXXXXXXXXXXXXXXD-------------------DDDDDDDDD-DDDDSSSSSDD-D-----------
------ttoottt-----------##---------------------D-----XXXX----#---------DD-----XXXXXXXXXXXXX---------------T--------------------------------------------
------ttoott------------##---------------------S------------##---------DD--------------------------------#t------------------------------------t-------
------ttoott------------#---------------------oo-----------------t------DD--------t----------------------#t--------------------TT-----T--------t-------
-M----ttggtt--------o---#---------------------oo-----------------t---o--DD-------tt-------------------#-###o-------#-----------tt-----#-------Dt---#--X
XXXXXXXXXXXXXXXXXXXXXXXXXX--------TT--TT-XXXXXXXXXXXXXXXXXXXXXXXXXXXXXXXXXXX-----tt----------------TTXX-XXXXXXXXXXXXXX-----TT--tt--X-XXXXXXXXXXXXXXXXXX
XXXXXXXXXXXXXXXXXXXXXXXXXX--------tt--tX--XXXXXXXXXXXXXXXXXXXXXXXXXXXXXXXXXXX----tt----------------t--X-XXXXXXXXXXXXXX-----tt--tt--X-XXXXXXXXXXXXXXXXXX