--------------------------------DD-----------------------------D----------------------D---------------------------------------------------D------------
-------D-------------------------D-----------------------------D----------------------D---------------------------------------------------D------------
-------D-------------------------D-----------------------------D----------------------D---------------------------------------------------D------------
---------------------------------D-----------------------------D----------------------D---------------------------------------------------D------------
---------------------------------D-----------------------------D-------------o--------D---------------------------------------------------D------------
-------D---------------o---------D-----------------------------D------------o---------D---------------------------------------------------D------------
-------D--------------o----------D-----------------------------D-----------o--------------------------------------------------o-----------D------------
---------------------o-----------D-----------------------------D---o------o---------------o----------------------------------o---------o--D------------
-------D-------------------------o-----Xo---------XXXXX--------o-oXoo-----#-----------o----o-D-------D------------------------#-------o-o-D------------
-XXXX--D---------------D---DDDDD#D####XXXXXXXXXXXXXXXXXXXX--#DDDXXDDDD##-###--#-##-DDDDDDDDDDDDDD-S-DDD-----------#-XXXXXXXX-##-DDDDDDDDDDDDDDDDSSo-t--
------------------ggDg-g-gg-D---------XXttXXXXXtt--------X-------------#--#--y#----------------------D--------#--#X-XXXXXXXX-##-------------------oot--
---------------DDDDDDDDDDDDDD-----------tt----------------S------------#---##------------------------D--------#-###----------##-------------------oot--
----------------DDDD--------------------tt---------------------------------------------TT------------D-------##--##----------------TT-------------o#---
---M------------------------------------tt---------------------------------------------tt------------DD------##-##-----------------tt--------------#---
---XXXXXXXXXXXXXXXXXXXXXXXXXXX-T--------tt------------XXX----TT------------------------tt---TT---XXXXXXX-TX--XX-#X-----------------tt---T---------XXXXX
---XXXXXXXXXXXXXXXXXXXXXXXXXXX-X--t-----tt-------------XXXXX-tt--t---------------------tt---t--X-XXXXXXX-XX--XX-XX-----------------tt---t----------XXXX