-------------------------------------------------------------------------------------------------------------------------------------------------------
-------------------------------------------------------------------------------------------------------------------------------------------------------
--------------------------------------------------------------------------------------------------------------D----------------------------------------
--------------------------------------------------------------------------------------------------------------D----------------------------------------
--------------------------------------------------------------------------------------------------------------D----------------------------------------
-----------------------------------------------------------D--------------------------------------------------D----------------------------------------
---------------o---------------------------------o---------D--------------------------------------------------D--------------------o-------------------
--------------o---------------X-----------------o-o--------D-----o---------------------o-o-o------------------D-------------------o-o------------------
-------M-----o---------------XXXXXXXX----------o-o-o--o----D----o-o--o--------XXXX---Do-o-oDD----------------DD---------##--XX---o-o----o--o-----------
-------##---##XXXXXXX-----------XXXXSSSSSSSDDDDDDDDDDDDDD--D-DDDDDDD##--#DXXXXXXXXDDDDDDDDDDDDDD-------D-DDDDDDDSSSS---X#--XDXDDDDDDDDDDDDDDD-DDD------
--------#-#---XXtXXXX-----TT--------------#----------------D-----------y#-XXXXX----------------------gggg--------------#-------------------------------
--------##------t---------tt--------------#----------------D----------##----------------------------DDDDD----------#--##-------------------------------
--------------------------tt--------------#---TT-----------D---D------------------------TT---------------o---------#--##------------TT-------TT--------
----------------------tt--tt---o------#--##---tt-----------D--#D------------------------tt------------------------##--##------------tt-------t-----#--o
-----T--TT------------tt--tt--XXXXXXXXXX-XXXX-tt---TT---XXXXXXXX--TT---------------TT---tt---TT--XXXXXXXXXXXXXXXXXXXX-XX--------TT--tt--TT---X-XXXXXXXX
-----t--tt------------tt--tt--XXXXXXXXXX-XXXX-tt---tt---XXXXXXXXXXtt---------------tt---tt---tt-XXXXXXXXXXXXXXXX--XXX-XX--------tt--tt--tt---X-XXXXXXXX