-----------------------------------------------------D-----------------------------------------------DD------------------------------------------------
-----------------------------------------------------D-----------------------------------------------D-------------------------------------------------
-------#---------------------------------------------D-----------------------------------------------DD---------------------------------------!--------
-----------------------------------------------------D-----------------------------------------------DD------------------------------------------------
--------D--------------------------------------------D-----------------------------------------------DD---------------------------o--------------------
-----------------------------------------------------D-----------------------------------------------DD---------------------------oo-------------------
-------DD-------------o--------------oo-------o------D----------------------------------o------------DD-----------------o--------o--o------------------
--------D------------o-o------------oo-o-----o-o---------------------------------------o-o-----------DD----------------o-oo-----D-D--DD----------------
M------DD----------o-Do-DD-DD------D--o-o-D-o-o-o----D-----o-------o-o-o-o----o----#--o-o-o----------DD--D------------o-o--o-------DDDD----------------
XXXDDD-DDDDDDDDDDDDDDDDDDDDDDDDDDDDDDDDDDDDDDDDDDDD--DD-D-o-o-----o-DDDDDDDDDD##-D##-##--#---XXXXXX--DD-DDSSSSSS----DDDDDDDDDDD------------------------
X-------------------------------------------------------D----D-g-D-----------------------#--XXXXXXXX------------XX------------------------DDDD---D-----
------------------------------------------------------SDD--DDDDDDDD----------------------------------------------XSS-------------T--------DDDDDDDD-----
------------TT---------------T------TT-----TT---------oDD--------D--------------------T---------------D-----------tto--TT-------tt-------------DDD-----
------------tt---------------t------tt-----tt---------oDD--------D--------------------t---------------D-----g-----tt---tt-------tt-------------ooD-----
-------TT---tt--TT------TT---tt-TTT--t--T--tt---TT--XXX-XXXXXXXXXX---TT--T---T-----T-tt---------------XXXXXXXXXXXXXXXX-tt----TT-tt---TT---XXXXXXXXXXXXX
----t--tt--ttt--tt------tt---tX-ttt--t--t--tt---tt-XXXXXXXXXXXXXXXXX-tt-tt---t-------tt----------------XXXXXXXXXXXXXXX-tt----tt-tt---ttt--XXXXXXXXXXXXX