-----------------------------------------------------D-----D-------------------------------------------------------------------------------------------
-------D---------------------------------------------D-----D-------------------------------------------------------------------------------------------
-------D---------------------------------------------D-----D-------------------------------------------------------------------------------------------
-----------------------------D-----------------------DD------------------------------------------------------------------------------------------------
-----------------------------D-------o---------------D-------------------------------------------------------------------------------------------------
-------D---------------------D-----------------------D-------------------------------------------------------------------------------------------------
-----------------------------D-----------------------DD-------------------------------------------------------------------------------------------D----
M-----------------------------D-----D----------------DD-------------------------------------------------------------------------------------------D----
XXXXXX-D-----D----------------D----D-D-D------oo-----DD-------o-T-----o-ooo--------------------------------------------D--------o-------D--------DD----
XXXXXSSSSSSSS#-------------S--DDDDDDDDDD------#---#---D--SSSSSXttX-XXXX--##D--SSSSS--##-##-------D----o----------D-----D-------o-o---o-oS-------o-D----
--------#X---#----ggDg---T-------------D---------##---------XXottt-XXXX-y#-------X---#---#-----D-D---g-D---#----DD-----D-----gggDDg-g-g-D-D-g-gDgDD----
--------#---##--DDDDDDDDtt-o----------------DDD-##D---------to-ttt-----##------------##-##--------DDDDDDD-##----DDD----DDDDDDDDDDDDDDDDDDDDDDDDDDDD----
--------#---##----------tt-oo---------tt-------------------tto-ttt-------------o-----##--#--------D-------##------D-------------------------------D----
--------#---##----------tt-g----------tt--------------D----ttg-ttt------------oo-----##--t----------------##--------------------------------------D----
-----XX-XXXXXXXXXXXXXXXXXXXXXXX--TT--ttt---XXXXXXXXXXXXXXXXXXXXXtt----------XXXXXXXX-XX-XXXXX-XXXXXXXXXXXXXXXXXXXXXXXXXXXXXXXXXXXXXXXXXXXXXXXXXXXXXXXXX
----XXXXXXXXXXXXXXXXXXXXXXXXXXXX-ttttttt----XXXXXXXXXXXXXXXXXXXXtt----------XXXXXXXX-XX-XXX--X-XX-XXXXXXXXXXXXXXXXXXXXXXXXXXXXXXXXXXXXXXXXXXXXXXXXXXXXX