-------------------------------D-------------------------------------DD----D-----------DD--------------------------------------------------------------
-------------------------------D-------------------------------------D-----D-----------DD--------------------------------------------------------------
-------------------------------D-------------------------------------D-----D-----------DD--------------------------------------------------------------
-------------------------------D-------------------------------------D-----D-----------DD--------------------------------------------------------------
-------------------------------D-------------------------------------D-----D-----------DD--------------------------------------------------------------
-------------------------------D-------------------------------------D-----D-----------DD--------------------------------------------------------------
------------------------#------D------------------------------o------D-----D-----------DD--------------------------------------------------------------
M-------o---------------#------D--------------D-------------oo-o-----DD----D-----------DD----D---------------------------------------------------------
XXXX---o-o-----------XX-#----------XXXXXXX----S---------------o-o----D-----o-----------D----D-o------------TT----------------TT-X-----o----------------
-XX---SDDDD-------#-XXX-XTXXXXXXXXXXXXXXXX-----SSSS--------DDDDDDDDDDDD-DDDDDDD##DDXD--DDDDDDD---#---#-----tt----o-------TT--tt-X-X---##---------------
-----------T--------XX--tt-XXXXXXXXX------D----------------------------------------X-------------#-----TTott----DD----gD-tt--tt----#-y#----#-----------
----------tto-----------tt--------------DDDDD----------------------------------------------------##----toott---DDDDDDDDDDt---tt-----##----#D-----------
---------ottoo----------tt--------------------o--------------TT---------------------------------------ttooot-----------------tt-----------oD-----------
---------tttg-----------tt-------------------o-o-------------tt----------------------------------------togDt-----------------tt----------ooD-------#---
---------XXXXXXXXXX-----tt------------XXXXXXXXXXXXXXXXXX-XT--tt---TT-------TT----------TT---TT---X---XXXXXXXXXXXXXXXXXXX-XX--tt--------XXXXXXXXXXXXXXXX
---------ttXXXXXXXXX----tt-------------XXXXXXXXXXXXXXXXXXXX--tt--ttt---t---tt----------tt---ttt--X---XXXXXXXXXXXXXXXXXXXXXX--tt--------XXXXXXXXXXXXXXXX