---------------------------------------------------------D---------------------------------------------D-----------------------------------------------
---------------------------------------------------------D---------------------------------------------D-----------------------------------------------
---------------------------------------------------------D-----------------------------------------D---D-----------------------------------------------
-------------------------------------------------------------------------------------------------------D-----------------------------------------------
----------------------------o--------------------------------------------------------------------------D-----------------------------------------------
---------------------------o-o-------------------------------------------------------------------------D-----------------------------------------------
----------------------------o-o--------------------------------o---------------------------------------D-----------------------------------------------
---------#-------------------o-o-------------------o----------Xoo--------------------------------------D-----------------------------------------------
M--------#-----------------DD-o-o-----------------##----------XX-TT--------o-------o-o-o-----DDD-------D-------------------------TT---X----------------
XXXXX----##-------------D--DDDDDDDDDDD-----------t#--------tTT-Xott---#####DDDDDDDDDDDDDDD---SSSS---D--D-----------------SSSSS-o-tt---SSSSSSS----------
XXXX---#-##----------------------------------T-X-tt----Too-ttt-oott----#-----------------D----------D--DD---g-g-gD----T-XDD--TTXoot--------#-----------
------t#--#------DDD-------------------------ttoott----tooottt-oott----------------------D----------D-SDDDDDDDDDDDD----oo----ttoott--------------------
------t---#---------------TT-----------------ttoott----toootttooott----------------------D-----D----D--DD--------------oo----ttooot--------------------
-----oot--#-----o---------tt-----------------ttoott----ttggtttgggtt----------------------D-----D------oDD--------------oo----ttoggt------##oo---o------
------oX--XXT--XXXXXX--T--tt-----------------Tt-XtX---XXXXXXXXXXXXX-----------------T----XXXXXXXXXXXXXXXXXXXXXXXXXXX-XXXXXXXXXXXXXXXXXXXXXXXXXXXXXXXXXX
------XX--XXt--XXXXXXX-X--tt-----------------tt-Xtt-X-XXXXXXXXXXXXX------t---------tt---XXXXXXXXXXXXXXXXXXXXXXXXXXXX-XXXXXXXXXXXXXXXXXXXXXXXXXXXXXXXXXX