-------------------------------D----------------------------------------------------------------------------------------------D------------------------
-------------------------------D----------------------------------------------------------------------------------------------D------------------------
-------------------------------D-----D---------------------D------------------------------------------------------------------D------------------------
-------------------------------D-----D---------------------D------------------------------------------------------------------D------------------------
-------------------------------D-----D---------------------D------------------------------------------------------------------D------------------------
-------------------------------D-----D---------------------D------------------------------------------------------------------D------------------------
-------------------------------D-----D---------------------D--------------------------------------------------o----------o----D------------------------
-------------------------------D-----D---------------------D---------------------------o------------o--------o----------o-o---D----o-----------o-------
-----------XX--------T--oo---o-D-----D--------------o------D---------------------------#---o------o--o-o----D-D-------D--D-o--D---o-o----o-oD--X-X-XXXX
--------XXXXXXXX-----t#-#---####-----DD------------o---XXXXXX--D----------------------##--------DDDDD-X-T---------DDDDDDDDDDDDDDDDDDDDDDD####-XXXXXXXXX
----Mt-XXt----XX-TX--t--##-y##-------DD------------#----XXXXX----D---------------TT---##--##---X-------ttoo-----------------------------------XXXXXX---
----#t----t------tt-tt----##---------DD-----------##-------------D----------------t#--##--#----o-------ttDoo-------------------------------------------
----#t---tt------ttoot----------------DD-------#--#--------------D-----D-----------#--##-------o-tt----ttDooo------------TT----------------------------
---oDo----t------ttoot----------------oD------o#--#-------------Doo----#----o-----oo--##-------g-tt----tt-gg-------------tt----------------------------
---XXXXXXXXXXXXXXXXXXXXXX-----XXXXXXXXXXXXXXXXXX--XX-----------TXXXXXXXXXXXXXXXXXXXXX-XXXXXX-XX--tXX-XXXXXXXXXXX-----TT--tt-----TT---------------------
---XXXXXXXXXXXXXXXXXXXXXX-----XXXXXXXXXXXXXXXXXX--X------------tXXXXXXXXXXXXXXXXXXXXX-XXX-----X--tt--XXXXXXXXXXX-----tt--tt-----tt---------------------