-------------------------------------------------------------------------------------------------------------DD-------D--------D-----------------------
--------------------------------------------------------------------------------------------------------------D-------D--------D-----------------------
--------------------------------------------------------------------------------------------------------------D-------D--------D-----------------------
--------------------------------------------------------------------------------------------------------------D-------D--------D----o------------------
--------------------------------------------------------------------------------------------------------------D----------------D---o-----------o-------
-----------------------------------------------------tttt----------------------------------------------------DD-------D-----------o-----------o--------
------------o------------o--------------------------------------------------------o--------o-----------------DD----------------------------------------
M-----------------------o--------------------------------------------------------o-o------o-o-----------------D------------------#---------------------
XXXXXXXXXXXXDo-o-o-o-----o-------------D--------TXXXXXXXXXX---XXX------XXXXXX---o-o-o--D-o-o--DD-----------o-oD-------D------##-##---o--o----#D--------
XXXXXXXXXXXXDDDDDDDXXXXXXXSSSSSSSSSD---D-------XtXXXXXXXXXXXXXXXXXXXXXTXXXXXXXDDDDDDDDDDDDDDDD-D-------t----##--######XXXXXX-##--##-##--##D#-#D--------
---------------------XXXT-------S-DD-D-D--------tt---------XXXXXXXXXXtt------------------------------o-t--------#------XXXX--X#--#---#-y#--------------
------------------------o-------SSSDDDDD--------tt-------------------tt------------------------------oot------------------------------##---------------
------------------------t-------oooD---D--------tt-------------------tt------------------------------oot-----------------------------------------------
------------------------#ggg----ooo----D-------tt--------------------tt------------------t---o-------gtt-----#-------------------------------------#---
--------T---TT---T-----XXXXXXXXXXXXXXXXXXXXXXX-ttt-------------------tt-----TTT--t---TT--X--XXXXXXXXXXXXXXX-XX----------------------------------XXXXXXX
--------t---tt--tt-----XXXXXXXXXXXXXXXXXXXXXXXXttt-------------------tt------tt--t---tX--t--XXXXXXXXXXXXXXX-tt------------------------------------XXXXX