----------------------------------------DD------------------------------------------------------------D--------D----------------------------D----------
----------------------------------------DD---------------D-------------------------------------------DD--------D----------------------------D----------
----------------------------------------DD---------------D--------------------------------------------D--------D---------------!------------D----------
-----------------------------------------D---------------D-------------------------------------------DD--------D----------------------------D----------
-----------------------------------------D---------------D-------------------------------------------DD--------D----------------------------D----------
-----------------------------------------D---------------D-------------------------------------------DD--------D----------------------------D----------
--------o--------o--------o--------------D---------------D------------------------------------o------DD--------D----------------------------D----------
M---o--o-o---------------ooo-------------D---------------D-----------------------------------o-o------D--------D----------------------------D----------
XXXX-DD-D-o------oo---XXXXXXo-------XXX--DD-----o-o------D----TT------------------XXXXXX----o-o-o-----D--------D-----------------------D----D----------
-XXDDDDDDDDDDD#--#####-XXXXXTTXXXXXXXXXX-DDDDDDD-T-Xtt---D----Tt--##-SSSSSSXXXXXXXXXXXXX---DDDDDDDDD--D---S----DD----------------------D----D--D-------
--------------#-y#--------XXttXXXXXXX-------------#Xtt---T--X-tt------X-X--XXXXXX---------------------D---SS---DD--------#-----D-----D-D-------D-------
---------------##-----------tt--------------------#-tt---tt--ott--------------------------------------D-----SSSDD-------##--DDDDDDDD---D---------------
--------------#-------------tt-------------------#--tt---t---ott-------------------------------------DD-------oDD----o--##-------------D----D----------
--------------#-------------tt------------------##---t---t---ttt-------------------------------------DD-------oDD----o--##-------------D----D------#---
--------TT----X-X-----------tt--------TT----TT--XX---XXXXXXXXXXXXXXXXXXXX---------------TT---TT-TT---DX-XXXXXXXXXXXXXXXXXXXXXXXXXXXXXXXX----D-TTT-XXXXX
---XX-X-tt---XX-------------tt--------tt----tt--tt---tt-XXXXXXXXXXXXXXXX----------------tt---tt-tt---tX--XXXXXXXXXXXXXXXXXXXXXXXXXXXXXXXXX-----tX-XXXXX