----------------D--------D---------D-------------------------------------------------------------------------------------------------------------------
----------------D----------------------------------------------------------------D---------------------------------------------------------------------
----------------DD-------D---------D-----------D------------------------------------------------------------------------------!------------------------
----------------DD-----------------D-----------D---------------------------------o-o-------------------------------------------------------------------
----------------DD-----------------D-----------D------------------------------------o--D---------------------------------------------------------------
-----------------D------D---!!-t---D-----------D----------------------------------t----D---------------------o-----------------------------------------
-------------o--DD-------------o--oD-----------D-----o-----o------------o--------------D--------------------o-o-------o-------------------------XXXXXXX
------------o-o--D-----o-----------o-----------------oo-----o---------o--o-----------------------------------o-o-----o-o------------o---------X-XXXXXX-
-----------o-o---D----o-o---------ooo----------D-------o--o----------D-oDDoD-----------D---o---D------------o-D-D--oDDo-o---o-o----oXXXXXXXXXXX--------
--------DDDDDDD-DDDDDDDDDDDDDDDDDDDDDDDDDDDDDDD-D-----DDDDDDDDDDDDDDDDDDDDDDDD-----T---DDDD-D-#D------D----DDDDDDDDDDDDDDDDDDDDDD-XXXXXXXXXXXX#--------
-----T-----------------------------------------------------------------------------tt---------XXXXXXXX-------------------------------------------------
-----t-----------------------------------------------------------------------------tt----------------tt------------------------------------------------
-----t--tT------------TT--------------------------D-------#----------TT------------ttT---------------tt---oo--------T-------------------------#--------
-M---t--tt------------tt---------------------------------------------tt------------ttt--------------------oo--------t---------------o--------##--------
XXXXXXX-tt-------T----tt---TT--t--TT---t---TT--XXXXXXXX-XT---T--TT---tt------XXXXXXXtt---TT-----------XXXXXXX-TT----t---TTT--TT--T------XXX--XXXXXXXXXX
XXXXXXX-tt-------t----tt---tt--t--tt--tt--ttt--XXXXXXXX-Xt---tt-ttt--tt------XXXXXXttt---tt-----------XXXXXXX-Xt--ttt---tt---tt--t----XXXXX--XX-XXXXXXX