----------------------------------------DD-------D-----D------D-------------------------------------------------------------------DD-------------------
----------------------------------------DD-------D-----D------D-------------------------------------------------------------------DD-------------------
----------------------------------------D--------D-----D------D------------------------D------------------------------------------DD-------------------
----------------------------------------D--------D-----D------D------------------------D------------------------------------------DD-------------------
----------------------------------------D--------D-----D------D------------------------D------------------------------------------DD-------------------
----------------------------------------D--------D-----D------D------------------------D------------------------------------------DD-------------------
M---------------o----------------------DD--------------D------D------------------------D------------------------------------------DD-------------------
XXXXX--o-------o-o---------------------DD--------------D------DD-----------------------D------------------------------------------DD-------o-----------
XXXXXXXXo------Do-o----DD-o--o---------DD---oo-o--XXXX-D---T--DD-----ooo--------XXXX---D------o------XXXXXXXX-----o----------------D-----o--o-----o----
--XXXXXXXDDDDDDDDDDDDDDDDDDDDDD--------DD-DD#DD#XXXXXXXXX-Dt---D-----####XXXXXXXXXXXDDSD--#T--##XXXXXXXXXXXXXXXXXXXX---#-------#SSSDDDDDDDDDDDDDDDDD---
---------------------------------------DD--------------TX--t---D---g------X---XXXX-----------X#-XXXXX---------XXXXX#-y#-----yD-------------------------
---------------------------------------D---------------tDottt--DDDDDD----------------------tt#----------------------##----###--------------------------
--------------TT--------TT-----------------------------t-oot---D----------------------TT-o-tt----------------------------------------TT-------TT-------
--------------tt--------tt-----------------------------t-g-tt-------------------------tt---tt----------------------------------------tt-------tt-------
------XXXXX---Tt---TTT--tt---XXXXXXXXXXX--T------------t-XXXXXXXXXXX------------------XXXXXXX------------------------------X-----TTX-tt--TTT--tt-------
-----XXXXXXXX-tt---ttt--tt---XXXXXXXXXXX-tt------------t-XttX-XXXXXX-----------------XXXXXXXX------------------------------X--X-XXXXXttXXttt--ttt---t--