-------------------D---------------------------------------------------------D---D---------------------------------------------------------------------
-------------------D-----------------------------------D---------------------D---D---------------------------------------------------------------------
-------------------D---!-------------------------------D-o-------------------D---D---------------------------------------------------------------------
-------------------D--------------------------------------o------------------D---D---------------------------------------------------------------------
-------------------D-------------------------------------o-------------------D---D---------------------------------------------------------------------
-------------------D---!-------------------------------D-D-------------------D---D---------------------------------------------------------------------
-----------------------------------------------o---------D---------o---------D---DD------------------------------o-------------------------------------
M-----------------D---------------------------o-o--------D---------oo--------D----D-----------------------------o--------------------------------------
XXXXX-o-o--------DD----XXX-------------------o-o-o------DD--------Xo-TT----ooDD--DD-----------------------D-----------XXXX-------------------o---------
-XXXXD-oD-------#DXXXXXXXX#SSSS-#D--SSSSSSDDDDDDDDD-SSSSSD-------TXXXttXXXXXXDX---D-XXXXXXXXXXXXXS--##--###----#-----##XXXXXXXXXXXXXX#---DDDDDD--------
----------------#-XXXXXX------S--DD----------------------D------ttooottXXXXXX-----XtXXXXXXXXXXX-----Xt-X#--#---#----------XXXX--XXXXX--------D---------
-------o-----#----------------DSSSD----------------------D------tt-oott-----------tt--------------t--tt#---#---#---------------------------------------
-----too------------------------oDD----------------------D------tt-o-tt-----------tt--------------t--tt-------##-------------------------TT------------
-----tggg---##-------------D----ooD----------------------D------tt---tt-----------tt--------------t--tt-------##-------------------------tt--------#---
-----XXXXXXXXX-X-T--------XX-XXXXXXXXXXXX-----TT-----TXXXXXXXXXXXXXX-tt-----------tt-------------XX--tt--------X---TT-----------------X--Tt-----XXXXXXX
-----XXXXXXXXX-X------------X-XXXXXXXXXXX-----tt---X-tXXXXXXXXXXXXX--tt-----------tt------------XX---tt--------X-X-tt---------------XXXX-tt-----XXXXXXX