-------------------------------------------------------D--------------------------------------------------------------------------------------D--------
-------------------------------------------------------D--------------------------------------------------------------------------------------D--------
-------------------------------------------------------D--------------------------------------------------------------------------------------D--------
-------------------------------------------------------D--------------------------------------------------------------------------------------D--------
---D---------------------------------------------------D--------------------------------------------------------------------------------------D--------
---D---------------------------------------------------D-----------D--------------------------------------------------------------------------D--------
---D--------------------------o-----------------o------D-----------D-----------------------------------------------oo-------------------------D--------
--MD------o-o-----------------o----------------o-o-----D---------o-D----------------------------------------------oo-o------------------------D--------
--DD---D-DDo-------------o---o-o------o-------o-o-o----D--------D----------------------oo--T-----------D-----DDD-o-oo-o-X---------------------#--------
---DDDDDDDDDDDDD#DTXX---DDDDDXXXXXXX-X#--##DDDDDDDDDD--D-----------D--D---#----TTXXXXXXXXXtt-----------D-----DDDDDDDDDDDXXXXXXX--o----#-------#--------
-----------------------------XXXXXXXXX##-#-------------D---------------D--D----ttXXXXXXXXXttt-------TooD-----------------XXXXXXXX##--##----TT##--------
----------------------------------------#-------------DD---------------D-DDDD--tt--------oott--D---ttooD-------------------------##--##----tt##--------
-------TT------------------------------------T---------D------------------D----tt----------tt--D---ttoot---------TT--------------##--##----tt##--------
-------tt------------------------------------t---------D---------o-------------tt----------tt--D-Xtttggt---------tt---------------#--##-----###--------
----T--tt---TT----------TTT----T--------XTT--t---T--XXXXXXXXXXXXXXXXXXXXXXXXXXXXXXX------XXtXXXXXXXXXXXXXXX--TT--tt----TT---------X--XXXXXXXXXX-X--XXXX
----t--tt---tt---t-----X-tt----t---------tt--t---t--XXXXXXXXXXXXXXXXXXXXXXXXXXXXXXXX-----XXXXXXXXXXXXXXXXXXXX-t--tt----tt---------X--XXXXXXXXXX-X--XXXX