---------------------------------------------------------------------------------------------DD--------------------------------------------------------
---------------------------------------------------------------------------------------------DD--------------------------------------------------------
---------------------------------------------------------------------------------------------DD--------------------------------------------------------
---------------------------------------------------------------------------------------------DD--------------------------------------------------------
-------------------------------------------------------------D-------------------------------DD--------------------------------------------------------
---------ttt-------------------------------------------------D-------------------------------DD--------------------------------------------------------
-------------------------------------------------------------D---------o----------------------D--------------------------------------------------------
M------------------------------------------------------------D-----o--o-o---------------------D----------------------------------oo--------------------
XXXXXXXXXXXXXXXX-------o-----------------------o-D-----------D----D-ooDo-o-------D----D-------D---------------------------oT-----XXX---T---------------
XXXXXXXXXXXXXXXX------##o-DDDDDDSSSSSSSSSS----o-oD----TTTX---DDDDDDDDDDDDDDSSSDDDDDDDDDD------D---SSSSSSS----------------o-t---ttXXXTXXtXXXXXXXoDT-----
--------------------------------------------g--D-D----tt-o------------------------------------D-------#-----------------T--t---ttXXttXXttXXXXXXXtt-----
-----------------------------------------DDDDDDDDD----tt-#------------------------------------DD----------D-SSD----------ottt-ott---t--tt-----Dott-----
------------------------------------T-o----------D----tt##------TT---------------------D---o--DD-------------oD---------toot--ott---t--tt------ott-----
------------------------------------ttoo--------------tt##------tt------------o-------oo---oo-DD-------o----ooD---------tgot--gtt--tt--tt------gtt-#---
---------TT----------TT---TT---T--XXXXXXXXXXXXXXXXXXXXXXXX---TT-tt---TT--XX--X-T--TTXXXXXXXXXXXXXXXXXXXXXXXXXXXXXXXXXXXXXXXXXXXXXXXXXX-XXXXXXXXXXXXXXXX
---------tt----------tt-X-tt---t--XXXXXXXXXXXXXXXXXXXXXXXXXX-tt-tt---tt--XXXXX-t--ttX-XXXXXXXXXXXXXXXXXXXXXXXXXXXXXXXXXXXXXXXXXXXXXXXX-XX-XXXXXXXXXXXXX