---------------------------------------------------------D---------------------------DD----------------------------------------------------------------
---------------------------------------------------------D---------------------------DD----------------------------------------------------------------
--------------------------------------------------------DD---------------------------DD----------------------------------------------------------------
--------------------------------------------------------DD---------------------------DD----------------------------------------------------------------
--------------------------------------------------------D----------------------------DD----------------------------------------------------------------
---------------o--------!tt-----------------------------D-----------------------------D----------------------------------------------------------------
---------------#---------------------------------------DD------o---------------D------D-------------------------------------------o--------------------
M-------------##-------------------------o--------------D------o---------------D------D------------------------------------------o-----------oo--------
XX---------#--##------X-X-----XXXXXXX---ooo---oD--------D-----o-o--------------D-------------TT-------TXXXXXXXXXXXXXXXXXXXXXXXXXXXoXXXXX-o--o-oT-------
XXXXXX----##--##---#XXXXXXXXXXXXXXX##--####---###-D-----DDDD-----D---###XXXXXX-D------o-T----tt--tTXXXXXXXXXXXXXXXXXXXXXXXXXXXXXXtXXX#XX###XXXXtt------
XXXXXXX#--##--##-#----XXXXXXXXXX----------#--y#------------------D------XXXXXX-D-----o-otTXoottoottXXXX----------t---------------tt--------TXXXtt------
-------#--##---#D#--------------------#----##--------------------D-------------DDDDDDDoottXoottoottt-------------------------------------------tt------
-------------------------------------------------------------T-----------------DD-----oottooottoottt-----------------------------------------o-tt------
-------------------------------------------------------------tt-----------------------ggttgg-ttogttt----------------------------------------o--tt--#---
------------------------------------------------------XXXXX--Xt--T----------------XXXXXXXXXXXXXXXXXXX------------------------------------------TXXXXXXX
-------------------------------------------------------XXXXX-tt--t---------------XXXXXXXXXXXXXXXXXXXX------------------------------------------tt--XXXX