---------------------------D-----------------------------------------------------------------------------DD------------DD---------------------D--------
---------------------------D-----------------------------------------------------------------------------DD------------DD---------------------D--------
---------------------------D---------------------------------------D--------------------------------------D------------DD---------------------D--------
---------------------------D---------------------------------------D--------------------------------------D------------DD---------------------D--------
---------------------------D-----------------------D---------------D-------------------------------------DD------------DD---------------------D--------
---------------------------D-----------------------D---------------D--------------------------------------D------------DD---------------------D--------
------------o--------------D-----------------------D---------------D--------------------------------------D-----o------DD-------------o-------D--------
-M---------o---------------D-----------------------D---------------D--------------------------------------D----o-o-----DD------------o-o---------------
-XXXX---o-ooXXXXXXXX-------D-----------------------D---------------X---D-------T------#-------------------D-DDDDD-D----DD------D----o-o--------D-------
-XXXXDDDDDDDXXXXXXXXXXXXXX-DXXXXXXXXXXXXX----------DDDDXXXXXXXXXXXXXX--D---T---tt----##--#-----------DDDDDDDDDDDDDDDDD-DD------D--##-DDDDDXXXXXX-------
-------------------XXXXX-----XXXXXXXXXXXXXTT-----------XXXXXXXXXXXX--------TToott---###-##-----------------------------DD--D-gDgDD-------XXXXXXX-------
------------------------------------------tt-------------------------------ttoott#--###---------------------------------DDDDDDDDDD-------------D----#--
------------------------------------------tt-------------------------------ttootD#--###---------TT-------TT----------------------------------------##--
------------------------------------------tt-------------------------------ttggtt#--###---------tt-------tt-----t---------------D------------------##--
-----TT---TT------------------------------tt---TT--T------------------X-XXXXXXXXXXXXXXXXXXXX-TX-tt---TT--tt---TT----TT--XXXXXXXXXXXX-TT---------XXXXXXX
-----tt---tt------------------------------tt---tt--t-------------------XXXXXXXXXXXXXXXXXXXXXXXX-tt---tt--tt---ttt---tt--XXXXXXXXXXXX-tt---------XXXXXXX