---------------------------------------D-----------------------------DD--------------------------------------------------------------------------------
---------------------------------------D-----------------------------DD--------------------------------------------------------------------------------
---------------------------------------D-----------------------------D---------------------------------------------------------------------------------
---------------------------------------D-------------------------o---DD----------------------------o---------------------------------------------------
---------------------------------------D------------------------o----DD---------------------------o----------------------------------------------------
---------------------------------------D-----------------------o-----D---------------------------------------------------------------------------------
---------------------------------------D-------D---------------#-----D---------------------------#---------o---------------o-----o---------------------
M--------------------------------D-----D-------D--------------##-----DD-------------------------##-------XXo--#-----------oo---------------------------
XXXXXXo----------------#---------D-----D-----XXXXXX---oo------##----oDD-XXXXXXXX-----o-oD-------##-------XX#--X----------XXX-o--o--------XXXXXXXX------
XXXXXXDD---DXXXXXXXX--##-----D--DD-o---D----XXXXXX-######---#####--##DDXXXXXXXSSSSSSS---D-------##---------#DDDDDDD---XDXXXXXD####-SSSSSSSXXXXXXX------
-------------XXXttXX--##-----D--D--DD--DTTXo-t------------y##---#-yy#-------------------D-------##-----------------#-X-#-------------------------------
----------------tt----##----------------tttoo------------##------##---------------------DD------##-----------------##-------------##-------------------
----------------------##----------------ttooot---------------------------------------------------#-----------------##--------------------o-------------
----------------------------------------ttgg-----------------------------------------------------#-----------------#--------------------oo---#-----#---
------TT---TT---------------------TT-XXXXXXXXt-------------------T----------XXXX-X---TX-XXXX-------------------t----X------------------XXXXX-XX-XXXXXXX
------tt-X-tt---------------------tt--XXXXXXXt----t--------------t----------XXXXXXXX-tt-XXXXX------------------tt----------------------X-XXXXXX-X--XXXX