-------------------------------------------------------D-------D-------------------#---------------------------------DD------------------------D-------
-------------------------------------------------------D-------D-----------------------------------------------------DD------------------------D-------
-------------------------------------------------------D-------D-----------------------------------------------------DD------------------------D-------
-------------------------------------------------------D-------D-----------------------------------------------------DD------------------------D-------
-------------------------------------------------------D-------D-----------------------------------------------------DD------------------------D-------
-------------------------------------------------------D-------D-----------------------------------------------------DD---------------D--------D-------
-------------------------o-----------------------------D-------D------------------------------------------------------D---------------D--------D-------
----------------o-------o-o----------------------------D-------D------------------------------------------------------D---------------D----------------
-----D---------o-------oXo-o-----ooo----#--------------D-------D-----------------------o-------------XXXXXXXXXX-------D-------oD------D--------XXXXX---
XX---D---------##--####XXXXXXDD-###---###----------DT--D-DXXXX-D-----------D---SSSS---oXoSXXXXXXXXXXXXXXXXXXXX##SSDD-DDDDDDDSSSDDDDDDSD-------XXXXXX---
-----D--Dg------#-y#------XXX--X--#--X#--------------------XXX-D---gg-g-gg------------X--t--X-ttXXXXXX-------------------------------------------------
----DDDDDDDDDD---##----------------##----------------t---------DDDDDDDDDDD---------SStD--t----tt-------------------------------t---------D-------------
-----D-----------------------------------------------t---------D-----------T--------ooD--t----tt---------------------------TToot----T----D-------------
-M--o------------------------------------------------tt--------D-----------tt-------ooD--t-----t---------------------------ttg-t----tt--oo-o-----------
XXXXXXXXXXXX----------------------X------------------tt--------XXXXXXXXXX-Xtt---T---ooD--X-----t----------------TT----TT---XXX-tT---ttXXXXXXXXXXXXXXXXX
X-XXXXXXXXXX-----------------------------------------t---------XXXXXXXXXXXttt---t---Xtt--t-----t--------------X-tt--X-tt--XXXX-tt---tt-XXXXXXXXXXXXXXXX