-------------------------------------------------D-----------------------------D-------------DD--------------------------------D-----------------------
-------------------------------------------------D-----------------------------D-------------DD--------------------------------D-----------------------
-------------------------------------------------D-----------------------------D-------------DD--------------------------------D-----------------------
-------------------------------------------------D-----------------------------D-------------DD--------------------------------D-----------------------
-------------------------------------------------D-----------------------------D-------------DD--------------------------------D-----------------------
-------------------------------------------------DD------------------------------------------DD--------------------------------D-----------------------
------------o-----------o------------------------DD--------------------o---------------------DD--------o-----o-----------------D-----------------------
-----------o-----------o-o------#-----------------D---o---------------o-o----o----------------D-----oo-o-----oo---------oo-----D-----------------------
M---------o-o---------o-o-o-o-o-#---D#------------D--oo--oo---------oo-o-o--o-o----T---------DD-----D-o-o-D-o----------o-D-----D-----------------------
XXXXXXXXTXX#---------DDDDD-###--#-y###--##--DD----D---#--##D#------DDDDDDDDDDD-DDDtt---------DDDDDDDDDDDDDDDDD-D--------DDDDD--D-------SSSSS-----------
-XXXXXXtt-#---------------------###--X-XX-------------#-y#---#--ggD------------t-o-t---------------------------#---------------------------------------
-------tt-#--------------------------------------------##----DDDDDDD-----------t-oot---------------------------D-----SSD-------------------------------
-------tt-#---------------------------------tt-----------------------------T---t-oot------------TT------------oo------oDD------------------------------
--------tt#---------------------------------tt-----------------------------t---ttggt------------tt------------oo------oDD--------------------------#---
--------XXXXXXXXXX----TT--------------------tt---T-------------XXXXXX-TT--tt---TXXXXXXXXXXXXXXXXXX---TT---XXXXXXXXXXXXXXX---TT---TT--TT--X---XXXXXXXXXX
--------tXXXXXXXXX----tt---------------------tt-tt------------XXXXXXXXtt--tt---ttXXXXXXXXXXXXXXXXt-X-tt--XXXXXXXXXXXXXXXXXX-tt--Xtt--tt--X--XXXXXXXXXXX