------------------------D-------DD---------------D-------------D---------------------------------------------------------------------------------------
-------D------------------------DD---------------D-------------D---------------------------------------------------------------------------------------
-------!------------------------DD---------------D-------------D---------------------------------------------------------------------------D-----------
--------------------------------DD-----------------------------D----D----------------------------------------------------------------------D-----------
--------------------------------D------------------------------D----D----------------------------------------------------------------------D-----------
-------D------------------------D------------------------------D----D--------o-----------------------------D-------------------------------D-----------
---------------------------------------------------------------D----D--------D-----------D-----------------D-------------------------------D-----------
M--------------------------------------------------------------D-----D-------D-------o---------------------D-----------------------D-------D-----------
XXXXXXXDo-DDD-Do-------------TT--------------o----o------------DD----D-------D--DD--DDD---o---##-----------D-------oo--------------D--D----D-----------
XXXXXXXDDDDDDDDDDDDDDSSSSSS--Dt--D---DS-----###--##DDXXXXXXXD--DD----D-------DD-DDDDDDDDDDDDD-##--SSSS-----D------o----D---------D--DDD----DD----------
-#----------------------X--T--t----------#X---#-y#---XXXXXX----------D------------------------##----S--DDDDDD--D------#D-------------------DD----------
---------------------------Soot----------##----##--------------------DD-----------------------##-----DDDDDDDDDDDD----##D-------------------DD----------
--------------------T-------oott--------##---------------------------DD------------------T----##----------------------#D-------------D----oDD----------
-------------------tto-----tog-tt-------o----------------------t-----DD------------------t----##-------------------------------------D---o--D-----o#---
---------------TT--tXXXXXXXXXXXtt---TT-XXXXXXXXX---------------tt----DXXXXXXX--TT---TTT-tt----XX-----XXXXXXXXXXXXXXX---TT----------XXXXXXXXXXXXXXXXXXXX
---------------t---ttXXXXXXXXXXtt---tt-XXXXXX-XX---------------tt----XXXXXXXXX-tt----tt--t----XX-----XXXXXXXXXXXXXXX-X-tt----------XXXXXXXXXXXXXXXXXXXX