------------------------------------------------------D--------D--------------------------------------#------------------------------------------------
------------------------------------------------------D--------D-------------------------------------D#------------------------------------------------
-----------------------------------------------D------DD-------D-------------------------------------##------------------------------------------------
-----------------------------------------------D------DD-------D--------------------------------------T------------------------------------------------
-----------------------------------------------D------DD-------D--------------------------------------T------------------------------------------------
-----------------------------------------------D------DD-------D-------------------------D-------------------------------------------------------------
M----------------------------------------------D------DD-------D---------------o---------D--------------------------------o----------------------------
XXXX-X---------------------oo-o-------------D----------D-------D--------------o-o--------D-------------------------------------------------------------
XXXXXXX-------ooo---------o--oDD--XXXXX-----D--D-------D-------D-------------o-o-o-------------D-------XXXX---#-----------X------------o--oXXXXXXX-----
--------------#D#D-----DDDDDDDDDDDDXXXXD-DDDDDDDDDDD---D-------D-------o-----DDDDDDDDD---D-D--##-XXXXXXtXXXX-##-----------DSSSSSSSSDDDDDDDDDXXXXXX-----
----------TT-------------------------------------------D----gD-D----ggDD-----D-------------D-----XXXXXXt-----##----------------------------------------
----------tt-------------------------------------------D--DDDDDDDDDDDDDD-----T#------------D------------------#-------------------S--------------------
----------tt-----------------------------------------------------------------tt------#---DDD--------------------------#--------------------------------
----------tt-----------------------------------------------------------------tt------#---DDD-------------------------oo--D-----g-------------------#---
------TT--tXXXXXXXXXXX-T--TT-------------TT----TT------TTXXXXXXXXXXXXXXXXX---tt--TT--XX-X--D-----------------------XXXXXXXXXXXXXXXXX---TT----------XXXX
------tt-XXtXXXXXXXXXX-t--tt-------------tt----tt--t---tt-XXXXXXXXXXXXXXXX-X-tt--tt--tX-XXXt-----------------------XXXXXXXXXXXXXXXXXXX-tt----------XXXX