---D-----D---------------------------------------------D---------------------------------------------------------------------------------------D-------
---D-----D---------------------------------------------D---------------------------------------------------------------------------------------D-------
---D----DD---------------------------------------------D-----D-----------------------------------------------------------------------------------------
---D-----D---------------------------------------------D-----D-----------------------------------------------------------------------------------------
---D-----D---------------------------------------------D-----DD----------------------------------------------------------------------------------------
---D-----D---------------------------------------------D-----DD--------oo------------------------------------------------------------------------------
---D----DD---------------------------------------------D-----DD---------o------------------------------------------------------o-----------------------
M---------------------------------------o-------oD-----D-----DD----------o----------------------------------------------------oo-----------------------
XXXXXXXXXD-----ooo------g----------------o-----o-o-----D-----D-------oooo-o------ooo-----o--------------o-------------o------oo-o-----XXXXX-----o------
XXXXXXXXDDDDDDD###---#####-##DDD---SSSSSSDDDDDDDDDD----D-----DDDDDDDDDDDDDDDSSSSS###--#-###---------DD--#--------#---###DDDDDDDD-####XXXXXXX-#--##-----
-----------------#-yy#-------------------------------------------------------------#-y#----#---#-----D-DDDDDD-D-D---D##-o--------------------#--#------
------------------###--------------------------------------------------------------###-----#--##-----------DDDDDDD---SS-----------------------#--------
-----------TT-------------------------------Tt------------------T-------------------------##--##----------------------o-TT-----------------------------
-----------tt------------------------------ott----o------o-----tt--------------o-----------#--##-------o-------------oo--t-------------------------#---
-------TT--tt----------------TT-TT---TT-XTXXtX-XXXXXXXXXXXX-XT-tt---TT----T----XXXXXXX-X--XXX-XXXXX--TT--TT--XXXXXXXXXXXXX---TT------------------XXXXXX
-------tt--tt----------------tt-tt---tt-tt-XXXX-XXXXXXXXXXXX-Xttt---tt---tt---XX-XXXXX-X---XX-XX--XX-tt--tt--XXXXXXXXXXXXX---tt-----------------X-XXXXX