-----------------------------------------D-------------------------------------------------------------------------------------------------------------
-----------------------------------------D-------------------------------------------------------------------------------------------------------------
-----------------------------------------D-------------------------------------------------------------------------------------------------------------
-------------------------o---------------D-------------------------------------------------------------------------------------------------------------
------------------------o----------------D-------------------------------------------------------------------------------------------------------------
-----------------------o----------------DD----------------------o--------------------------------------------------------------------------------------
-----------------------#---------------------------------------o---------------------------------------------------------------------------------------
-----------------------#---------------------------------------#-------------------------------------------------o-------------------------------------
MXXXXXXXXX------------##-----XXXXXXX--------------------------##------D--------oo-oo---------oo-o---------------oSo---o----------------XXXXXXXXXX------
XXXXXXXX-X#---#-------------XXXXXXXXXXXXXXXXX----o-------#----##-XXXX-XX--#---##--##---DDDDDD###-#--XXXXXTXXXXXXXX-X-XoTT----SS--#D---------X-X--------
---------#----##----------------------XXXXXXXX---#------##----##XXXXXXXX-XXXX--#--#D---#----------XXXXXXttXXXX-XXXXXXXXtt-----X------------------------
--------#-----##--------------------------------##---X#-###---#---------##-------------#----------------tt--------XXXXXtt------------------------------
--------------##--------------------------------##---##-###----------------------------#---##--------------------------tt------------------------------
--------------o#---------t----------------------##---##-###----------------------------#---##------------------tt------tt-----------#------------------
-----------XXXXXXXXXXXX-tt----------------------XXXX-XX-XXX----------------------------XXXXXXXXXXXXXXXX--------tT------tt------TT---XX-XXX-------------
-----------XXXXXXXXXXXXXtt----------------------XXXX-XX-XXX----------------------------X-X-XX-XXXXXXXXX--------tt------tt----X-tt--XXX-XXX-X-----------