-------------------------------------------------------------------------------------------------------------------------------------------------------
-------------------------------------------------------------------------------------------------------------------------------------------------------
-------------------------------------------------------------------------------------------------------------------------------------------------------
-------------------------------------------------------------------------------------------------------------------------------------o-----------------
------------------------------------------------------------------------------------------------------------------------------------o------------------
-------------------------------------------------------------------------------------------------------------------------------------------------------
------------------o-------------------------------------------------------o--------------------------------------------o----------------------o--------
M------------------------------------------D-------------------------------o----------o----D----------------o---------o-o--------------------o-o-------
XXXXXXXXXXXXXXXXXXXXXXXXXX--------TXXX----DD-----------------------------DD-o---o----o-o---D---------------ooo-------o-o-o----o---#oo-------o-o-o------
XXXXXXXXXXXXXXXXXXXXXXXXXXTTXXXTXXttXXX----D-------SSS---------------------o---##DDDDDDDD--D----D--------TXXXTTXXXXDDDDDDDD--##--#-##-------#--#-------
-------------------------XttXXttXXtt-------D----D---------------------------#-o#-----------D---DD--------ttXXttXXX-----------##------------##--#-------
--------------------------tt--tt--tt----D-DD---DDDD--------t------------TT---t##--------------DDDDDDDDDDttto-tt----------------------------##----------
--------------------------tt-ott-ott----D--D---D-oo------oDD------------tt--tt--------------------------ttt--tt----TT----------------------##----------
--------------------------tt-gtttgtt---#---D---D-gg------oD-------------tt--tt--------------------------ttt--tt----tt----------------------#-----------
--------------------------XXXXXXXXXXXXXXXXXXXXXXXXXXXXXXXXXXXXXXXXXXXXX-ttt-tt-------T----TTXXXXXXXXXXXXXXX--tt----tt--TT----TT------------#X---T------
-------------------------XXXXXXXXXXXXXXXXXXXXXXXXXXXXXXXXXXXXXXXXXXXXXXXXXtttt-------tt---ttt-XXXXXXXXXXXXXX-tt----tt--tt----tt-----------------t------