-----------------------------------D---D-----------------------D------------------D--------------------------------------------------------------------
-----------------------------------D---D-----------------------D------------------D--------------------------------------------------------------------
-----------------------------------D---D-----------------------D------------------D----D---------------------------------------------------------------
-----------------------------------D---D-----------------------D------------------D----D---------------------------------------------------------------
-----------------------------------D---D-----------------------D-----------------D-----D---------------------------------------------------------------
-----------------------------------D---D-----------------------D-----------------D-----D--------------------------------tt-----------------------------
-----------------------------------D---D---------------o-------------------------D-----D------------------------------------------------------o--------
-------------o---------------------D---D--------------o-o------------o-----------D-----D-------------------D-------------------------------------------
M-XXX-X-----o-o--------------------D---o-o----o-o----#-XXX-----XXXXXX---D----D---D-----D--------o-o--------#---XXXXXXXXXXXXXX--------------------------
XXXXXXXDDDDDDDDDD---------------D--DDDDDDDDD##--##--##-XXXXXXXXXXXXXXSSSSD---DD-DDDDDD-DDDDDD-DDDDDDD-----##---XXXXXXXXXXXXXXX-T--XTXXX-------D-D------
XXX---------------------------------------------##-------XXXXXXXX----------------------------------------##--------------------t---ttXX----T--D--------
---------------------------------------------##----------------------------------------------------------##-------------------tttD-tt------#S-D--------
---------------TD----------------------------------------------------------------T---TT----o----------#--#--------------------ot---tt------tooD--------
---------------DDo----------------------------------------------------o----------t---tt---oD---------t#--#-------------------oot---tt------toD-t---#---
-------T---TT--XXXXXXXXXXXXX---TT----TT----------------------------XXXXXXXXXXX--Tt---XXXXXXXXXX--TT--tX----------------------oXXXXXXXXXXXXXXXX-tX-XXXXX
-----X-t--ttt-XXXXXXXXXXXXXXXX-tt--X-tt-----------------------------XXXXXXXXXXX-tt---XXXXXXXXXXX-tt--tX---------------------XXXXXXXXXXXXXXXXXXXtX--XXXX