-------------------------------------------------------------------------------------------D-----------------------------------------------------------
-------------------------------------------------------------------------------------------D--------------------------D--------------------------------
-------------------------------------------------------------------------------------------D--------------------------D--------------------------------
-------------------------------------------------------------------------------------------D-------D------------------D--------------------------------
-------------------------------------------------------------------------------------------D-------D---------------------------------------------------
-------------------------------------------------------------------------------------------D-------D---------------------------------------------------
M--------o-------o------o-----o------------------o--------------------------------------o-DD-------D---------o----------------------o------------------
X-------o-o-----o-o----o-o---o-o-----------o----o--o-----------------------------------o---D-------D-------------------------------o-o-----------------
oX-----o---o-D-o-o-o--o-o---o-o-o---o-----o-o--DD-DDDD-D--o------o-XXXX----------------#---D-------D--------o-----------------D---o-o-o----------------
XXXXXXXXXXXDDDDDDDDDDDDDDDDDDDDDDDDD##DDDDDDDDDDDDDDDDDDDDDDDD#-XXXXXXXXXXXXX#-X###XXXX#---DDDDD---DDD-----#-----------D---DDDD-DDDDDDDDDDDD-----------
--XXXXXXXXX-----------------------------------------------------XXXXXXXXXXX-XXXX---X--##------------------##-------------------------------------------
------------------------------------------------------------------------------#-------##------------------##-------------------------------------------
-----------T-----TT--------------TT----------TT----TT--#-------------------------------#-------------------#------------D-------------------T----------
----------tt-----tt---------------tt---------tt----tt--#------------------------------tt------------------##---o-------DD-------------------t------#---
----------tt--TT-t---T----T---TT--t----TTT---ttt---tt--X-XX----------------------------t----T----------X--XXXXXXXXX--XXXX---TT---T---TT-----t--XXXXXXXX
----------ttX--ttt---tt---t---tt-ttt---tt----ttt---tt--X--X---------------------------tt------------------XXXXXXXXXXXXX-XXX-tt---t---tt-----t--XXXXXXXX