---------------D-------------------------------D-------D-----------------------------------------------------------------------D-----------------------
---------------D-------------------------------D-------D-----------------------------------------------------------------------D-----------------------
---------------D-------------------------------D-------D-----------------------------------------------------------------------D-----------------------
---------------D-------------------------------D-------------------------------------------------------------------------------D-----------------------
---------------D-------------------------------D-----D-------------------------------------------------------------------------D-----------------------
-----------------------------------------------D-----D-------------------------------------------------------------------------D-----------------------
-----------------------------------------------D-------D-----------------------------------------------------------------------D-----------------------
M-----o------------------------------------D---D-------D----------------------------------------------------------oo-----------D-----------------------
XXXX--o----------------X--XXXXXXX----------D---D--------DD-----o-D--------o------D----------o-----o---o---------T------o-o-----D------XXXXXXXXXX-------
XXXXXX#--######------XXX-XXXXXXXXX---------D---DDDDD---DDDDDDDDDDDDDDDD-----o-o--D---------o--#---##--#D##-----DDDDDD--DDDDDD--DDDDDXXXXXXXXXXXXX----#-
------#-y#----------------------------T----D------------------------------DD-g-gDDD----#--o--tt#--##-y#--#--S------------------------------------#-----
-------##-----------------------------tt-DDD-----------------------------DDDDDDDDDDD---#-----tt##---##---------S----------------------------------##---
--------------------------------------tt---D--------------TT-------------DD-----------##-----t-----------------o-T-----------TT------------------------
--------------------------------------tt---D--------------tt--------------------------##-t---tt---------------ooot-----------tt------------------------
--------------------------------------XXXXXXXXX-TT----TT--tt----TT---TT--XXXXXXXXXXXXXXXXX---tt---------------XXXXXXXX--TT---tt---TT-------------------
--------------------------------------XX-XXXXXX-tt--X-tt--tt----tt---tt-XXXXXXXXXXXXXXXXXX---tt--------------XXXXXXXXXX-tt---tt---tt-------------------