-------------------------------------D-----D-----------------------------------------------------------------------------------------------------------
-------------------------------------D-----D-----------------------------------------------------------------------------------------------------------
-------------------------------------D-----D-----------------------------------------------------------------------------------------------------------
-------------------------------------D-----D-----------------------------------------------------------------------------------------------------------
-------------------------------------D-----D-----------------------------------------------------------------------------------------------------------
-------------------------------------D-----D------------------------------------------------------------------------------------------D------------o---
-------------------------------------D-----D-------------D------------o--------------------o-----------------o------------------------D-----------o----
-------------------------------------DD----D-------------D-----------o-o------------------o-----------------o-o-----------------------D----------------
M---XXXX-X-----------D---------------D-----D-------------D-----o------o-o-----TTX--------#-----------------o-o-o-------o--------------D----------#-----
XXXXXXXXXXXDDDDDD---##---------------D-----D-------------D-----####-DDDDDDDDX-ttXXXX-----#-------------o-DDDDDDDDDDDDD-###--#D---DD---DD--------#------
XXXXXXXX----------------------TT---o-DD----D------------DD--------------------tt---D-X#-##------DD----##---------------X#-------------DD--------#------
------------------------------tt--oDDDDDDDDDDD----------DD--------------------tt-----##-##-----DDDDDD-##------------------------------DD---------------
------------------------------tt-----------DD------------D-----------------T--tt-----##-##---DoD------##---TT--------------------D----DD---------------
------------------------------tt-------------------------DD----------------tt--t-----o#-##---oD-------#-----t--------------------D----DD-----------#---
------------tt----------XXXXXXXXXXXXXXXXXXXXXXXXXXXXXXXXXXXXXXXXX-----TT---tt--X--XX-XX-XXXXXXXXXXXXXXXXXX--t----------------XXXXXXXXXXXXXXXX--TT--XXXX
------------tt-----------XXXXXXXXXXXXXXXXXXXXXXXXXXXXXXXXXXXXXXXXX----tt---tt--X--XX-XXXXXXXXXXXXXXXXXXXXX-ttt---------------XXXXXXXXXXXXXXXXX-tt--XXXX