-----------------------------------------------------------D-----------------D-------------------------------------------------------------------------
-----------------------------------------------------D-----D-----------------D-------------------------------------------------------------------------
-----------------------#-#---------------------------D-----D-----------------D-------------------------------------------------------------------------
-----------------------------------------------------D-----D------------------D---------------D--------------------------------------------------------
-----------------------------------------------------D-----D------------------D---------------D--------------------------------------------------------
-----------------------!-t---------------------------D-----D-------------------------------------------------------------------------------------------
-------oo-------o------------------o-----------------D-----D--------o---------D-----------------------------------------------------------------D------
-------ooo-----o-o----------------o--o---------------D-------------o-oo-----------------------D------------------------------------------------oD------
---M--o-o-o-----o-----D---------Do-Do-o--------------DD----D------o-o--o----------ooo-o----D--D---------------oo--------Dg-----#----------------D------
---DDDDDDDDDDDDDDDSSSSSSSSSSSS-DDDDDDDDDDDDD-----D-----D---#--DSSDDDDDDD---------###-###-##---D#-----DD------###--##--####-XX--##--------DD---D-D------
------------------------------------------------tt-----D--##----------------------#---#D------DXD----DD-----#-#--X#--TT-----X---DD--#----DDggg-DD------
-------------------------------------------------------D---#---------------------------------t---#---D------#t--##---#--------------DDDSDDDDDDDDD------
------TT--------------oD-------------TT----------------D---#--------TT-------#--------------ttoo---oDD-------t---------------------o-----------DD------
------tt--------------g---o----------tt-------#--------D--#---------tt------###---#---------ttog---oDD-------t---------------------o------------D------
------tt---T---XXXXXXXXXXXXXX---TTT--tt--TT---X---TT---X--XX-----T--XX-XXXXXXXXXXXXXX-------XXXXXXXXXXXXXXXX----------------------XXXXXXXXXXXXXXXXXXXXX
------tt--tt---XXXXXXXXXXXXXX-X-ttt--tt--tt---X-XXtt---X--XX-----t--tXX-XX-XXXXXXXX---------XXXXXXXXXXXXXXXX----------------------XXXXXXXXXXXXXXXXXXXXX