--------DD---------#----DD-------D-----------------D-------------------------------D---------------------------------------D---------------------------
--------DD---------D-----D-----------------D---------------------------------------D---------------------------------------D---------------------------
--------DD---------------D--------------!--D---------------------------------------D---------------------------------------D---------------------------
---------D---------------D-----------------D---------------------------------------D---------------------------------------D---------------------------
---------D------------!--D-------------------------------------------------------------------------------------------------D---------------------------
---------D---------!--!-DD-------------------------------------------------------------------------------------------------D---------------------------
--------DD---------------D-------------------------------------------------------------------------------------------------D---------------------------
---------D---------------D----------------------------o-------o------------------------------------------------------------D---------o-----------------
M-----XXXXXXXXXXXXXXXXXXXXX----oo---------------o------------o-o-o-o--------------------o----D-----DD-------TT-------------D---D---Do-o----------------
XXXXXXXXXXXXXXXXXXXXXXXXXXXX---#####------------#---##-----DDDDDDDDDDX#XXX-------------o----##---SSSSD------tt---#---DDDD--DDD-DDDDDDDDSSSSS-----------
XXXXXXXX------------------X----#--##------------#--y#----------------XXXXX------TTD----#-----##---------TToott--t#-----------------------------D-------
-----------------------------------#------D------###----------------------------SSD---##----###---------ttoott--##---------------------------SSD-------
--------------TT--------------------#---#D----#---------------------------------ooD---##----##X---------ttoott--t#----------TT----------------oD-------
--------------tt------------------------oo----D---------------------------------ooo---##--#####---------ttggttt-tt----------tt--------g-------oD---#---
-----------T--tt-----X--------------XXXXXXXXXXXXXXXX----TT---TT-----------XXXXXXXXXXXXXX-XXXXXXXXXXXXXXXXXXXXXX-tXX--X-TT---tt---TT-XXXXXXXXXXXXXXXXXXX
-----------t--tt-----------------------XXXXXXXXXXXX---X-tt---tt------------XXXXXXXXXXXXX--XXXXX-XXXXXXXXXXXXXXX-ttt--X-tt--XttX--tt--XXXXXXXXXXXXXXXXXX