-------D-----------------------------------------------------------D----------------------------------------------------------------------D------------
-------D-----------------------------------------------------------D----------------------------------------------------------------------D------------
-------D-----------------------------------------------------------D----------------------------------------------------------------------D------------
-------D-----------------------------------------------------------D----------------------------------------------------------------------D------------
-------D-----------------------------------------------------------D-------------------------------------o--------------------------------D------------
-------D-----------------------------------------------------------D------------------------------------o---------------------------------D------------
-------D------------------------------------------------o----------D------------------------------------#------------o---------------------------------
M------D---------o-oo----------------------------------o-o---------D-----------------------------------##-----------o-o--------------------------------
XXXXXX-D--------D-o-Do------ooo------------XXXXXXXXXXXX-o-o--------D------oT--X-XXXX-----------D-------##----o--o--#-o-o-----XXXX----------------------
XXXXXXX------D--DDDDDDDDD--#####-------#----XXXXXXXXXXXDDDD------T-------XXTTXXXXXXX----SSSSSSS-------#-##---#-y#####-#####XXXXXX----------------------
----------------------------#---------##--------------------TT-ottTo---TXX-tt-X--XX---------------#--##-##---#-y#----------------------------Dgg-------
---------------------------##---------##--------------------ttoottt----t-ottt--------------------##--##-##----##--------------------------DDDDDDD------
------------------TT-------##------#--##--------------TT----ttoottto---t--ttt-----------o-------###--##--#-------------------------------------D-------
------------------tt--------#-#---##--##--------------tt----ttogtttgg-tt---tt----------oo-------##------##---------------------------------------------
-------X-XX----TT-tt---TT--------XXXX-XXXX------------tt---TXXXXXXXXXXXXXXXtt-------XXXXXXXXXXX-XXX------X------------------------------XXXXXXXXXXXXXXX
-------X-XXXX--tt-tt---tt--------XXXX-XXXXX-----------tt---ttXXXXXXXXXXXXXXtt-------XXXXXXXXXXX-XXX------X-------------------------------XXXXXXXXXXXXXX