-------------------------------------------------------------------D-----------------------------------DD----------------------------------------------
-------------------------------------------------------------------------------------------------------D-----------------------------------------------
-------------------------------------------------------------------D-----------------------------------D-----------------------------------------------
-------------------------------------------------------------------D-----------------------------------D-----------------------------------------------
-------------------------------------------------------------------------------------------------------D-----------------------------------------------
-------------------------------------------------------------------------------------------------------D-------D------------------D--------------------
--------------------------------------------------------------------------------------o----------------D-------D---------o--------D--------o-----------
-------------------------------------------------------------------------------------o-o---------o-----D------------------o-------D-------o-o----------
M-------------------T----------ooo----------o----------------------------------D----o-o-o-------o-o----DD----o--o--------DDD------D------o-o-oo--------
XXXXX-TT------------tt---------##---##-XXXXXXTX-XXXXXXXXX------XTX-XXXXXXXXXS--D-DDDDDDDDDDDDDDDDDDD--#-##--##-y###--DDDDDDDDDD---D-----oDDDDDDDD------
XXXXXXtt--------TT-ott----------#--##-XXXXXXXttXXXtXXXXXX------XtXXXXXXXXXX------------------------#-y#-##---#-y#-----------------D---D----------------
------tt--------ttooot------------##--------tttXXtt------------ttt------------SSS-------------------###-###---##------------------DDDDD----------------
------tt--------ttooot----------------------tttt----------------tt--------------oD-------T-----------##-##-----------------------DD----------TT--------
------tt--------ttoggt----tt----------------tttt----------------tt-------------o-D------tt------------#-##-----------------------D-----------tt-------X
------ttD--XX-XXXXXXXXXXX-tt----------------tttt----------------tXXX-----XXXXXXXXX---TT-tt---------------------------T--TT---TT--XXXXX--TT---tt-----XXX
------ttt--X--X-XXXXXXXXXXtt---------------XXtt--------------XXXtX------XXXXXXXXXXXX-tt-tt---------------------------t--tt---tt--XXXXXX-tt---tt------XX