-----------------------------------------------------------------D-----D--------------------------D----D-----------------------------------------------
-----------------------------------------------------------------D-----D--------------------------D----D-----------------------------------------------
-----------------------------------------------------------------D-----D--------------------------D----D-----------------------------------------------
----------------o------------------------------------------------D-----D--------------------------D----D-----------------------------------------------
---------------o-------------------------------------------------D-----D-------o------------------D----D-----------------------------------------------
---------------o-------------------------------------------!-----D-----D-------#-----------------------D-----------------------------------------------
--------------#--------------------------------------------------D-----D------##-----------------------------------------------------------------------
--------------#--------------------------------------------------D-----D------##-----------------------------------------------------------------------
-------------#-------------------o---o-------o--o-----o----------D-----D-------X-----------------XXXXXXXX-----TTXXXXXXX----------------TT-----------X--
-------D-----#-------tt-------------##--######--##---#DDD--DD----D---#-D-##XXXXXXXXXXXXXXX-----##DXXXXXXX---XXtXXXXXXX---o-------------tt--XXXXXXXXXXX-
-------D-T---#---TToott#-------------#-y#----#-y#-----------DDD--D----#DXXtXXXXXXXXXXXXXXXXX#-#----XX-------ttt--------------------TTXott---XXXXXX-----
-------D-t-------ttoott#---------#----##------##----------------------#--------------------DDDD-------------ttot-----------o-------ttoott------t-------
------oD-t-o-----ttoott#-------------------------------------------------------------------------------t--o-t-ot-------tt--o-D-----ttoott--------------
--M---oD-t-gg----ttgg-##--#----------------------------------------------------------------------------tt-gttDDt-------tt-oooDD----ttggtt--------------
--XXXXXXXXXXXXXXXXXXXXXXXXXXXXXXX---------------------TT--Tt----TT----------------------------X-X------XXXXXXXXXXXXXXXXXXXXXXXXXXXXXXXXXXXX-----XXXXXXX
---XXXXXXXXXXXXXXXXXXXXXXXXXXXXXX---------------------tt--tt----tt----------------------------X-XXX----XXXXXXXXXXXXXXXXXXXXXXXXXXXXXXXXXXXX-------XXXXX