-----D-------------------------------------------------------------------------------------D-------D-------D-------------------DD----------------------
-----D-------------------------------------------------------------------------------------D---------------D-------------------DD----------------------
-----D-------------------------------------------------------------------------------------D---------------D-------------------D-----------------------
-----D-----------------------------------------------------------------------------------o-D---------------D-------------------D-----------------------
-----D---------o------------------------------------------------------------------------o------------------D-------------------DD----------------------
-----D---------o-------------------------------------------------------------------------------------------D-------------------D-----------------------
-----D--------o-----------------------o---------------------------------------o--------o-------------------D-------------------DD----------------------
-----D-------o-----------------------oo------o----------------------------------------o-o------------------D-------------------D-----------------------
-----D------o-o--o------------------o-o-----------------------TT-------o--------XXXXXXXXXo-----------------D-------------------D-----------------------
-----DD-DDDDDDDDDDDDD------DDD----#D-D#DDD---SSSSSS---SSSSSSSStt-----DDDD-DXXXXXXXXXXXXXXXDDDD---#---------DD------------------DDDDD-----TT------------
-----D---------------D-g-D--------##---------#-----S--D-------tt--------------XXX----------------#-----#----------##-----------------TT--tt------------
-D-DDD---------------DDDDDD-------##---------#-----SSSD----SSott--------------------------------##----##----------##-----------------tt--tt------------
-----D----------------------------#----------##-----ooD-----oott--------TT----------------TT----##----##----------##--D--------TT--------tt------------
-M---D----------------------Dt----#----------##-D---ooD-----oott--------tt----------------tt----##----##----------##-oD--------tt----t---tt--o-----#---
-X-XXXXX---TT----TT-XXXXXXXXXXXX--X----TT----XXXXXXXXXXXXXXXXoDXX---TT--tt-------------TT--tT---XXXXX-XX----------XXXXXXXXXXXX-tt--TTT-XXXXXXXXXXXXXXXX
---XXXXX---tt----tt-XXXXXXXXXXXX--X----tt----XXXXXXXXXXXXXXXXXXXXX--t---tt-------------tt-ttt---XXX---XX----------XXXXXXXXXXXX-tt---tt-XXXXXXXXXXXXXXXX