-------------D-----------------------------------------------------------------------------------------D-----------------------------------------------
-------------D-----------------------------------------------------------------------------------------D-----------------------------------------------
-------------D--------------------------------------------------------------------------------#!#-#----D------------------------------------------o----
-------------------------------------------------------------------------------------------------------D-----------------------------------------------
-------------------------------------------------------------------------------------------------------D-----------------------------------------------
-------------------X---------------------------------------------------------------------------!-------D-----------------------------------------------
M-------------------------------------------------------------------------------o--------------o-o-----D-----------------------------------------------
X--------------------------------------------------------------------o----o----oo----------------------D-----------------------------------------------
XXXXXXXXXXXXXXXXXXXXXX-------o---------------------------o---XXXX---o-o--#DXXXXXo---------XXXXX--------D--D-D--------------------X---------------------
XXXXXXXXXXXXXXXXXXXXXXSSSS--o-----SSSS--DD--------------oXXXXXXXX###-##-##XXXXXXXTD---SSSSSSSSSSSSSDDDDDDDDDD----------o----TTT-XXSSSSSS--D------------
--------------------------D--D------S---D----TT-ot----ggg------------#------------------------------------------------g-T-XXttt------------------------
-------------------------DDDDDD------S-SD---tttoot--DDDDDDD----------------------------------------------------#----DDDDDDD-ttt--------#SD-------------
------------------------------D-------o---oDttoott--------------------------------------o------------------TT-##-------------tt---------oD-------------
-----------------------oo-----D----------ootttggtto------------------------------------o-------------------tt-##-------------tt--------ooo---------#---
---------------------T--XXXXXXXXXXXXXXXXXXXXXXXXXXXXXXXXXX-----T----------------------X-X--------TT---TT---XX-XXX-------t----tt----TT--XXXXXXXXXXXXXXXX
---------------------t--XXXXXXXXXXXXXXXXXXXXXXXXXXXXXXXXXX-----t----------------------X--X-----X-tt---tt---tt--X-------tt-XX-tt----tt--XXXXXXXXXXXXXXXX