-------D-------------------------------D-----------------D---------------------------------------------D-----------------------------------------------
-------D-------------------------------D-----------------D---------------------------------------------D-----------------------------------------------
-------D-------------------------------D-----------------D---------------------------------------------D-----------------------------------------------
-------D-------------------------------D-----------------D---------------------------------------------D-----------------------------------------------
-------D-------------------------------D---------------------------------------------------------------D-----------------------------------------------
-------D-----------------------------------------------!Xt---------------------------------------------D-----------------------------------------------
------DD-----------o-----------D-------------------------D------D-----------------------------o--------D-----------------------------------------------
--M----D----------o-o----------D-------------------------D------D------o---------------------o-o-o-----D-----------------------------------------------
--#----DX----XXXXXXXX----------D-------D----XXXXXXXXXXXX-D----o-D-----o-o----------TTTXXXXXXXXo-o--D---D-----o------------------o--o-o----------oT-----
--#X-TTDXXTXXXXXXXXX----DDXXDS-D--T#-#XXXXXXXXXXXXXXXXXX-X-DDDDDDDDDDDDDDDDDDD----XXtXXXXXXXXXXDDDDDDDDDDDDDDDDDDSSSSSSS-------DDDDDDDDDDDSSS--DDt-----
--X#------tt-X--X--------------D--tt--X-XXXXXX-----------------------------------XXttt----------------------------T--tt---DD---------------------------
---##-----t-------------------------------------------------------------------------tt----------------------------toot--SSDDD------------------SDt-----
----------tt----------------------------------------------------------TT-------T----tt-------------TT------------ttoott---DD------------------ooD------
----------tt----------------------------------------------------------tt-------tt---tt-------------t-------------ttggtt---DD-------------------ot--#---
----------tt-------------------------------------------t---TT-----TT--tt---TT--tt---t--------Tt----t-----T-----X-XXXXXXXXXXXXXXXX----TT----TT--XXXXXXXX
----------tt-------------------------------------------t---tX-----tt--tt---tt--tt--tt--------tt---tt-----tt----X-XXXXXXXXXXXXXXXX--X-tt----tt--XtXXXXXX