-------------------------------------------------------------------------------------------------------------------------------------------------------
-------------------------------------------------------------------------------------------D-----------------------------------------------------------
---------------!---------------------------------------------------------------------------D-----------------------------------------------------------
-------------------------------------------------------------------------------------------D---------------------------o-------------------------------
-------------------------------------------------------------------------------------------D--------------------------o--------------------------------
---------------!---------------------------------------------------------------------------D---------------------------D-------------------------------
-------------------------------------------------------------------------------------------D---------------------------D-------------------------------
M----------------------------------------o-------------------oo----------------------------D-----------------------------------------------------------
XXXXXXXXXXXXXX------X-o----------o------o-oD---o---o-o------o--o--o-oXXXXXXX--------D------D---------------DD----------D-----T-----o-o------o----------
o-XXXXXXXXXXXX-###-X-##-----##--o-o---DDDDDDDDDD##SSSS#---DDDDDDDDDDDXXXXXXXXXX#--##------------------D--SSDD---------SSSSSSSSSSSSSSSDDDDDDSSSSSS------
-------------#-------------------o-------------------#----------------------XXX---X----------------S-DD----D-------------D---tt-----------------Dtt----
------------------------#-------------------------#------------------------------------------------SSSD----D------D------t-oDtt-----------------ott----
---------------------------------------------------------------TT----------------------------T------ooD---DD----DDDD-----tooott----------------oott----
---------------------------------------------------------------tt----------------------------t------ooD---DD----DDD------tgggtt----------------ggtt----
--------X---XX----------TT----TT----TT---T---TT--------TT---TT-tt--------------------TT--TT--tX-XXXXXXXXXXXXXXXXXXXXXXXXXXXXXXXXXXXX--TT----XXXXXXXXXXX
-----XX-X-X-XX----------tt----tt----tt---t---tt--------tt---tt-tt-----------------X--tt--tt--tX-XXXXXXXXXXXXXXXXXXXXXXXXXXXXXXXXXXXXX-tt-XX-XXXXXXXXXXX