-------------------------------------------------D-----------------------------------------------------------------------------------------------------
-------------------------------------------------D-----------------------------------------------------------------------------------------------------
-------------------------------------------------D---------------------------------------------------------------------!-------------------------------
-------------------------------------------------D-----------------------------------------------------------------------------------------------------
-------------------------------------------------D-----------------------------------------------------------------------------------------------------
------------------------o------------------------D-----------------------------------tt----------------------------------------------------------------
------------o----------o-------------------------D------------------------------------------------------------------o----------o-------o-----o---------
-----------ooo-----------------------------------D------------------------------------------------------------o----o-o--------oo------oo----o-o--------
-oooM-----XXXX-----X--##-----------------o---oo--D------------##--XXX---------#D-XXXXXXXXXXXXX------o-o---D-o--D--o-D-o------o--o----o--o--o-o-o-------
-##D####-XXXXXTXXXXXX-##-----------D---DDDDDDDD-DD-----XTXXXX-##--####--------##XXXXXXXXXXXXXX-SSSSSDDDDDDDDDDDDDDDDDDDDD--DDDDDDDDDDDDDDDDDDDDDD------
y#------------ttXXXX--##-------------------------D---XXXttXX------------------##------------------#----------------------------------------------------
#-------------tt------##--------------------------------tt----------------------------------------#----------------------------------------------------
--------------tt------##----o--------------TT-----------tt----------------------------------------#--------TT-------T----------T-------TT--------------
--------------tt------#---ooD--------------tt-----------tt-----------------------------------D---##--------tt------tt--#-------t-------tt--------t--#--
----------TT--tt------XXXXXXXXXXXXXXX-tT---tt-----------tt--------------------------------XXXXXXXXXX----TT-tt---T---t--X-XX-T--t---TT--tt---TT---t--X--
--------X-tt--tt------XXXXXXXXXXXXXXX-tt--ttt-----------tt------------------------------XXXXXXXXXXXXXX---t-tt---t--tt--X--X-X--tt--tt--tt---ttt-tt-----