-------------------------------------------D-------------------D-------D-----D-------------------------------------------------------------------------
-------------------------------------------D-------------------D-------D-----D-------------------------------------------------------------------------
-------------------------------------------D-------------------D-------D-----D--------#----------------------------------------------------------------
-------------------------------------------D-------------------D-------D-----DD-------#----------------------------------------------------------------
-------------------------------------------D-------------------DD------D-----DD-------#----------------------------------------------------------------
-------------------------------------------D-------------------D-------D-----DD------tt----------------------------------------------------------------
-----------------------------o-------------D--------o----------D-------D-----DD-----o---------o-------------------------------------o------------------
----------------------------o-o------------D-------ooo---------D-----D-D-----DD--------------o-o----o------------------------------oo------------------
M--------------o-oDo-------o-o-D-----D-----D--TT--o---o--------D-----D-D-----DD-------X-----o-o-o--o-o-oTTTo----------o-------o---o----#---------#-----
XXXXX----SSSSSSSSSDDDDD---DDDDDDDD--DDD-------tt-XXDDDDDDDDD---DDDDD-D-D-----DDDDD##XXXXXDDDDDDDDDDDD-D-tt---##------##---####DDDDDDD-##---------#-----
XXXXX--------------------------------D----TTXott---------------------------------#-----------------------t---##--#-----#--#------------#---------------
-------------------------------------DD---ttoottt-------------------------------tt----------------------###--##-#-------###-----------##---------------
-----------ooto-------------TT------DDD---ttoottt----TT----------T---------------T--------------TT-------##--##-----------------------##---------------
----------ggtto-------------t-------oDD---ttggtt-----tt----------t--------------tt--------------tt----#--#---##----------------------###---#-------#---
----XXXXXXXXXXXX----TT--TT--tXXXXXXXXXXXXXXXXXXXXX---tt--TT--TT-tt---T--X-------tt-------T---T--tt---XX-XXX--XX-XXXX------------TT--XXXXXXXXXXXXXXXXXXX
----XXXXXXXXXXX-X---tt--tt--tt--XXXXXXXXXXXXXXXXXX--ttt--tt--tt-tt---tt-XX------tt------tt---t--tt---XXXXXX--XX-XXXX------------tt---XXXXXXXXXXXXXXXXXX