--------------------------------------------------------------------------------------------------------------------------D----------------------------
--------------------------------------------------------------------------------------------------------------------------D----------------------------
-------------------------------!------------------------------------------------------------------------------------------D----------------------------
--------------------------------------------------------------------------------------------------------------------------D----------------------------
-------------------------------------------------------------------------------------------------------------------------DD----------------------------
-------------------------------!-----------------------------------------------------------------------------------------DD----------------------------
----------------------------------------oo-------------------------------------------------------------------------------DD-----------------o----------
M---------------------------------------oo---------------------oo---------------------------------------o-----------------D----------D-----o-o---------
XXXXXX--------------------------ooo----Xoo-X-XXX--o-o-o-------ooTT--------------------------o-----------------D-----o-----D----------DD--D--o-D--------
XXXXXXX----------o-------------XX###XXXXXTTXXXXXXXXXSSDD----TTXottD-Xo-T-------------------####-XXXXXXXXXXXXXXD---DDDD----DDDDDDDDD--DDDDDDDDDDDD------
----------------##--------------XX--XXXXXttt-XXXXXX---------ttoottDXX-tt--D-----Dg--------#XX-#XXXXXXXXXXXXXXXD---D------------------------------------
----------------#------------------------tt---------S-D-----ttoottt-o-ttt-D----DDDDDD-D---##-----------------------------------------------------------
----------------###----------------------tt--------oooD-----ttootttoo-ttt-D---D---DD------##---------------------------#----T-------T------------------
----------------###----------------------tt---------oDD------tggtttgggt#toDo------o-------##---------------------------#----t-------t--------------#---
-------------X--XXXXXXXXXXXX--------------t-------XXXXXXXXXXXXXXXXXXXXXXXXXXXXXXXXXXXXXXXXXXX-----------------------X-XXXXXXX---TT--t---TT---TT-XXXXXXX
---------------XXXXXXXXXXXXXX---------------------XXXXXXXXXXXXXXXXXXXXXXXXXXXXXXXXXXXXXXXXXXX-----------------------X-XXXXXXXX--tt-tt---tt---tt-t--XXXX