-------------------------------------------------------------------------------------------------------------------------------------------------------
-------------------------------------------------------------------------------------------------------------------------------------------------------
-------------------------------------------------------------------------------------------------------------------------------------------------------
---------------o---------------------------------------------------------------------------------------------------------------------------------------
--------------o------------------------------------------D--------------------------------------o------------------------------------------------------
---------------------------------------------------------D---D-----------------ttt-------------o-------------------------------------------------------
-------------#-------------------------------------------D---D---------------------------------#---------o---------------------------------------------
-------------#-------------o-----------o-----------------D---D--------oo----------------------------------o---------------o-----------o----------------
M-----------#----------o--o#-------X-X--o--------D-------D---D-------o-oXXXXXXXXXXXX-Do-oo-----#----XXXXXXXXXXXXXXXXXXX--o#-----------oo---------------
XXXXXX-----##---------##--##--##-XXXXXDDDDSSSS--DDDDD----D---DD-DDD-oooXXXXXXXXXXXX-----##---#-t###XXXXXXXXXXXXXXXXXXXX-###----------o-DDSSSS--D-------
XXXXX-----###------#--##--##-------------------S---------D-----------##------------------#-y##-##-------------------------#-------g-D----------D-------
-------#--##--------####--##-------------------o--------DD-----------##---------------#---##--##--------------------------##---DDDDDDD---------D-------
------##-###----------##--##-------------------o#T------DD-------o---##---------------------------------------------------##------------------oD-------
------t#-###--#-------##-###-------------------ott------DD-------t--##------------##---------------------------------------#-------------g---ooD-------
------XX-XXXXXXXXXXXX-XX-XXX-----------XXX---T--ttt--XXXXXXXXXXXXXX--XX-----------XXXXX-XX---------------------------------XXXXXXXXXXXXXXXXXXXXXXXXXXXX
------XX-XXX-XXXXXXXX-XX-XXX---------X--t-XXtt--ttX--X-XXXXXXXXXXXX--X-------------X-XX-XXX--------------------------------XXXXXXXXXXXXXXXXXXXXXXXXXXXX