-----------------------------------------------------------D---------------------------D---------------------------------------------------------------
-----------------------------------------------------------D---------------------------D---------------------------------------------------------------
-----------------------------------------------------------D---------------------------D---------------------------------------------------------------
-----------------------------------------------------------D---------------------------D---------------------------------------------------------------
-----------------------------------------------------------D---------------------------D---------------------------------------------------------------
-----------------------------------------------------------D---------------------------D--------------XX-----------------------------------------------
-----------------------------------o-----------------------D----o------o------o--------D------oo-------------------------------------------------------
------------------------------------o----------------------D---o-o-----oo----o-o-o-----D------o--------------------------------------------------------
M------X-XXXXXXXXXXXXXXXXXXD--XXXXXXXXX-D--------------o---D--D-o-o---o-DD--o-o-o-D-----D----Do-oXXXXXXXXXXX--------------------oo---------DD----------
XXXXXXXXXXXXXXXXXXXXXXXXX####XXXXXXXXXX###------------o----DDDDDDDDDDDDDDDDDDDDDDDDDDDDDDDDDDDDD#XXXXXXXXXXXXXXXXXXX--------o-XX##---#--g---D----------
XXXXXX-----------------------------------X------D-g-gD------------------------------------------------------XXXXXXXX-----D-D-oXX-#-yy#-g-gDgD----------
---------------------------------------------DDDDDDDDDD-----------------------------------------------------------------DDDDDDDD--###DDDDDDDDDD--------
------------------------------------------------------------------------------TT---TT---------------------------------------------------------D--------
------------------------------------------------------------------------------tt---tt---------------------------------------------------------D----#--X
-----------------------------------------------XXXXXXXXXXXXX--TT---TT-----TT--tt---tt----TTT--------------------------XXXXXXXXX-----XXXXXXXXXXXXXXXXXXX
------------------------------------------------XXXXXXXXXXXXX-tt--ttt--X--tt--tt---tt----ttt--------------------------XXXXXXXXX------XXXXXXXXXXXXXXXXXX