----------------DD----------------------------------------D-------D------DDD---------------------------------------------------------------------------
----------------DD----------------------------------------DD------D-------DD---------------------------------------------------------------------------
----------------DD----------------------------------------D-------D--------D-------------------o-------------------------------------------------------
----------------DD----------------------------------------DD------D--------D------------------o--------o-----------------------------------------------
----------------DD-----------------------------------------D------DD-------D-----------------o--------o-----------------------------D------------------
----------------DD----------------------------------------DD------DD-------D--------------------------#-----------------------------D------------------
----------------DD-----------------------------------------D------DD-------D-------------------------#-----------o------------------D------------------
M------o---o-o--DD----o-o-o--------------------------------D-------D-------D-------------------------#----------o-o-------------D---D------------------
XXXXXXo-o-o-DD---D---o-o-o-oo----------D--o---o--------D---D----o-DD-------D------------------------##---------o-o-o------------D---D------------TT----
XXXXXXXDDDDDDDD-DDDDDDDDDDDDDDDDSSSSSS##-##----#-##---#D---D---o---D-----#-DDDD-#--------#---#---######-----DDDDDDDDDDDD---#--------DD-----------tt----
XX-------------------------------------#--#---#---##--#D--Dg--D-o--D--------------------##----#--##--#-----------------#--##----------------TTToott----
---------------------------------------#----##------#-SDDDDDDDDDD--DDD---------------##-##----#--#---------------------#--##----------------tttoott----
------------TT--TT------T--------o-----#-------#-------------------DDD---------------##--##---#--------------------T---#--##---------DD-----ttooot-----
------------tt--tt---------------o-----#-------##------------------o-D-----------#---##---##--#--------------------t---#--##---------DD-----ttoggtt----
--------TT--tt--tt---TT---------XXXXXXXXXXXXX--XXXXXXXXXXXXXXXXXX--XXXXXX----TT--XX--XX--XXXXXXX------T------TT----tT--X--XXXXXXXXXXXXXXXXXXXXXXXXXXXXX
--------tt--tt--tt---tt-t------XXXXXXXXXXXXXX--XXXXXXXXXXXXXXXXXX--XXXXXXXXX-tt-XX---XX--XXX-XXX-X-----------tt---ttt--XX-XXXXXXXXXXXXXXXXXXXXXXXXXXXXX