-----------------------------------------------------------------------------D-------------------------------------D-----------------------------------
-----------------------------------------------------------------------------D-------------------------------------D-----------------------------------
-----------------------------------------------------------------------------D-----------------------------D-------D-----------------------------------
-----------------------------------------------------------------------------DD----------------------------D-------D-------------------------------o---
-----------------------------------------------------------------------------D-----------------------------D-------D------------------------------o----
-----------------------------------------------------------------------------D-----------------------------D-------D-----------------------------------
M------D---o----------o------o----------------o----------------o-------------DD------o---------------------D-------D------o----------------------------
XX-----D--o-o--o-o---o-o----o-oo------------------oo-o-o------o-oo-----------DD----oo-o----o---------------D-------------o-o---------------------#-----
XXXXXXXXX--D-DD-o---D-DDD--o-oo-o--------T---D-D--DDDDD------o-oD-o----------DD---D-DDDD--o-o---o-----DD---D--------D-D-o-o---o----------o-o-o---#-----
XXXXXXXXXDDDDDDDDDDDDDDDDDDDDDDDDo-------tDDDDDDDDDDDDDDDDDDDDDDDDDDDDDDDDDD-DDDDDDDDDDDDDDDDDDDDD-----D---D---DDDDDDDDDDDDDDD#---####-------#---#-----
-------------------------------------TTott-------------------------------------------------------------D-----------------------#yy#------##--#--##-----
-------------------------------------ttott-------------------------------------------------------------D------------------------#-------###--##-#------
--------------TT-------------TT------tt-tt--------------T-------TT--------T------------TT--------------D--------------T------------------##--##--------
--------------tt-------------tt------tt-tt--------------tt------tt--------t------------tt--------------D-------------tt------------------##--#-----#---
----------TT--tt--TT-----TT--tt--TT--XX-tt---TT-----TT--tt---TT-tt---TT-XXXX--TT---TT--tt------TT-XXXXXXXXXXXX-X----TT----TT------------XXX-XXXXXXXXXXX
----------tt--tt--tt---X-tt--tt--tt-XXX-tt---tt--t--tt--XtXX-tt-tt---tt-XXXXX--t---tt--tt----X-tt-XXXXXXXXXXXXXX-X--tt----tt-----------X-XX-XXXXXXXXXXX