-----D-------------------------D-------D-----------------------------------------D-------------------------------D-------D---------D-------------------
-----D-------------------------D-------D-----------------------------------------DD------------------------------D-------DD--------D-------------------
-----D-------------------------D-------D-----------------------------------------DD--------------------------------------D---------D-------------------
-------------------------------D-------D-----------------------------------------DD-------------------------------D------D---------D-------------------
-------------------------------D-------D-----------------------------------------DD-------------------------------D------D-----------------------------
-------------------------------D-------D-----------------------------------------DD-------------------------------D------D----------------o------------
-------------------------------D-------D-----D----------o-------------------------D-----oo------------------------------DD---------------------------XX
-----------o-------------------D-------D---------------o-o---------o----------o---------o-o-----------------------------oD--------------------------XtX
M-----D---o-o-------------o----D-------D-----D-----o-DD-o-o---D-D-o-o------T-o-o-D----XXXo-o----------------------o--o-o-D-------TT----DD------------t-
XXXXXXX--o-o-SD-#D-------o-o---D-------D--DTDDDDDDDDDDDDDDDDDDDDDDDDDD----#-S-o-oTXXXXXXXSSSD------------#---#---##DDDD--D-------tt----D---#-----------
XXXXX-DD------D-DDD-----o-o-o--D-------DXX----------------------------TT-o-t--XXttX-XX------------------##---#---#-------D---TToott----g-------#-------
------DDDD-----SSD----DD-DD--D-D---------------------------------------toott----tt------------SSDDDD-D--##-------#-------D---ttoott--DDD--##---#-------
---------------o-----DDD----DD------------t-----------TT---------------toott----tt-------------oDD----#-##------##-------D---ttoott----D--##---#-------
---------------oo----oo------t------------tt----------tt---------------tggtt----tt-----ggg-----oD-----#-##---#--##------oD---ttggtt----#--###--#---#---
-----------XTXXXXXXXXXXX-XT-XX--TT--------tt-------TT--t------------XXXXXXXXXXXXXXXXXXXXXXXXXXXXXXXXXXX-XXXXXXX-XX--XXXXXXXXXXXXXXXXXXXXXXXXXX-XX-XXXXX
----------X-tXXXXXXXXXXXXXX--XX-tt--------tt-------tt--t-----tt----XXXXXXXXXXXXXXXXXXXXXXXXXXXXXXXXXXXX-XXXXXXX-XX--X-XXXXXXXXXXXXXXXXXXXXXXXX-XX-XXXXX