--------------------------------------------------------------------------------------D-----------D----------------------------------------------------
--------------------------------------------------------------------------------------D-----------D----------------------------------------------------
-----------------------------------------------------------------------------------!--------------D----------------------------------------------------
--------------------------------------------------------------------------------------------------D--------o-------------------------------------------
--------------------------------------------------------------------------------------------------D----------------------------------------------------
----------------------------------------------------D---------------------------------------------D------------------------------------t---------------
----------------------------------------------------D------------D-----------------------oo-------D----------------------------------------------------
M---------------------------------------------D-----D-------o----D--------------o-------oo-o------D------#---------------------------------------------
XXXXXXX-----------TT---XXXXXXXXXXXXXX----D----DD----D------D-D---D-------------o-o-----o--o-D-D--DD------#---o------------XXXXXXXXXXXXXXXXXX-----------
XXXXXXXT-------T--tt--XXXXXXXXXXXXXXXD--DD-----DDDDDDDDDDDDDDDDDDDD--------DDDDDDDDDDDDDDDDDDDDDDDD------#----D#-###XXXXXXXXXXXXXXXXXXXXXXX-DD---------
------tt-ot---TToott---------------------D---------------------------------------------------------------D----t---#----XXXXXX--XX----------------------
------tt-ot---ttoott--------------------DD------------------------------------------------------------------SSt-#--------------------------------------
------tt-ot---ttoott--------------------DD----------oTT----TT----o------D---------T-------------TT----#----ooot----------------------------tt----------
------tt-gt---ttggtt-------------------oDD-----------tt----tt---oo-----oD---------t-------------tt----##---oott----------------------------tt------#---
------XXXXXXXXXXXXXXXXXXX-----------TT-XXXXXXXX-TT--XXXX---tt--XXXXXXXXXXXXX-TT--TT---TT---TT---ttXXXXXXXXXXXXXX------------------------XXXXXXXXXXXXXXX
-------XXXXXXXXXXXXXXXXXX------t----tt-XXXXXXXXXtX-XXXtX---tt--XXXXXXXXXXXXXXtt--tt---tt---tt---ttXXXXXXXXXXXXXX-------------------------XXXXXXXXXXXXXX