----------------------------------------------------------------------------------------------------------------------------------------------------------------------------------------------------------
----------------------------------------------------------------------------------------------------------------------------------------------------------------------------------------------------------
----------------------------------------------------------------------------------------------------------------------------------------------------------------------------------------------------------
----------------------------------------------------------------------------------------------------------------------------------------------------------------------------------------------------------
----------------------------------------------------------------------------------------------------------------------------------------------------------------------------------------------------------
----------------------------------------------------------------------------------------------------------------------------------------------------------------------------------------------------------
----------------------------##-----------------------------------------------------------------------------------------------SSS--------------------------------------------------------------------------
----------------------------###--------------------------------------------#--#---------------------------------------------------------------------------------------------------------------------------
-------------------------######---------SSSS----------g---------------------###----------------SSS--------------------------------------------------------------------------------------------------------
------------------------#######--------------------------------------#--##--###------------------------------------#--------------------------------------------------------------------------------------
---------------------#-########S--------------------S@S-------t-----##--##-####---S------S!-------------!---------##--#-----------!---------!---------------------tt--S-------tt--#-----------------------
---------t----------##-#######-------------------------------------###--#######---------------------------------####----------------------------------------------tt----------tt--#-----------------------
--------tt----------##-#######------------------------------------####--#######------------------------------t-#####-------------------------t----------##--------tt----------tt--##----------------------
--M-----tt-------#####--#####-----------------g-------------g-g--#####----######-----------------------------t######t-----------------------tt---g-----###---g----tt--------g-tt--###----g--------gg------
--XXXXXXXXXXXXXXXXXXXXX-XXXXXXXXXXXXXX------XXXXXXXXXXXXXXXXXXXXXXXXXX-----XXXXXXXXXXXXXXXXXXXXX--XXXXXXXXXXXXXXXXXXXXXXXXXXXXXXXXXXXXXXXXXXXXXXXXXXXXXXXXXXXXXXXXXXXXXXXXXXXXXXXXXXXXXXXXXXXXXXXXXXXXXXXX
--XXXXXXXXXXXXXXXXXXXXX-XXXXXXXXXXXXXX-----XXXXXXXXXXXXXXXXXXXXXXXXXXXXXXXXXXXXXXXXXXXXXXXXXXXXX--XXXXXXXXXXXXXXXXXXXXXXXXXXXXXXXXXXXXXXXXXXXXXXXXXXXXXXXXXXXXXXXXXXXXXXXXXXXXXXXXXXXXXXXXXXXXXXXXXXXXXXXX