----------------------------------------------------------------------------------------------------------------------------------------------------------------------------------------------------------
----------------------------------------------------------------------------------------------------------------------------------------------------------------------------------------------------------
----------------------------------------------------------------------------------------------------------------------------------------------------------------------------------------------------------
----------------------------------------------------------------------------------------------------------------------------------------------------------------------------------------------------------
-----------------------------------------------------------------------------------------------------------------------------------------------------------------------------------------S----------------
----------------------------------------------------------------------------------------------------------------------------------------------------------------------------------------------------------
----------------------------S-----------------------------------------------------------------------------------------------------------------------------------------------SSSSSS------------------------
----------------------------------------------------------------------------------------------------------------------------------------------------------------------------------------------------------
----------------------------------------------------------------------------------------SSSSSSSS--------------------------------------!----------------------------------S--------------------------------
----------------------------------------------------------------------------------------------------------------------------------------------------------------------------------------------------------
---------S!-------S-SS------!---!---S@----!-------------tt---##-------------##--SU------------------------S-------SS!S------------------------tt-----------------#--#S!SSS--S-------------!---SS!S--------
--------------------------------------------------------tt--###------------###----------------------------------------------------------------tt----------------##----------------------------------------
------tt------------------------------------------------tt--###-#---tt-#--####--tt------------------------------------------------------------tt---------------###----------------------------------------
-M----tt-g----------------------------------------------tt-####-----tt-#--####--tt-------------g---------g----------------gg------------------tt-------------t####----------------------g-g---------------
XXXXXXXXXXXXXXXXXXXXXXXXXXXXXXXXXXXXXXXXXXXXXXXXXXXXXXXXXXXXXXX-XXXXXXXXX-XXXXXXXXXXXXXX----XXXXXXXXXXXXXXXXXXXXXXXXXX----XXXXXXXX-----XXXXXXXXXXXXXXXXXXXXXXXXXXXXXXXXXXXXXXXXXXXXXXXXXXXXXXXXXXXXXXXXXX-
XXXXXXXXXXXXXXXXXXXXXXXXXXXXXXXXXXXXXXXXXXXXXXXXXXXXXXXXXXXXXXX-XXXXXXXXX-XXXXXXXXXXXXXX----XXXXXXXXXXXXXXXXXXXXXXXXXX---XXXXXXXXX-----XXXXXXXXXXXXXXXXXXXXXXXXXXXXXXXXXXXXXXXXXXXXXXXXXXXXXXXXXXXXXXXXXX-