----------------------------------------------------------------------------------------------------------------------------------------------------------------------------------------------------------
----------------------------------------------------------------------------------------------------------------------------------------------------------------------------------------------------------
----------------------------------------------------------------------------------------------------------------------------------------------------------------------------------------------------------
----------------------------------------------------------------------------------------------------------------------------------------------------------------------------------------------------------
------------------------------------------------------------------------SS--------------------------------------------------------------------------------------------------------------------------------
----------------------------------------------------------------------------------------------------------------------------------------------------------------------------------------------------------
----------------------------------------------------!---------S-SS--------------------------------!S------------------------------------------SSSS!S------------------------------------------------------
----------------------------------------------------------------------------------------------------------------------------------------------------------------------------------------------------------
----------------------SS!-----SS-----------------------------------------------------------------------------------------#--------------------------------------------------------------------------------
------------------------------------------------------------------------------------------------------------------------###-------------------------------------------------------------------------------
------------------------------------SU------S-S------------SSSS-SSSS!S----!---S---------tS-S------S---------tt---------###------#---------SS------!----S!S----!------------------------tt----#----!S------
-------------------------------------------------------------------------------------------------------#--------------####-------#-----------------------------------------------------tt----#------------
------t-------------------------------t------------------------------------------------t---------------##---tt-------#####--##--##-----#------------------------#---#------------------tt---##------------
-M------------gg----------------gg----t----------------g-g--------g-g------------g----tt------gg-g-----#------------#####-------##-#--###-------gg---------------#--#--------------g-g--t--###------------
XXXXXXXXXXXXXXXXXXXXXXXXXXXXXXXXXXXXXXXXXXXXXXXXXXXXXXXXXXXXXXXXXXXXXXXXXXXXXXXXXXXXXXXXXXXXXXXXXXXXXXXXXXXXXXXXXXXXXXXXX--XXX--XXXXXXXXXXXXXXXXXXXXXXXXXXX--XXXXXXXXXXXXXXXXXXXXXXXXXXXXXXXXXXXXXXXXXXXX-
XXXXXXXXXXXXXXXXXXXXXXXXXXXXXXXXXXXXXXXXXXXXXXXXXXXXXXXXXXXXXXXXXXXXXXXXXXXXXXXXXXXXXXXXXXXXXXXXXXXXXXXXXXXXXXXXXXXXXXXXXXXXXXXXXXXXXXXXXXXXXXXXXXXXXXXXXX---XXXXXXXXXXXXXXXXXXXXXXXXXXXXXXXXXXXXXXXXXXXX-