----------------------------------------------------------------------------------------------------------------------------------------------------------------------------------------------------------
----------------------------------------------------------------------------------------------------------------------------------------------------------------------------------------------------------
----------------------------------------------------------------------------------------------------------------------------------------------------------------------------------------------------------
----------------------------------------------------------------------------------------------------------------------------------------------------------------------------------------------------------
-------------------------------------#--------------------------------------------------------------------------------------------------------------------------------------------------------------------
------------------------------------##--------------------------------------------------------------------------------------------------------------------------------------------------------------------
----------------------------------SSSS--------------SSSSS----------------------------------------------------------------SSSS-----------------------------------------------SSS-SSSS----------------------
----------------------------------------------------------------------------------------------------------------------------------------------------------------------------------------------------------
---------------------------------------------------------------------------------------------------------------------------------------------------------------------------------------------S------------
----------------------------------------------------------------------------------------------------------------------------------------------------------------------------------------------------------
----------------------------------------!-----!-----S---------------S---!S--S-------S-------tt-------------------------------#---##-----------!-----!----------------------S!---------------SSSS!S--------
----------------------------t---------------------------------------------------------------tt-----------#---------------#--##--#####---------------------------------------------------------------------
-----#--#---tt--------------t----------------------------------t----------------------------tt----------##---------------#--##--#####----------------------#----#-----------------------------------------
-M--#---#---tt-----------g--t-------t--------------------------t----------------------------tt---------#-##---#----------#--##--######--------------------##----##---------------------g------------------
XXXXXXXXXXXXXXXXXXXX---XXXXXXXXXXXXXXXXXXXXXXXXXXXXXXXXXX---XXXXXXXXXXXXXXXXXXXXXXXXXXXXXXXXXXXXXXXXXXXXXXXXXXXXXXXXXXXXXXXXXX--XXXXXXXXXXXXXXXXXXXXXXXXXXXXXXXXXXXXXXXXXXXXXXXXXXXXXXXXXXXXXXXXXXXXXXXXXX
XXXXXXXXXXXXXXXXXXXX---XXXXXXXXXXXXXXXXXXXXXXXXXXXXXXXXXX---XXX-XXXXXXXXXXXXXXXXXXXXXXXXXXXXXXXXXXXXXXXXXXXXXXXXXXXXXXXXXXXXXX--XXXXXXXXXXXXXXXXXXXXXXXXXXXXXXXXXXXXXXXXXXXXXXXXXXXXXXXXXXXXXXXXXXXXXXXXXX