----------------------------------------------------------------------------------------------------------------------------------------------------------------------------------------------------------
----------------------------------------------------------------------------------------------------------------------------------------------------------------------------------------------------------
----------------------------------------------------------------------------------------------------------------------------------------------------------------------------------------------------------
----------------------------------------------------------------------------------------------------------------------------------------------------------------------------------------------------------
----------------------------------------------------------------------------------------------------------------------------------------------------------------------------------------------------------
-----------------------------------------------------------------#----------------------------------------------------------------------------------------------------------------------------------------
-----------------------------------------------------------------#-------------------------------------------------------------------------##S-----------------------SSS------!---------------------------
-----------------------------------------------------------------#-------------------------------------------------------------------------##-------------------------------------------------------------
---------------------------------------------------------------#-#----------------------------------------------S--------------------------##-------------------------------------------------------------
---------------------------------------------------------------###------------------------------------------------------------------------###-------------------------------------------------------------
------------------------------SS!S------------------!---------####--------!-----S----#--------------------------------S------------------###--------tt----------SS----------------------------------------
-----------------------------------------------t------------######-------------------#--------------------tt--------------------------t-####---------t---------------------------------------------#------
------------tt------------tt------------------tt--------tt-########-----------------##----------------tt--tt----------------------tt--tt####--tt-----t------------------------tt-----------------###------
--M---------tt-g----gg----t----------------g---#--------tt-###--####----g-----g-g--###-----------g----tt--tt-----------------------t--tt-###--tt-----t--------------------g---tt----------------####------
--XXXXXXXXXXXXXXXXXXXXXXXXXXXXXXXXXXXXXXXXXXXXXXXXXXXXXXXXXXXXXXXXXXXXXXXXXXXXXXXXXXXXXXXXXXXXXXXXXXXXXXXXXXXXXXXXXXXXXXXXXXXXXXXXXXXXXXXXXXXXXXXXXXXXXXXXXXXXXX--XX----XXXXXXXXXXXXXXXXXXXXXXXXXXXXXXXXX-
--XXXXXXXXXXXXXXXXXXXXXXXXXXXXXXXXXXXXXXXXXXXXXXXXXXXXXXXXXXXXXXXXXXXXXXXXXXXXXXXXXXXXXXXXXXXXXXXXXXXXXXXXXXXXXXXXXXXXXXXXXXXXXXXXXXXXXXXXXXXXXXXXXXXXXXXXXXXXXX---X----XXXXXXXXXXXXXXXXXXXXXXXXXXXXXXXXX-