----------------------------------------------------------------------------------------------------------------------------------------------------------------------------------------------------------
----------------------------------------------------------------------------------------------------------------------------------------------------------------------------------------------------------
----------------------------------------------------------------------------------------------------------------------------------------------------------------------------------------------------------
----------------------------------------------------------------------------------------------------------------------------------------------------------------------------------------------------------
----------------------------------------------------------------------------------------------------------------------------------------------------------------------------------------------------------
----------------------------------------------------------------------------------------------------------------------------------------------------------------------------------------------------------
---------------------------------------------------------------------------------------------------------SSS--------------------------S---------SSSSSSSSSS------------------------------------------------
----------------------------------------------------------------------------------------------------------------------------------------------------------------------------------------------------------
--------------------------------------------------##----------------------------------------------------------------------------------------------------------------SS--SS--------------------------------
-----------------------------------------------#--##------------------------------------------------------------------------------------------------------------------------------##----------------------
-------------------------t--------------------##--##----------------SS--S-----tt--SSS-----------------------S-----------------!----#--------------S@S-----C-----SS--------------####--S-----------SSS-----
------------tt-----------t-------------------####-###-------------------------tt--------------------------------------------------##-------------------------------------------#####----------------------
------------tt----------tt------------------#########-------------------------tt--------t--------------#---------------------------#------------------------------------------######------tt-----#--------
---M-------g-t----------tt---------g-------######-####------------------------tt--------t-##----------###-------------------------###----------------------g-g---------------#######------tt----####------
---XXXXXXXXXXXXXXXXXXXXXXXXXXXXXXXXXXXXXXXXXXXXXX-XXXXXXXXXXXXXXXXXXXXXXXXXXXXXXXXXXXXXXXXXXXXXXXXXX--XXXXXXXXXXXXXXXXXXXXXXXXXXXXXXXXXXXXXXXX------XXXX---XXXXXXXXXXXXXXXXXXXXXXXXXXXXXXXXXXXXXXXXXXXXXXX
---XXXXXXXXXXXXXXXXXXXXXXXXXXXXXXXXXXXXXXXXXXXXXX-XXXXXXXXXXXXXXXXXXXXXXXXXXXXXXXXXXXXXXXXXXXXXXXXXX--XXXXXXXXXXXXXXXXXXXXXXXXXXXXXXXXXXXXXXXX-----XXXXX---XXXXXXXXXXXXXXXXXXXXXXXXXXXXXXXXXXXXXXXXXXXXXXX