----------------------------------------------------------------------------------------------------------------------------------------------------------------------------------------------------------
----------------------------------------------------------------------------------------------------------------------------------------------------------------------------------------------------------
----------------------------------------------------------------------------------------------------------------------------------------------------------------------------------------------------------
----------------------------------------------------------------------------------------------------------------------------------------------------------------------------------------------------------
----------------------------------------------------------------------------------------------------------------------------------------------------------------------------------------------------------
----------------------------------------------------------------------------------------------------------------------------------------------------------------------------------------------------------
------------------------------!-------------SS--##--SSSSSS----------------------------------------------------------------------------------!---------------!-----------------SSSS------------------------
---------------------------------------------#--#---------------------------------------------------------------------------------------------------------------------------------------------------------
---------------------------------------------#--###-#------------------------------------------------------------------------------------------------------------------------------SSS------S-------------
---------------------------------------------#--####------------------------------------------------------------------------------------------------------------------------------------------------------
------S@--------------------SS!S-------------#--###-#---S-----------tt----S---------------tt!-----!---------tt--------SSS---------------------SSSS----!---S@S---S---tt------SS-----------S--------!-------
----------------tt--------------------------##--#####---------------tt--------------------tt----------------tt----------------tt------------------------------------tt------------------------------------
----------------tt---------------------#--#####--####----##---------tt--------------------tt----------------tt----------------tt------------------------------------tt------------------------------------
-M---------g----tt-------------------#########---####----###---g----tt--------------------tt----------------tt----------------tt----------g-g--------------g--------tt------------------------------------
XXXXXXXXXXXXXXXXXXXXXXXXXXXXXXXXXXXXXXXXXXXXXXX--XXXXXXXXXXXXXXXXXXXXXXXXXXXXXXXXXXXXXXXXXXXXXXXXXXXXXXXXXXXXXXXXXXXXXXXXXXXXXXXXXXXXX--XXXXXXXXXXXXXXXXXXXXXXXXXXXXXXXXXXXXXXXXXXX----XXXXXXXXXXXXXXXX---
XXXXXXXXXXXXXXXXXXXXXXXXXXXXXXXXXXXXXXXXXXXXXXXXXXXXXXXXXXXXXXXXXXXXXXXXXXXXXXXXXXXXXXXXXXXXXXXXXXXXXXXXXXXXXXXXXXXXXXXXXXXXXXXXXXXXXX--XXXXXXXXXXXXXXXXXXXXXXXXXXXXXXXXXXXXXXXXXXX----XXXXXXXXXXXXXXXX---