----------------------------------------------------------------------------------------------------------------------------------------------------------------------------------------------------------
----------------------------------------------------------------------------------------------------------------------------------------------------------------------------------------------------------
----------------------------------------------------------------------------------------------------------------------------------------------------------------------------------------------------------
----------------------------------------------------------------------------------------------------------------------------------------------------------------------------------------------------------
----------------------------------------------------------------------------------------------------------------------------------------------------------------------------------------------------------
----------------------------------------------------------------------------------------------------------------------------------------------------------------------------------------------------------
------------------------------------------------------------------!-SS!-----------------S!------------------------------------------------------------------SSSSSSSS-----------------S!-------------------
----------------------------------------------------------------------------------------------------------------------------------------------------------------------------------------------------------
----------------------------------------------------------------------------------------------------------------------------------------------------------------------------------------------------------
----------------------------------------------------------------------------------------------------------------------------------------------------------------------------------------------------------
------S---------------------tt--------------------!-----SS----S-SS--SS!-----------------S-S-----tt----------------------S@S!--------------------!!S---!-----!---S-----------------S@--------------tt------
----------------------------tt------------------------------------------------t-----------------tt------------------------------------------------------------------------------------------------tt------
--------tt------------------------tt------------------------------------------t---------------------------tt--------------------tt----tt----------------------------------------------tt----------tt------
-M------tt---------g------g-g-----tt-----------g----g--------------------g----t--------------g------------tt------gg------------tt----tt---------------------g------------------------tt----------t-------
-S---XXXXXXXXXXXXXXXXXXXXXXXXXXXXXXXXXXXXXXX--XXXXXXXXXXXXXXXXXXXXXXXXXXXXXXXXXXXXX---XXXXXXXXXXXXXXXXXXXXXXXXXXXXXXXXXXXXXXXXXXXXXXXXXXXXXXXXXXXXXX---X---XXXXXXX------XXXXXXXXXXXXXXXXXXXXXXXXXXXXXXXX--
-----XXXXXXXXXXXXXXXXXXXXXXXXXXXXXXXXXXXXXXX--XXXXXXXXXXXXXXXXXXXXXXXXXXXXXXXXXXXXX---XXXXXXXXXXXXXXXXXXXXXXXXXXXXXXXXXXXXXXXXXXXXXXXXXXXXXXXXXXXXXX---X--XXXXXXXX------XXXXXXXXXXXXXXXXXXXXXXXXXXXXXXXXX-