----------------------------------------------------------------------------------------------------------------------------------------------------------------------------------------------------------
----------------------------------------------------------------------------------------------------------------------------------------------------------------------------------------------------------
----------------------------------------------------------------------------------------------------------------------------------------------------------------------------------------------------------
----------------------------------------------------------------------------------------------------------------------------------------------------------------------------------------------------------
----------------------------------------------------------------------------------------------------------------------------------------------------------------------------------------------------------
----------------------------------------------------------------------------------------------------------------------------------------------------------------------------------------------------------
---------------------SSS!S------------------------------------------------------------------------------------------------SSSSSS------------------------------------------------SS------------------------
----------------------------------------------------------------------------------------------------------------------------------------------------------------------------------------------------------
-----------------------------------------------------------------------------------------------SSS-------------SSS--------------------------------SS!S--!-------------------------------------------------
----------------------------------#-----------------------------------------------------------------------------------------------------------------------------------------------------------------------
------------!---tt----S@S!S-----#-##---------@--------------------S--------------------tt---S---------------------------t-------------SSS---S@S---------------------------S-------------S----t------------
----------------tt-------------#####---------------------------------------------------tt-------------------------------tt-##----------------------------------------------------------------t------------
-----t------------------------######----------------tt--------t-----------------tt-----tt-------------------------------tt-###------------------------tt-------------------------------------t------------
--M--t-----------g-----g-----#######----------------tt--------tt------g---------tt-----tt---------------------------gg--tt-###----gg------------------tt--------gg-------g-------------------tt-----------
--XXXXXXXXXXXXXXXXXXXXXXXXXXXXXXXXXXXXXXXXXXXXXXXXXXXXXXXXXXXXXXXXXXXXXXXXXXXXXXXXXXXXXXXXXXXXXXXXXXXXXXXXXXXXXX--XXXXXXXXXXXXXXXXXXXXXXXXXXXXXXXX--XXXXXXXXXXXXXXXXXXXXXXXXXXXXXXXXXXXXXXXXXXXXXXXXXXXXX-
--XXXXXXXXXXXXXXXXXXXXXXXXXXXXXXXXXXXXXXXXXXXXXXXXXXXXXXXXXXXXXXXXXXXXXXXXXXXXXXXXXXXXXXXXXXXXXXXXXXXXXXXXXXXXXX--XXXXXXXXXXXXXXXXXXXXXXXXXXXXXXXX--XXXXXXXXXXXXXXXXXXXXXXXXXXXXXXXXXXXXXXXXXXXXXXXXXXXXX-