----------------------------------------------------------------------------------------------------------------------------------------------------------------------------------------------------------
----------------------------------------------------------------------------------------------------------------------------------------------------------------------------------------------------------
----------------------------------------------------------------------------------------------------------------------------------------------------------------------------------------------------------
----------------------------------------------------------------------------------------------------------------------------------------------------------------------------------------------------------
----------------------------------------------------------------------------------------------------------------------------------------------------------------------------------------------------------
----------------------------------------------------------------------------------------------------------------------------------------------------------------------------------------------------------
----------------------------------------------------------!---------------------------------------SSSS--------------------------------------------------------------------SSSSSSSS------------------------
----------------------------------------------------------------------------------1-----------------------------------------------------------------------------------------------------------------------
--------------------------------------------------------------------------------------------------------------------------------------------------S-------------------------------------------------------
---------------------------------------------------------------------------------------------------------------------------------------------#------------------------------------------------------------
---------------tt--------------------------------tt--------tt---S-------------------!-----!---------------------------------!---!-----------##------------S@S#--------------S@--CC--------------------tt--
---------------tt-----##------------------tt-----tt--------tt---------------##--------------------------------tt-------------------------#------------------------------------------------------------tt--
----------------t----####-----------------tt-----tt--------tt------------#--##--------------------------------tt--------------------------####---------------#----#----------------------------##-----tt--
-M--g-g---------t---######-----------g-g--tt-g-g-tt--------tt-----------##--###-------------------------------t--g------------g-g--------#####--------t----###----##-----------------------g--####----tt--
XXXXXXXXXXXXXXXXXXXXXXXXXXXXXXXXX----XXXXXXXXXXXXXXXXXXXXXXXXXXXXXXXXXXXXXXXXXXXXXXXXXX---XXXXXXXX-----XXXXXXXXXXXXXXXXXXXXXXXXXXXXXXXXXXXXXXXXXXXXXXXXXXXXXXXXXXXXXXXXXXXXXXXXXXXXXXXXXXXXXXXXXXXXXXXXXXX
XXXXXXXXXXXXXXXXXXXXXXXXXXXXXXXXX---XXXXXXXXXXXXXXXXXXXXXXXXXXXXXXXXXXXXXXXXXXXXXXXXXXX---XXXXXXXX-----XXXXXXXXXXXXXXXXXXXXXXXXXXXXXXXXXXXXXXXXXXXXXXXXXXXXXXXXXXXXXXXXXXXXXXXXXXXXXXXXXXXXXXXXXXXXXXXXXXX