----------------------------------------------------------------------------------------------------------------------------------------------------------------------------------------------------------
----------------------------------------------------------------------------------------------------------------------------------------------------------------------------------------------------------
----------------------------------------------------------------------------------------------------------------------------------------------------------------------------------------------------------
----------------------------------------------------------------------------------------------------------------------------------------------------------------------------------------------------------
----------------------------------------------------------------------------------------------------------------------------------------------------------------------------------------------------------
----------------------------------------------------------------------------------------------------------------------------------------------------------------------------------------------------------
--------------------------SSS-----------------------------SS--!---------------------------!---------------------------------------------------------------SS-----------SSSSS------------------------!-----
------------------1---------------------------------------------------------------------------------------------------------------------------------------------------------------------------------------
--------------------------------------------------------------------------------------!------------------------------------------------------#------------------------------------------------------------
-------------------------------------------------------------------------------------------------------------------------------#------------##------------------------------------------------------------
----------S-----S--------S!SS---!--t-SS--------SSS!SSS!S----------------S-S---------------!S------------------!------SSS!S----###----------###---------------------S!---------------------------!---------
-----------------------------------t-----------------------------------------------------------------------------------------#####--#-#t--####--#---------tt--------------##------------------------------
------------------tt----t---------tt-------------------------##---#-------------------------------------------t-------------######--#-tt-#####--#---------tt---t-------#--##----##------tt------------tt--
-M----------------t-----t---------tt------------------------###---##--------------------g-----g-g-------------tt--##-------#######----tt-#####--#-t-------tt--tt-------#--##----##------tt-----g---g------
-XXXXXXXXXXXXXXXXXXXXXXXXXXXXXXXXXXXXXXXXXXXXXXXXXXXXXXXXXXXXXXXXXXXXXXXXXXXXXXXXXXXXXXXXXXXXXXXXXXXXXXXXXXXXXXXXXXXXXXXXXXXXXXXXX-XXXXXXXXXXX-XXXXXXXXXXXXXXXXXXXXXXXXXX-XXXX-XXXXXXXXXXXXXXXXXXXXXXXXXX-
-XXXXXXXXXXXXXXXXXXXXXXXXXXXXXXXXXXXXXXXXXXXXXXXXXXXXXXXXXXXXXXXXXXXXXXXXXXXXXXXXXXXXXXXXXXXXXXXXXXXXXXXXXXXXXXXXXXXXXXXXXXXXXXXXX-XXXXXXXXXXX-XXXXXXXXXXXXXXXXXXXXXXXXXX-XXXX-XXXXXXXXXXXXXXXXXXXXXXXXXX-