----------------------------------------------------------------------------------------------------------------------------------------------------------------------------------------------------------
----------------------------------------------------------------------------------------------------------------------------------------------------------------------------------------------------------
----------------------------------------------------------------------------------------------------------------------------------------------------------------------------------------------------------
----------------------------------------------------------------------------------------------------------------------------------------------------------------------------------------------------------
----------------------------------------------------------------------------------------------------------------------------------------------------------------------------------------------------------
----------------------------------------------------------------------------------------------------------------------------------------------------------------------------------------------------------
------------SS-----------------------------------------------------S!S-------------S----------------------------------SSSS-------------------------------------------------------SSSSS--------------------
----------------------------------------------------------------------------------------------------------------------------------------------------------------------------------------------------------
---------------------------------------SSS-------------------------------------------------------------------------------------------------------------------#--##----------------------------------------
------------------------------------------------------------------------------------------------------------------------------------------------------------##--##--------------------------------##------
-------SS---S-----tt-----------------------------------S----------S-!------------------------##-----------------tt--S---S@S!--S@SS------S------------------###--##--------------tt-------#--##---#####----
------------------tt---------------------------------------t--------------------------------###-----------------tt----------------------tt--tt------------####--##--------------tt------##--##--######----
------------------tt---------------------------tt----g----tt-----------t-------------------####-----------------tt----------------------tt--tt------------####--##--------------tt-----#-#------######----
---M-----------g--tt---------g----------g-g----tt---gg----tt-g----g-g----g---------g-----t#####------------g----t--------g------------------tt-g----------####--##----------gg--tt-g--#--#----#-######----
---XXXXXXXXXXXXXXXXXXXXXXXXXXXXXXXXXXXXXXXXXXXXXXXXXXXXXXXXXXXXXXXXXXXXXXXXXXXXXXXXXXXXXXXXXXXXXXXXXXXXXXXXXXXXXXXXXXXXXXXXXXXXXXXXXXXXXXXXXXXXXXXXXXXXXXXXXXXXXXXXXXXXXXXXXXXXXXXXXXXXXXXXX--XXXXXXXXXXXX
---XXXXXXXXXXXXXXXXXXXXXXXXXXXXXXXXXXXXXXXXXXXXXXXXXXXXXXXXXXXXXXXXXXXXXXXXXXXXXXXXXXXXXXXXXXXXXXXXXXXXXXXXXXXXXXXXXXXXXXXXXXXXXXXXXXXXXXXXXXXXXXXXXXXXXXXXXXXXXXXXXXXXXXXXXXXXXXXXXXXXXXXXXXXXXXXXXXXXXXX