----------------------------------------------------------------------------------------------------------------------------------------------------------------------------------------------------------
----------------------------------------------------------------------------------------------------------------------------------------------------------------------------------------------------------
----------------------------------------------------------------------------------------------------------------------------------------------------------------------------------------------------------
----------------------------------------------------------------------------------------------------------------------------------------------------------------------------------------------------------
----------------------------------------------------------------------------------------------------------------------------------------------------------------------------------------------------------
----------------------------------------------------------------------------------------------------------------------------------------------------------------------------------------------------------
----------------------------------------------S-S-----------------------------------------------------------------------------------!---------------------------------------------------------------------
----------------------------------------------------------------------------------------------------------------------------------------------------------------------------------------------------------
----------------------------------------------------------------------------S------------------------------S----------------------------!-------------------------------S---------------------------------
----------------------------------------------------------------------------------------------------------------------------------------------------------------------------------------------------------
---------S!------S--!---------------!--------SSSS----------------------@----------#---------SS--------#---S----S!-------------tt----!--------#-------------t----S-------------------------------S!SS------
----------------#-----------------------------------------------------------------------------------###-------------------------------------##------------tt----------------------------------------------
--------tt-----#--------tt-------------------------------------------------------------------------####---#--------------------------------###--#---------tt----------------------------------------------
---M----tt----#-g-g-----tg-------------------g-g--------------------------------g-g---------------#####---##------g-----------------------####--##---g----tt-------------g-g------------------------------
---XXXXXXXXXXXXXXXXXXXXXXXXXXXXXXXXXXXXXXXXXXXXXXXXX---XXXXXXXX-XXXXXXXXXXXXXXXXXXXXXXXXXXXXXXXXXXXXXXXX-XXXXXXXXXXXXXXXXXXXXXXXXXXXXXXXXXXXXX-XXXXXXXXXXXXXXXXXXXXXXX---XXXXXXXXXXXXXXXXXXXXXXXXXXXXXXX--
---XXXXXXXXXXXXXXXXXXXXXXXXXXXXXXXXXXXXXXXXXXXXXXXXX---XXXXXXXX-XXXXXXXXXXXXXXXXXXXXXXXXXXXXXXXXXXXXXXXXXXXXXXXXXXXXXXXXXXXXXXXXXXXXXXXXXXXXXX-XXXXXXXXXXXXXXXXXXXXXXX--XXXXXXXXXXXXXXXXXXXXXXXXXXXXXXXXX-