----------------------------------------------------------------------------------------------------------------------------------------------------------------------------------------------------------
----------------------------------------------------------------------------------------------------------------------------------------------------------------------------------------------------------
----------------------------------------------------------------------------------------------------------------------------------------------------------------------------------------------------------
----------------------------------------------------------------------------------------------------------------------------------------------------------------------------------------------------------
----------------------------------------------------------------------------------------------------------------------------------------------------------------------------------------------------------
----------------------------------------------------------------------------------------------------------------------------------------------------------------------------------------------------------
-----SSSS-----------!-------S-----S!SSSS-----------------------------------------------------------------------------------------------------------------S!!S-------------SS------------------------------
----------------------------------------------------------------------------------------------------------------------------------------------------------------------------------------------------------
---------------------------------------------------------------------------------------------#--------------------------------------------S---------------------------------------------------------------
--------------------------------------------------------------------------------------------##-----------------------#-#----------------------------------------------------------------------------------
--------------!----------@------------------SS@S--S-S--SSSS---------------------!--------#-###-----t---------#--##------#--------t-----S!--------------S---S-------t---------#--#-----t-------S-----------
----------------------------------------------------------------------------------------##--##----tt--------###-##--#---##-------tt--------------------------------t--------##--##----t-------------------
---------------------------------------------------------------------------------------###--##----tt------########--##--###------tt---------------tt---------------t---------#--##----tt------------------
---M-------g-------------------------------------------g--------g-g----------------g--####--##----tt-----#########-###--####-----tt--g------------tt-----------g-g-t---------#--##----tt------------------
---X---XXXXXXXXXXXXXXXXXXXXXXXXX--XXXXXXXXXXXXXXXXXXXXXXXXXXXXXXXXXXXXXXXXXXXX--XXXXXXXXXXXXXXXXXXXXXXXXXXXXXXXXXX-XXX--XXXXXXXXXXXXXXXXXXXXXX--XXXXXXXXXXXXXXXXXXXXXXXXXXXXXXXXXXXXXXXXXXXXXXXXXXXXXXXXX-
---XX--XXXXXXXXXXXXXXXXXXXXXXXXX--XXXXXXXXXXXXXXXXXXXXXXXXXXXXXXXXXXXXXXXXXXXX--XXXXXXXXXXXXXXXXXXXXXXXXXXXXXXXXXX-XXX--XXXXXXXXXXXXXXXXXXXXXX--XXXXXXXXXXXXXXXXXXXXXXXXXXXXXXXXXXXXXXXXXXXXXXXXXXXXXXXXX-