----------------------------------------------------------------------------------------------------------------------------------------------------------------------------------------------------------
----------------------------------------------------------------------------------------------------------------------------------------------------------------------------------------------------------
----------------------------------------------------------------------------------------------------------------------------------------------------------------------------------------------------------
----------------------------------------------------------------------------------------------------------------------------------------------------------------------------------------------------------
--------------------------------------------------------------------------------------------------------------------------------------------SSSSS---------------------------------------------------------
----------------------------------------------------------------------------------------------------------------------------------------------------------------------------------------------------------
------------SS!S-------------------------------------SSSS-----------------------##----------SS-------------------#-----------SSSS-------------------------------------------------!-----------------------
--------------------------------------------------------------------------------##------------------------------##----------------------------------------------------------------------------------------
-------------------------------------------------------------------------------###-----------------------------####-------------------S---------------------!---------------------------------------------
-----------------------------------------------------------------------------#####----------------------------#####---------------------------------------------------------------------------------------
------------S@S---!---S---------g---SS!------#--#-----------S@--------##--##-#####---------S!S--------tt-----#######------------------------------------------------S-!-----------!-----S-----#-----------
--------------------------------------------##--##--------------------##--########--------------------tt----########--------------------------#------------------------------------------------#----------
--------------------------------tt---------###--##-------------------###--########----tt--------------tt---#########-------------------tt---##------------------------tt----------------------------------
-M--------------g-----g-g-------tt-g------####--##-------g----------####--##--####----tt--------gg-----t--##########-------------------t---#####----------------------tt-----------------------#----------
XXXXXXXXXXXXXXXXXXXXXXXXXXXXXXXXXXXXXXXXXXXXXX-XXXXXXXXXXXXXXXXXXXXXXXXX--XXX-XXXXXXXXXXXXXX---XXXXXXXXXXXXXXXX-XXXXXXXXXXXXX-XXXXXXXXXXXXXXXXXXXXXXXXXXXXXXXX--XXXXXXXXXXXXXXXXXXX---XXXXXXXXXXXXXXXXXX--
XXXXXXXXXXXXXXXXXXXXXXXXXXXXXXXXXXXXXXXXXXXXXX-XXXXXXXXXXXXXXXXXXXXXXXXX--XXX-XXXXXXXXXXXXXX--XXXXXXXXXXXXXXXXXXXXXXXXXXXXXXX-XXXXXXXXXXXXXXXXXXXXXXXXXXXXXXXX--XXXXXXXXXXXXXXXXXXX---XXXXXXXXXXXXXXXXXX--