---------------D-------------------------------D-------------------------------------------------------------------------------------------------------
---------------D-------------------------------D-------------------------------------------------------------------------------------------------------
---------------D-------------------------------D-------------------------------------------------------------------------------------------------------
---------------D-------------------------------D-----------------------------------------------D-------------------------------------------------------
---------------D-------------------------------D-----------------------------------------------D-------------------------------------------------------
---------------DD------------------------------D-----------------------------------------------D-------------------------------------------------------
-------D-------DD---------------------------------------------o---------------------------o----D-------------------------------------------------------
-------D--------D----------------------------o---------------o-o-------------------------o-o---D-------------------------------------------------------
M--XXXXX-----o--D----oooo----D---------D----o-o-------D-DDDDD-o-o-o--------XXXXXXXXXXX-o--o-Do-D-------------------------------------------o-TT--------
XXXXXXXX--DDDDD-DDDDDDD##---##---------D---DDDDDDDDDSDDDDDDDDDDD-o----D-#-XXXXXXXXXXXXXDDDDDDDDD--##----o-------STSXoD--------o-SSSSSS---TXXXttXXX-----
XXXX--------------------#-y#-----D-gggDD--------------------------S#--D---------------------------##---D-g-------t-X-D------------------TTXX-tt--------
-------------------------##-----DDDDDDDD---------------------------SSSD----------------------------##-DDDDDD-----tt---------o-----------ttooott--------
--------------------------------------DD------------------TT--------ooD------------------TT--------#-------------tt--------oD-----------ttooott--------
--------------------------------------DD------------------tt--------ooD------------------tt----------------------tt-------ooo-----------ttgggtt--------
-------T---TT----TTT----------XXXXXXXXXXXXXXXX-T-----TT---tt---XXXXXXXXX-------------TT--tt-----------XXXXXXXXXXXXXXXXXXXXXXXXXXXXXXXXXXXXXXXtX-X--XXXX
------tt--ttt----tt-----------X-XXXXXXXXXXXXXX-X-----tt---tt---XXXXXXXXX-------------tt--tt------------XXXXXXXXXXXXXXXXXXXXXXXXXXXXXXXXXXXXXXtX----XXXX