---------------------------------------------------D---------------------------------------------------------------------------------------------------
---------------------------------------------------D---------------------------------------D-----------------------------------------------------------
---------------------------------------------------D---------------------------------------D-----------------------------------------------------------
---------------------------------------------------D---------------------------------------D-----------------------------------------------------------
---------------------------------------------------D---------------D---D---D---------------D-----------------------------------------------------------
---------------------------------------------------D---------------D---D---D---------------D-----------------------------------------------------------
---------------------------------------------------D---------------D---D----D--------------D----------------o----------------o-----------------o-------
---------------------------------------------------D---------------D---D-------------------D---------------o-o--------------o-o------------------------
------------------------------TT------To-----------D----------TT----DD-D----D--o-----#D----D----------------o-o-----XXX-o-o--o-o-D--o------------------
------------#X-XX-----D-------tt-----TT-ot--SSSSS--D----------tt-----------DDDDDD#--##D----D---T---------DDDDDDDD------XDDDDDDDDDDDDDTXXXXXXXXXXXXXXXXX
------------XX-XXXTT--D-----oott----ottoot-------#------ooTTXott-----------------#-y#------D---ttDDDD-------------------------------XttXXXXXXXXXXXXXXXX
--------------o----tSSD-----oott---oottoot-------#-------Dttoott------------------##------DDDDDtt------------------------------------tt----------------
---oo---------------ooD----ooott---oottoot-------o-----o--ttoott-------------------------------tt----------------------------TT------tt----------------
-M-oo---------------ooD---ttggtt---ggttggt-------g#---tog-ttggttt----o-------------------------tt----------------#-----------tt------tt----------------
XXXXXXXXXXXXXXXXXXXXXXXXXXXXXXXXXXXXXXXXXXXXXXXXXXXXXXXXXXXXXXXXXXXXXXXXX----TT--------XXXXXXX-tt-----------TT---X-----------tt---T--tt----------------
XXXXXXXXXXXXXXXXXXXXXXXXXXXXXXXXXXXXXXXXXXXXXXXXXXXXXXXXXXXXXXXXX-XXXXXXXXXX-tt------X-XXXXXXXXtt-----------ttt--------------tt---t--tt----------------