-----------------------------------------D-----------D---------------------------------D---D-----------------------------------------------------------
-----------------------------------------D-----------D---------------------------------D---D-----------------------------------------------------------
-----------------------------------------D-----------D---------------------------------D---D----------#------------------------------------------------
-----------------------------------------D-----------D---------------------------------D---D---------------------o-------------------------------------
-----------------------------------------D-----------D---------------------------------D---D-----------------------------------------------------------
-----------------------------------------D-----------D---------------------------------D---D-----------------------------------------------------------
--------o--------------------------------D-----------D-------------------D--------D----D---D-----------------------------------o------o----------------
M--------o-------------------------------D-----------D----------------------------D----D---D----------------------------------o-o----o-----------------
XXXXXXXXX-o----oooXXXXXXXXXXXXXX-X------DD-----------DD----------D-------DD------DD----D---D---D---oXXX--------------D-------oDo-o-D-DoD---------------
XXXXXXXXXDDD---####XXXXXXXXXXXXXXXXTT#---D------------D--D---SS--#------------D---D----DD--D-DDDDDDDDXXX----#------oSD---DDDDDDDDDDDDDDDDD-------------
------XX----DDXX---------------t-XXtt----D--------D--DD-D---------#-------D-D-g-gDDD-D-DD-------------------##----o#-D---------------------------------
-------------------------------t--o-t----D--------DDDDDDDDDSS-D---#------DDDDDDDDDDDDDDDD-------------------##-------D---------------------------------
-------------------------------t---------D---------------------#--#-------D------------DD------D-----TT-----##---#-------------------------------------
----------tt------------------tt---------D--------------------o#--##-------------------DD-----##-----tt---#-##--##----------------------------D----#---
-------T--tt------------------tt--XXXXXXXXXXXX--TT--XXXXXXXXXXXXXXXXXXXXXXXXXXXXXXXXXXXXXXXXXXXXXX---tt-----XXXXXXXXXXXXX---TT---T----T---DDDDX-XXXXXXX
-------t--tt--------------t---tt--XXXXXXXXXXXXX-tt--XXXXXXXXXXXX-XXXXXXXXXXXXXXXXXXXXXXXXXXXXXXXX----tt---X-XXX-XXXXXXXXXXX-tt---tt--tt--tt---XXXXXXXXX