---------------------------------------------------------------------------------------D---------------------D-----------------------------------------
---------------------------------------------------------------------------------------D---------------------D-----------------------------------------
---------------------------------------------------------------------------------------D--------------------DD-----------------------------------------
---------------------------------------------------------------------------------------D--------------------DD-----------------------------------------
---------------------------------------------------------------------------------------D--------------------D------------------------------------------
---------------------------------------------------------------------------------------D---------------------------------------------------------------
M--------------o-----------------------o------------o---------oD-----------------------D---------------------------------------------------------------
XX-------------#----------------------o-o---o------o-o--------#D-----------------------------------------------------------------------D---------------
XXXXXXXXXXXXX-##--------------------Do-o-o-o--o-XXXXX-----##-y#--XXXXXXXXXX------------D-----------------------D-------------o--------------DDD--------
XXXXXXXXXXXXX-##--#SS-----##---DDDDDDDDDDDDDDDDXXXXXXDDDDDD-##---XXXXXXX#XXXX--------SSSSSSS-------DDDDDDDDDDDDDDSSDD-------##D------------------------
--------------##----------##------------------XXX---------------------------------------------TT---------------------SS--DD----------------------------
--------------##----------##------------------------------------------------------------------tt----------------------SSDDDD--------------T------------
---------------#----#--#--##--------T--------T-------T----------------------------------------tt---T----------TT-------oDD-------------T--t------------
---------------#----#--#-###--------tt-------t-------t----------------------------------------tt---tt---------tt-------D--------------tt--tt-----t-#---
---------------X--XXXXXX-XXX--TT----tt---TT--t-------t----TT----------------------------XXXXXXXXXXXXt--TT--TT-tt--XXXXXXXXXXXXXX-TX--XXXXXXX-T--XXXXXXX
---------------XXX-XXXXX-XXXX-tt--tttt---tt-t----t--tt----tt--------------------------X-XXXXXXXXXXXttX-tt--tt-tt--XXXXXXXXXXXXXXXtX-XXXX-XXttt--Xt-XXXX