-----------------------D--------------------------------------------------------------------------------------------------------------D----------------
-----------------------D--------------------------------------------------------------------------------------------------------------D----------------
-----------------------D-----------------------------------------------------------------------------------------------!--------------D----------------
-----------------------D-----------------------------------o-----------------------------------------------------------!-------------------------------
-----------------------D----------------------------------o------------------------------------------------------------D-------------------------------
-----------------------D-----------------------------------------------------------------------------------------------D--------------!--t-------------
-----------------------D----------------D--------------------------------------------------------------------------------------------------------------
-----------------------D---------------------------------#------------------------------------o--------------------------------------------------------
-----------------------D---------XXXXXX-----------------#D--------oooo---------D----oo--o------o-----------------XXXXXXXX------XXXXXXXXXXXX---D--------
------o--------D--SSS--D-----#D-#DXXXXXXS###--#--##D##XXXXXXXX----#D###-------##--#-##--#-##--###---XXXXXXXXXXXXXXXXXXX-X#---###XXXXXXXXXXX--DDD-------
----MD-D-g-gg-g--------SS---#--------------#--#--#------XXXXXXX---------------#------#-y#-##--#----XXXXXXXXXXXXXXX-------#-----------------------------
----DDDDDDDDDDDD-D------SSSD#------------------##----------------#-------##----------###--##----------t-----------------##-----------------------------
-----------------DD------o-DD-------------------------------------------------------------------------------------------##-----------------------------
----------------oDD------ooDD----------------------------------------------------------------------------------------##-##---#---------------------#---
------XXXXXXXXXXXXXXXXXXXX-D-----------------------------------------------------------------------------------------XX-XXX-XX---------------------XXXX
------XXXXXXXXXXXXXXXXXXXX-------------------------------------------------------------------------------------------XX-XXX-XX---------------------XXXX