-----------D-------------------------------------------------------------------------------------DD----------------------------------------------------
-----------D-------------------------------------------------------------------------------------DD----------------------------------------------------
-----------D--------------------------------------------------------------------------------------D----------------------------------------------------
-----------D--------------------------------------------------------------------------------------D----------------------------------------------------
-----------D-------------------------------------------------------------------------------------DD----------------------------------------------------
-----------D-------------------------------------------------------------------------------------D-----------------------o-----------------------------
-----------D------------o-------------------------------------------------o---------o------------D-------------o--------o------------------------------
-----------D-----------o-o------------------------------------------D----o-o------o--o--------o---------------o-o------o-------------------------------
M-XXXX-----D--------D-D-o-o-----o------------XXX--o-----------XXXXXXX--Do-oD-----D-Do-o-----D--o-DD------------o-o----XXo-XXXXXXXX---o-----------------
XXXXXSS----D----DDDDDDDDDDDDDDDDDD#---#-XXXXXXXX-###--###XXDXXXXXXXX#DDDDDDDDDDDDDDDDDDDDDDDDDDDDDDDDDDSSSSSDDDDDDDDDXXXXXXXXXXXXXSSSSSDDDDDDDD--------
XXX--------D---DD------------------#-y#-XXXXX--------y#--XXXX----------------------------------------------------------XtXX----------------------------
--------------DDD------------------##---------------#-----------------------------------------------------------------------------------------D--------
-------D----DD-D-----TT-------------------------TT--------------------------------TT---------T--TT------o----------------------------T------TT---------
-----ooD----D--------tt-t-----------------------tt--------------------------------tt---------t--tt-----o-----------------------------o------tt---------
----XXXXXXXXXXXXXXX--tt-t----TT--------------T--tt---------------------T------TT--tt---TTT---tt-tt--XXXXXXX--TT----------------------X--TT--tt-XXXXXXXX
-----XXXXXXXXXXXXXXX-tt------t---------------t--tt---------------------t------tt--tt---ttt---tt-tt--XXXXXXXX-tt---------------------XXX-tt--tt-XXXXXXXX