-----------------------------------------------------------------------------------------------------------D-------------------------------------------
-----------------------------------------------------------------------D-----------------------------------D-------------------------------------------
-----------------------------------------------------------------------D-----------------------------------D-------------------------------------------
-----------------------------------------------------------------------D-----------------------------------D---------o---------------------------------
-------------------------------------------D---------------------------D-----------------------------------D--------o----------------------------------
-------D-----------------------------------D---------------------------D-----------------------------------D-------------------------------------------
-------D---------------------------------------------------------------D-----------------o-------------------------#-----------------------------------
------------------------------o-T------o-------------------------------D----------------o-o------------------------#-----------------------------------
--------#---XXXXXXXXXXXXX--TTXott----XXXXXXXXXXXX--------------------D-D-------------------o-----------------T----D---oo---ooo----##-------------------
--------#------XXXXXXXXXXXXttXott----XXXttXXXXXX-DDDDD----#----#-------D---DD---------##DDDDDDD--------------#--####--##--####--####--------DD-DD------
-------------------------XtttXott-------tt-----------D--------D-g--gDD-D--------------------------------TTTo-#-y#--#-#---y#--#-X#-##-------------------
--------------------------tttooot-------tt-----------D--------DDDDDDDDDD---------------------------------tSo-t#-----#---##----##--##-------------------
------oo------------------tttooo--------tt-----------T-----------------D----------------##--------o------too-t#----------------------------------------
---M--oo------------------tt-ggt--------tt-----------t-----------------D----------------##-------ooD-----ttg-t#----------------------------------------
---XXXXXXX----------------tt--XXXXXXX---tt-----------t---TT----XXXXXXXXXXXXXT-------TT--XX----TXXXXXXXXXXXXXXXX--------------------X-XXXX------TT--XX--
---XXXXXXX----------------tt--XXXXXXX-X-tt----------ttt--tt-----XXXXXXXXXXXtt-------tt--XX--X-XX-XXXXXXXXXXXXtX--------------------XXXXXXX-----tt---X-X