----------------DD-------------------------------------------DD------------------------D----------------------DD---------------------------------------
----------------DD-------------------------------------------DD------------------------D----------------------D----------------------------------------
----------------DD-------------------------------------------DD------------------------D----------------------D----------------------------------------
----------------DD-------------------------------------------DD-----------------------------------------------D----------------------------------------
----------------DD-------------------------------------------D------------------------------------------------D----------------------------------------
----------------DD-------------------------------------------D------------------------------------------------D----------------------------------------
---o------------DD---------------------------------------o---D----o-------------------------------------------D--------------------------------D-------
--Xo------------DD-------------------o-o----------------o-o--D---o-o------o--------#--------------------------D--------------------------------D-------
M-XooT-XXXXX----XD-----#--------------o-o--XXXXXXXXXXXXX-o-o-D--D-oDDDDD-o-o------o#------------XD---o-ooD----D----oooo--o---X-XXXXX------o--o-D-------
XXXXTTXXXXXXXXXXXX#---##-------S-S##--#DDDXXXXXXXXXXXXXDDDDDDDDDDDDDDDDDDDDDDDDD--##------##-X#-##--##--###--XXXXXXX###--#####-XXXXX---DDDDDDDDDD------
XXXXtt-XXX---XX-------##-------#--##-----------X-----------------------------------#---------##------#-X#----XttXXXXX-#-y#-----------------------------
----tt--------------#--D-------#--##--------------------------------------------------------##-------##------ttt-------##------------------------------
----tt----------------oD-------#-###--------------------------------T----------TT---------------------------t--t------------------------------TT-------
----tt----------------oD------##-###--------------------------------tt---------tt------------------------------t------------------------------tt---#---
-----t-------------XXXXXXXXXXXXX-XXX-----------------------TT--TT---tt-----TT--tt---T--------------------XXXXXXX---------------------TT--TTT--tt---XXXX
--------------------XXXXXXXXXXXX-XXX-----------------------tt--tt---tt-----tt--tt---t-------------------XXXXXXXXXX-------------------tt--ttt--tt---XXXX