--------------------------------------DD-------------------------D-----------------D-------------------------------------------------------------------
---------------------------------------D-------------------------D-----------------D-------------------------------------------------------------------
---------------------------------------D-------------------------D-----------------D-------------------------------------------------------------------
---------------------------------------D-------------------------D-----------------D----------------------------------------------------------D--------
---------------------------------------D-------------------------D-----------------D----------------------------------------------------------D--------
-------------------------------!-------D-------------------------D-----------------D----------------------------------------------------------D--------
-------o-------------------------------D-------------------------D-----------------D------o------o--------------------------------------------D--------
M-----Xo-------o--#--------------o-----D-----o-------------------D-----------------D-----o-o------o-------------------------o-----------------D--------
XXXXXXXX------o--o--------------o----o-o----oo-------------TT----D-oo------------------D--o-D------o---D------o----o--#----o-o--------o-o-o-o-o--------
XXXXXXXXTT-#####DDDDDDDDDDDXXXXXXX--###DD-DXXDTTXXX--------tt---#-##---y###--------D--DDDDDDDDDDDDDDD--D-----###---####DDDDDDDDDDDDDDDDDDDDDD##--------
--------tt-----------------XXXXXXXXX-------XX-ttXX---------t-------##-y#-------g-ggD-------------------D----------y#-----------------------------------
--------tt------------------------------------ttoo--------ot---------##----TSDDDDDDD-------------------DDDDD-----##------------------------------------
--------tt------------------------------------ttoo--------ot---------------tDo------------TTT----------D------------------------------TT---------#-----
--------tt------------------------------------tt---------oot---------------too------------tttD---------D-------------------------------t---------##----
--------tt---T---T-------TT-----TT----TT-----TXXXXXXXXXXXXXtX-------------XXXXXXXXXXXXXXXXXXXXXXXXXXXXXXXXX--------------TT----TT--TT--t---TT--XXXXXXXX
--------tt------tt-------t------tt----tt-----tXXXXXXXXXXXXXtX------------XXXXXXXXXXXXXXXXXXXXXXXXXXXXXXXXXX--------------tt---ttt--tt--tt--tt--XXXXXXXX