--------------------------------------------------------------------------------------------------------------------D----------------------------------
----------------------------------------------------------------------------------------------------------------------D--------------------------------
----------------------------------------------------------------------------------------------------------------------D-------o------------------------
----------------------------------------------------------------------------------------------------------------------D------o-------------------------
----------------------------------------------------------------------------------------------------------------------D-----o--------------------------
----------------------------------------------------------------------------------------------------------------------D----o---------------------------
--------------------------------------------------o----------------------------------------o--------------------------D----#------------o--------------
-------------------------------------------------o---------------------------------D--------o----o----o--------------o----##---------------------------
XXXXX-----TT-----XXXXXXX-------------------------#---------oo---DD-----------------DD-------DD--o-o--o-o------------o-o---##---XXXXXX--Xo--------------
TXXXX-----tt------XXXXXXXX----------------------#---------#####-##-XXXXXX----D------D----DDDDDDDDDDDDDDDDDDDDDDDDDDDDDDD--##----XXXXXTTXXtT------------
t-----TToott--------------X----------T---------##---Dggg-g----------XXXXXX---D---ggDDD------------------------------------##---------ttX-ttXott--------
t-----ttoott-------------------------SSD------#-toDDDDDDDDDDD-------------SSDDDDDDDDDDDD---------------------------------------------tt--ttoott----#---
t-----ttoott-------------------o-----ooD----------------------------------ooDD-----------------------TT------------T-----------------tt--ttoott----#---
t-M---ttggtt--------------o---oD-----ooD-------#-------------------t-------oD------------------------tt------------tt------#---------tt--tt-gtt---##---
D-XXXXXXXXXXXXXXX---------XXXXXXXXXXXXXXXXXXXXXXXXXXXXXXXXXXXXX-----------XXXXXXXXXXXXX----TT---TT---tX-XXXXXX-TT--tt--TT--XXXXXXXX--tX-tttXXXXXXXXXXXX
---XXXXXXXXXXXXXX----------XXXXXXXXXXXXXXXXXXXXXXXXXXXXXXXXXXXX----------XXXXXXXXXXXXXX-X--tt--ttt---XXXXXXXXXXtX-Xtt--tt--XXXXXXXXX-tt-ttt--XXXXXXXXXX