-------------------D-----------------------------------------------------------------------------------------------------------------------------------
-------------------D-----------------------------D-----------------------------------------------------------------------------------------------------
-------------------D-----------------------------#-----------------------------------------------------------------------------------------------------
-------------------D-----------------------------------D--------------------------------------------------------------D--------------------------------
-------------------D-----------------------------------D--------------------------------------------------------------D--------------------------------
-------------------D-----------------------------------D--------------------------------------------------------------D--------------------------------
M------------------D-----D-----------------------------D------------------o-----------o------o------------------------D----------------o---------------
XX------o------D---D----DD-----------------------------D----o-o----------oo-----------o-----o-o----o------------------D--------------oo-o-o------------
-------o-o-D---D---D----DD--------o-o----o---DT--------D---o-o-o-------o-D-------------o--oD-o-o--o-o---o-------------D--------D----D-DoDoDDD-D-o------
------otD----S-D---DDDD-DD------TTXot---#----XttSSSSSDDDDDDDDDDDDDDDDDDDDDDTTX--XSSSDDDDDDDDDXDDDDDDDDDDDDDSSSSSSDD---D--------D--DDDDDDDDDDDDDDDDDD---
-----oot-----D-D----------------ttXot----#-TXXtt---------------------------tt-----------------------------------------D---gDD--DD----------------------
----ooot---DDDDD----------------ttoot-----Ttoott---------------------------tt----------------------------------------DDDDDDDDD-D-----------------------
---ttoot------DD-------------t--ttoot-----ttoott-----------T---------T----ott------o--TT--------TT--------------------D------------------------TT------
---t-ott-------D-------------tt-ttgg------ttogtt-----------t---------tt--tttt------o--tt--------tt-----------------o---------------------------tt------
----XXXXXXXXXXXXXX--TT--TT---t--XXXXXXXXXXXXXXXXXXX----TT--t---TT----tt--XXXXXXXXXXXX-tt-----T--tt---TT--TT--XXXXXXXXXXXXXXXXXXX-----TT--t-----tt---X--
-----XtXXXXXXXXXXXX-tt--tt--tt--XXXXXXXXXXXXXXXXX-X-XX-tt--t---ttt---tt--ttXXXXXXXXXXXttt-------tt---tt--tt-XXXXXXXXXXXXXXXXXXXXXX-X-tt--tt----tt-----X