---------------------------------------D---------------------------------------D-----------------------------------------------------------------------
---------------------------------------D---------------------------------------D-----------------------------------------------------------------------
---------------------------------------D---------------------------------------D-----------------------------------------------------------------------
---------------------------------------D---------o-----------------------------D-----------------------------------------------------------------------
---------------------------------------D---------------------------------------D-----------------------------------------------------------------------
---------------------------------------D---------------------------------------D-----------------------------------------------------------------------
M--------------------------------------D------------------------o--------------D---------D-----------------------o-------------------------------------
XX--------------------------------oD---------------------------o-o----o-----o--D---------D-----------------------ooo-----------------------------------
XXXXXX---------------T-------------D-----oooo-o--------o----D-o-o-DDDDDD---o-o-DD--------D------------------------o-o--------TT------------------------
-XXXXX------------#-#t---#------o--D----########-##D#--DDDDDDDDDDDDDDDDDDDDDDD-DDXXXXX---D------D-------------DDDDDDDDD------tt--------DDD-------------
---------------------t---#-----##DDD---D---------#-----------------------------XXXXXXXX--D-D-ggDDDD----------------------TToott------------------------
------------------------##----#DDDDD---DD-------#------------------------------tt--------DDDDDDDDDDDDDDD-----------------ttoott---DD-------------------
------------------------##----#---DD-------------------------T---------TT------tt--------D-------------D-----oo-TT-------ttoott---D-----o--------------
-----------------#---##-##---##---oD-------------------------tt--------tt------tt----------------------------oo-tt-------ttggtt--------DD----------#---
------------TT--XXXXXXX-XXX-XXXXXXXXXXXXX--------------T-----t---TT----tt--TT--tt--------XXXXXXXXXXXXXXXXXXXXX--tt---TT----XXXXXXXXXXXXXXXXXXXXXXXXXXXX
------------tt--XXXXXXX-XX---XXXXXXXXXXXX--------------t----tt---tt---tt---tt--tt--------XXXXXXXXXXXXXXXXXXXXX--tt---tt-----XXXXXXXXXXXXXXXXXXXXXXXXXXX