------------------------DD---D---------D-------------------------------------------------------------DD------------------------------------------------
------------------------DD---D---------D-------------------------------------------------------------DD------------------------------------------------
-------!-----------------D---D---------D-------------------------------------------------------------DD------------------------------------------------
-------------------------D---D---------D--------------------------------------------------------------D------------------------------------------------
-------!----------------DD---D------------------------------------------------------------------------D------------------------------------------------
-------!----------------DD---D-----------------------------------------------------------------------DD------------------------------------------------
------------------------DD---D-----------------------o-------o------o------o-----------oo------------DD---------------------o-----------------o--------
M------------------------D---DD--------------------oo-o-----o-o---oo-o----o------------oo------------D---------------------o-----------------o-o-------
XXXXXXXXX--oo-----o---##-D---D----------------o---DD-o-o---D-o-o-o--o----o-ooo--ooo----X--------------o-----oo---ooo------oXo-------------TT--o-oD-----
XXXXXXXXXXX##--#####--##-DDDDDDDDDDXXXXXXXXXXXXTDDDDDDDDDDDDDDDDDDDDDDDDDDDD##-y####XXXXXXX------DDDDDDDDDDD##X--###---###XXDtT---------oXtttXXXXXX----
------------#-y#--##--#------------tXXXXXXtXXXXt-----------------------------#-y#-----XXXXXX-----------------#-yy-##-y##--XX-tt-----TTT-XXtttXXXXXX----
-------------##---##---------------t------t-----------------------------------##------------------------------###--####-----ott-----ttttoottt----------
------------------##--------------tt------------------TT---T-------------------------------------T-----TT--------------------tt-----tt-toottt----------
------------------##--------------tt------------------tt---t-------------------------------tt---tt-----tt--------------------tt-----ttttog-tt----------
------------------XX----------TT--tt---------------TT-tt---tt--TT--T----TT-----------------tt---tt---TT-t-----------------XXXXXXXXXXXXXXXXXtt-------X--
----X-------------XX--X-------tt--tt---------------tt-tt---tt--tt-tt----tt-----------------tt---tt---tt------------------XXXXXXXXXXXXXXXXXXtt--------XX