---------------------------------------------------------------D-------D---------------D---------------------------------------------------------------
---------------------------------------------------------------D-------D-----------D---D---------------------------------------------------------------
-----------------------------------------------!---------------D-------D-----------D---D---------------------------------------------------------------
---------------------------------------------------------------D-------D-----------D---D---------------------------------------------------------------
-----------------------------------------------!---------------D-------D------D----D---D-----------------------D---------------------------------------
---------------------------------------------t-!---------------D-------D------D----D---D-----------------------D---------------------------------------
-----------------o---o-----------------------------------------D-------D------D----D---DD----------------------DD-----o--------------------------------
M------D--------o-o-o-o----------------------------------------D-------D------D----D---DD----------------------DD----o---------------------------------
XXXXXX-D-------D-o-oDo-o-----------------------X----------DD---D-------D------D----D---DD-----oT------XD-------DD---o-o------------------------o-------
XXXXX-DDDDDDDDDDDDDDDDDDDDDDDDDD------##-XXXXXXXXXXXX-#SSSSD---DDD-----DD-----D----D---DD------ttXXXXXXS-------DD----DDDD--------#XXXXX-------o-o------
---------------------------------------#--XXXXXXXXXX-------D-----------DD----DD----D-D-gDg-g---tt--X---t-------DD-----------------XXXXXX----ggDDD------
----------------------------------------------------------SD-----------------DDDDDDDDDDDDDDDDDttt---------DDDD--D-----------------------DDDDDDDDD------
-----------------TT-------TT-------------------------------D------------D----D-----------------tt-----o--------DD------------------------------DD------
-----------------tt-------tt------t-----------------------DD------------D----DD----------------tt----oo-D------DD-----------#-------------------D------
--------TT----TT-tt---TT--tt---T--t--------------------XXXXX---TT--T---TT--XXXXXXXXXXXXXXXXXXXXXXXXXXXXXXXXXXXXXX--T---TT---X----------XXXXXXXXXXXX-X--
------X-tt--X-tt-tt---tt--tt---t--t--------------------XXXXXXX-tt--t---tt--XXXXXXXXXXXXXXXXXXXXXXXXXXXXXXXXXXXXXXXXX---tt--XX-----------XXXXXXXXXXXXXX-