-------------------------------------------------------D-----------------------------------------------------------------------------------------------
-------------------------------------------------------D-----------------------------------------------------------------------------------------------
-------------------------------------------------------D-----------------------------------------------------------------------------------------------
-------------------------------------------------------D----------------------------------#------------------------------------------------------------
-------------------------------D-----------------------D--------o------------------------o-------------------------------------------------------------
-------------------------------D-----------------------D-------o------------------------tt-------------------------------------------------------------
-------------------------------D-----------------------D------o-o--------------------------------------------------------------D-----------------------
M----------------o--o----------D-----------------------D-----o-----------------------------------------------------------------D-------------oo--------
X---o-----------o--o-o---------D-----oo--o-------------D-----DD--D---------o---------------------------------XXXXXXXXX---------D-----XXXXXXXXXXXX------
XXXX#--####--DDDDDDDDDDDDD----DD-----##--##--SSSSSSS---D-----------------##----#####XXXXXXXXX----------------tXXXXXXXXXTT---#-#DDDDDDDXXXXXXXXXXX------
XX--#-y#-----------------------D-----##-y#-------------D-------------------#--y#----XXXXXXXXX--#-----T-o-T---tt--------tt--##--------------------------
-----##--------------------------------##----------SSSDD--------------------###-----------------#D---tt--t---tt--------tt--##--------------------------
------------------TT-----------D--------------------o-D-----------------------------------------#----t---t---tt--------tt--#--------TT-----------------
------------------tt----------------------------g---o-DD---------------------------------------oo----tt------tt--------tt-----------tt-----------------
--------------TT--tt----T-------------XXXXXXXXXXXXXXXXXX---------------------------------------XXXXX-XX------tt----T---tt--XX----T--tt-----------------
-------------Xtt--tt----------------XX-XXXXXXXXXXXXXXXXX--------------------------------------XXXXXXXXX--XX--tt--------tt--XX-------tt-----------------