-------------D-----D------------D----------------------------------------------------------------------------------------------------------------------
-------------D-----D------------D----------------------------------------------------------------------------------------------------------------------
-------------D-----D------------D----------------------------------------------------------------------------------------------------------------------
-------------D-----D------------D----------------------------------------------------------------------------------------------------------------------
-------------D-----D------------D----------------------------------------------------------------------------------------------------------------------
-------------D-----D------------D----------------------------------------------------------------------------------------------------------------------
-------------D-----D------------D------o---------------------------------------D---------------------------------------------------------------o-------
M------------D-----D------------------o-o--------------D-------D---------------D----------------------------------------------------o--------oo-o------
XXXXXXXX-----DD----D--------D--------o-o-o-XXXXXXXXX---D--------------XXXX-----D---XXX-o-----------------o-----o-------------------o--------Do-o-o-----
XXXXXXXX-----DSSD--D----DD-DDDDDDDDDDDDDDDDXXXXXXXXXXX-D-----TTXXXXXXXXXXXSSSSSD---XXXXDDDD-------------####--X#DXXXXXX-XTT--------DDDDDDDDDDDDDDDDDDDD
-------------------D-----D-----------------------------D-----ttXXXXXX----------t--------------------D--------yy#--XXXXXXttt----------------------------
-----------------SSD-----------------------------------D-----tt----------------tt---------------DDDDDDDD----##-----------tt----------------------------
-------------------DD----D-----------------------------D-----tt----------------tt----------------------------------------t--------------------T--------
--------------g-D-oDD----D-----------------------------D-----tt-----------t----tt----------------------------------------t-------D-----------tt--------
--------XXXXXXXXXXXXXXXXXXXXX---T----TT----------------XXXXXXXXXXXXXX--X---TT--tt------TT--XXXXXXXXXXXX---------------XXXXXXXXXXXXXXXXX----T-tt---T----
-------XXXXXXXXXXXXXXXXXXXXXX---t----tt----------------XXXXXXXX--XXXXX-X-X-tt--tt------tt--XXXXXXXXXXXX---------------XXXXXXXXXXXXXXXXX-XX-Xttt---t----