-----------------------------------------D--------------------------------------------------------------------------------D----------------------------
-----------------------------------------D--------------------------------------------------------------------------------D----------------------------
-----------------------------------------D-------------------------------------!------------------------------------------D----------------------------
-----------------------------------------D---------------------------------o----------------------------------------------D----------------------------
-----------------------------------------D--------------------------------o-----------------------------------------------D----------------------------
-----------------------------------------D-------------------------------------o------------------------------------------D----------------------------
M----------------------------------------D-------------------------------#------------------------------------------o-----D----------------------------
X---------o------------------------------DD------------------------o----##----------------------------------o--------o----D----------------------------
XXXXXXXXXo-o-------D----------------------D--------o------o-o-----o-o---##-o-gXXXXX-X-----------o--------o-o-o-D----o-o--------------------------------
XXXXXX-X#-DD------SS--------------------oDDDDDDDDDDDDDDDDDDDDD--DDDDDDD-DD#####DXXXXXSSSSSSS--#--#SSSSSSSDDDDDDDDDDDDDDDDD---T-------------------------
------------------------------D------TToo-------------------------------------------XX-------##-X-----S----------------------tt---------TToot----------
--------------------------DDDDDD-----ttoot---------------------------------------------------##-#------SS--------------------tt---#-----tooot----------
------------------oD-o--D--DD--------ttoot---------------------TT----------------------------##---------o-TT----------------ott---#----ttooot----------
----------------ooDoDo--D------------ttggtt--------------------tt----------------------------#----------oot----------------o-tt---#----ttoggt------#---
-------------TX-XXXXXXXXXXXXXXXXXXXXXXXXXXXX---T-----------TT--tt--TT------------------------XX-XXXXX-XXX-tt----tt-----------tt---XXXXXXXXXXXXXXXXXXXXX
-------------tt-XXXXXXXXXXXXXXXXXXXXXXXXXXXX---tt----------tt--tt--tt------------------------XX-XXXXX-XXXttt----tt-----------tt--XXXXXXXXXXXXXXXXXXXXXX