-------D-----------------------------------------------------------------------------------------------------------------------------------------------
-------D-----------------------------------------------------------------------------------------------------------------------------------------------
-------D-----------------------------------------------------------------------------------------------------------------------------------------------
-------D---------------------------------------------------------------------------D-------------------------------------------------------------------
-----------------------------------------------------------------------------------D-------------------------------------------------------------------
------------------------------------------------------------D----------------------D-------------------------------------------------------------------
------------------------------------------------------------D----------------------D---------------o---------D-----------------------------------------
------------------------------------------------------------D------D---------------D-----D--------o-o--------D-----------------------------------------
XXX----D----------TTXXXXXXXXX----o---------XXXXXXX-------D-DD------D------------D--D-----D-------o-o-oD------D----------------D-----D-----D----D-------
XXX----D----------ttXXXXXXXXXD---##--####XXXXXXXXX###XXXXXXXDDDDDDDD---------SSS---DDDDDDDDDDDDDDDDDDDDDDDDDDDDSSSS--TTSSSSS--D-----D----DDDDDSD-------
-------D------TToott----------------------XX----------XXXX---------D----------------------------------------------X--tX---X---D--gDDDD---------D-------
-------D--D---ttoott-----------------------------------------------D------------------------------------------------StD----SSSDDDDDDDDDD-------D-------
-------D--#---tto-tt----------------------------------------------DD-------o-----------------T----------------------tt-------oDD---------D-----D-------
---Mooo---D---tt--tt----------------------------------------------DD--#D---o-----------------t-----------------g----ot------ooD----------o-----D---#---
---XXXXXXXXXXXXXXXtt-----------T-----------------------------TT-XXXXXXXXXXXXXXXXXXX-TT---TT--t---------TT--XXXXXXXXXXXXXXXXXXXXXXXXXXXXXXXXXXXXXXXXXXXX
---XXXXXXXXXX-XXXXtt-----------t-----------------------------tt-X-XXXXXXXXXXXXXXXXXXtt---tt--t----------t--XXXXXXXXXXXXXXXXXXXXXXXXXXXXXXXXXXXXXXXXXXXX