-------D-----------------------------------------------------------D-----------------------------------------------------------------------------------
-------D---------------------------D-------------------------------D-----------------------------------------------------------------------------------
-------D-------D-------------------D-------------------------------D-----------------------------------------------------------------------------------
-------D-------D---------------------------------------------------D-----------------------------------------------------------------------------------
-------D-------D---------------------------------------------------D-----------------------------------------------------------------------------------
-------D-------D---------------------------------------------------D-----------------------------------------------------------------------------------
-------D-------D---------------------------D-----------------------D-------------------------------------------------------------o---------------------
-------D-------D------------------------o--D-----------------------D--------------------------------------------------o---------o-o--------------------
---M-o-D---D---D-----------------------D-DDD--------------------o--D------o------------------------------------XXX---XoT-------o-oo-o-o--o-------------
---DDDDDDDDDDDDD---------------------DDDDDDDDDD-------------DDDDDDDDDDD#-###--#-####XXXX-------#------#-###S#####DXXXXXtt----DDDDDDDDDXXXXXXXXXX-------
----------------------------#---------------------------------------------##-y#---XXXXXX---#---#-----##------tt-----XXXtt-------------XXXXXXXXXX-------
---------------------------##-----------------------------------------------##---------D---#---#-----##------tt--------tt------------------------------
--------TT--------------#---#--------------TT------------------------------------------#---#---#-----##------tt--------tt-------T----------------------
--------tt-------------o#--##--------------tt--------------------t---------------------#---##-##-----##------tt--------tt-------t------------------#---
----TT--tt---T---XXXXXXXXXXXXXXXXX-----TT--tt--TT------TT--------t---------------------X--XXXXXXXXXX-XX------tt-------XXXXXXXXX-X--TT-----------XXXXXXX
----tt--tt---t--XX-XXXXXXXXXXXXXXXX--X-tt--tt--tt----X-t--------tt---------------------X--XXXXXXXXXX-XX-X----tt-------XXXXXXXXX-XX-t------------XXXXXXX