------------------------------------------------------------------------------------------------------D------------------------------------------------
------------------------------------------------------------------------------------------------------D------------------------------------------------
-------o----------------------------------------------------------------------------------------------D------------------------------------------------
------------------------------------------o-----------------------------------------------------------D------------------------------------------------
-----------------------------------------o------------------------------------------------------------D------------------------------------------------
-------!-tt-------------------------------------------------------------------------------------------D------------------------------------------------
------------------------------------------------------------------------------------------------------D------------------------#-----------------------
--M--------------------------------o---#--------------------------------------------------------------D--------------------oo--#-----------------------
--XXXXXXXXXXXXXX---oo------------o-D--##---------------------------------D-o-------D----------oo------D--------------------#---#---o-o------o----------
--X-XXXXXXXXXXXX--###--D#DDDDD--#-o#--##--------------D--#----------SS---DDDD--tSSSS-----------------#XXXXXXXXXXXXXXX-##--##D-DDDDDDD------ott---------
---------------------#-y#-------#--#--##-------o---DggD-##-------------------o-tt---------D-DDD------XXXXX---XXXXXXXXX-#-X--------------TTooot---------
----------------------#----------------#------o--DDDDDD-D#------------------Toot-----SSDDDDDDDDDDD--------------------------------------ttooot---------
-------TT------------------------o---------------D-----oD#-----------------Ttoott-----oD-----------------------------------T------------ttoo-t-T-------
-------tt-----------------------------------------------D----#-----o-------ttggtt-----oD-----------------------------------tt-----------ttgg---D---#---
-------tt---------------------X-XXXX------------XXXXXXXXXXX-XXXXXXXXXXXXXXXXXXXXXXXXXXXXXXXXXX--T----------------------T---tt---TT----XXXXXXXXXXXXXXXXX
-------tt---------------------X-XXXX-------------XXXXXXXXXX-XXXXXXXXXXXXXXXXXXXXX-XXXXXXXXXXXXX-tt---------------------X---tt---tt-----XXXXXXXXXXXXXXXX