---------------D---------------------D----------------------------------------------------D------D----D------------------------------------------------
---------------D---------------------DD---------------------------------------------------D------D----D------------------------------------------------
---------------D---------------------D----------------------------------------------------D------D-----------------------------------------------------
---------------D---------------------D----------------------------------------------------D------D-----------------------------------------------------
---------D-----D---------------------D----------------------------------------------------D------D------------------------D----------------------------
---------D-----D---------------------D----------------------------------------------------D-----D-------------------------D-------------------!--------
---------D-----D---------------------DD--------------o----------------------------------------------------------------D---D----------------------------
-----o---D-----D---------------------DD-------------o-o------------------------------------------------D--------------D---D----------------------------
---M-o---D-----D----------TT-----D---DD---D-o------o-o-o--XX---------------T-------o-------------------D-------o------D---D--------o----------ooD------
---DDDDDDDDDD--D------TTootttSSSDD---DDDDDDDDDDDDDDDDDDDDDDXXXXXXX---------tT---DDDDDDDDDDDDDD-DDDDDDD-D------o-o-----D---D---D---XXTXXXXXXXXXXtT------
---------------D------ttoottt---DD--------------------------XXXXXX---#---oott------------------------------gDg-D-g-Dg-DD-ggD-D-D-XXttXXXXXXXXXott------
--------------oD----DDttoott----DD-----------------------------------#---oottt---------------------------DDDDDDDDDDDDDDDDDDDDDDDDD-tt--------oott------
--------------o-----oottoott----DD----TT------TT----------TT---------#----ottt----------TT---TT----TT------------------------------tt-------toott------
--------------g-------tt-gtt-----D----tt------tt----------tt---------#-----ttt----------tt---tt----tt------------------------------tt-------t-gtt--#---
------TT--TTXXXXXXXXXXXXXXXXXXXXXXXX--tt---T--tt---T---T--tt-----X--XXXXXXXXXXXXXX---TT-tt---tt--XXXXXXXXXXXXXXXXXXXXXXXXXXXXXXXXXXXXX-------XXXXXXXXXX
------tt--tt-XXXXXXXXXXXXXXXXXXXXXXXX-tt---t--tt---t---t--tt------X-XXXXXXXXXXXXXtX--tt-tt---tt--XXXXXXXXXXXXXXXXXXXXXXXXXXXXXXXXXXXXX------XXXXXXXXXXX