---------------------------------D-----------------------------------------------------------------------------D--------------------------D------------
---------------------------------D-----------------------------------------------------------------------------D--------------------------D------------
---------------D-----------------D-----------------------------------------------------------------D-----------D--------------------------D------------
---------------D-----------------D-----------------------------------------------------------------D-----------D--------------------------D------------
---------------D-----------------D-----------------------------------------------------------------D-----------D--------------------------D------------
---------------D-----------------D-----------------------------------------------------------------D---------------------------------------------------
---------------D----------------DD-------------------------------D----o--------o-------------------D-------------------DD----o-------------------------
---------------D----------------oD------------------------------DD---oo-o-----o-o------------------D---------------D---DD---o-o------------------------
M--XXXX--------D---------------o-o-----------TT----------------o-D--DD-DDD---o-o-o---------TT------D--------D------D---DD--o-o-o--------------o-o------
XXXXXXXXXXXXXXXXXX--------DDDDDDDDDDDD-------tt-XXXXXXTT----DDD-DDDDDDDDDDDDDDDDDDDDDSSSoo-tt--SSSSD--------D------DD--DDDDDDDDDDDD-SSSS-----#-DD------
XXXXX-XXXXXXXXXXXXX-##g-gg---------------TXX-tt-XXXXXXtt-X-----------------------------Toottt------------DgDDD-----DD-----------------D--------DD------
------------------DDDDDDDDD--------------t---tt-------tt-o----------------------------tDoottt---------DDDDDDDDDDDDDDD-----------------D------SSDD------
------------------------------TT-------------tt-------tt--------TT----------TT---t----ttoottt----oo-------------D---------------TT------------oDD------
------------------------------tt-------------tt-------tt--------tt----------tt---t----ttogtt-----oo-------------D---------------tt---o--------oD---#---
-----------------XXXXXXXXXXXX-tt-------------tt-------tt-----TT-tt----T-T---ttX-XXXXXXXXXXXXXTX-XXXXXXXXXXXXXXXXXXXXXXXXX---TT--tt---XTXXXXXXXX-XXXXXXX
------------------XXXXXXXXXXXttt-------------tt-------tt---X-Xtttt----ttt---tt--XXXXXXXXXXXX-XX-XXXXXXXXXXXXXXXXXXXXXXXXt-X-ttt-tt---XX-XXXXXXX-XXXXXXX