-------------------------------------------D-----D-------------------------------------------------D-------D-------------------------------------------
-------------------------------------------D-----D-------------------------------------------------D-------D-------------------------------------------
------------------------!------------------D-----D-------------D-----------------------------------D-------D-------------------------------------------
-------------------------------------------D-----D-------------D-----------------------------------D-------D-------------------------------------------
---------------o---------------------------D-----D-------------D--------------------------D--------D-------D-------------------------------------------
--------------o---------!------------------D-----D-------------D--------------------------D--------D-------D-------------------------------------------
-------------------------------o-----------D-----D-------------D--------------------------D--------D-------D-------------------------------------------
-------------------------------#--o-------oD-----D-------------D--------------------------D--------D----D--D--D----------------------------------------
M---------o---o--o-------o----#--o-o-----o-oD----D-------------DD---------------o------------------D-D--D--DDD-------------------------XXXXXXXXXXX-----
XXXXX----##---##-##---X-##---##DDDDDDDDDDDDDDDD--D-------------DDDD------------###-----#--DDDDDDD-------D--------------SSSSSSS-DDSSSSSXXXXXXXXXXXX-----
XXXXX-----#---#-y#--##------#---------------------------D--------------------------t---#------------------------------------S--DD----tt----------------
----DD-----##--##---##-----##--------------------------D--------------------------##--------------------------------D-o------SSDD----tt----------------
---------------------#----------TT--------T------------------------------oo-------------------TT---T-------TT-------ttoo------oDD----tt----------------
--------------------------------tt--------t------------------------------oo-------t-----------tt---t--------t-------ttgggg----oDD----tt----------------
-----XXXX-----------XXXXX----TT-tt---TT---t---TT--TT--XXX--TT---TT---XXXXXXXXXX--T------TTT---tt---t---TT---t---XXXXXXXXXXXXXXXXXXXX-tt-----------XXXXX
-----XXXX----------XXXXXXXXX-tt-tt---tt--ttt--tt--tt--XXXX-tt---tt---XXXXXXXXXX--t------tt----tt--ttt--tt---tt--XXXXXXXXXXXXXXXXXXXXXtt-----------XXXXX