--------D--------------------------------------------------------------------------------------------------D-------------------------------------------
-----------------------------------------------------------------------------------------------------------D-------------------------------------------
-----------------------------------------------------------------------------------------------------------D-------------------------------------------
-----------------------------------------------------------------------------------------------------------D-------------------------------------------
-----------------------------------------------------------------------------------------------------------D-------------------------------------------
-----------------------------------------------------------------------------------------------------------D-------------------------------------------
---------------------------D-----------------------D-----------------------------------o---------------------------o--------o--------------------------
M------------o------o-o----DD----------------------D----------------------------------o-o------o------------------o-o------o--o------------------------
XXXXXXXXXXX---D-D-oD-oo----D-o-------o---oo--------D-------------TTXXXXXXXXXX--------o-o-o----o-o-----------X-X-o--o-o---D-DDDDD---------D-------------
XXXXXXXXXXXDDDDDDDDDDDDDDDDDDDDDDDDDDD---##---##-#-DDDDDDDDD-----tX-XXXXXXXXSSS--DDDDDDDDDDDDDDDDDDDDDDDDXXXXXXDDDDDDDDDDDDDDDDDDD------SS---XXXXXXXXXX
------------------------------------------#--y#----------------ott---------------------------------------X-------------------------------D-----XXXXXXXX
--------------------------------------------##-----------------ott-------------SS------------------------------------------------------DDDDDD--------tX
-------------------------TT------------------------------------#tt--------------oD-------------TT-------------T----------------------------------------
-------------------------tt------------------------------------#tt-------------ooD-------------tt------o---------------------------#-------------------
----------T---TT-----TT--tt---TT---TT----------------TT---TT----tt------------XXXXXXXTt---TTT--tt---T-----T--------TT----T-----TT-XXXXXXXXXX-----------
---------tt---tt-----tt--tt---tt--ttt----------------tt---tt---Xtt------------XXXXXXttt---ttt--tt---X--X--t---t---ttt---ttt----tt--XXXXXXXXX-----------