-----------------------D--------------------------------------------D------------DD--------------------------------------------------------------------
-----------------------D--------------------------------------------DD------------D--------------------------------------------------------------------
-----------D-----------D----------------------------------------------------------D--------------------------------------------------------------------
-----------D-----------D-------------------------------------------------------------------------------------------------------------------------------
-----------D---D-------D---------------o---------------------------------------------------------------!-----------------------------------------------
-----------D---D------DD--------------o--------------------------------------------------------------tt!-----------------------------------------------
-----D-----D---D------DD--------------#------------o------o--------------------------------------------------------------------------------------------
-----D-----D---D------DD-------------##-------------o----o-o-------------------------------------------------------------------------------------------
-----D-----D---D------DD-----XXXX----##-------------D---o-o-oDD--------------o--o---XXXXXXXXXXXXXXXXXXXXX-----------o------------XXXXXXXXXXXXXXX-------
-------D---D---D--DDD-DD--SSSSXXXX--###----------DDDDDDDDDDDSSSS------------#---##--X#XXXXXXXXXXXXXXXXXXXXXXXX-----o------#SS-#-X#XXXXXXXXXXXXXXX------
-------D---D---D-------D------------###-------------------------#--DDD-gg----#-y#--#----------------------XXXX---gggg------o-#-------------------------
-----SSDDDDDDDDD-------D---------t--##--------------------------#SDDDDDDDDD--##y--#-----------------------------DDDDDD------##-------------------------
------oDD------D-------D---------t--t#----------TT------------D-#D-------------------------------------------------------------------------------------
----MooDD------D-------D---------t---#---------ttt-----------#--o--------------------------------------------------------------------------------------
----XXXXXXXXXXXXX--TT--D---X-XXXXXXXXXXXXXXXXX-Xtt---TT-----XXXXXXXXXXXXXX------------------------------------XXXXXXXXXX-------------------------------
----XXXXXXXXXXXXXX-tt--XXXXX-XXXXXXXXXXXXXXXXX--tt---ttt----XXX-XXXXXXXXXX------------------------------------XXXXXXXXXX------------------------------X