-------------------------------------------------------D---------------------------------------D-------------------------------------------------------
-------------------------------------------------------D---------------------------------------D-------------------------------------------------------
-------------------------------------------------------D---------------------------------------D-------------------------------------------------------
-------------------------------------------------------D---------------------------------------D-------------------------------------------------------
-------------------------------------------------------D---------------------------------------D-------------------------------------------------------
-------------------D-----------------------------------D-------D-------------------------------D-------------------------------------------------------
M-----------D------D-----------------o-------oo--------D-------D-------------------------------D-----------------------------o-------------------------
X-----------D------D----------------o-o-----oo-o-------D-------D-----------DD------------------D----------------------------o-o------------------------
XXXXXXXXXXXXXD-----D-----D-----oo--o-o--D--oD-oDD-D-o--D-------D-----o-----D-------------------------------#--o------o-o--o--o-o-----o--o--------------
XXXXXXXXXXXXXDDDDDDDDDD--D-----#DDDDDDDDDDDDDDDDDDDDDDDDD------D----##-----DDDDDDD----#------------t------##----SSSSSSDDDDDDDDDD--#####XXX-------------
-------------------------D-----------------------------------D-D--g-##---------------#D--------TT-ot-------#-------------------#-y#---XXXXX-ooD--------
-------------------------DD--------------------------------DDDDDDDDDDD---------------#----D----t-oot---#---#--------------------##---------tooo--------
-------------------TT----DD-------------------TT-------TT-----------D------D------#--#----D----t---t--##----------o------------------------toooD-------
-------------------tt----DD-------------------tt-------tto----------D------D------#--#----D--------tt--#-###-----o-------------------------ttgg--------
---------------T---tt--X-XXXXXXX--TT----TT----tt---TT--XXXXXXXXXXXXXXXXXXXXX---TXXXXXXXXXXXXXXXXXXXXXX-X-XXXXXXXXX--TTT---TT---X-----------XXXXXXXXXXXX
---------------t--ttt--X-XXXXXXXX-tt----tt----tt---tt--XXXXXXXXXXXXXXXXXXXXXXX-tt-XXXXXXXXXXXXXXXXXXXX-XXXXXXXXXXXX-ttt---tt---t-----------XXXXXXXXXXXX