-------------------------------------------------------D-----------------------------------------------------------------------------------------------
-------------------------------------------------------D-------------D---------------------------------------------------------------------------------
---------------!---------------------------------------D-------------D---------------------------------------------------------------------------------
-------------------------------------------------------D-------------DD--------------------------------------------------------------------------------
-------------------------------------------------------D-------------DD-------------------------------------------------------------------o------------
---------------!---------------------------------------D-------------D---------------------------------------------------------------------------------
------------------------o--------------o-------------D---------------D----------------------------------------o-------o---------o----------------------
-------------------------o------------o-o------------DD--------------DD---o----------------------------------o-o-----o-o-------o---------#-------------
-----------------------o--o----------o-o-------------DD--------------D---o-o----------TT-----o---#-----XXXXXX-o-o---o-o-o-----o-o--------#----o-o------
--------TTXXX-------DDDDDDDDD---DDDDDDDDDDDDD--------DD--------------DD-DDDDDDDD----XXtt--####--###-XXXXXXXXXXDDDDDDDDDDDDDDDDDDDDDDDDDDDDDDDDDDDD-----
--------tt-XX--------------------------------------gDDD--g-g---------D-----------TTXX-tt-----#--##---XXXX----------------------------------------------
--------tt-------------------------------------DDDDDDDDDDDDDDD------------------------tt------#--------------------------------------------------------
--------tt------------T-------TT---------------D------D------------------------D-toooott-----------------------------TT--------TT-----T----------------
--M-----tt------------t-------tt-----------------------------------------------D-totggtt-----------------------------tt--------tt-----t----------------
X-XXXX--tt-----------XX---TT--tt----T----TTT-XXXXXXXXXXXXXXX---------TT--T----XXXXXXXXXX---------------------tt--TT--tt----TT--tt--TT--------TT--TT-XXX
--XXXXX-tt-----------tt--X-t--tt---------ttt-XXXXXXXXXXXXXX----------tt-tt----tX-XXXXX-X---------------------tt--t---tt----tt--tt--tttt-------t--tt-XXX