--------------------------------------------------------------------------------------------------------------------------------------D--------D-------
--------------------------------------------------------------------------------------------------------------------------------------D--------D-------
--------------------------------------------------------------------------------------------------------------------------------------D--------D-------
--------------------------------------------------------------------------------------------------------------------------------------D--------D-------
---------D----------------------------------------------------------------------------------------------------------------------------D-------DD-------
--------DD----------------------------------------------------------------------------------------------------------------------------D-------DD-------
--------DD-----------D-------------------------#------------------------------------------------------------------------------o---------------DD-------
M--------D-----------D---------------------o---#-----------o-----------#-----------oo----------------------------------------o-o--------------DD-------
XXXXXXX-DD-----------D-D-------#--#-------oo--##----------o-o---o-----##--------o-Do-o-------X--Xo-------------oo-----------o-o-o-------------DD-------
XXXXXXX-DD--DD-------DDDDD----##--#---##--DD--#D---SSSSDDDDDDDDDD#----##---DDDDDDDDDDD--##--XXXXXXTT---#-##---##D--------DDDDDDDDDD-----------DD---D---
------------------------------##--##------------------------------##--##----------------##-----XXXtt--#----#-y#----TToo--------------------------------
------------------------------##--##------------------------------##--##----------------##--------tttD------##-----ttoo--------------------------------
-------------D--------TT------##--#---------T-------------T-----------#--------T------#-##--------ttt--------------ttoo------------------t---TT--------
------------o---------tt------##--#---------t-------------------------#--------t-----##-##--------ttt--------------ttg---------t---------t---tt----#---
------XXXXX-XX-XXXXX--tt--TT--X#--X-----TT--tt---T----TT------TT-----------TT---TTT--XX-XXX-----XXXXXX-X---------XXXXXXX-------t---------t---tt--TTXXXX
----XXXXX---XX-XXXXXXXtt--tt--XX--X-----tt--tt-XXtt---tt--tt--tt-----------tt--ttt---XX-XXX-XXX-XXXXX--X-------XXXXXXX-X-------t---------tt--tt--tt-XXX