-----------------------------------D---------------D------------DD-------------------DD-------------------------------------------------------D--------
-----------------------------------D---------------D-------------D-------------------DD-------------------------------------------------------D--------
-----------------------------------D---------------D-------------D-------------------D-----------------------------------------------------------------
-----------------------------------D---------------D-------------D-------------------D-----------------------------------------------------------------
-----------------------------------D---------------D-------------D-------------------D-----------------------------------------------------------------
-----------------------------------D-----------------------------D-------------------D-----------------------------------------------------------------
-----------------------------------D-----------------------------D-----D-------------D-----------------------------------------------------------------
M----------------------------------D-----------o-----------------D-----D-------------DD------------o---------oo----------------------------------------
XXXXXXX----------TTT--XXXXXX-o-----D----------o-o-----TT---------D-----D-------o-----DDD----oo----ooo----------------o-o---------------D---------------
XXXXXXX--#D-XT---tt---XXXXXDDDDDDD-DDDDD---DDDXX-TTT-ott--------DD-----D-----DDDDDD---D------##---##--#---##-##-D#---###XXXXXXXXXXDDDDDDD--------------
--------y#--ttToott-----------------------------XtttXott-------DDD-----D--------------D--D--D--#-y##--#--##----------#-----XX--------------------------
--------#----ttoott------------------------------tttoott----DDSDDDDDDDDD--------------DDDDDDD---##------#----------------------------------------------
-------------ttoott-------------------TT---------ttTooot------oDD------D-------------------------------------------------------------------------------
-------------ttggtt-------------------t----------tttggtt------o-D------D---------------------------------------------------------------t---------------
------------XXXXXXXXXXXXXXX----TT-TT---t----TT--XXXXXXXXXXXXXXXXXXXXXXXXXXXXXTX--t---XXXXXXXXXX------------------TT------------TT------tt-----------XX-
------------XXXXXXXXXXXXXXXX---t--tt-tttt---tt--XXXXXXXXXXXXXXXXXXXXXXXXXXXXXXX-Xtt--XX-XXXXXX-X-----------------tt------------tt------tt-----------XXX