-----------------------D---------D-----D---------------------------------------------------------------------------------------------------------------
-----------------------D---------D-----D---------------------------------------------------------------------------------------------------------------
-----------------------D---------D-----D---------------------------------------------------------------------------------------------------------------
-----------------------D---------D-----D---------------------------------------------------------------------------------------------------------------
-----------------------D---------D-----D------------------------------o--------------------------------------------------------------------------------
-----------------------D---------D-----D-----------------------------o---------------------------------------------------------------------------------
M----------------------D---------DD----D---------------o------------X#---------------------------------------------------------o-----------------------
X----------------------D----------D----D--------------o-o---------------------------------------------------------------------o------------------------
XXXXXX-----ooo--o------D-----D----D----D---------------o-o------o------DD--------o---##--#-------o--X-----------------##-XXXXXXXXXXXXXXX-o-o-----------
XXXXX--o-D####--#####--D-----DD-DDDDDDDDSSSTDDDDDDDDDDDDDDDDDDDDDD--------------##---##-##------##----SSSSS-----------##-XXXXXXXXXXXXXXXDDDDD----------
-------#-------y#------D-------------------t-------------------------------------#---##-##-----###-----------DD----TT-#--------------------------------
-------#------##-------D-------------------tto------------------------------DDD--#---##-###-----##---------SSDD----tt----------------------------------
------T-----------------------TT---D-------tto-------------------#--o--------D-------##-###---#--#----o----ooDD----tto-----tT----------TT--------------
------tt----------------------tt---D-------ttg------------------##---o---------------##-###---#--#---#ogo---oDD----toDD----tt----------tt----------#---
------tT--T----------------T--tt---TXXXXXXXXXXXXX---TT---T---T--XXXXXXXXXXXXX--------XX-TXX---X--XXXXXXXXXXXXXXXXXXXXXXXXXXtt------TT--tt------XXXXXXXX
------tt--t---------------XX--tt---tXXXXXXXXXXXXXXX-tt--tt--ttt-XXXXXXXXXXXXXX-------XX--X----X--XXXXXXXXXXXXXXXXXXXXXXXXXXtt------tt--ttt----XXX-XXXXX