-----------------------------------------------------------------------------------D---------------D---D-------------------------------D---------------
-----------------------------------------------------------------------------------D---------------D---D-----------------------------------------------
-----------------------------------------------------------------------------------D---------------D---D-----------------------------------------------
-------------------------------D---------------------------------------------------D---------------D---D-----------------------------------------------
-------------------------------D---------------------------------------------------D---------------D---D-----------------------------------------------
-------------------------------D-----------------------------------------------------------------------D-----------------------------------------------
-------------------------------D-----------------------------------------------------------------------D-----------------------------o------o----------
-------------------------------D-----------------------------------D-----------------------------------DD-----------------oo-o------o-o----o-o---------
---------------X-----------D---D-------o----------o------o---------DD--------o-----------------------o-D---------D-------o--o--------o-o--D-o-o-o------
MXXXXXXXTTXXXXXX--SSSSSSSSSDSSSSSS----###-----#--######--XTTTXXXXXXXXX------o-TTXXXXX-----#---------o--DD-XDD----D----D-DDDDDDDDDDDDDDDDDDDDDDDDDD-----
XXXXXXXXttXXXXXX-----------D---------X##--##--#-y#-------XXttXXXXXXXX-----TTXXttXXXXXX----#------TTo-o-X--X--X---D-------------------------------------
-------ttt-----------o---SSD-------tt##----#--###---------ttt-------------tto-tt-------#--##-#---tt---tt-------S-D-------------------------------------
-------ttt----------oo---ooD-------tto--------t#----------ttt--------D----tt--ttt------#--###---#tt--ttt---------D---------TT------------------TT---#--
--------tt---------ooo---ooD-------ttg---------#----------ttt--------D----tt--ttt------#--#--#--#tt---tt--------oD---------tt------------------tt--##--
-----XXXtXXXXXXXXXXXXXXXXXXXXXXXXXXXXXXXX--XX-XXXXX---TT--ttt--------X----tt---tt------X-XXXXXXXXXXXXXtt--------XXX----TT--tt--TT----t------T--tt--XXXX
----XXXXtX-XXXXXXXXXXXXXXXXXXXXXXXXXXXXX---XXXXXXXXXX-tt--ttt--------X-X--tt---tt------X-XXXXXXXXXXXXXXX---------XXX-X-tt--tt--tt---tt------t--tt--XXXX