-------------------------------------D-------------------D---------------------D-----------------------------------------------------------------------
-------------------------------------D-------------------D---------------------D-----------------------------------------------------------------------
-------------------------------------D-------------------D---------D-----------------------------------------------------------------------------------
-------------------------------------D-----------------------------D-----------------------------------------------------------------------------------
-------------------------------------D-----------------------------D-----------!-----------------------------------------------------------------------
---------------------o---------------D-----------------------------D-----------!--o--------------------------------------------------------------------
-------o-------------o---------------D-----------------------------D-----------------------------o-----------------------------------------------------
M------oo----------------------------D-----------------------------D---------------------o-----------o-----------#-------------------------------------
XXXXXXXX-o---------------------D-----D---------XXXXX-------------D-D---------------t-----XTTXXXXXXXXXXX-X--------------------XXXXXXXXXXXXXXXX#---------
XXXXXXXXXDDD-------oo----------T-----DDDDD##XXXXXXXXXXX------D----DD--------SSSSX---SSSSXXttXXXXXXXXXXXXXXXT------DDDDDDDD--XXXXXXXXXXXXXXXXD##--------
----------------TTXoott--X-----t-------------XXXXXXXXXX-D-g-gDD-D--D---------DooD------XXttt----------XXXXtt-------------------------------------------
----------------ttooot--------tt----------------------DDDDDSSDD--D-D---------DS-D------D--ttt-------------ttt------------------------------------------
---------TT-----ttooot-------oot----------------------------DDD--DDD---------to-D---------ttt-------------ttt------------------------------------------
---------tt-----ttgggt-------ott-----------------------------D---DDD---------tt-D#----tt--tt---------------tt-----------------------------------o------
-----TT--ttXXXXXXXXXXXXXXXXXXXXXXX--T-----------------XXXXXXXXXXXXXXXXXXXXXXXXXXXXXXXXXXX-ttt--------------tt---TT----TT---------------------------XXX-
-----tt--ttXXXXXXXXXXXXXXXXXXXXXXXX-t-----------------XXXXXXXXXXXXXXXXXXXXXXXXXXXXXXXXXXXXttt--t-----------tt---tt----tt----------------------X---XXXX-