-------------------------------------D---------------------------------------------------------------------------------D--------------D----------------
-------------------------------------D---------------------------------------------------------------------------------D--------------D----------------
-------------------------------------D---------------------------------------------------------------------------------D--------------D----------------
-------------------------------------DD--------------------------------------------------------------------------------D--------------D----------------
-------------------------------------D--------------------------o------------------------------------------------------D--------------D----------------
-------------------------------------D-------------------------o-------------------------------------------------------D-------------------------------
-------------o-----------------------D-------------------------#---------------o----o------o---------------------------D-------------------------------
------------o-oo--------o------------D------------------------##--------------o----o-o----o-o--------------------------D------o------------------------
M----------D-DD-o-D--o-o-o-----o------XXXX-------------o------##----XXXXXXXXXD-o---Do----o-o-o--o------------oo-o------D-----o-o-----------------------
XXXXXX-DDDDDDDDDDDDDDDDDDDDD--XTTXXXXXXXXXSSSSD-DDDDDDDD------##--XXXXXXXXXXXDDDDDDDDDDDDDDDDDDD##S-##-DDT--SSSDD######DDDDDDDoDDDDDDD---tt--DD--------
XXXXtt-------------------------ttXXXXXX--------------------#--##------------------------------------X----t-----t----------------------Toott------------
-----t-------------------------tt--------------------------#--##---------------------------------##----o-tt----t---------------------ttoott------------
-----tTT----TT-----------------tt------------o------------##--##---------------T---TT------------#-----o-tt----t-------------T-------ttoott----TT------
-----tt-----tt-----------------tt-----------o-------------##--##---------------t---tt-----------##-----o-tt----tt------------tt------ttggtt----tt------
------tt----tt--TT----tt---T---tt-------XXXXXXXXXXXXXXXXXXXXX-XXXXXXX----------XX--tt--TT--------XXXXXXXXXXXXXXXX-----T------tt---T--tt-Xtt----tt---T--
------tt----tt--tt----tt--tt---tt-------XXXXXXXXXXXXXXXX--XXX-XXXXXXXX-----XXXXtX--tt--tt--------XX-XXXXXXXXXXXXX-----t------tt--tt--tXXXtt----tt---t--