-------------------D-----------------------------------------------------------------------------D---------D--------------------------------D----------
--------------------------------------D----------------------------------------------------------D---------D--------------------------------D----------
--------------------------------------D----------------------------------------------------------D---------D--------------------------------D----------
--------------------------------------D----------------------------------------------------------D---------D--------------------------------D----------
-------------------------------------DD--------------------------------------------------------------------D--------------------------------D----------
-------------------------------------DD----------------------------------------------------------D---------D--------------------------------D----------
-------------o-----------------------DD----------------o------------------------------------------D--------D--------------------------------D----------
M----------o---o-o-------------------DD---------------o-o--------------o------D----------#-------D---------D--------------------------------D----------
XXXXXXXXXXX--D--o--------------------DD--------------o-o-o-----DD-----o-o----o------DD---D-------DD----o---D------oo---D----XXXXXXX-----o---DD---------
XXXXXXXXXXXDDDDDDDDDDD----------------DD---------DDDDDD-D-D----DD----DDDDDDDDDDDDDSSSS--D#------#DD---##--#D------##--###XXXXXXXXXXXDDDDD---DDDDD------
------------------------D-DD----g-ggDDDD-----------------------DD--D-----------------tSSDD------#------#----------#--y#--XXXX--------------------------
-------------------------SDDDDDDDDDDDDDD-------------------DDDSDDDDD------------------DoDD-----###-----#------------##---------------------------------
---------------------------D----------DD------------------#---o-D--------------TT----ttoDD------#--------------------------------------TT-----------#--
--------------------------------------DD------------------#---o----------------tt----ttooD---##-#--------------------------------------tt----------#---
--------------TTT----TT--XXXXXXXXXXXXXXD---------t---TTT-XXXXXXXXXXX-TT----TT--tt---XXXXXXXXXXXXXXX--------------------------------TT--tt---TT----XXXXX
---------------tt--X-tt--XXXXXXXXXXXXXXX---------t---ttt-XXXXXXXXXXXXtt-----t--tt---XXXXXXXXXXXXXXX--------------------------------tt--tt---tt-tX--XXXX