-------------------------------D---------------------------------D-------------------D---------------DD------------------------------------------------
-------------------------------D---------------------------------DD------------------DD--------------DD------------------------------------------------
-------------------------------D---------------------------------DD------------------DD---------------D------------------------------------------------
-------------------------------D-----------------------o----------D-------------------D---------------D------------------------------------------------
------------------------------------------------------o-----------D-------------------D---------------D------------------------------------------------
M-----------------------------------------------------------------D-------------------D---------------D------------------------------------------------
XX----------------------------------------------------------------D--------------o----D---------------------------o--------------------o-------#-------
XXXX--------o-----------o----------------------------#------------D-------------o-o---D--------------------------o-o------------------o-o------D-------
-XXXXXX-----------------o-----------------X-----------------------D--------------o-o--XXXXXXXXXXX-----X-XX------o-o-DDD-D-o------------o-o----##-------
----XXXSSSSSSSSSSSSSSSS###----#XXXXXXXXXXXXX---------#---#--------D-DDSSS--D--DDDDDDDXXXXXXXXXXXXX###XXXXXX--DDDDDDDDDDDDDDDDD---DDDDDDDDDDD---##--#---
---------------------D----------XXXXXXXX---------T---##-----------D------------------------------t-------X------------------------------------##---#---
----------S-------SS-D---------------------------t---##-#----DD---------------TT--------------------------------------------------------------##---##--
----------ooT-----ooo-------------------------Toot---#--#-----------TT--------tt-------------------------------------------T--------TT---------#---##--
----------ootg----ooo-------------------------toot--##--oo-----------t--------tt---t---------------------------#-----------t--------tt---------#---##--
-------T-XXXXXXXXXXXXXXXXX----------------TT--tXXXXXXXXXXXXXXXX-----tt---TT---tt---tt-------------------------#X----TT----tt---TT---tt--TT-----X---XXXX
-------XXXXXXXXXXXXXXXXXXXX---------------tt--tXXXXXXXXXXXXXXXXX----tt---tt---tt---tt--------------------------t----tt----tt---tt--Xtt--tt-----X---XXXX