--------------------------------------------------------------------------------------------------------D-----D----------------------------------------
--------------------------------------------------------------------------------------------------------D-----D----------------------------------------
-------------------------------------------------------------#------------------------------------------D-----D---------------------------------o------
-------------------------------------------------------------------------------------------------------DD-----D--------------------------------o-------
-----------------------o-------------------------------------------------------------------------------DD-----D----------------------------------------
----------------------o--------------------------------XXXttttttt--------------------------------------D------D-------------------------------o--------
-------------------------------------------------o-------------------------------------------oo--------D------D------------------------------o---------
M--------------------------------------------------------------------------------------------o-o-------D------D---o------------o-------------#---------
XXXXXXXXX--------------------D--X----------D--------XXXXXXXXXXXXXXXXXXXXXXXXXXXXXXXXXXXXXXX-o-o-D-DDDo-D--------DD-o----------o-o--o-o-------##-------D
XXXXXXXXX------------#SS-##T#XXXXXTXXXXXXSSD------#D-XXXXXXXXXXXXXXXXXXXXXXXXXXXXXXXXXXXXXXDDDDDDDDDDDDDDDDDDDDDDDDDDDDDDDDDDDDDDDDDD-S--##--##-------X
----------------##---------t--XXXXtXX------D-----#-----------------------------------------------------------------------------------#-------##--------
-------------#--#------#----------tt-------D-----#-----------------------------------------------------------------------------------##------#---------
------------##--#-----------------tt-----ooD-----#----------------------------------------------------TT------------------------TT---##--------o-------
-------------#--#----o------------tt-----ooD----#-----------------------------------------------------tt------------------------tt---##----#--ooo--#---
-----------XXXX-XXXXX-------------tt---XXXXXXXXXXXXXXXX--------------------------------------T---TT---tt---TT------TT--TT----TT-tt---XXXXXXXXXXXXXXXXXX
------------XXXXXXXXXX------------tt---XXXXXXXXXXXXXXXXX-------------------------------------tt--tt---tt---tt-t----tt--tt----tt-tt---XXXXXXXXXXXXXXXXXX