-----------------------D-------------------------------D-----------------------------------------------------------------------------------------------
-----------------------D-------------------------------D-----------------------------------------------------------------------------------------------
-----------------------D-------------------------------D-----------------------------------------------------------------------------------------------
-----------------------D-------------------------------D-----------------------------------------------------------------------------------------------
-----------------------D-------------------------------D-----------------------------------------------------------------------------------------------
-----------------------D-------------------------------D-------------------------------------------------o-------------------------------------D-------
-----------------------D-------------------------------D------------------------------------------------o---------------------------o----------D-------
M----------------o-----D---------------o---------------D------------------------------o-o--------------o-o-------------------------o-o---------D-------
XXXXXXXXXXX--o--D-o----D---------o-----o---------------D---------------------------o-o-o-o-----oo-----o---------------------o-o-----o-o--o----DD-------
XXXXXXXXXXDDDDDDDDDDDDDDDDDDDDDDDDDDDDDD--D----#--#T#--DXXXXXXXXXXXTT-o-##-----SSSSDDDDDDDDDDDXXX--------DDDD--DDDDDDD###DD#####DDDDDDDDDDDDDo-D-------
------------------------------------------S---D--Xtt---DXXXXXXX--XXttX--##-------------------XXXXt---------------------------------------------D-------
-------------------------------------------#S-D---tt---------------tt#--##----------------------tt----------------------------------------too--D-------
-----------------TT------------------TT------SD---tt---------------tt----------------TT----------t---------------------------------------Ttooo-D-------
-----------------tt------------------tt-----ooD---tt----------------tt---------------tt---------tt---------------------------------------tt-g--D---#---
------------TT---tt---TT-------T-----tt----XX-XX--tt-------------XXXXXX----------TT--tt---T-----tt---TT--TT----TT--------------------TT--tt--XXXXXXXXXX
------------tt---tt---tt---t---tt----tt---XXXXXX--tt-------------XXXXXX----------t---tt---------tt---tt--tt----tt--------------------tt--tt--XXXXXXXXXX