----------------DD-------------------------------------------------D----------------------------------------------------------------D------------------
----------------DD-------------------------------------------------D----------------------------------------------------------------D------------------
----------------DD-------------------------------------------------D-------#--------------------------------------------------------D------------------
-----------------D-------------------------------------o-----------D-------------------o--------------------------------------------D------------------
----------------DD------------------------------------o------------D------------------o---------------------------------------------D------------------
----------------DD---------------------------------------------------------t----------o---------------------------------------------D------------------
-----------------D-----------------------------------#--------------------------------#-----------o---------------------------D-----D-----------o------
M----------------D-------------DD--------------------#-------------------------------##----------o--o-------------------------D-----D-----D----o-o-----
XXXX-------------D---D---------DD---------------##--##--o-o---------o---o-XX--##--X--##---------o--o-o-----------TT------o----D-----D-----D---o-o------
XXXXXXXX---------D---D----------D-------TToo----##--##--##DDDDDDDDDDD---#D##X-##-XX--##----DDDDDDDDDDDDDDD------ottXXXXXXXo--DD-----DD----DDDDDDDDD----
----XXX#-D-------D---D----g-Dgg-D------D-t#-----##---#-y#-----------##-y#-----#------------#-----------------TToott-XXXXXX----D-D-g-DD-----------------
-------DDDDDDD--DD--DD--DDDDDDDDDDDDDDDDDtD-----#-----##-------------###-------------------#-----------------ttoott----------DDDDDDDD------------------
-------------D---D-DDD----------DD-------tD---#-#-----------------------------------------##---TT------------ttoott----------------DD-----TT--------T--
------------oD----ooDD----------D---------D---#-------------------------------------------#t---tt-------tt---ttggtt-----------------D-----tt--------t--
--------XXXXXXXXXXXXXXXXXXXXXXXXXXXXXXXXXXXXXXX---------------TTT----------------------X--XXT--tt---TT--XXXXXXXX-tX-----------XXXXXXXXXXXXXX---TT--t---
--------XXXXXXXXXXXXXXXXXXXXXXXXXXXXXXXXXXXXX-X---------------tt-----------------------X--XXt--tt---tt--XXXXXXXXXtX------------XXXXXXXXXXXXtt--tt--t---