-------------------------------------------------------------------------------------------------------------------------------------------------------
-------------------------------------------------------------------------------------------------------------------------------------------------------
-------------------------------------------------------------------------------------------------------------------------------------------------------
-------------------------------------------------------------------------------------------------------------------------------------------------------
---------------------------------------------------------------------D---------------------------------------------------------------------------------
---------------------------------------------------------------------D---------------------------------------------------------------------------------
M--------------o----------------------------------------------o------DD------------o----------D--------------------o------------------o----------------
X-------------o#---------------------------------------------o-o-----DD-----------o---------------------o---------ooo---------D-------#----------------
XXXXXXXXXXXX--##--------------------------------------------o-o-o----D----DD-----o-o----------DD-------o--------o--o-o---o----D------##----------------
XXXXXXXXXXXXX-##-SSSSSD---------------------------------DDDDDDDDDDDDDDDDDDDDDDDDDDDDDDDD------DD------o#-------DDDDDDDDDDDD---D------##--D-------------
X--------------#--------------------------D----------------------------------------------------D------##----------------------D------##--#---##--------
----------------------D---##---D--SD----DDD----------------------------------------------------D------##---------------------#D------##--D---##--#-----
---------------------oD---#---##---D-------------------------T---T-----D---------TT------------DD-----##---------------------#D------##---#--##--#-----
----oo--------------ooD--###--#---oD-------------------------t---t-----D---------tt-------oo---DD-----#----------------------#D-------#------##--##----
----XXXXXXXXX--XX-XXXXXXXXXXXXXXXXXXXXXXXXXXXXXXXXXX----TT---t---t---TT-DT---TT--tt----TT--XXX-XXXXX--X--------T---TT---T---XXXXXXXXXXXXXXX--XX-XXXXXXX
----XXXXXXXXXXXXXXXXXXXX-XXXXXXXXXXXXXXXXXXXXXX-XXXX----tt---tt--t---t--tt---tt--tt----tt--XXX-XXXXX--X--------t---tt--tt---XXXXXXXXXXX-XXX--XX-XXXXXXX