---------------------------D---------------------------------D-----D---D-----------D-------------------------------------------------------------------
---------------------------D---------------------------------D-----D---D-----------D-------------------------------------------------------------------
---------------------------D-------------------------D-------D-----D---D-----------D---------------------------!---------------------------------------
---------------------------D-------------------------D-------DD--------D-----------D-------------------------------------------------------------------
---------------------------D-------------------------D-------D---------------------D-------------------------------------------------------------------
---------------------------D-------------------------D-------D--------tt-----------D--------------------------------------------------D----------------
--------o------------------D-------------------------D-------D---------------------D--------------------------------------------------D----------------
M------o-o-----------------D-------------------D-------------D---------------------D------------X------------------------oo-----------D---------o------
XXXXXXXXo-o------------D---D-------------------D------D------D-----XXXXXXXX---o--ooD---------XXXXXXXX---------T--D---X--X-X----------DD--o-o---o-o----X
XXXXXXXXDD-D----------SSSSSSSSSSSSS---DSS------D------D--o---D---#-XXXXXXXX-##--##-t---#---------------------Dt-##--XXXXXXXXX--------DD--DDDDDDDDDDD-tt
------------##----#--------------SS---D--------D-D-g-g-DD----##-##-----------#--#--tt--X---------------------#t-#------XXXXXX--------DD----------------
-------------##---##--------------SSS-D-----DDDDDDDDDDDDDD---##-##-----------##----tt----t-------------------#t--------------------#-D-----------------
------------------##--------oo------oDD--------D-----DD------##-##-----------##----tt----too-----------------tt-----------------o-#D-DD--------TT------
------------------#---------ooo-----oDD---------------D----t-##-##-----------------tt----too-----------------tt----------------oo##---D--------tt------
--------TT--------#X-----TXXXXXXXXXXXXXXXXXXXXXXXXXXXXXXXXXXXXX-XX----------------XXXXXXXXXXXXXXXXX------TXXXXX--------------XXXXXXXXXXXX--TT--tt------
--------tt---------X-----t-XXXXXXXXXXXXXXXXXXXXXXXXXXXXXXXXX-XX-XX----------------XXXXXXXXXXXXXXXXXXX--XtXXXXXX---------------XXXXXXXXXXXX-tt--tt------