-------------------------------------------------------------------------D--------------------------------------------------------D--------------------
-------------------------------------------------------------------------D--------------------------------------------------------D--------------------
-------------------------------------------------------------------------D--------------------------------------------------------D--------------------
-------------------------------------------------------------------------D--------------------------------------------------------D--------------------
-----------------------------------------------------------D----------------------------------------------------------------------D--------------------
-----------------------------o-----------------------------D-------------D--------------------------------------------------------D--------------------
----------------------------o-o-----o----------------------D--------------D------------oo---------------------------------------o-D--------------------
-----------------------------o-o---o-o---------------------D----------o---D------------ooo------------------------------------oo-oD--------------------
M-XXXXXXXXXXXX---o------------o-D-D-o-o----------D---------D-------TTX-----o--D-o-o--Do-oD-----#------o-----------------D-D--o-DoDDD--o-o----XXXXXXX---
XXXXXXXXXXXXX##--###D-------DDDDDDDDDDDD--##---###---D-----D--TT-XXttX--DDDDDDDDDDDDDDDDDDD-DD##--##DDDDDDSSSSSS--DDDDDDDDDDDDDDDDDDDDDDDDD--XXXXXX----
XX------------#-y#----------------------------y---------------tt-oott----------------------y#--X--##---------------------------------------------------
---------------##---------------------------###-------D-------ttooott----------------------#-----------------------------------------------------------
----------------------------TT-----------------------oD-------tt---tt----------------T----------------------------------------TT-----------------------
----------------------------tt----------------------oDD----t--tt---------------------t----------------------------------------tt-----------------------
--------------------XXXXXXXXXX--TT---------------XXXXXXXX--t--tt----T--TT-----TT-----tt--t-----------TT--t---TT---TT------TT--tt---TT--TT--------------
--------------------XXXXXXXXXXX-tt---------------XXXXXX-X-tt--ttt---t--ttt----ttt----tt--t-----------tt--t---tt-X-tt---X--tt--tt---tt--tt--------------