-----------D-------------------------------------D-------------------------------------D-------------------------------------D-------------------------
-----------DD------------------------------------D-------------------------------------D-------------------------------------D-------------------------
-------------------------------------------------D-------------------------------------D-------------------------------------D-------------------------
-------------------------------------------------D-------------------------------------D-----------o-------------------o-----D-------------------------
------------D------------------------------------D-------------------------------------D----------o-------------------o------D-------------------------
------------D------------------------------------D-------------------------------------D------------------------------#------D-------------------------
---------------------------------------D---------D-------------------------------------D---------#-------------------##------D------------------o------
-M--------------------o-----------------o----o---D-------------------------------------D---------#-------------------#-------DD-----------o----o-o-----
-XXXX----XXXXXXX#XXXXX-o---X-----XXXXXX--D--o-o--D-------o------TTT--------TT----------D--------##-------------------#--------D--------o-o-D--D-o-o----
-XXXXDDDDXXXXXXXXXXXXXX#X-XX##XXXXXXXXX-DDDDDDDDDDDDD---o-o--T-ottt--------tt--#-XXXXX-D--------##---------SSSS------##--#--------DDDDDDDDDDDDDDDDDDD--
-----------------------t--XX--------------------------DD-o---TToott---STSo-tt--XXXXXXX----D--#--##-------#-----------##--##----------------------------
--------------------------#----------------------------DDDD--ttoott----SSoDtt------------------------oD--##-----S#---##--##----------------------------
------TT---------------------------------------TT------------ttoot------ooDtt----------------t------ooD--##-----to#--##--##-------------TT-------------
------tt---------------------------------------tt------------ttggt------ooD-t----------------tt-----ooo-###------o#--##-###--o----------tt-------------
------tt-----------------------------------TT--tt---TT---XXXXXXXXXXXXXXXXXXXXX---T----XXXXXXXXX-XXXXXXX-XXXXXXXXXXX--XX-XXXXXXXX---TT---tt----TT-------
------tt--------------------------------X-ttt--tt---tt---XXXXXXXXXXXXXXXXXXXXX---t----XX-XX-ttX-XXXXXXX-XXXXXXXXXXXXXXX-XXXXXXXXXX-ttt--tt----tt-------