---------------------------------------------------------D--------------------------------------------------------D------------------------------------
---------------------------------------------------------D--------------------------------------------------------D------------------------------------
---------------------------------------------------------D--------------------------------------------------------D------------------------------------
-------------------------o-------------------------------D--------------------------------------------------------D------------------------------------
---------------------------------------------------------D--------------------------------------------------------D------------------------------------
-------------------------D-------------------------------D--------------------------------------------------------D------------------------------------
-------------------------D-------------------------------D-----------------------------------------------o--------------D------------------------------
--------o----------------D-------------------------#---------------------------o------------------------o-o------------DD------------------oo----------
-------M-o---------------D---------------D#-------##-----------o--o------------#-----XXXXXXX-----XXXXXXXXo-o---XX------DD--------TT-------X------------
-------XXXXXXXXTXXXDDDDDDDDDDD-DDD-------##----#--##-----SSSSS-D-###--#--------#-TTXXXXXXXXXXXXXXXXXXXXXXXDDDDDXXXXX----D--X-TTXXttXXXXXXXXXX-XD-------
----------tXXXttXX--------------------D--D#----#--##-----------D-----y#----------tt----------XXXX-----------------XX----D----ttoott---ttXXXXX--D-------
----------t---tt----------------D----DDSSD#---##--##---------SSD----##-----------t--------------------------------------D----ttoott------------D-------
------TT--t---tt-----T----------TT-----o-DD---##--##----------oD----------------tt----------------------------------too------ttoott---tt---------------
------tt--t---tt-----t----------Dt-----ooDD#--##-###------g---oD---------------ttt----------------------------------oo-------ttggtt---tt-----------#---
------tt--tt---TT----t----TT----XXXXXXXXXXXXX-XX-XXXXXXXXXXXXXXX------------T--ttt---------------------TT----------XXXXXXXXXXXXXXXXXX-tt--------XXXXXXX
------tt--tt---tt----tt---tt----tt--XXXXXXXXX-XX-XXXXXXXXXXXXXXX---------XX-t--Xtt---------------------tt-----------XXXXXXXXXXXXXXXXXXtt--------XXXXXXX