---------------------------------------------------------------------------------------------------D-----------DD--------------------------------------
---------------------------------------------------------------------------------------------------D-----------DD--------------------------------------
---------------------------------------------------------------------------------------------------D-----------DD--------------------------------------
---------------------------------------------------------------------------------------------------D-----------DD--------------------------------------
---------------------------------------------------------------------------------------------------D-----------DD--------------------------------------
---------------------------------------------------------------------------X-----------------------D-----------DD--------------------------------------
---------------------------------------------o-------------------------------o---------------------D-----------DD--------o-----------------------------
-------------#----------------------------------------------------------------o--------------------D-----------DD-------o-o----------------------------
------------##-------------o----oooo--ooo-----XXXXXXXX-----o---oo----------XXX-o-------------------D------------D------o-o-o----o----------------------
------------##---SSS-------###-#####-###D#DXXXXXXXXXXXXXXXXXX---##---###-SDDXXDDSS---D-------------SSSS-SD------D----DDDDDDDDDDD-T-------------D-------
--T--D------##---#------gg--tt----##-y#--XXXXXX-----XXX----X##-y##-X#----------------D-------------------D---D-DD----------------tt--------------------
--t--D------##-----SSDDDDDDD-------##-------------------------##--##--------------SSSD----------------SSDDDDDDDDDDDD-------------tt---D----------------
-MtD-D------##-------D-------------------------------------------------------------ooD----------------ooDD---D------------------ott--oD------TT--------
-#-oDD------###--------------------------------------------------------------------ooDD-------o-------ooD----------------------ottt--D-------tt--------
----XXXXXXXXXXXXXXXXXXXXX----------------------------------------------------TT---XXXXXXXXXXXXXXXXXXXXXXXXXXXXXXXXXX-TT----TT--XXXXXXXXXXXXX-tX--TTXXXX
---XXXXXXXXXXXXXXXXXXXXX-----------------------------------------------------tt--XXXXXXXXXXXXXXXXXXXXXXXXXXXXXXXXXXXXtt--X-tt--XXXXXXXXXXXXXXtX--tt-XXX