-----------------------------------------------------D-------------D---------------------------------------------D----D--------------------------------
------------------------------------------------------D------------D---------------------------------------------D----D--------------------------------
-----------------------------------------------------D-------------D---------------------------------------------D----D--------------------------------
------------------------------------------------------D------------D---------------------------------------------D----D--------------------------------
----D------D-------------------------------------------------------D---------------------------------------------D----D--------------------------------
---DD------D-------------------------------------------------D-----D------------------------------------------D---D---D--------------------------------
----D-----DD-------------------------------------------------D-----D-------D-----o-----o----------------------D-------D------------------o-------------
M--------o-o-------------------------------------------------DD----D--#D--##------o---o-oo--------------------D------DD-----------------o-o------------
XXXXXXX-D-D-D-D--------XXXXX-----TT--------------------------DD-------#---#-----DDDDDDDo-DD------------------DD------DD-------D------DDo-oDDD----------
XXXXXXXDDDDDDDDD--------X---S-oo-ttX---XX------#-------------D--------##y#-DDDDDDDDDDDDDDDDDDDD---------#DD--DD------DD-DDDDDDDDDDDDDDDDDDDDDDD--------
-XXX-------------------------TooottXXXXXXX----##--#----------DD-------##--------------------------gg-g-g------D-DDD--DD--------------------------------
----------------------------ttooott-----------##--#----D-----DD-------#-------------------------DDDDDDDD------D--D-------------------------------------
----------------------------ttooott-----------##-------D-----DD-------##-------TT-----TT------D---------------------------------------T---T------------
----------------------------ttgggtt-----------##-------D-----DD----#--##-------tt-----tt------o---------------------------------------t--tt--------#---
--------T------TT------X-XXXXXXXXXXXXXXXXXXX--XXXXXXXXXXXXXXXXXXXXXXX-XX----T--tt--T--tt---TTXXXXXXXXXXXX--TT---TT----------------TT--t---t---X-XXXXXXX
--------t-t----tt------X-XXXXXXXXXXXXXXXXX-X--XXXXXXXXXXXXXXXXXXXXXXX-XX----t--tt--t--tt---ttXXXXXXXXXXXXX-tt---tt-----------tt---tt--t---tt--X-XXXXXXX