-------D-----------------------------------------------------------------------------------------------------------------------------------------------
-------D-----------------------------------------------------------------------------------------------------------------------------------------------
-------D-------!---------------------------------------------------------------------------------------------------------------------------------------
-------D-----------------------------------------------------------------------------------------------------------------------------------------------
------DD-----------------------------------------------------------------------------------------------------------------------------------------------
------DD-------!-----------------------------------------------------------------Xtt------------------------X-!----------------------------------------
------DD------------------------o-----------------------------o------------------------------------o-------------------------------------o-------------
M-----DD---------------------o-o-o------o-o------------------o-o-----------------------------o----o-o----------------------------------oo-oo-----------
XXXXX-DD-------XX---##---o--o-o-DDDDDDDDDo-o------------------o-o-------XXXXXXXXXXXXXXXXX---o-o--o-o--D-----XXXXXXXXXXXX------o-------DDDD--D----------
XXXXX-DD---DDDXXXXX-##--#DDDDDDDDDDDDDDDDDDDDD-------o------DDDDDD-------XXXXXXXXXXXXXXXXXXDDDDD----DDDDDDDDXXXXXXXXXXXSSSSSSD##DDDDDDDDDDDDDDDDD------
-------D------------##---------------------------T---#-------------------------------------------------------------------------------------------------
-------D------------##--------------------------#tt-##-------------------------------------------------------------------------------------------------
-------D------------##--------------TT----------#tt-o----------------------------------------------------------------------TT------TT-------TT----#----
-------D------------##--------------tt-------#--##--o----------------------------------------------------------------------tt------tt--------t----##---
------DD----TT-------X-----TT----TT-tt--TT---XX-XXXXXXXXX--T----TT---------------------------XTXXXXXXXXTT----T---------TT--tt--TT--tt---TT---tX-XXXXXXX
-------t----tt-------X-----tt----tt--t--tt---XX-XXXXXXXXXX------tt-t-----------------------X-ttXXXXXXXXtt----t---------tt--tt--tt--tt---tt---tX-XXXXXXX