---------------------------------------------------D-------------------------------------------D---------------------------------D---------------------
---------------------------------------------------D-------------------------------------------D---------------------------------D---------------------
---------------------------------------------------D-------------------------------------------D-------!-------------------------D---------------------
---------------------------------------------------D-------------------------------------------D---------------------------------D---------------------
---------------------------------------------------D-------------------------------------------D---------------------------------D---------------------
---------------------------------------------------D-------------------------------------------D---------------------------------D---------------------
-------------------------------------o-------------D-------------------------------------------D---------------------------------D---------------------
---------o-o------------------------o-o--------------------------------------------------------D----------------o----------------D---------------------
MXXX--D-o-o-o--o------o-------oXXXoXXo-o----------o---o-------o---XXXXXXXXX------D------D------D-------o-------o-o-------------#-----------o-----------
XXXXXDDDDDDDDDDD------#---#---##XXXXXXXXXXXXXXXX--##--##-##---####XXXXXXXXX----o-D-----DD------D---DDDDDDDDDDDDDXXtXXXXXXX##--##-XXXXXXX--####---------
------------------tt--#--#---y#------XXtXXXXXttX--##--#---##-y#---------------ToDD-----------D-D-----------------ttXXXXXX--##--#--XXXX-#-y#------------
------------------t#---##---#---------tt-----tt#--##-------###----------------ooDD------DDDDDDDD-----------------tt----#----#-----------##-------------
--------TT--------##------------------tt-----tt#--#---------------------------ooDD-----oD------D-----------------tt------------------------------------
--------tt----t--###------------------tt-------#--#---------------------------ooDD-----o-------D-----------------t---------------------------------#---
----TT--tt---Tt-XXXXX-----------------tt-------X--XX-----------------------XXXXXXXXXXXXXXXXXXXXXX--TT----TT--tt--t------------------------------X-XXXXX
----tt--tt---tt--XXX--X---------------tt-------X--XX-----------------------XXXXXXXXXXXXXXXXXXXXXXX-tt--X-tt--tt--t------------------------------X-XXXXX