-------------------------------------------------------------------------------D------------------------------------------------------D-----------D----
-------------------------------------------------------------------------------D------------------------------------------------------D-----------D----
-------------------------------------------------------------------------------D------------------------------------------------------D-----------D----
-------------------------------------------------------------------------------D------------------------------------------------------------------D----
-------------------------------------------------------------------------------DD-----------------------------------------------------------------D----
-------------------------------------------------------------------------------DD---------------------------t-----------tt------------------------D----
-----oo--------------------o---------------------------------------------------DD------o----------o---------------o-------------------------------D----
M----o-o-----------------------------------------------------------------------DD-----o-o--------o-----------------o------------------------------D----
XXXXXXX-o--------XXXXXXXXXXX-X---D---------------D-------T---------------------DD----D-o-o------o-o------XXTXXXXXXXXXXXXXXXXXXXXXXXXXX-----TT-----D----
XXXXXXXXDD----o---XXXXXXXXXXXXXSSD-----T--ttSS--DD-------ttXXX-----------------DD----DDDD-DDDDDDDDDDDDDXXXXtXXXXXXXXXXXXXXXXXXXXXXtXXX-----tt-----D----
-------------##--------------X--------ttoot-----DD----To-ttXXXXX-TTTXo------D-g-D-gDg-DD----------------XXXtt--------------------------TToott-----D----
-------------#-----------------D------ttoot---SSSD----toott------tttoD--DDDDDDDDDDDDDD---------------------tt--------------------------ttoott-----D----
------------##-----------------ooD----ttoot----oDD---ttoott------ttoo---------------------------TT---------tt--------------------------ttoott-----D----
------------##-----------------ooD----ttogtt---ooD---ttggtt------ttgg-----------------------oo--tt---------tt--------------------------ttggtt-----D----
------------XXXXX----TT---T--XXXXXXXXXXXXXXXXXXXXXXXXXXXXXXXXXXXXXXXXXXXXXXXXXXXXXXXXXXXXXXXXTX-tt---TT----tt-------------------------XXXXXXXXXXXXXXXXX
------------XXXXXXX--tt---tt-XXXXXXXXXXXXXXXXXXXXXXXXXXXXXXXXXXXXXXXXXXXXXXXXXXXXXXXXXXXXXXXXtX-tt---tt----tt-------------------------XXXXXXXXXXXXXXXXX