-------D-------------------------------------------D---D-------------D---------------------------------------------------------------------------------
-------D-------------------------------------------D---D-------------DD--------------------------------------------------------------------------------
-------D-------------------------------------------D---D-------------D---------------------------------------------------------------------------------
-------D-------------------------------------------D---D-------------DD----------------------------------------o---------------------------------------
-------D-------------------------------------------D---D-------------DD---------------------------------------o----------------------------------------
-------D--------------------------------D----------D---D-------------D----------------------------------------o----------------------------------------
-------D----o---------------------------D----------D-----------------D-------------o----------o--------------o-------------------------o---------------
-----D-----o-o--------------------------DD-----D---D-----------------D-----o------oo---------oo--------------#------------------------o-o--------------
-----D----D-oD----o---oD-----------X----DD-----D---D---D-----T-------DD---o-o------oo--------X-o-------D----DDXXXXXXX-----D----------o-o-oD-o----------
-----DDDDDDDDDDD-D#---#-D------SSSSS-----D-----D---DDD-D-----tt--DD--DDDDDDDDDDDDDXXDTXXXXXXXXDDD-----##--##-#XXXXXX-X----D------DDDDDDDDDDDDDDD-------
------------------#--##-t---------------DD--gg-D-------t-----t--------------------XXXtXXXXX------------#-y#-----------#-DDDDD-gD-----------------------
-------------------###-----------------DDDDDDDDD-----o-t---o-tt--------------------o-tt--------t--------##------------#-D-DDDDDDD----------------------
-----D----T------------o----------------DD-----D---tooot---oott---------TT------tt---tt--------t-------------------------------------------------------
-M---D----t------------g---------------oD------D---tgggtt--oott---------tt------tt---tt--------t------------------------------------------------o-##---
-X----TT--tt---T---XXXXXXXXXXXXXXXXXXXXXXXXXXXXXXXXXXXXXXXXXXtt-----TT--tt---TT-t----tt---T-X--XXXXX------------------X-XXXXXXX--TT--TT-----TT--XXXXXXX
------tt--tt---t---XXXXXXXXXXXXXXXXXXXXXXXXXXXXXXXXXXXXXXXXXXtt-----ttt-tt----ttt----tt---t-XX-XX--X--------------------XXXXXXXX-tt--tt-----tt--XXXXXXX