---------------------------------------------------------------------------D-----------------------------------------------------------------------DD--
---------------------------------------------------------------------------D------------------------------------------------------------------------D--
---------------------------------------------------------------------------D------------------------------------------------------------------------D--
---------------------------------------------------------------------------D------------------------------------------------------------------------D--
---------------------------------------------------------------------------D------------------------------------------------------------------------D--
---------------------------------------------------------------------------D----------------------------------------------D-------------------------D--
M------o------------------------------o------------------------------------D------------------------------o---------------D--------------o----------D--
X-----o-o----------------------------o-o---------------------------o-------D-----------------------------o-o--------------D----------o--o-o---------D--
XXXXXXXo-o--o-----------------------XXo-o------X--------------o-o-o-----XXXXXXXXXXXX-------o----------D-D-o-o------------DDD--------o-oDDD-DDD-D----D--
XXXXXXXDDDDDD#DXXXXXXXXXXXXSSSSSS-T-XXXX#X----XX--##-----SSSSSDDDDDDDDDDXXXXXXXXXXXXX-----#---#---#DDDDDDDDDDD--SSSSSD-D-DDDDDDDDDDDDDDDDDDDDDDDDD--D--
----------------XXXXXXXXXX------XX-t-#-----XXX##--##---#------------------------------##--#---##-------------------------------------------------------
--------------------------------D-t------#----##--##----------------------------------##--#-----##-----------------------------------------------------
----------------------------------tt----------##--##--DD-oo---------------------------##---------------T---------o-------TT----------TT----------------
----------------------------------ttt----#----##--##--oD------------------------------##---------------t------#-oo-------tt----------tt----------------
------TT----------------XXXXXXXXXXXXXXX-XXXXXXXX-XXXXXXXXXXXXXXXXXXXXXXXXXXX----TT----XX-----------TT--t--TT--XXXXXX-XX--tt---TT-----tt---T--TT---XXXXX
------tt----------------XXXXXXXXXXXXXXX-XX--XXXX-XXXXXXXXXXXXXXXXXXXXXXXXXXX--X-tt----X------------tt--t--tt--XXXXXX-XX-ttt---tt---t-tt--tt--tt----XXXX