-----------------------D-------------------------------------------------------------------------------------------------------------------------------
-------------------------------------------------------------------------------------------------------------------------------------------------------
-------------------------------------------------------------------------------------------------------------------------------------------------------
-------------------------------------------------------------------------------------------------------------------------------------------------------
-------------------------------------------------------------------------------------------------------------------------------------------------------
-------------------------------------------------------------------------------------------------------------------------------------------------------
---------------------------------------------------------o-------------o---------------o------------------------------------------------o--------------
----------------------------------------------------o---o--------D------o-------------o-o----------------------------------------------o-o-o-----------
M----------------o--oo--#--------#---------o-o-o---o-o-o-o-------D----o--o-----------o-o-o-----------oo-------o-------oo----------D-D-o-oDoDoDo-o------
XXXXXX----------##-###--#----o--##--#####-#DDDDDDDDDDDDDDDD------D---DDDDDDDDD---D---DDDDDD--##---#TT-#X-XXXXXXTXX---###-DDDDDDDDDDDDDDDDDDDDDDDDD-----
XXXXX-TTSS---D--X-------#D---##-##-##---#----------------------DDg-D------------D------------##---XttXXXXXXXXXXtXX---#-X-------------------------------
------ttX-DSDD--#--------#---##-###--------------------------DDDDDDD-------------------------##----tt---------tt----#----------------------------------
------tt----DD---------------##-##-----------TT-------TT----------D--------------------------##----tt---------tt-----------TT---T------TT--------------
------to----oD---------------##-o------------tt-------tt-------------------o-----------------##----tt----------t-----------tt--tt------tt----------#---
-----XXXXXXXXXXXXXX----------XX-XX-----------tt----TT-tt--TTXXXXXXXXXXXXXXXXXXXXXXXXXXXXXXXXXXXXX--tt----------t----XX-XX--tT--tt---T--tt---T--TT--XXXX
-----XXXXXXXXXXXXXX----------XX-XX-----------tt----tt-tt--tt--XXXXXXXXXXXXXXXXXXXXXXXXXXXXXXXXXXXXXtt----------t----XXXXX--tt--tt---t--tt---t--tt--XXXX