----------------------------D------------------------------------------D----------------------------------D--------------------------------------------
----------------------------D------------------------------------------D----------------------------------D--------------------------------------------
----------------------------D------------------------------------------D----------------------------------D--------------------------------------------
----------------------------D------------------------------------------D----------------------------------D--------------------------------------------
----------------------------D------------------------------------------D----------------------------------D--------------------------------------------
----------------------------D------------------------------------------D----------------------------------D--------------------------------------------
-------o--------------------D------------------------------------------D----------------------------------D-----o--------------o-----------------------
M-----o---------------------D------------------------------------------D----------------------------------D----o-o------------o-oo----------o----------
XXX------------#------------D--------------------------------oooo------D------o--D-------------D----------D---D-o-o----#---D-o-o--o-----o----o---------
----DDDDDDDD--##-------DDDDDDDDDDD----#----SSSSSSSSSS----##---###------DD-----##-#------------DD----------DDDDDDDDDDD-D##-DDDDDDDDDDDDD-##--###D-------
--------------##----------------------#---------X--D------#--y#---DDD--DD-----##-X-------------D-----TT--------------y#-----------------##-y##---------
-----------#--##---------------------#----------oo---------###----DDD--DD------#---------------------tt-oo-----------#--------------------##-----------
-----TT-------##-----------------#---#---o----ttoot--------------------D-------#---------D---o--oo---tt-oo---------------------------------------------
-----tt-------##-----------------#---#--oD----ttggt--------------------D-----------------t---o---o---ttggt-----------------------------------------#---
--TT-tt---T---XX------TT--TTT---XXXXXXXXXXXXXXXXXXXXXXXXXXXXXXX----TT--D-------X---XXXXXXXXXXXXXXXXXXXXXXXXXXX-TTT----------TT---TT------------XXXXXXXX
--tt-tt---t---XX--XX--tt--tt-----X--XXXXXXXXXXXXXXXXXXXXXXXXXXX--X-tt--D-------X---XX-XXXXXXXXXXXXXXXXXXXXXXXXXttt----------tt---tt-----------XXXXXXXXX