----------------------------------------------------------------------------------------------------------------------------------------------D--------
----------------------------------------------------------------------------------------------------------------------------------------------D--------
------------------------------o---------------------------------------------------------------------------------------------------------------D--------
-----------------------------o----------------------------------------------------------------------------------------------------------------D--------
----------------------------o-----------------------------------------------------------------------------------------------------------------D--------
---------------------------o---------------------------o--------------------------------------------------------------------------------------D--------
---------------------------#---------o-----------------------------------------------------------------------o-------------------------------DD--------
M-------------------------##----------o----o--------------------------o------------------------o------------o-o-------------------------------D--------
XXXXX------------------#--##---XXXXXXXXXX-XXX---------#o-----D---D---D------oo--o-X-----------o--------o-o-o-o-o------------D-------o------D-DD--------
XXXXXXXT--X-TTTXX-XD--##--##--XXXXXXXXXXXXXXXSSSSSSS#####DXXXX---SSSStt--D---#-y#D##SSS-------#-------DDDDDDDDDDDD----------D------o-D--------DDD------
----XXttDXXXtttXX-X-----------------XXXX--------S----##-X-XXXX-----oott------#-y#------------##----------------------DD-----DDD-gDD-DDD--g-DD----------
-----o-ttooottt----------------------------------#S--##------------oott-------##--------SS---##----------------------tt----DDDDDDDDDDDDDDDDDD----------
-----o-ttooottt-----oD----------------------------#---------------ooott-------------------#--##--------TT------------tt---------------------D----------
-----g-ttoggttt----oooD------------------------------------------ttggtt--------------------####----#---tt------------t----------------D-----D------#---
----XXXXXXXXXXXXXXXXXXXXXXX--------------T-----------X----------XXXXXXXXXT-------------TT--XXXXXXXXXXX-tt--TT--TTT--XXXXXXXXXXXXXXXXXXXXXXXXXXXXXXXXXXX
----XXXXXXXXXXXXXXXXXXXXXXXX-------------t---X-X-----X---------XXXXXXXXX-t-------------tt--XXXXXXXXXXX-tt--tt--ttt--XXXXXXXXXXX-XXXXXXXXXXXXXXXXXXXXXXX