-------------------------------------------------------------------------------D-------------------------------------DD--------------------------------
-------------------------------------------------------------------------------D-------------------------------------DD--------------------------------
-------------------------------------------------------------------------------D-------------------------------------DD--------------------------------
-------------------------------------------------------------------------------D--------------------------------------D--------------------------------
-------D-----------------------------------------------------------------------D--------------------------------------D--------------------------------
-------D-----------------------------------------------------------------------D----------------------------------D--DD--------------------------------
-------D-----------------o---------o-------------------------------------------D-------D--------------------------D--DD-----------------o--------------
-------D-------oo-------o----------o-----------------------o-----------------ooD------DD--------------------------D---D-----------------o--------------
---M---D------o--o-------------D--##----------------------o---------o---------oD-------o----------------TT-----------DD--D-------------o-------D-------
---DD--DDDDDDDDDDDDD-X---------D--#D--------------#------#----------XXXXXXXXXXXXXXXXXXXXXXXXXXX---SSSS-#-###-----DDDDDDDDDDSSSSSSSSS---#####---#-------
------------------------------------------#--------------#-------gD-oXXXXXXXXXXttXXXXXXXXXXXXXX------------------------------------#--y#-------#-------
------------------------------------------#-------------##------DDDD-----------tt--------------------##-----------------------------###--------#-------
--------------TT--------------------------#-------------##---------------------tt---------------------to--------o--------T----o-o----#D----------------
--------------tt--------------------------##---------##-##---D------------------t--------------------------D---o---------#---ooo-o--oo--------------#--
----TT----TT--tt---X-XXXXX----------------XXXXXXXXXX-XX-XXXXXXXXXXX-------------t--------------------------DXXXXX---TTT-XXXXXXXXXXXXXXXX-------TT--XX--
----tt----tt--tt---t-XXXXX---------------XXXXXXXXXXX-XX-XXXXXXXXXXXX------------tt---------------------------XX-XXX-ttX-XXXXXXXXXXXXXXXXX------tt---X--