-----------------------------------D-----------------------------------D------------------------------------------------------------------D------------
-----------------------------------D-----------------------------------D------------------------------------------------------------------D------------
-----------------------------------D-----------------------------------D------------------------------------------------------------------D------------
-----------------------------------D-----------------------------------D------------------------------------------------------------------D------------
-----------------------------------D-----------------------------D-----D------------------------------------------------------------------D------------
-----------------------------------------------------------------D-----D------------------------------------------------------------------D------------
-------o---------------------------------------------------------D-----D----------------o------o--------------o-------o---------------D---D------------
-----------------------------------------------------------------D-----D---------------o------o-o------------o-------o-o--------------#---D------------
-------#---------------D--------o------------oo-----------o------D-----D------TT------o-o-o-o--o-o-----TXXXXXX------o-o-o--o---------##-XXXXXXXX-------
-------#-TTT--o------SSD-DDDDDDDDD----DD-DDDDDD--#-----T-oXXTX---XTT---D------tt----DDDDDDDDDDXXXXXX---tXXXXXX---DDDDDDDDDDDDD------###-X-XXXXXXXXX----
----------t--X-o------#D-DD---------------------##-----TXXXttX-XXXttXXXXX-TTToot-------------tXXXXXTT-tt------------------------##-##-------------X----
---------tt--ooo-------D-D---------SS------------#----tt-ottt--X-Xttt--X--ttoott-------------------tt--t-------------------------##--------------------
---------tt--ooo--------oDT---------oDTT--------------tt-o-tt-----tt------ttoo--------------tt-----tt--tt----------T-----------------------------------
------M--tt--too--------oDt-----------tt--------------tt-g-tt-tt--tt------tt-g-------------ttt-----tt--tt----------t-----------------------------------
------XXXXXXXXXXXXXXXXXXX-tt---TX--XXDtt---TT---------DXXXXXXXXXXXXXXXXXXXXXXTX-XT---TT----ttt-----XXXXXXXXXXXXXXX--TT--TT-----------------------------
------XXXXXXXXXXXXXXXXXXX-tt---tt-XXXttt---tt----------XXXXXXXXXXXXXXXXXXXXXXXX-tt---tt---ttt-----XXXX-XXXXXXXXXXXXtt---tt-----------------------------