-------------------------------------------------------------------------------------------------------------------------------------------------------
-------------------------------------------------------------------------------------------------------------------------------------------------------
-------------------------------------------------------------------------------------------------------------------------------------------------------
-------------------------------------------------------------------------------------------------------------------------------------------------------
-------------------------------------------------------------------------------------------------------------------------------------------------------
-------------------------------------------------------------------------------------------------------------------------------------------------------
-------o-------------o----------------------------------------------o-----------oo------o------o-------------------------------o---------------o-------
M-----o-o------------o-------------------------D-o-----------------o-o----o----o--o----o-o----o-o-----------------------------o-o-------------o-o------
XXXXXXXX-oooo--o----o-o-o--------ooo-----o--------o----------o----o-o-o--o-oXXXXXo-D-DD-o-o--o-X-o-----o--------------XXX---XXXXXXXXX--------o-o-o-----
XXXXXXXXX-##---######DDDDDDDD-##-###-----#D----DDDDDDDD---SSSSDDDDDDDDXTXXXXXXXXDDDDDDDDDDDDDD--#D##--o#---------XXXXXXXXTXXXXXXXXXX--------DDDDDD-----
-----------#--y#---------------#------#-y#-----------------#----------XttXXt-------------------y#------D-----------XXXXXXttXXX-------------------------
------------###----------------#-----####------------------o-----------tt---------------------##-------D-DD-------------tt-----------------------------
-------------------------------#--------------------------ooo----------tt-------TT------TT-------------------------------t-----------o-----TT--T-------
----------------------------t--#-------------------o-----ooggt---------tt-------tt------tt-------------------------------t----------o------tt--tt------
--------TT-------------TT--Tt--X-XX--------------TTXXXXXXXXXXXXXX--XT--tt----T--tt---TT-tt----------------------TT-------t--------------T--tt--tt--XXXX
------X-tt-------------tt--tt--X------------XXX--ttXXXXXXXXXXXXXXXXXX--tt----t--tt----t-tt----------------------tt-------t--------------t--tt--tt--XXXX