-----------DD-------------------DD---------------------------------------------------------------------------------------------------------------------
------------D--------------------D---------------------------------------------------------------------------------------------------------------------
------------D--------------------D---------------------------------------------------------------------------------------------------------------------
------------D--------------------D---------o-----------------------------------------------------------------------------------------------------------
------------D--------------------D--------o------------------------------------------------------------------------------------------------------------
------------D--------------------D-------o-------------------------------------------------------------------------------------------------------------
------------D--------------------D-------#-----------------------------------------------o----D------------------------------------------o-------------
------------D-------o--o-o-------D------##----------------------------------------------ooo---D----------Do-o---------------------------o--------------
------------DD--D--D-DD-o--D--D--D------##-------------T------D------X-XXX--------------X-----D----------o-oDD----XXXXXXX-------TT------#o-o-o-o-o-----
----------D--DDDDDDDDDDDDDDDDDDDDDDD----##-----#--SSSSSSDD----D-----SSSXXXXXXXXXXXXXXX#-----SDD--------DDDDDDDDDDDXXXXXXXX----o-tt---#--#DDDDDDDDD-----
----------t--------------------------#--##----##-------D-----DD-----------XXXXXXXXXXXX------SDD----------------------------TTooott---##-#--------------
---------ot--------------------------#--##----##-----SSD---SSDD-----------------------------oDD----------------------------ttooott---##----------------
----------tt---T--------TT--------------##----##-----ooD----oDD----------------------------oo-D----------------------------ttooott---##----------------
--M-------tt---t--------tt-----------#--##----##-----ooD----oDD---------------------------ot--D#-----------------------oo--ttgggtD#--#-----------------
--XXXXXXX-tt---TT--TT---tt---TT-X----XX-XXXXX-XXXXXXXXXXXXXXXXXXXXXX-TT-----------------XXXXXXXXXXXXXXXX-TT------------XXXXXXXXXXXXX-XX-X--TT----------
---XXXXXXXtt---tt--tt---tt---tt--X---XX-XXXXX-XXXXXXXXXXXXXXXXXXXXXX-tt----------------XXXXXXXXXXXXXXXXX-tt-----------XXXXXXXXXXXXXX-XX-X--tt----------