------------------------DD---------------------------D-------------------------------------------------D----------D--------------------D---------------
------------------------DD---------------------------D-------------------------------------------------D----------D------------------------------------
-------------------D----DD---------------------------D-------------------------------------------------D------D---D------------------------------------
-------------------D-----D---------------------------DD-------------------------------D----------------D------D---D------------------------------o-----
-------------------D-----D---------------------------DD-------------------------------D----------------D------D---D------------------------------------
-------------------D----DD---------------------------DD-------------------------------D----------------D----------D------------------------------------
-------------------D-----D---------------------------D-------------------------------DD----------------D-----D----D------------------------------------
-------------------------D-----------------------------------------------------------DD----------------D---o--o---D-------------------------o----------
M--------------D---D-----D--XXX----Dooo----XXXXXX----D-----D----XXXXX-------X--X-----DD-o-o------------D--D-DDDo--D----o--TT---------------o-o-o-------
XXXXXXXXXXXXXXXXS--##S--DDDXXSSSSSSSo-#--###X-XX#--##D#T--##XTXXXXXXXXXXXXTXXXXXXXXXXXXTDDDDDD--------DDDDDDDDDDDDDDXXXX--t#--------------#-DDDDD------
XXXXXXXXXXXXXX-XD----##-----------oo--#-y#--------y#---X-XXX-tt--------X--tt---X-XXXXXX-------------------------------XX--#-----------g-g--------------
--------------SDD----#-----------ooD--###--------##----t-----t------------tt--------------------------------------------#SD------DDDDDDDDDD------------
--------------oDD----------------oot---#---------------t------------------tt----------------------------TT-----TT--------oD----------------------------
--------------oD-----o----------toot--#---------------tt------------------tt-----------------------------t-----tt--------oo----o-----------------------
------------XXXXXXXXXXXXXXXXXXXXXXXXXXXX--------------tt------------------tt-----------TT------TT----TT--t-----tt--------XXXXXXXXXXXXXXXXX--TT-----XXXX
------------XXXXXXXXXXXXXXXXXXXXXXXXXXXX--------------tt------------------ttt----------tt------X-----tt--t----ttt-------XXXXXXXXXXXXXXXXXXX-tt----t-XXX