-----------------------------------------------------------------------------------D-----D-------------------------------------------------------------
-----------------------------------------------------------------------------------D-----D-------------------------------------------------------------
-----------------------------------------------------------------------------------D-----D-------------------------------------------------------------
-----------------------------------------------------------------------------------D-----D-------------------------------------------------------------
-----------------------------------------------------------------------------------D-----D-------------------------------------------------------------
-----------------------------------------------------------------------------------------D-----------------!-------------------------------------------
-------------------------D-----------------o--------------------------------------------DD-------o-----------------------------------------------------
M------o-----------------D-----------------oo-------------------#----------------------oDD------o-o----------------------------------------------------
XXXXXXX---X--------------D-------------------o----------D-------o---------o-----------oD-X-------o-o-----X-------------------------o------o------------
XXXXXXXXXXX-TT-SS--D----DDD--------------DDDDDD--------DD------##--#####-XXX--XXXXXXXXXXXXXXXDDXDDDDDDDDDDDDDDD----------TD-------o------oo------------
---------X--t---S--D----D-D----------------------------DD-------#--#---#-XXtXXXXXXXXXXXXXXXXX--------------------gggg--g-g-----DggDD--D-g-gD-D---------
------------t---SSSD----D-D----#----------------------DDDDDD-----##--------t-----------------------------------DDDDDDDDDDDDDDDDDDDDDDDDDDDDDDDDD-------
------------tt---ooD-----------#---------TT----------oD-DD----------------------------tt-----T---------------------------DD----------DD----------------
------------tt---ooD----------#D---------tt---------ooo-D------------------------------t-----t-----t-----------------------------------------------#---
------------XXXXXXXXXXXXXXXXXXXXXXXXXXXX-tt--TTXXXXXXXXXXXXXXXXX-----------------------t-----Tt---TT---TT---X--XXXXXXXXXXXXXXXXXXXXXXXXXXXXXXXXXXXXXXXX
------------XXXXXXXXXXXXXXXXXXXXXXXXXXXX-tt--tt--XXXXXXXXXXXXXX------------------------t-----tt---tt---tt--XX-XXXXXXXXXXXXXXXXXXXXXXXXXXXXXXXXXXXXXXXXX