-------------------------------------------------------------------------------------------------------------------------------------------------------
----------------------------------------------------------------------------------D--------------------------------------------------------------------
----------------------------------------------------------------------D--------------------------------------------------------------------------------
----------------------------------------------------------------------D--------------------------------------------------------------------------------
------------------------------o------------------------------------------------------------------------D-----------------------------------------------
-------------------------------o-----------------------------------------------------------------------D-----------------------------------------------
----------o----o---o----------------------------------------o---------o-------------------------------DD-------o-------o----------------------o--------
M--------o-o--o---o-o------oo-o-o-----------------o---------oo-------o-o-------------------o----------DD--------o-----o------o-------------------------
XXXXXXX-o-D-DDDD-DDDDDD---DDDD-D-D-----#---------ooXXXXXXXXXXXo-----o-o-o--------XXXXXXXXXXX-----------D----D--o-o-D-D-DD-D-o-o---o--------o-o---------
XXXXXXXXDDDDDDDDDDDDDDDDDDDDDDDDDDD---##--#-----###XXXXXXXXXX##DDDDDDDDDDDD---#D##XXXXXXXXXX-----------D---DDDDDDDDDDDDDDDDDDDDDDDDDDDDDDDDDDDD-DDD----
--------------------------------------##--------##-------------------------#-y#----------X-------------D----------------------------------------#------
--------------------------------------##-------##---------------------------##-------------------------------------------------------------------------
----------------TT---------TTT--------##-------#-------------------T------------------------------------D-----------TT-------T#--------------TT--------
----------------tt---------ttt--------##-------#-------------------------------------------------------DD-----------tt-------##--------------tt----#---
--------TT---T--tt----TTT--ttt--TT----XX--XX---X----------------T-----TT---------------XXX-XXXXXXXXXX---D---TT--T---tt----TT-XX--TT---t--TT--tt-----X-X
--------tt--tt--tt----ttt--ttt--tt----XX--X----X----------------t--tX-tt-------X---------XXXXXXXXXXXX--tt---tt--X---tt----tt-tX--tt--tt--tt--tt-----X-X