-----------------------------------------------------------D-----------D-------------------------------------------------------------------------------
-----------------------------------------------------------D-----------D-------------------------------------------------------------------------------
-----------------------------------------------------------------------D---------------------------------------!---------------------------------------
-----------------------------------------------------------------------D-------------------------------------------------------------------------------
---------------------------------------o-------------------------------D-------------------------------------------------------------------------------
---------------------------------------o-------------------------------D-------------------------D-------------X---------------------------------------
----------------------o---------------o--------------------------------D-------D-----------------D---------D-------------------------------------------
M--------------------o-o-------------o-o--------------------o----------DD------D-----------------D---------o-------------------------------------------
XXXXXX-------D--D--Do-o-o----------DD--#--#-----##---DT------DDD-------D-D-----DXXXXXXXXXXXX-----D-----D-o-D---XXXX--##-----------------------D--------
XXXXXSSSSSSSDDDDDDDDDDDDDD---------DDDDD--###XX-XX---ott--DDDDDDDDDDDDDDDDDDDD-#XXXXXXXXXXXXSSS--DD----DDDDDDDDDXXX--##----------#------------D--------
-------------------------D----g--------------XXX---TTott--------------------------------------X--DD------------------##---T--##--#----------DDD--------
-------------------------DDDDDDDDD-----------#-----Toott---------------------------------------SSDD------------------##---t--##-##-------DDDDDD--------
------------TT-----TT----D--------------TT---------toott--------------TT------------------------oDD------------------##---t--##-##---------o--D--------
------------tt-----tt-------------------tt---------t-gtt--------------tt------------------------oDD------------------##--#t--##--#-----D---o--D--------
-----T------tttTT--tt--o---XXXXXXX---TT-tt---------XXXtXX---TT-----T--tt---T---------------XXXXXXXXXXX-tt----TT---X--XX-XXXX-XXXXXXXXXXXXXXXXXXXXXXXXXX
-----t--XXXXXtt-t--tt--tt-XXXXXXXXXX-tt-tt---------tXXtXXXX-tt--XXXXX-tt---t-----------------XXXXXXXXX-tt----tt---t--XX-XXXXXXXXXXXXXXXXXXXXXXXXXXXXXXX