-------------------D-------------------------------------------------------------------D---------------------------------------------------------------
-------------------D-------------------------------------------------------------------D---------------------------------------------------------------
-------------------D-------------------------------------------------------------------D---------------------------------------------------------------
-------------------D-------------------------------------------------------------------D-------------------------------------------------------o-------
-------------------D---------------------------------------------------------------D---D------------------------------------------------------o--------
-------------------D---------------------------------------------------------------D---D---------------------------------------------------------------
-------------------D--------------------------o---------o-o------------------------D---D--------------------------------o---------------------#--------
-------D-------------------------------------o-o-------o-o-o-----------------------D---D------o-------X----------o-----o-o-----o-------------##--------
------DD-----------D---o--------X-----o--D----o-o----DDDDDo-o--------------D-------D---D-----o---XXXXXXX----------o---D-D-DD-D-oo------------#---------
------DD--DDDSSSSSSSS-##--#---XXXXDDDDD--D---DDDDDDDDDDDDDDDDDDDDDD------SSD-------DDDDDDDDDDDDDXXXXXXXXTTXXXDDDDDDDDDDDDDDDDDDDDDSSSSS------#---------
-------D--------------##-----------------D-------------------------------ooD--------------------------XXttt--t----------------------------------o-D----
-------D--------------##-----------------D-------------------------------ooD---D------------------------ttt-------------------------------------oSD----
-------D--------------##-------------T--#--------------------------------ooD--DD-----------T------------ttt----------------TT-------o-----------ooD----
------DD-------g------##-------------t--#---------------------------oo--DgDD---D-----------tt-----------tt---t-------------tt-------o----o------ooD----
----MX-D---XXXXXXXXXX-XXXXX-----TT---tt-XXXXX--TT-----TT--t----TT-XXXXXXXXXXXXXXXXX---TT---tt--TT---T---tt---XTT------TT---tt---TT-XXXXXXXXXXXXXXXXXXXX
----XXXtX-XXXXXXXXXXX-XX-XXX----tt---tt-XXXXXX-tt-----tt--t----tt-XXXXXXXXXXXXXXXXXX-ttt--ttt--tt--tt---tt---ttX------ttttttt---tt-XXXXXXXXXXXXXXXXXXXX