---D---------------------------------------D-----------------------------------------------------------------------------------D-----------------------
---D---------------------------------------D-----------------------------------------------------------------------------------D-----------------------
---D---------------------------------------D-----------------------------------------------------D-----------------------------D-----------------------
---D-------------------DD------------------D-----------------------------------------------------D-----------------------------DD----------------------
---D-------------------D-------------------D-----------------------------------------------------D-----------------------------DD----------------------
---D-------------------D-------------------D-----------------------------------------------------D-----------------------------DD----------------------
---D-----------------o---------------------D-----------------------------o--------o--------------D-----------------------o-----DD----------------------
---D-----------o----o----------------------D-------------------------o---ooo-------o------------------------------------o-o-----D-------------D--------
---DM--D-------Do--o-o-DD-----------XXXXXX-D--------------o---------DDD-DDDDD---D-o----#------------------------------Do-o-D----D------D------DD-------
---DDDDDDDDDDDDDDDDDDDDDDDDDD-##-XXXXXXXXXDDDDD-DD-------##---###DDDDDDDDDDDDDDDDDDD--##-------DSSS----D---X--------DDDDDDDDDDDDDDDDDDSD-------D-------
------------------------------##XXXX-----------------#--#--#-y#-----------------------##---D-Dg----------D-D---g-gg--------------------D------DD-------
------------------------------tt---------------------#------##------------------------##--DDDDD-------SSSDDDDDDDDDD--------------------D-----DDD-------
-----------------TT-----------tt----------TT--------------------------TT---T----------##---------------oDDDDD-------------T----------oDD-------D-------
-----------------tt-----------tt----------tt--------------------------tt--tt----------##---------o-----oo-----------------t----------ooD-------D-------
-----T-------TT--tt---TT------t-----------tt---TT------------------TT--t---t---T---TX-XXXXXXXXXXXXXXXXXXXXXXXXXXXXX--TTT--t----TT--XXXXXXXXXXXXXXXXXXXX
-----t-------tt--tt---tt---t--t-----------tt---tt------------------tt--t--tt---tt-ttX-XXXXXXXXXXXXXXXXXXXXXXXXXXXXXX-ttt--t----tt--XXXXXXXXXXXXXXXXXXXX