---------------------------D-------------D---------------------------------------D---------------------------------------------------------D---DD------
---------------------------D-------------D---------------------------------------D---------------------------------------------------------D---D-------
-----------------------------------------D---------------------------------------D---------------------------------------------------------D---D--o----
-----------------------------------------D---------------------------------------D---------------------------------------------------------D---D-------
-----------------------------------------D---------------------------------------D---------------------------------------------------------D-----------
-----------------------------------------D---------------------------------------D---------------------------------------------------------D-----------
-----------------------------------------D---------------------------------------D---------o-----o-------------o---------------------------D-----------
---------------------------------o-------D-------------------------o-------------D--------o-o---o-o-----------o-o--------ooo----------D----D-----------
-------o-----o------------------------D-DD---------o------------D-o-o------------D---D---o-o---o-o------X-o--o-o-o------o-o-D--o-o-o-D--DD-DD----------
------oD-----#--##--------------DDDDDDDDDDDDDDDDD-##----DDDDDDDDDDDDDDDS---D-----DDDDDDDDDDDDDDDDXXXXXXXXXDDDDDDD-o----DDDDDDDDDDDDDDDDDDDDDDDDD-------
------##-----#--#---------------------------------#---------------------SS-D-----------------------XXXXXX----------TToo--------------------------------
---DD-DD--------#---------------------------------#----------------------SSD---------------------------------------ttoo--------------------------------
------DD-------##---------------TT--------TT------#----------TT----------ooD---------TT------TT--------------TT----tto-----TT-------------TT-------#---
DM----DD-------##---------------tt--------tt------#----------tt----------ooD---------tt------tt--------------tt---tttg-----tt-------------t--------#---
XXXXXXXXXXXXXX-XXXXXX-X------T--tt----TT--tt------XX-----TT--tt--------X-XXXXXXX-TT--tt--TT--tt-----------T--tt---ttXggTT--tt--TT----TTT--t--TTXXXXXXXX
--XXXXXXXXXXXX-XXXXXX-X---------tt----tt--tt------XX--XX-tt--tt--------XXXXXXXXX-Xt--tt--t---tt-----------t--tt---ttXX-tt--tXX-tt--X-ttt--tXX-tXXXXXXXX