-------------------------------------------------------D-------------------------------------------------------D---------------------------------------
-------------------------------------------------------D-------------------------------------------------------D---------------------------D-----------
-------------------------------------------------------D---------------!----o-o--------------------------------D---------------------------D-----------
-------------------------------------------------------D-------------------o-oD--------------------------------D---------------------------D-----------
-------------------------------------------------------D--------------------o-o--------------------------------D---------------------------D-----------
-------------------------------------------------------D-------o------------XoD------------------------------------------------------------D-----------
-----------------o-------------------------------------D------oD--------------D---------oo-----------o-------o-----------------------------D-----------
M----o-----------oo------------------------------------D-----o-D--------------D--------o--o---------o-o-----o-o----------------------------DD----------
XXXXXXo-X--D----o--o-D-XXXXXXXXXXX----TT--------------DD----o-DD------XXX-----XXXXX---o-oD-o-------o-o-D--DD-o-D------#---------------o-----D----------
XXXXXXttXXDDDDDD##--##-XXXXXXXXXXSSSSSSt------------S-DD---DDDDDDDDD---X--------XXX-DDDDDDDDDDDDD--DDDDDDDDDDDDDDDDD-##--------------DDDD---DDDDD------
------tt--------##--#-#----------------tD----------------------------------------------------------------------------##-----T-ot---------------tt------
------tt--------##---##--------------ootD------------------T----------------------------------------------------------#-----toott--------------tt------
------tt---------------------------toootD-----------------tt---------------------------T-----TT#----------TT----------------toott----------T---tt------
------tt---------------------------ttggoD-----------------tt---------------------------t-----ttD----------tt----------------tog-##---------tt--tt------
------tt----TTT--------------------XXXXXXXXXXXXX-----TT-XXXX----TT-------------X---TT----TT--tX#---TT--T--tt---------------XXXXXXXXXXX-TT--tt--tt------
-------t--XXttt-------------------ttXXXXXXXXXXXXX-X--tt-XXXX-X--ttt-----------XXXXXtt--t-tt--tt----tt--t--tt---------------XXXXXXXXXXXXtt--tt--tt------