-------------------------------------------------------DD------------------------------------------------------DD-----------------------------D--------
--------------------------------------------------------D------------------------------------------------------D------------------------------D--------
--------------------------------------------------------D------------------------------------------------------D------------------------------D----D---
--------------------------------------------------------D------------------------------------------------------D------------------------------D----D---
--------------------------------------------------------D--------oo--------------------------------------------D------------------------------D----D---
---------------------------------------------------------------------------------------------------------------D------------------------------D----D---
----------------------------------o------------------------------D---------------------------------------------D------------------------------D----D---
---------------------------------o-o----------------o------------D-------------o----------o--------------------D-----------o--o-------o-------D--------
M--------D------------------------o-o--------------o-o-XXXXXXXD--DDDDD--------o----------o-o--------------oTTT-D--------X-o--o-o-----o-o------DD-------
XXXXX----D---------DDDDDDDDDDDDDDDDDDDD--o-----##XXXXXXXXXXXXX---------D---#--##--------DDDDDD-----------SXot--DDDDXXXXXXXXDDDDDDDDDDDDDDDD----D-------
XXXXXX--#D--------------------------------D------XXX-----------------------#--#----------------TT---------o-t------XXXXX---------DDD-----------D-------
t-------DD-----------------------------#-DDDD--------------------------#--##--#----------------tt-o------t-ot----------------------------------D-------
#-------DD-------o------T-------------##------------------------------T#--##--#--------TT------ttooD----ott--T-------------------------T-------DD------
-------oDD--------------t------t------#-------------------------------t#--##--##-------tt------ttooD-----ttg-tt------------------------t-------DD------
-----XXXXXXXXXXXXXXXXX--XT----Tt---TXXXXXXXX-----------------TT--TT---tX--XX--XX---TT--tt--TTXXXXXXXXXXXXXXX-tt------------TT------TT-tt---T---DXXXXXXX
----XXXXXXXXXXXXXXXXXXX-tt----tt--XtX-XXXXXX-----------------tt--tt---tX---X--XX---tt--tt--tX-XXXXXXXXXXXXXX-tt------------tt--tt--tt-tt----t--XXXXXXXX