-----------------------------------------------------------------------------------------------------------------------------------D------D------------
-----------------------------------------------------------------------------------------------------------------------------------D------D------------
-----------------------------------------------------------------------------------------------------------------------------------D------D------------
-----------------------------------------------------------------------------------------------------------------------------------D------D------------
-----------------------------------------------------------------------------------------------------------------------------------D------D------------
-----------------------------------------------------------------------------------------------------------------------------------D------D------------
-------------o-----oo-----------------------------------------o------------------------------o----------------D--------------------D------D------------
M----------o--o---o--o---------------------------------------ooo----------------------------o-o------------------------------------------D-------------
XXXXXXXX--o-o-DD-o--o-oDo----o--------------o----------------X------------o-XX------------XX-o-o-o---o----------------------XXXXXXXXXXXX-X-------------
XXXXXXXXDDDDDDDDDDDDDDDD#---XXXX-XTTXXXXXX-X#DDXXXXX---------XDDDD---DDDDXXD#XXXXXXXXXXXXXXXDDDDDDDDDDDDDDDDDDD-----------SSSXXTXXXXXXXXXX-------------
--------------------------yyXXXXXXttXXXXXXX##--XXXXXXXT--------------D--------XXXXXXXXXXXX-------------------------D----------tt--X------D-------------
--------------------------#-------tt------##----------tt----------------------------------------------------------DD----------tt-----------------------
------------TT--------------------tt------------------tt------------------------------------TT--------------------DD----------tt-----------------------
------------tt--------------------tt------------------tt------------------------------------tt--------------------DDD---------tt--------------o----#---
----XXX-TT--tt--TT----------------tt------------------XXXXXXXXX--T--------------------------tt---T---XXXXXXXXXXXXXXXXXXXXXXX--tt------------XXXXXXXXXXX
----XXXXtt--tt--tt----------------ttt-----------------XXXXXXXXX--X--------------------------tt--Xt-XXXXXXXXXXXXXXXXXXXXXXXXXX-tt------------XXXXXXXXXXX