----------------D----D-------------------D-----------------------D---------D---------------------------------------------------------------------------
----------------D----D-------------------D-----------------------D---------D-----------------------------------D---------------------------------------
----------------D----D-------------------#-----------------------D---------D-----------------------------------D---------------------------------------
----------------DD---D-------------------------------------------D---------D-----------------------------------D---------------------------------------
-----------------D---D-------------------D-----------------------D---------D-----------------------------------D---------------------------------------
-----------------D---D------------------!to-D--------------------D---------D-----------------------------------D------------------D--------------------
---------o-------D-----------------------o--D---------------o----D---------D-------------------o---------------D-------o----------D--------------------
-M------o-o------D-----------------o-----------------------o--o--D-------------o-------o------o-----------------------o-o---------D--------------------
-XX----o-o-D-D---D-------o--------D-DD-o-D------o-o-------o--o-o-D--o----D----o-o-----o-o---Do-oD-D--------o---DDD---o-o-o--------D--------------------
-----DDDDDDDDDDDDDD-----#----DDDDDDDDDDDDDDDDDDDDDDDDDDDDDDDDDDDDDDDDDDDDDDDDDDDDDD--DD----DDDDDDDDDDDDDDDDDDDDDDDDDDDDDDDDXXX-o--D----------#---------
------------------------#------------------------------------------------------------D----g-----------------------------------X-D-DD---------##--------
-----------------------##-----------------------------------------------------------SD--DDD-------------------------------------DDDDDDD------##---#----
-----TTT-----------#--##--------TT-----------------TT---------------------T---------oD----------TT--------TT---------------------D----D------##--##----
-----tt-----------##--##--------tt--------oo-------tt---------------------t--------ooD----------tt--------tt---------------------o-----D-----##--##----
------t---tt--TT--XX--XXXXXXXTX-tt---TT--XXX---TT--tt---TT-----TT----TT---tt---TT--XXXXXXXX-XTT-tt---TT---tt---TT----T-----------XXXXXXXXXXX-XX--XXXXXX
-----tt---tt--tt--tX--XXXXXXXXX-tt---tt-XXXX-X-tt--tt---tt---X-tt----tt--ttt---tt-XXXXXXXXXX-tt-tt---tt---tt---tt----t-----------XXXXXXXXXXX-XX--XXXXXX