---------------------------------------------------------------------DD--------------------------------------------------------------------------------
---------------------------------------------------------------------DD--------------------------------------------------------------------------------
---------------------------------------------------------------------D---------------------------------------------------------------------------------
-------------------------------------------------o-------------------D---------------------------------------------------------------------------------
--------------------------------------o---------o--------------------D---------------------------------------------------------------------------------
-------------------------------------o-------------------------------D---------------------------------------------------D------D----------------------
-------------------------------o---------------#----------------------D--------------------------------D-----------------D-----DD----------------------
------------------------------o-o---#---------##----------------------D--------o-------oo--------------D-----------------DD----DD-----D----------------
MXXX-------------------------o-o-o--#---------##--XXXXXXXXXXXXXXXXXXXXXXXX----o-o-----o----------------D-----------TT----D-----DD-----D-----D----------
XXXXX-##-DDD-------D------DDDDDDD-D-##-XXXXX--##-XXXXXXXXXXXXXXXXXXXXXX-###--##---DDDDDDDDSSS--DDD-D--XXXXXT------tttXXX-DDDD--DDDDD-DD-----D----------
------------------DDD----------------#----XX--##----------------------------y#---------------SS--D----XXXXXtX--TTottt-----------------D-----D----------
---------------DDDDDDD---------------#---------#---------------------------##-----------------SSSD---------t---ttottt--t--------------D-----D----------
---------------D----DD---------D--------------------------------------------------------T------ooD--tt-----t---toottt--t---------T----D-----D----------
-------------oo-----D----------o--------------------------------------------------------oD-----oDD--tt----tt---ttgttt--t---------t----D-----D------#---
--------TT--XXXXXXXXXXXXXXX-XTXXXXXXXXX--------------------------------------------TTX-XXXXXXXXXXX--tt----TTXXXXXXXXXXXXXX--TTT---X--XXXXXXXXX--X-XXXXX
--------tt--XXXXXXXXXXXXXXX--ttXXXXXXXX-----------------------------------------XX-tX--XXXXXXXXXXXXXtt----tt-XXXXXXXXXXXXXX-tt---tt--XXXXXXXXXXXX--XXXX