-------D-----------------------------------------------------------------------------------------------------------------------------------------------
-------D-----------------------------------------------------------------------------------------------------------------------------------------------
-------D-----------------o-----------------------------------------------#-----------------------------------------------------------------------------
-------D----------------o-------------------------------------------------o----------------------------------------------------------------------------
------DD---------------o-------------------------------------------------o-----------------------------------------------------------------------------
------DD---------------o-------------------------------------------------------------------------------!--------------------------------------o--------
------DD--------------##---#---------------------o------------------oo-------o---------------------------------------------------------------o---------
M-----DD--------------##--#----------------------oo--o----------------------o-o-------------------------------------------------------------o----------
XXXX---D--------------##--#-----oTT-----D-XXX--XXXXDo-------------XXXXXXXXXD-o-D---------D-----------------------------------------o--o----o-----------
XXX----D-D-DDD---###--##--##---XotSSSSSSSSXXXXXXXXXXDDDD#--XXXXXXXXXXXXXXXXDDDDDDDDSSS---D-----TT--XXTTXXXXXXXXXXXXX--#D-TXXXX-X--#---##--##-----------
------------------##--##--##--Xoott-----------XXX---------XXXXXXXXX-------------------S--D-----tt--X-tt-XXXXXXXXXXXX--#--ttXXXXt---#-y##--##-----------
-------------------#--##--##--ooot----------------------------------------------------DSSDD---ott----tt--------t---------tt----t----##----##-----------
------------DD----##--##--##--toot------------------------------------------TT-----------D----ott----tt------------------tt----t----------##D----------
------------oo----##--##-###---ggt------------t-----------------------------tt-----------D----gtt----tt------------------tt----t-----------#D------#---
----TT---TXXXXXXXXXX--XX-XXXXXXXXXXXX-TT---TT-t---TT---------------------T--tt--TTXXXXXXXXXXXXXXXXXXXtX-X----------------tt--XXXXXXXXX-XX--XXXXXXXXXXXX
----tt---tt-XXXX-XXX--XX-XXXXXXXXXXXXXtt---tt--t--tt---tt----------------t--tt--ttXXXXXXXXXXXXXXXXXXXXXXX----------------ttX-X-XXXXXXX-tX--XXXXXXXXXXXX