-------------------------------------------------------D-----------D-----------D-----------D-------------------D--------------------------D------------
-------------------------------------------------------D-----------D-----------D-----------D-------------------D--------------------------D------------
-------------------------------------------------------------------D-----------D-----------D-------------------D--------------------------D------------
-------------------------------------------------------------------D-----------D-----------D-------------------D--------------------------D------------
-----------------------------------------------!------------D------D-----------D-----------D-------------------D---------------------------------------
---------------------------------------------t-!------------DD-----D-----------D-----------D-------------------D---------------------------------------
-----------------------------------------------!-----o------D------D-----o-----D-------------------------------D---------------------------------------
----------------------------------------------------o-o------D-----D----o-o----D-----------------------------------------------------------------------
M-------DX-----ooo---o---------------#-------XXXX--D-o-o----D------D--DD-o--D--D------------o-o-------XXXXXXXXXX-------#-----------XXXXXX--------------
XXXXXXXXXX----o####-------------##---#---#---XXXDDDDDDDDDDDDDDDDD--DDDDDDDD-D--D--##--####--DDDDD----#XXXXXXXXSSSSSS--##---------DDXXX#XXXXXXXXXX------
-XXXXXXX-D-D-o-------------------#--##--------------------------------------------##--------------------------t----#--##-----------------XXXXXXX-------
-----------DDDD----##---------------##--------------------------------------------##-------#-----------------------#--##---D---------------------------
------------------------------------##----------TT-----TT-----------------Tooot---#-------------------------Tt-----#--##---D----oo---------------------
---------------------------o--------##----------tt-----tt----------------ttoott---#-------------------------tt-----#--##---D---------------------------
-----------XXXTT-------T---t---X-XXXXXXXXX------tt--TT-tt---TT--X----TT--XXXXXXX-XX----TT--------T-----TT---tt-XXXXXX-XXXXXXXXXXXXX-----------------XXX
-----------XXXtX-------t--tt---X-XXXXXXXXX------tt--tt-tt---tt--XX-X-tt--tX-XXXX-XX----tt----t--tt-----tt--ttt-XXXXXX-XXXXXXXXXXXXXX-----------------XX