---------------------------------------D---------------------------------------------------------------------------------------------------D-----------
---------------------------------------D-------------------------------!-------------------------------------------------------------------D-----------
---------------------------------------D-------------------------------!-------------------------------------------------------------------D-----------
---------------------------------------D-------------------------------!-------------------------------------------------------------------D-----------
------------------------o--------------D-------------------------------!----------o--------------------------------------------------------D-----------
---------------------------------------D----------------------------Xt-!-------------------------------------------------------------------D-----------
M--------------------------------------D-----------------------------------------#------------------------------------o--------o-----------D-----------
XX-------------------------------------D-------o-----------o---------------------#-----------------D-----------------o--------o-o----------D-----------
XXXXXXXXTT-----------XXXX--------------D------##--X-o-o---o-o-----XXXXXXXXXXXX--##---------D-------D---------XX-------D----D-o-o-o-----D---D---D-------
XXXXXXXXtt-------XTTXXXXX----o-----DD--D-#---X#X--XSSSSDDDDDDDD--DDXXXXXXXXXXXX-XX---------D-------D------XXXXXXXX---DDDDDDDDDDDDDDDDDDDDDDDDDDD-------
--------ttX-------tt--------##----------##------------------------------------XXXXX--------D-----g-D-----------X--gg-DD--------------------------------
--------tt-------ott--------##----------##---------------------------------------------#---D----D-DD-------------DDDDD---------------------------------
--------tt--------tt------oo##----------##----------------T---------------------------o#---D-------D------------------D----TT------T-----T-------------
--------tt--------tt------oo-D----------##----------------t---------------------------o#---D-------D------------------D----tt------t----tt---------#---
--------tt-XXXXXXXXXXXXXXXXXXXXXXXXXXXX-XX---XX-X----TTT--t---XXXXXXXXXXXX---------XXXXXXXXXXXXXXX-X-TT------------XXXX-TT-tt--TT--tt----t-----TT-XXXXX
---------XXXXXXXXXXXXXXXXXXXXXXXXXXXX-X-XX---X--X-XX-tt--ttX-XXXXXXXXXXXXX----------XXXXXXXXXXXXXX-X-tt-----------XXXXX-tt-tt--tt--tt---ttt----tt-XXXXX