-------------------------------------------------------------------------------------------------------------------------------------------------------
-------------------------------------------------------------------------------------------------------------------------------------------------------
--------------------------------------------------------------------------------------------------------------o----------------------------------------
-----------------------------------------------------o-------------------------------------------------------o-----------------------------------------
----------------------------------------------------o---------------------------------o---------------------o------------------------------------------
---------------------------------------------------X-------------------------------------------------------o-------------------------------------------
--------------------o------------------o----------------------DD--------o------D---------------------------#---------------------------o-------D-------
M------------------o------------------o-o---------------------DD-------o-o-----DD-------------------------##--------------------------o-o------D-------
XXXXXXX-----------o------oo----------o-o-oXXXXXXXXXXXXX----#--SD------o-o-o---o-o---#------------------o--------oo-------------D-----o-o-o-----D-------
XXXXXXX----------------o-##------DDDDDDDDDXXXXXXXXXXXX----#----SSSS-DDDDDDDDDD----###-----------------##--####--##---######-#-##--#SS---SSDDDD-DD------
-----------------------#--#--y---------------------------------------------------o--------------------##----##--##-yy#-----##--##----------------------
-----------------------#--###------------------------------o----------------------o------#---DDD-------###---##---##-------#---##----------------------
-----------------------#--##--------TT-------------------oo----o---------------o-o-------#---D------#--##---##-----------------------------------------
------------------o---##--##--------tt------------------oogD---o------------------------##---D-----t#--##---##-----------------------##----------------
-----XXXXXXXXXXXXXXXXXXX-XXXXXX-TT--tt--TT------------XXXXXXXXXXXXXXXX---T-----X-----XX-XXXXXXXXXXXXXXXXXXXXXXXXXXXX-------XX--XXXXXXXX---T---t--------
-----XXXXXXXXXXXXXXXXXXX-XXXXXXXtt--tt--tt-------------XXXXXXXXXXXXXXXX-tt------------XXXXXXXXXXXXXXXX--X-X-XXXXXXXX-XX----XX--XXXXXXXXXX-t---tt-------