------------------------------------------------------------------------------------------------------------------------------D------------------------
------------------------------------------------------------------------------------------------------------------------------D------------------------
------------------------------------------------------------------------------------------------------------------------------D------------------------
------------------------------------------------------------------------------------------------------------------------------D------------------------
------------------------------------------------------------------------------------------------------------------------------D------------------------
-------------------------------------------------------------------------------------------------------------------------------------------------------
------------------------------------------------------D------------o-------------------------o------------------------------------o--------------------
---------o-------------------------------------------DD-----------o--o----------------------o-oo---------------------------------o---------------------
--------o-o-----XXXXXX-------------------------------DD----------o-oo-o--------o-------o--DD-o--D-----o-------TT---------------Do-------------#--------
-------o-o-o----XXXXXXX------------------------------DD-----DDDDDDDDDDDDDD-XXXXXXTX----DDDDDDDDDDDDDDDD-SSSTo-tt-----DD-------o----------o---##--------
------##--#------------------------------#--------D-gDD------------------TTXXXXXXtt-------------------#---XtXott---gDD-------o-o--------DDD--##--------
------##--DD-----------------------------#------DDDDDDD------------------tt-----ttt-------------------#----tto-tDDDDDD------t-o--------S-D---##--------
------##--------------------------------##------D----DD------------------tt-----ttt--------TT---------#----too-t----DD-------oD---------oD---##--------
-M----##--------------------------------##------D----DD------------------t------ttt---------t---------#----ttggt----DD-------DD--------oo----##----#---
XXXXX-XX-XX----------------XXXXXXXXXXXXXXXXXXXXXXXXXXXXXXXXX--TT---Tt-t---------ttt---------t----TT---X-XXXXXXXXXXXXXXXXXXXXXXXXXXXXXXXXXXXX-XXXXXXXXXX
XXXXXXXX-X-----------------X-XXXXXXXXXX-XXXXXXXXXXXXXXXXXXXXXXtt--tttttt--------tt----------t----tt---X-XXXXXXXXXXXXXXXXXXXXXXXXXXXXXXXXXXXX-XXXXXXXXXX