-----------------------------------------------------------------------------------------------D-------------------------------------------------------
-----------------------------------------------------------------------------------------------D-------------------------------------------------------
-------------------------------------------------------------------------------------------------------------------------------------------------------
-------------------------------------------------------------------------------------------------------------------------------------------------------
-------------------------------------------------------------------------------------------------------------------------------------------------------
-----------------------------------------------------------------------------------D-------------------------------------------------------------------
-------o-------------------o------o------------------------------D-----------------D------------------------------------o-----o------------------------
M-----Xo-------------------o-----oo--------------o---------------D---------D-------D------o----------------------------o-o---o-o-----------------------
XXXXXXXXTT--------------XXXXo---oD---------Xoo--X#------D--------D----o-o--D-------D-----o-o-----oo-----o-----------o-o-o-DD--o-o--X-------------------
XXXXXXXXtT---------XXXXXXXXXDTDDDD-------XXXXTTXXX-SSSSSS----DD-DDDDDD#D#--D-------DDDDDDDDDDD--##------#----#-----DDDDDDDDDDDDDXXXXX--#---------------
--------tt-----D---XXXXX-----t-------------XXtt--------SS----------------#-D---ggDDD------------#-------##-y#------D----------------X--#---------------
--------tt---SSD-------------t---------------tt---------S-----------------#DDDDDDDDDD---------------------##-----SSD-------------------##----D---------
--------tt---oDD-------------tT--------------tt----------o-----------------------------TT------------------------ooD-------------------##----D---------
--------tt--oooD-------------tt--------------tt---------Do-----------------------------tt--------------------tt--ooD-------------------###---D-----#---
-------XXXXXXXXXXXXXXX------ttXXXXXXXXXX-XX--ttt---TT---XX----TT---TT--------XXXXXXXXX-tt------TTXXXXXXXXXXXXXXXXXXXX--TT--t-----------XXXXXXXXXXXXXXXX
-------XXXXXXXXXXXXXXX------ttX-XXXXXXXXXXXXXttt---tt--XXX-X--tt---tt--------XXXXXXXXX-tt----X-tt--XXXXXXXXXXXXXXXXXXX-t---tt--t-------XXXXXXXXXXXXXXXX