-------------------------------------------------------------------------------------------------------------------------------------------------------
---------------------------------------------------------------------------------------------------------------D---------------------------------------
---------------------------------------------------------------------------------------------------------------D---------------------------------------
---------------------------------------------------------------------------------------------------------------D-------------------------------#-------
---------------------------------------------------------------------------------------------------------------D---------------------------------------
---------------------------------------------------------------------------------------------------------------DD----------------------------o---------
---------D-----------------------------oo----------------------------------------------------------------------DD------o------o-----o------------------
M-------D----------------------o-------o------------------o-oo---------o--------------------------------o------DD-----o-o----o----o--------------------
XXXXX---DDD------o-o----------o-o-----XXXXXXXXXXXXXXXX---o-o--oD-------o-------------o------ooo--------o-o-----DD----o-o-DD-D-DD-o-o--XXXXXXXX---------
XXXXXDD-DDDDDDDDDDDSSSSD-DDD--####DXXXXXXtXXXXXXXXXXXXDDDDDDDDDSSD---DDDDDDD----DDD#######--##--##-XXXXDDDDDDDDDDDDDDDDDDDDDDDDDDDDDDDXXXXXXXXXXX------
-----------------------#--#---#----XXXXX-tt--------------------------------------------------#--X----------------------------------------------X-------
-----------------------#--#--------------tt---------------------------------------------------#--------------------------------------------------------
-------TT--------------D--#--------------tt-----------TT---------------TT-------------------------------------TT--------TT---------T-------------------
-------tt----------------##--------------tt-----------tt-------o-------tt-------------------------------------tt--------tt---------tt--------------#---
-------tt---TT--XXXX-XXX-XXTT------------tt--------T--tt-------XXXXXX--tt--T---T-------------------------TTT--ttT---TT--tt----T----t--------XXXXXXXXXXX
-------tt---tt--XXXXXXXX-X-tt----------------------t--ttt------XXXXXXX-tt--t--tt----------------------X---tt-XXtX---tt--tt----tt--ttt-----X-XXX-XXXXXXX