-------------------------------------------------------------------------------D-----------------------------------------------------------D-----------
-------------------------------------------------------------------------------D-----------------------------------------------------------D-----------
-------------------------------------------------------------------------------D-----------------------------------------------------------D-----------
-------------------------------------------------------------------------------D-----------------------------------------------------------D-----------
-------------------------------------------------------------------------------D----------------------------------------o------------------D-----------
--------------------o----------------------------------------------------------DD--------------------------------------o------------D------D-----------
-------------------o-----------------------------------------------------------DD------o-----o--------------------------o-----------D------D-----------
-------------------#----------------------------o------o---------#-------------DD-----o-o---o-o---------------------------o-o-------D------D-----------
--------o---------##-----oo------o-------------o-oo---o-o-------##-------------DD----D-o-D---D-D-------------------o-o-D-D-o-D------DD--D-DDD-D--------
--------#o--------##----#--###--##XXDXXXXXX---DDDDDDDDDDDDDDXXX-##-------------DDDDDDDDDDDDDDDSSSSS-S--o-------#--##DDDDDDDDDDDDDDD-DDDDDDDDDDDDD------
-------M#---------##----#-y##--###XXXXXXXX-----------------XXXX-##------gggg-g-DD------------------o-T--o-----##---------------------------------------
-------###-----#--##-----##----##-------#------------------------#--DDDDDDDDDDDD-------------------SSt-XSSDD--##---------------------------------------
--------#------#--##----------------------------TT------TT---------------------D--------------------oo--o-D#--##--------------------T--------TT--------
--------#----#-#--##----------------------------tt------t----------------------D--------------------o---o-##--#---------------------t--------tt----#---
--------XX--XXXX-XXXX------------------------TT--t-----tt------X-XXXXXXXXXXXXXXXXXT-----TTT-XXXXXXXXXXXXXXXXX-X----------TT-----TT--t---TT---tt---TXXXX
--------XX--XXXX-XXXX------------------------tt--tt----ttt-----X-XXXXXXXXXXXXXXXXXttt---ttt-XXXXXXXXXXXXXXXXX-X----------tt--XX-tt-tt---tt---tt---tXXXX