---------------------------------------D-------------------------DD------D-----D-----------------------------------------------------------------------
---------------------------------------D-------------------------DD------D-----D-----------------------------------------------------------------------
---------------------------------------D---------------D---------D-------D-----D-----------------------------------------------------------------------
---------------------------------------D---------------D---------DD------D-----D-----------------------------------------------------------------------
-------------------------------------------------------D---------D-------D-----D-----------------------------------------------------------------------
-------------------------------------------------------D---------D-------D-----D-----------------------------------------------------------------------
------------------------o------------------------------D---------D-------D-----D-------o---------------------------------------------------------------
------------------------------------------o------------D------o--D-------D-----D-------Do-------------o------------------------------------------------
M------------------oo--Xo-XXXXXXXX---D---o-------------D-----D-o-D-------D-----D-------o-o-D---------##-----------------o----------o-------------------
XXXXXX----------SSSS##-XXTXXXXXXXX--###XXXXXXX-XXXSSSSSS-DDDDDDDDDDDDDD--DDDDD-DDDDDDDDDDDDDD----##--##-##SSD---------#-##---##---X--------------------
XXXXXX--#---------------tt-------#------XXXXXXXXX------------------------------------------------#---##-----D--------D--#---##X--XX#--y#-#-------------
--------#----------------------------------------------------------------------------------------#---#---SSSD----DDDDDD---##-t------##---t-------------
--------#-------o---------------------TT------------o---------TT---------------T-------T-------------#----oDD----D-------------------#---o-------------
--------oo------#---------------------tt-----------oo---------tt---------------tt------t----------oo-#---oooD----D--------------------------------##---
----XXXXXXXXXXXXX---------------------tt----------XXXXXX--TT--tt---TT------TT--t---TT--X--TT---X-XXo-XX-XXoXXXXXXXXXXXXX---------------XXXXXXXXXXXXXXXX
----XXXXXXXXXXXXXX--------------------tt---------XXXXXXXX-tt--tt---tt------tt--tX--tt--t--tt---X--XXXXX-XXXXXXXXXXXXXXXXX-------------XXXXXXXXXXXXXXXXX