-------------------------------------------------------------------------------D-----------------------------DD---------------------------D------------
-------------------------------------------------------------------------------D-----------------------------DD---------------------------D------------
-------------------------------------------------------------------------------D-----------------------------DD---------------------------D------------
-------------------------------------------------------------------------------D-----------------------------DD---------------------------D------------
-------------------------------------------------------------------------------D-----------------------------DD---------------------------D------------
-------------------------------------------------------------------------------D-----------------------------DD----D----------------------D------------
-----------o----o--------o-----------------------------------------------------DD-----------o----------------DD---------------------------D------------
----------o----Xo--------o-----------------------------------------------------DD-o--------------------------DD-------o-------------------D------------
M--------o-o---oo-------Xo------D---------oD---XXXXXXXXXXXX--------------------D-D-o-----XXXXXXXXXX----------D------o--D-----o-o----------D----##------
XXXXXXXXXXXXTTXXXTXXXXXXXXXXX--S-----------D--##XXXXXXXXXXX--#-----TTXXXXXX----DDDDDDDDDDXXXXXXXXXXXXXXT-----DDDDDDDDDDDDD-DDDD-o---DDDD--D----##------
XXXXX-XXXXXXttXXXtXXXXXXXXX-----------gD-ggD-----------------#-----tXXXXXXX----------------------XXXXXXt-------------------------D--------D#---##------
------------tt--tt----------------DDDDDDDDDDDD---------------#-----tt----------------------------------tt--D-------------------------------#---##------
------------tt--tt-------------------------------------------#----ttt-----------TT---------------------t-------------------------T---------#---#-------
------------tt--tt------------------------------------------##----ttt-----------tt---------------------t-------------------------t---------#---#-------
--------TT--tt--tt--------XXXXXXXXXXXXXXXXXXXXXXX--------XX-XX----ttt--------T--tt---TT----------------XXXXXXX---------------TT--tt--TT-XXXXXXXXXXXXXXX
--------tt--tt--tt-------XXXXXXXXXXXXXXXXXXXXXXXX----XX-XXX-XX--X-ttt--------t--tt---tt----------------XXXXXXX---------------tt--tt--tt-XXXXXXXXXXXXXXX