---------------------------------------------------------------D-------------------------------------------------------------------------------DD------
---------------------------------------------------------------D-------------------------------------------------------------------------------D-------
---------------------------------------------------------o-----D-------------------------------------------------------------------------------D-------
--------------------------------------------------------o------D-------------------------------------------------------------------------------D-------
-------------------------------------------------------o-------D-------------------------------------------------------------------------------D-------
-------------------------------------------------------#-------D-------------------------------------------------------------------------------DD------
M------------------------o-----o----------------------o--------D-------------------------------------o-----------------------------------------DD------
XXXXXXXX----------------o-o---o-o--o-------------#----#--------D------------------------------------o-o----------o------------------------------DD-----
XXXXXXXXXXX---oD---------o-o-o-o--DDD-D---------##----#-----D--D----oo--o--------D---------------o---D-D--------o-o-o----#----------------------DD-----
-------XXXXXXXoD------DDDDDDDDDDDDDDDDDD--------##---##--DDDDDDDDDDD##--#DXX-----D-----------DD--DDDDDDDDD---DD--DDDDD---##XXXXXX----------------D-----
-----------XXXXX--D-----------------------------##---#---------------#-y#-XXXX---D-------------------------S--D----------#--XXXXX--T-------------------
---------------DD-D--------------------------#--##--------------------##-----X---D--------tto---------------SSD--------------------tt------------------
---------------D--D-----TT---T-----T---------##-##-----o---------T---------------D--------tTo---TT----------ooD-------------------tto------------------
------------------------tt--tt---------------##-##-----o---------tt--------------D--------ttg---tt----------ooD-------------------tto------------------
----XXXXX---XXXXXXXXXXX-tX---t--TT----XXXXXXXXX-XXXXXXXXX---TT---tt-----------X-XXXXXXXXXXXXXTT-tt----TT--XXXXXX---TT---TT-------XXXXXXXX---T----------
---XXXXXXXX--XXXXXXXXXXXttX-ttt-tt-XXXXXXXXXXXX-XXXXXXXXXX--ttt--tt-------------XXXXXXXXXXXXXXX-tt----tt--XXXXXXXX-tt---tt-------XXXXXXXX---t---t------