---------------------------------------D-------------------------------------------------D-----------------------------------------------------D-------
---------------------------------------D-------------------------------------------------DD----------------------------------------------------D-------
---------------------------------------D--------------------------------------------------D----------------------------------------------------D-------
---------------------------------------D--------------------------------------------------D----------------------------------------------------D-------
---------------------------------------D--------------------------------------------------D----------------------------------------------------D-------
-----------------------D---------------D--------------------------------------------------D----------------------------------------------------D-------
M----------------------D---------------D--------------------------------------------------D----------------------------o------o----------------D-------
X----------------------D---------------D---------------------------------------D----------D---------------------------o-o---oo-o---------------D-------
XXXXXXXXXXXXXXXX-------D---------------D----------XXX----------------o---------D-----o-o--D--------------------------o-o-o-o--o-o-----------D--D-------
XXXXXXXXXXXXXXXXSSD----D---------------DXXXXXXXXXXXXXXXX---------o---#---------DD-DDDDDDDDDDDDDDDDDD---------------DDDDDDDDDDDDDDDDDDDDDDD-DD--D-------
-----------------------D--DggDD--DDDD--D---XXXXXXXX-------------o-o--#------Dg-DD--------------------X-TToo--------------------------------------------
----------------------DD-DDDDDDDDDDDDD-------------------SDDDDDD-ott-#---DDDDDDDD----------------------ttoo--------------------------------------------
-----------------T----DD--------------------------------o-D---DD--t#-----D-----DD--------TT------------ttoo-----oD-----TT-----------TT-----------------
-----------------t-----D-------------------------------oooD----D--tt-----D------D--------tt------------ttgg----ooo-----tt-----------tt-------------#---
-----------XXXXX-XX---TT-XXXXXXXXXXXX-----------------XXXXXXXXXX--XtX--XXXXXXXXXX----TT--tt---TT----T--XXXXXXXXXXX-XT--tt--TT---TT--tt-TTT---TTXXXXXXXX
----------XXXXXX-tt---tt-XXXXXXXXXXXX-----------------XXXXXXXXXX--tt---XXXXXXXXXX-----t--tt---tt---tt--XXXXXXXXXXXXXX--tt--tt---tt--tX--tt---tt-XXXXXXX