-------------------------------------DD------D------------------------------------D--------------------------------------------------------------------
-------------------------------------D-------DD-----------------------------------D--------------------------------------------------------------------
-------------------------------------D-------D------------------------------------D--------------------------------------------------------------------
-------------------------------------D-------D------------------------------------D--------------------------------------------------------------------
-------------------------------------D-------D------------------------------------D--------------------------------------------------------------------
-------------------------------------D-------D------------------------------------D--------------------------------------------------------------------
---------o---------------------------DD------D------------------------------------D------o-------------------------------------D-----------------------
---------o--------D------------------DD------D-----------o------------------------D-----o-o------------------------------------D----------#----------tX
--------D---------D------------------DD------DD--------Do-o---------------oo-D-----D---o-o---TTTooo----o-----------------------------TT--X#--#--TXXXXXX
-M------DSSSSSSSSDD------------D------D------DD-DDDDDDDDDDDDD-----#------#D-oXXXXXXXXXXXXXX--##-#####-###XXXXXXXXXXX-----------------tt--##--XXXXXXXXXX
-XX------------oSDD------------D-----DD-DD-----------------------#---gg-g--XXXXXXXXXXXXXXXX--#t-------X---XXXXXXXXXXX------------TToott--##--XXXXXX---T
---------------oSDDDDD-D------tt------DDDDD------------------------DDDDDDDD-t----------------##------#--------------------------tttoott--##------------
--------------o-oDDD---D------tt-----------------------TT-------------------t----------------##---------------------------------ttooott--#t------------
--------------o---DD---D------tt-----------------------tt------------------tt----------------#t---------------------------------ttoggtt---tt-----------
-------XXXXXXXXXXXXXXXXXXXXXXXtX--TT---X-XX-XXXX---TT--tt---TT--XXXXXXXXX--tt------------XXXXXXXXXX--------------------TT---XXXXXXXXXXXXXXXt-----------
--------XXXXXXXXXXXXXXXXXXXXXXtX-ttt---X-X-XXXX-XXttt--tt---tt--X-XXXXXXXXttt------------XXXXXXXXXXX-----------------X-tt--XXXXXXXXXXXXXXXXt-----------