-------------------D-----------------------------------------------------------------------------------------------------------------------------------
-------------------D-----------------------------------------------------------------------------------------------------------------------------------
-------------------D-----------------------------------------------------------------------------------------------------------------------------------
-------------------D-----------------------------------------------------------------------------------------------------------------------------------
-------------------D--------------------------------------------------------------------------D--------------------------------------------------------
-------------------D--------------------------------------------------------------------------D--------!-------------------------------!---------------
-------------T-----D-------------------------------------------o-----------------------------DD--------o-----------------------------------------------
M----------o-tt----D-----------D-------------------------------o----o--------------o---------DD--------------------------------------------------------
XXXXXXXXXXo-ott------------------TT--------------------TT----oo-o-----o-----------Xo---------D--DD----------------oo-----------o-----------------------
XXXXXXXXXXXo-tt---##-----------o-tt-------o------------tt---DDDDDDDDDDDDDXXXXXXXXXXXDDDDDDDD-DDDDDDDDDDDDDDDDD#--XXDDD---------o-----o-XX--XX----------
-------------t----##---D----TTooott-----gg-g-g-D--g----tt--------------tt-XXXXXXXXXXtt------------------------XXXXX------g--gDgDDDD-D-DXXXXXt----------
------------------##--#D----tttoott---DDDDDDDDDDDDDD---tt---------------------------tt---------------------------X----DDDDDDDDDDDDDDDDD----------------
---------------#--##--#D----tt-oot----------------D----tt------T-------t------------tt----------TT---TT------------------------------------------------
--------------##--##--#D----tttggtD--------------------tt------t-------t------------tt----------tt---tt--------------------------------------------#---
--------TT----XX-XXXXXXXXXXXXXXXXXXXXXXXXXXXXXXXXXXXXXXXXXXX--Tt---T---t------------ttt------TT-tt---tt-------------XXXXXXXXXXXXXXXXXXXXX------TTXXXXXX
--------tt----XX-XXXXXXXXXXXXXXXXXXXXXXXXXXXXXXXXXXXXXXXXXXXX-tt--tt---tt-----------ttt------tt-tt---tt-------------XXXXXXXXXXXXXXXXXXXX-----XXtX--XXXX