---------------D---------------D----------------------------------------------------------------------------------D--------D------------------D--------
---------------D---------------D----------------------------------------------------------------------------------D--------D------------------D--------
---------------D---------------D----------------------------------------------------------------------------------D--------D------------------D--------
---------------D---------------D----------------------------------------------------------------------------------D--------DD-----------------D--------
---------------D-------o------------------------------------------------------------------------------------------D--------DD-----------------D--------
---------------D-------Do-----------------------------------------------------------------------------------------D--------DD-----------------D--------
---------------D-------D---------------------------------------------------o----------o------------------------o--D---------D-----------------D--------
------------o--D-------DSSD---------------------------------------D--------#---------o------------------------o-o-D---------DD--------o-------D--------
-----------o---D----------D---------TT---------D--------D---------D-------##--------o-o--------------XXXXXo-oo-o-DD---o-D---D-o-D----o--------D--------
M-XXXX---DDDDDDD----------------SSS----SS#-----#-#D-----D--------DD----#--#D-DDDDDDDDDDDXX--##---------XXDDDDDDDDDDDDDDDDD-DDDDDDDDDDDDDDDD---DD-------
XXXXXX--------------------D----#-##-----------##------DDD------g-DD----#--------------------##------------------------------------------------D--------
------------------D----D--D---##-##-----------##---DDSSDD----DDDDDD----#--------------------##---------------------------------------------------------
----------TT------D---o---D---##-----------#--##------oDD---------D---##------TT------------##-----------------------------------T---------------------
----------tt---D--DoooD-------##---------####-##------o-D-------------##------tt------------o#----------------t---------D--------t-----------------#---
------TT--tt---XXXXXXXXXXXXXXXXX-XXXXXXXXXXXX-XXXXXXXXXXXXXXXXXXX-XXX-#X--T---tt---TT--TT---XXXXXXX--TT--t---tt--------TT----TT--t----TT---XXXXXXXXXXXX
------tt--ttt--X-XXXXXXXXXXXX-XX-X--XXXXXXXXX-XX-XXXXXXXXXXXXXXXXXXXX-XX--t---tt---tt--tt-XXXXXXXXXX-tt-tt---tt--------tt----tt-tt----tt--XXXXXXXXXXXXX