-------D-------------------------------------------------------------------D---------------------------------------------------------------------------
-------D-------------------------------------------------------------------D---------------------------------------------------------------------------
-------D-------------------------------------------------------------------D---------------------------------------------------------------------------
-------D-------------------------------------------------------------------D---------------------------------------------------------------------------
-------D----------o------------------------------------------------------------------------------------------------------------------------------------
-------D-----------------------------------------------------------------------------------------------------------------------------------------------
-------D-----------------------------------------------------------------------------------------------------------------------------------------------
M---------------------------------------------o--------------------------------------------------------o-----------------------------------------------
XXXXXXXXXXXX----##---#-----------------------o-o---------------------------o----o---------------------o-oo---------------------------o-ooo---oo--------
XXXXXXXXXXXXX---X#---#----##-------------DDDDDDD--TT------------#---------o----###TTXXXXXXXX--------DDDDDDDDDD---DD--------------DDDDDDDDDDD#####------
----------------##t-##-----#-X--------------------tt-----TT---------------#----#-XttXXXXXXXXX---g-g----------------------------------------------------
----------------##--##------##----o--------------ott----Dtt----------##--##-------t---------DDDDDDDDD--------------------------------------------------
----------------##t-##-----------ooo---------TT---ot----oDt----#-----##-###-------t-------------------TT-------------------------------T---------------
----------------##---------------oo----------tt---tt----oDD----#-----##-####------t-------------------tt--------------o----------------t-----------#---
----------------XXXXXXXXX------XXXXXXXXX-TT--tt--XXXXXXXXXXXXX-X-----XX-XXXXXXXXXXtt--------XXXXXXXXX-tt---T---TT---XXXXXXXXXX---TT----tt----------XXXX
----------------XXXXXXXXX------XXXXXXXXX-tt--tt--XXXXXXXXXXXXX-X-----XX-XXXXXXXXXXX--------XXXXXXXXXX-tt---t---tt--tt-XXXXXXX-X--tt----tt-----------XXX