-------------------------------D-----------------D---------D---D-----------D-------D------------------D------------------------DD-----D----------------
-------------------------------D-----------------D---------D---D-----------D-------D------------------D------------------------DD-----D----------------
-------------------------------D-----------------D---------D---D-----------D-------D------------------D------------------------DD-----D----------------
-------------------------------D-----------------D---------D---D-----------D-------D------------------D------------------------DD-----D----------------
-------------------------------D-----------------D---------D---D-----------D-------D------------------D------------------------DD-----D----------------
M------------------------------D-----------------D---------D---D-----------D-------D------------------D------------------------DD-----D----------------
XX-----------------------------D--------o------o-D---------D---------------D-------D------------------D------------------------DD-----DD---------------
XXX----------------------------D-------o-o----o--D---------------------------------#------------------D----------o-----o-------DD-----D----------------
-XXXXXXo-oD-D----Do-oD-o------#D------o-o-D----o-D---------D-----------D----------##-----o------------D----------o-oD-D-o-o-----D------D-D-D--D--------
--XXXXXXDDDDDDDDDDDDDDDDDDDD--#D-##--##DDDDDDDDDDDDDDD-#--#T---T------SD-------o--##----##-----Too------Dt----DDDDDDDDDDDDDDDXXXXXXT---DDDDDDDDDD------
----------------------------------#--##----------------#--#--Xttooot-o-D------##--##----##-----Tooo--TToot-------------------XXXXXXtt------------------
-----------------------------------###------------------------ttooott-SD------##--##----##-----ttoo--ttott-------------------------tt------------------
--------TT----------TT-------------------------TT-------------ttooott-oD------##--##----##----ttto--tttoot-----T----------TT-------tt------T---T-------
--------tt----------tt-------------------------tt----------t--tttgtt--gD------##--##----##----tt----tttggt-----t----------tt-------tt----------t---#---
-----TT-tt------TT--tt--TT----------------TTT--tt---------XXXXXXXXXXXXXXXXXXXXXX--XXXXX-XXXXXXXXXXXXXXXXXXXXXX-Xt----Tt---tt---TT--tXXX-TT--X--XX-XXXXX
-----tt-tt------tt--tt---t-------------X--ttt--tt---------XXXXXXXXXXXXXXXXXXXXXX-XXXXXX-XXXXXXXXXXXXXXXXXXXXXXXttt---tt---tt---tt-XXXXX-tt-XtX-XX-XXXXX