-------------------------------------------------------------------D---------------D-------------------D-----------------------------------------------
-------------------------------------------------------------------D-----------------------------------D-----------------------------------------------
-----------------------------------------------------------------------------------------------!#------D-----------------------------------------------
-------------------------o-----------------------------------------------------------------------------D-----------------------------------------------
------------------------D------o-----------------------------------------------------------------------D-----D-----------------------------------------
-------------------------------o---------------------------------------D-----------------------t-------D-----D-----------------------------------------
-----------------------------------------------------------------------D-----------------------o-------D-----D-----------------------------------------
-----------------o----------------------DD-----------------------------D-------o-----------------------DD----D------------o----------------------------
--M----oo-------o----#-o---XXXXXXXXXD----D-----------oo----------o-----D---XXXXX---o-------XXXXXX------DD----DD----------D-Do--------------------------
--X----#-###---XXX--###-#--XXXXXXXXXDDDDDDDDDDDD##--##-X#-XT-#---###XXXXXXXXXXXX--##---XTTXXXXXXXDDD----D----DD-DDDDDDDDDDDDDDD---DDD-D---DDD-TXX------
------##--X--XX-----#--------------------------------#-D--tt-X-XXXtt----XXXX---#--##----tt--------------D----DD-------------------------------ttXXXX---
------------------------------------------------------#---tt---#--t---------------##----tt--------------DDDDDDD-------------------------------tt-------
---------------------------------------T--------------#---tt---o--tT--------------##----t------T-------------DD----TT--------T---------T------tt-------
---------------------------------------t-------------o----tt---o--tt--------------##-----------t-------------DD----Dt--------t---------tt-----t----#---
-----------------------------------TT--t----X-XXXXXXXXXXXXXXXXXo--tt---------------X-----------t---TT--XXXXXXXXXXXXXXX--TTX-XXXXXX-XT--tt----tt----XXXX
-----------------------------X--X--tt--tt--XX-XXXXXXXXXXXXXXXXXXX-tt---------------X-----------t---tt--XXXXXXXXXXXXXXXXXttX-XXXXXXXttt-tt----tt----XXXX