----------------DD-----------------------------D--------------------------------------------------------------D-----------D----------------------------
-----------------D-----------------------------D-------------------------------------------------------------DD-----------D----------------------------
-----------------D-----------------------------D--------------------------------------------------------------D-----------D----------------------------
-----------------D-----------------------------D--------------------------------------------------------------D-----------D----------------------------
-----------------D-----------------------------D--------------------------------------------------------------D-----------D----------------------------
-----------------------------------------------D-------------------------------D-----------------------!--t---D----------------------------------------
-----------------DD-----------------------o----D--------------------------o----D------------------------------D-------D--------------------------------
M-----------------D------------------------o---D-------------------------o-o---D----------------o-------------D-------D--------------------------------
XXXXXXX-D---------D----------------------oo----D--------------------------o-o--D-------o-----o-o-o----XXXXXXXXX------D------------o-D----o-o-----------
XXXXXXX##S-S--##--DDDDDDDDDDDDD#-XXXXX--##-----D-------------#-DDDDDDDDDDDDDDDDD------###D--XXSDDDDDSSSXXXXXXXXS-----DDDDDDDDDDDSDDDDDDDDDDDDDDD-------
--------------##-----------------XXXXX--##-----#----##-----------------------------#--#---XXXX------------------o----D---------------------------------
--------------##------------------------#-----##----##-----------------------------####-----Xoo-------------------SS-D---------------------------------
--------------##-------T----------------------##---------------D-------------------#--------tooT--------o------------TD-------TT------------T----------
--------------##------tt----------------------##---------------D------------------##--------tggt--------o------------tt-------tt-----------------------
---------X----XX--XTT--t---TT--t-----------X--XX-------------------T---TT---TTT--XXXXXX-XX--XXtt---TTT--XXXXXX-------tt---TT--tXT--T---TT---t----------
--------------X-XX-tt-tt---tt--tt----------X--XX---------------tX--t---tt---ttt--XXXXXXXXXXXXXtt----tt-XXXXXXXX-XXXtttt---tX--XXX--tt--tt---t----------