------DD-----------------------------------------------------------D------------------------------D----------------------------------------------------
------DD-----------------------------------------------------------D------------------------------D----------------------------------------------------
------DD-----------------------------------------------------------D------------------------------D----------------------------------------------------
-------D-----------------------------------------------------------D-----------------------------DD----------------------------------------------------
-------D-----------------------------------------------------------D-----------------------------D-----------------------------------------------------
-------D-----------------------------------------------D-----------D-----------------------------D-----------------------------------------------------
-------D---------------------------------------o------DD-----------D-----------------------------D-----D-------------------------------o------o--------
M------D-----------------------------------------------D-----------D----------------TT--------o--D------------o-------------o-----------o----o-o-------
XXXXXX-D---------------------------TT---XXXXXXXXXXX----D---------o-D--o---T---------ttXXX---XXD--D-----D-----o-o-o-XXXXXXXXXXo-o----XXXX-o--o-o-o------
XXXXXXDDDDDDDDDDDD----#---##-------tt--##XXXXXXXXXX---DDDDDDDDDDD###--#--##TT-o-T-oottXXXXXXXXX--D-----DDDDDDDDDDDXXXXXXXXXXX###XXXXXXXXDDDDDDDDDDD----
-------------------------y#----TT-ott--------------------------------X#-y#-ttX-tTooott----XXXX---D-------------------------------XXXX------------------
------------------------##-----ttoott-----------------------------------#--tt--ttooott-----------------------------------------------------------------
--------------TT---------------ttoott---------------------T----------------t---ttooottt-------------------------------------------------o-------T------
--------------tt----------------tgtt----------------------t----------------t---ttoggtt--------------------------------------------------o-------t------
---------TTT--tt---------------XXXXXXX--------------------tT---T-----------t---XXXXXtt---------------TT----TT----TTT----TT------------XX-X--TT--tt-XX-X
---------ttt--tt----------------XXXXXXX-------------------tt---tt----------t---XXXXXtt-------------X-tt--X-ttt-X-ttt----tt------------XXXXX-tt--tt-XX-X