------------------------------------------------------------------------------------------------------------------D------------------------------------
------------------------------------------------------------------------------------------------------------------D------------------------------------
-------------------------------o----------------------------------------------------------------------------------D------------------------------------
--------------------------------o--------------------------------------------o------------------------------------D------------------------------------
-------------------------------D--------------------------------------------o-------------------------------------D------------------------------------
-------------------------------D---------------o------------------------------------------------------------------D------------------------------------
M------------------------------D---------------#---------------------------------------o--------------------------D-------------o----------------------
X------D-----------------------D--------------##--------------o-----------------------o-o-------------------------D------------oo----------------------
XXXXXXXX-------------------D---D-----------o--##-XXXXXXX-----o-o-------o-----D-------o-o-D----o----------------o-DD--------------o---------o-o---------
XXXXXXXX---o------X--------D---D-SSSSS--####--#X-XXXXXX##XXXXXXX-------y##--####-DDDDDDDDDDDDDSD-D---SSSSSSSSSXX-DDDDDDDDDDDDDDDDDDSSSSSSSDDDDDDD------
----------##--XDXXX--D-g-g-D--DD--------------------------XXXXXX----##-y##-#------------------SS-D-----------------------------------------------------
----------##------DDDDDDDDDDD-DD-----DDD-----------------------t-----##y--#--------------------SSt------------D--------------------------S-------------
----------##---------------oooDD------------------------------------------------------TT--------oD-----o-------o-TTT----------------------oo-----------
----------##---------------oooDD------------------------------------------------------tt-------ooD-----oo------o-ttt----------------------oo-----------
----------XX------XXXXXXXXXXXXXXXXXXXXXXXX----------------------------------------TT--tt------XXXXXXXXXXXXXXXXXX-ttt---T---TT--TT---XXXX-Xoo--TT---XX--
----------X--------XXXXXXXXXXXXXXXXXXXXXXX----------------------------------------tt--tt-t----XXXXXXXXXXXXXXXXXX-ttt---t---tt--tt--XX-XXXXXXX-tt---XXXX