-------------------------------------------D-------------------------------------------------------------------------------------------------------D---
-------------------------------------------D-------------------------------------------------------------------------------------------------------D---
-------------------------------------------D-------------------------------------------------------------------------------------------------------D---
---------------D-----------------------------------------------------------------------------------------------------------------------------------D---
---------------D-----------------------------------------------------------------------------------------------------------------------------------D---
---------------D-----------------------------------------------------------------------------------------------------------------------------------D---
---------------D--------------o--------------------------------------------------------------------------------------------------------------------D---
---------------D-------------o-o------------------------------------------------------------------------------------------------------------D------D---
-----o---------T--------o-o---o-o----------XXXTT---X---XXXXXXX--XXXXXXXXXXXXXXXXXX--------------XXXXXXXXXXXXXXXXXXXXoo--o-------------------D----------
-M--X----------D-----DDDDDDDDDDDDDD-------XXXXXXXXXXXTXXXXXXXXX--XXXXXXXXXXXXXXXXX---SSSSXXXXX####XXXXXXXXXXXXXXXX--##-y#####----------T----DD-----D---
-XXXX#----TT-o-D------------------------------XXXXXXttt--------------------------D-----XX-XXXX-----------------------#-y#--------------t----D-----Dg---
----#------t-SSt-----------------------#------------ttt---------------------------------------------------------------##-----------Too-tt--DDDDDDDDDD--
-------------ooD----------------------o#------------ttt----------------------------------------------------------------------------too-tt----------D---
--------------oD----------------------o-------------tt-----------------------------------------------------------------------------tog-ttg-------------
--------XXXXXXXXXXXX--TT---TTT-----XXXXXXXXXX--T----tt----------XXX---------------XXXXXXXXXXX---------------------------------XXXXXXXXXXXXXXXXXXXXXXXXX
--------XXXXXXXXXXXXX-tt---ttt-----XXXXXXXXXXX-tt---tt--------XXXXX---------------XXXXXXXXXXX--X-----------------------------XXXXXXXXXXXXXXXXXXXXXXXXXX