-------------------------------------------------D--------------------------------------------------------------------------------------------D--------
-------------------------------------------------D--------------------------------------------------------------------------------------------D--------
-------------------------------------------------D--------------------------------------------------------------------------------------------D--------
-------------------------------------------------D--------------------------------------------------------------------------------------------D--------
M------------------------------------------------D--------------------------------------------------------------------------------------------D--------
X------------------------------------------------D-------------------------------------------------------------!------------------------------D--------
XXXX----o----------------------------------------D----------------------------------------------------------------------o------------------------------
XXXXXXXX-o------------o----------------------------o-----------------------------o-----------o-D---------------#-------o-o-----------------------------
-----XXXo-o----------o-o------oo---------o----------oDD-DXXXXXXXXXXX-----D-----XXXo--------XXXoD--------XX-XXXXXXX-o--o-o-o------------o---------------
-------DDDDDDD-X-###XXtTX-###--#---###XXXXX-###DDDDDDDDDDDXXXXXXXXXXX-#-##--DDDXXX--X#XXXXXXXXXX----o---XXXXXXXXX###DDDDDDDDDSSSSSSTT-----------o------
---------------#--##-Xtt-X----##--y#--XXXXXXX------------------------X#---------------XXXXXXX--------------X---------------------X-tt----#-----g-D-----
--------------##------tt--------###--------#-------------------------#-----------------------------#-----------------------------oott----##DDDDDDDDD---
----------------------tt-----------------------------TT---------------------------TT---------------#-----------------------------oott------DD----------
----------------------tt-----------------------------tt---------------------------t---------------##-----------------------------oott-----o------------
--------tt------------tt------------------------TT---tt--TT-------------------TT--t---------------#X-----------------TT----------XXXXXXXXXXXXXXXXXXXXXX
---------t------------tt------------------------tt---tt--tt-------------------tt--tt---------------X-----------------tt----------XXXXXXXXXXXXXXXXXXXXXX