-------------------------------------------------------D-----D-------------------------------DD--------------------------------------------------------
-------------------------------------------------------D-------------------------------------DD--------------------------------------------------------
---------------------------------------------------------------------------------------------DD--------------------------------------------------------
---------------------------------------------------------------------------------------------DD-----------------------------------------------o--------
---------------------------------------------------------------------------------------------DD----------------------------------------------o---------
---------------------------------------------------------------------------------------------DD--------------------------------------------------------
-------------------o-------------------------------------------------------------------------DD--------------------o-----------------------------------
M----------------o-oo---------------------------o-----------------------------#--------------DD-------------------o--------------------o---#---o-------
XXXXXXXo--------o-----------------------D------o-oo-o--X#-XXXXXXXX-----------##---------------D------oo--------D-o------o-------------o-o--#---#-------
XXXXXX#----D-DDDDDDDDDDDSSSSSS#---#---#-##DDDDDDDDDD##-X##XXXXXXXX-------#---#-----SSSSSS----DD-----oo-o-----D--D------o-o-------------#---#---#D------
-----------------------------D-------y#--------------------------D------##---#-----------gg-DDD-----#-------------D---D-D-----------#--#t--#-y#--------
----------tt-----------------#--DD--##---------------------------D------##---#---#------DDDDDDD-----#--#---------DDDDDDDDDD------------#----##---------
----------tt------TT------------D----------------T---------------D-----oo#------##-----------DD-----#---------------------DD-------#---tt--------------
----------tt------tt---o------------------------tt---------------D-----ooD------##-----------DD----t----------------------DD-------##--tt----------#---
----------tt--TT--tt--TT-------XXX-----------TT-tt--------------XXXXXXXXXXXXXXX-XXXXXXXXXXXXXXXXXXXXX--XT---TT--XXXXXXXXXXXXXXXXXXXXXX-tt----------XXXX
----------tt--tt--tt--tt-------XXXX----------tt-tt--------------XXXXXXXXXXXXXXXXXXXXXXXXXXXXXXXXXX-XX--Xt-XXtt-XXXXXXXXXXXXXXXXXXXXXXX-tt----------XXXX