-------------D-----------------D-----------------------D-------------------------D----D-----------------------------D-----------------D----------------
-------------D-----------------D-------D---------------D-------------------------D----D-----------------------------D-----------------D----------------
-------------D-----------------D-------D---------------D-------------------------D----D-----------------------------D-----------------#----------------
-------------D-----------------D-----------------------D-------------------------D----------------------------------D----------------------------------
-------------D-----------------D--------------------D--D-------------------------D----------------------------------D----------------------------------
-------------D-----------------D-------D---------------D-------------------------D-----------------------------D----D-----------------!----------------
-------------D-----------------D-------------------------------------------------D--------------------oo-------D----D-----------------o-------o--------
M------------------------------D----------------------------------------------------------------------o-o------D----DD------o----------------o-o-------
XXXXXXX-X-------------o-D------D---D----------------D----------o------oT----XXXXXXXXX-------------XXXXXo-o--D-oD----D-----o--o------------XXXXo-o------
XXXXXXXX#D---------T--#-D------D--##-----#---#------D--------SSSDXXXXXXtXXXXXXXXXXXXXXXT----##----XXXXXXDDDDDDDDDDDDDDDDDDDDDDD--XXXXXXXXXXXXXXD-------
---------------T--tt-------D-g-g--------#----#----ggggDgD---------XXXXttXXXXX----------tX---#-----------------------------------------XXXX-------------
--------------tt--ttt----DDDDDDD--------##--##D-DDDDDDDDDD------------tt---------------tt--##----------------------------------------------------------
--------------tt---t-----------D--------#---##---------DDo---o--------tt---------------tto-##------------------------TT--------------o-----------------
--------#-----tt---tt----------D------------##----------DD---D--------tt---------------ttg--#------------------------tt--------------o-------------#---
-----------XXXXXXXXXXXXXXXXXXXXXXXX---------XXXXXXXXXXXXXXXXXXXX------tt------------XXXXXXXXX------------TT----TT----tt----TT--X----XXXXX------TT-XXXXX
--------tt-XXXXXXXXXXXXXXXXXXXXXXXX---------XXXXXXXXXXXXXXXXXXXXX-----tt-----------XXXXXXXXXX------------tt----tt----tt----tt--X---XXXXXXX---X-tt--XXXX