-------------------D---------------------------------------------D-------------------DD----------------------DD----------------------------------------
-------------------D---------------------------------------------D-------D-----------DD----------------------DD------------D---------------------------
-------------------D---------------------------------------------D-------D------------D----------------------DD------------D----------D----------------
-------------------D---------------------------------------------D-------D------------D----------------------DD------------D---------------------------
-------------------D---------------------------------------------D--------------------D----------------------DD------------D---------------------------
-------------------D-----------------------------------------------------D------------D----------------------DD------------D---------------------------
-------------------D-------------------------------------o---------------D------------D----------------o-----DD-----D------D---------------------------
M------------------D------------------------------------o-o---------------------------D---------------oo------D-----D------D-------o-------------#-----
XXXXXXXXXXXXX------D----------o----------------o-------o-o-o-----D-------D---D-o---o-DD--XX----------o-oD-----D-----D------D-----o-oo----o-o-----#-----
XXXXXXXXXXXXXX-D---D----o----##---####---XX---#DDDDDDDDDDDDDD----#--------DDDDDDDDDDDDDD---#--##--DDDDDDDDDDDDDDD----------DD---DDDDDDDDDDDDDD--##-----
---------------DD-DDD-DD-D--D----#--XXXXXXXT--------------------#----ott------------------##--##----------------------TT-o-DD-------------------##-----
--------------SDDDDDDDDDDDDDDD--##--------tt--------------------##---ott------------------##--------------------------ttoo-D---------------------------
------------------------------------------tt----------TT--------#----oot-----------T---#--##---------TT-TT------------tto--D------TT---------Tt--------
------------------------------------------tt---o------tt------#-#---toot-----------tt--#--##---------tt-tt------oo---tttg---------tt---------tt---##---
-----XXXXXXXXXXXXXXXXXXXXXXXXXX-----------ttXXXXXXXXX--t--TT--X-XXXXXXXXXXXXX--TTXXXXXXX--XX------T--tt-tt---TT-XXXXXXXXXXXXX-TT--ttT--TT----Tt---XXXXX
-----XXXXXXXXXXXXXXXXXXXXXXXXX------------ttXXXXXXXXX-tt--tt--X-XXXXXXXXXXXXXX-tX-XXXX-X--XX------t--tt-tt---tt-XXXXXXXXXXXXX-tX--ttt--tt----tt---XXXXX