-----------------------------------D-------------------------------D---------------------------------------------------D-------------------------------
-----------------------------------D-------------------------------D---------------------------------------------------D-------------------------------
-----------------------------------D-------------------------------D---------------------------------------------------#-------------------------------
-----------------------------------D-------------------------------D---------------------------o-------------------------------------------------------
-----------------------------------D-------------------------------D--------------------------o------------------------!-------------------------------
-----------------------------------D-------------------------------D---------------------------------------------------!-------------------------------
------------------------o----------D-------------------------------D----------------------o--#----------o----------------------------------------------
M----------------------o-o---------D-------------------------------D---------------------oo------------o-oo--------------------------------------------
XXXX-----TT----o---o--o-o-o--------DD----D---------------D---------D------------XXXXXX---##---------D-o-o-Do-----XXXXXXXXXXXXX----------D-----o--------
XXXXX----tt----#-SSDDDDDDDDDDDXXXX-D-----D-----tD----So-##---------DD---SSSS#-XXXXXXXX--###--DDDDDDDDDDDDDDDDD----XXXXXXXXXXXD------o---D----o#--------
XXX--TTXott----#--------------XXXXXDD--TDo-tTootD----##-##--#-g-g-DDDD----S---XXX-------##-----------------------------------------D-g-DD----##--------
-----ttoott---##--------------------DD-too-tt-ot-----##--###DDDDDDDDDD-----------------###----------------------------------------DDDDDDDDDD-#---------
-----ttoott---------------------------ttoo-ttoot-----o---------------D-----------------###-----TT-------TT-----------------------------------#---------
-----ttogtt##-#--------------t--------ttog-ttggt----to---------------D-----------------###-----tt-------tt-----------------------------------#---------
----XXXXXXXXXXXX--T---TT---T-----XXXXXXXXXXXXXXXXXXXXX--------XXXXXXXXXX---------------XXXXXX--tt----TT-tt---------------t----X-XXXXXXXXXXXX-XX--------
-----XXXXXXXXXXX-Xt---tt---tt----XXXXXXXXXXXXXXXXXXXXX--------XXXXXXXXXX---------------XXXXXXX-tt---ttt-ttt--------------t----X-XXXXXXXXXXXXXXX--------