---------------------------------------------------------------------DD------------------------------------------------D-------------------------------
---------------------------------------------------------------------DD------------------------------------------------D-------------------------------
---------------------------------------------------------------------D-------------------------------------------------D-----------------------D-------
----------------------------------------------------------------------D------------------------------------o-----------D-----------D-------------------
----------------------------------------------------------------------------------------------------------o------------D-----------D-------------------
---------------------------------------------------------------------------------------------------------o-------------D-----------D-----------D-------
-------------------------------o---o-----------------------------------------------------o-----------------------------D-----------D----D------D-------
M-Xo--------------------------o-o-o-----------------------------------------------------o--------------o-#-------#---#-------------D----D--------------
XXXXX---------TT---------------o-o-o-----------o------------------oo--------------#----D--------------o-o#----#-##---D-o-----------DD--DD------D-------
XXXXXTTX------tt-------------DDDDDDDD--DDDD----#--------DDDDSS---XXXTTX--XXXX-----#----#---------o---DD--#---##-##---#-#--##--##----D---D------##------
XXXXXttX--TTXott-------------------------X----##--------------S-oXXXttXXXXXXXtXX--##--##------ggg-D---#--#---##-##-----#--##-y#----------------#-------
-----tt---ttoott------------------TT----------##---------------SStDtttt--------#--##--##----DDDDDDD---#--#---##-##-----#----##------D---------##-------
-----tt---ttoott----------oo------tt----------##--------TT-----oot-tttt-----------##--##-------------oo--#---##-##----o#------------D---------##-------
-----tt---ttggtt---------tog------tt-------##-##--------tt-----o-tttttt---------o-D#--#t-------------go-##---##-##---ooo------------D---------##---#---
-----t---XXXXXXXXXXXXXXXXXXXX-TX--tt---TT--XX-XX-------Ttt---XXXXXXXttX------XXXXXXXXXXXXXXXXXXXXXXXXXXXXXXX-XXXXXXXXXXXX--XX--XXXXXXXXXXXXXX-XXXXXXXXX
-----t----XXXXXXXXXXXXXXXXXXXXXX--tt---tt--XX-XX-------ttt---XXXXXXXttX----XXXXXXXXXXXXXXXXXXXXXXXXXXXXXXXXX-XXXXXXXXXXXXX-----X-XXXXXXXXXXXX-XXXXXXXXX