-------------------------------------------------------------------------------------------D-----------------------------------------------------------
-------------------------------------------------------------------------------------------------------------------------------------------------------
------------------------------------------------------D------------------------------------------------------------------------------------------------
-------------------------------------------------------------------------------------------------------------------------------------------------------
------------------------------------o------------------------------------------------------------------------------------------------------------------
-----------------------------------------------------------------------------------------------------------------------------------------------D-------
---------------------------------------------------------------------------o----------------------------------o--------------------------------D-------
-----------Do-------------------------------------------------------------o-o--------------------------------ooo-------------------------------D-------
MXXXX------D---------------------T---------o---o---o---------------------o-oD-o-o-----------DD--------------o-o-o----o-T-----------------------D-------
XXXXX--------D--DD--------------##------DDDDDDDDD-DDD------SDDD--------o-DDDDDDDDDD--------DDD-----XXXXXXXXXDDD-##--##XTXXXXXXXTXX-X-----------D-------
XXXX------------DD----------TT--tt-------------D----------------------##------------------g--D------XXXXXXXX-----#-yT-ttXXXXXXXttX--D----------D-------
----------------DD----------tt-ott------------------------------------##---------------DDDD-----------------------##---tt------tt---D----D-----DD------
-----------------D---o------tt-ott----------------------------T-------##-------------------D---------------------------tt------tt--DD---DD---D-DD------
---------------------o------tttgtt----------------------------tt------##------------oo-----D---------t-----------------tt------tt-o-----DD-----DD--#---
------XXXXXXXXXXXXXXXXX-XX--XXXXXX--------------TT---TT-------tt------#X------TT---XXXXXXXXXT--TT---Tt-----TT----------tt------tXXXXXXXXXXXXXXXXXXXXXXX
-----XXXXXXXXXXXXXXXXXXXXX--XXXXXX--------------tt---tt------ttt------##------tt---XXXXXXXXXt--tt---tt-----tt----------tt------tXXXXXXXXXXXXXXXXXXXXXXX