------------------------DD-----------------------------------------------------------------------------------------------------------------------------
-------------------------D-----------------------------------------------------------------------------------------------------------------------------
-------------------------D-------------------------!---------------------------------------------------------------------------------------------------
-------------------------D-----------------------------------------------------------------------------------------------------------------------------
-------------------------D-----------------------------------------------------------------------------------------------------------------------------
-------------------------D-----------------------------------------!-----------------------------------------------------------------------------------
-------------------------------------------------------------------------------------------------------------------------------------------------------
M-------------------------------------------------------------------------------------------------------------------------o----------------------------
XXXXXXXX-----------------------XXXXX---o-XXXXXXXXXXXX----o--oo--o-X-X-XXXXXXXXo--oo---o-------------o---------o--------o-o-o-----------------TT--------
XXXXXXX--SSS##-----#-XXXXXXXXXXXXXXX--##-#XXXXXXXXXXX---##--##--##XXXXXXXXXXX-#--###--#-###SSSSSS--DD--------o-TTXXXXXX#-###DDDDDDDDDD-----XTTtoo------
------------D--------XXXXXXXX-X-------------------------X#---#-y-------X-------#-X#--y#----------------------XXttXXXXXX#-----------------TXXtttoot-----
---------DSSDDDDDD--------------------------------------##---##-----------------#---##-------------------------tt------#--------------------tttoot-----
----------oDD-----------------------------------------D-##------------------------------------------TT---------tt------#--------------------tttoot-#---
------------D----------------------------------------#o-##------------------------------------------tt---------tt------#--------------------tttDgt-#--X
----XXXXXXXXXXXXXXXXXXXXXXXXXXXX---TT----------------XX-XX------------------------------------------tt----TT---tt------XXXXX---TT---------XXXXXXXXXXXXX
---XXXXXXXXXXXXXXXXXXXXXXXXXXXXX-X-tt----------------X--XX------------------------------------------tt----tt--Xtt------XXXXXXX-tt---------XXtXXXXXXXXXX