------------------------DD-----D---------D-------------------------------------------------------------------------------------------------------------
------------------------DD-----D---------D-------------------------------------------------------------------------------------------------------------
------------------------DD-----D---------D-------------------------------------------------------------------------------------------------------------
------------------------DD-----D---------D-------------------------------------------------------------------------------------------------------------
------------------------DD-----D---------D---------------------------D---------------------------------------------------------------------------------
-------------------------D-----D---------D---------------------------D---------------------------------------------------------------------------------
----------------o--------D-----D----------------------o--------------D----o----------------------------------------------------------------------------
M--------------o--------DD--------------------------oo-o-------o-----D---o-o-----o------------o----------------------------------------------o---------
XXXXXXXX------o--XX------D-----o-o--------#-------o-DDoDDDDD---------D--D-o-DD--o-o----------o-o---------------D------------o--------XXXXXXXo----------
XXXXXXXXXXXXXXXXXXXX-D---##---#######-XX--##--DDDDDDDDDDDDDDDDDDD---DDDDDDDDDDDDDDDDDD--------SSSSSS-----------D-------o---###-XXXXXXXXXXXXX##--#------
----------ttXXXXXX--------##--#--------#--##-----------------------------------------------------------------D-DD----Dg-g-#----XXXXXX--------#-y#------
--------------------------##D#---------#--##------------------------------------------------S-------SS----DDDDSDDDDDDDDDDDD-------------------##-------
--------------------------#------------#--##-------------------------------TT---------------oo-------oo--------DD--------------------------------------
--------------------------#------------#--##--------t----------------------tt----------o---ooo------oooD------oDD----------------------------------#---
--------TT------TT----TX--XX-----T--------XX---T----t---TT----TT--XXXX-TT--tt---TT---XXXXXXXXXXXXXXXXXXXXXXXXXXXXXXXXXXXXX-------------------------XXXX
--------tt-tt---t-----tt--XX---------------X---t--tttt--tt----tt-XXXXXXtt--tt---tt---X-XXXXXXXXXXXXXXXXXXXXXXXXXXXXXXXXXXX-------------------------XXXX