--------DD-------------------------------------------------------D---------D---------------D-----------------------------DD----------------------------
--------DD-------------------------------------------------------D---------D---------------D------------------------------D----------------------------
--------DD-------------------------------------------------------D---------D---------------D------------------------------D----------------------------
--------DD-------------------------------------------------------D---------D---------------D------------------------------D----------------------------
--------DD-------------------------------------------------------D---------D---------------D------------------------------D----------------------------
--------DD-------------------------------------------------------D------o--D---------------D------------------------------D----------------------------
--------D--------o------------------o----------------------------D---------D---------------D------------------------------D----------------------------
--------D-------o-o--o-------------o-o---------------------------D---------D-----------D----------------------------------D----------------------------
-------DD------D-oDDDDD-----------o-o-o-------------------oD-----D---------D-------#---D---D-----------T------------------D------------o-o-----D-------
--------D-DDDDDDDDDDDDDDDDDDDDDDDDDDDDDD------##----S----DDD-----D------D--DDDSD--#---#SSS-##-----XXX--o---SSS---------SSSSSSSSS--#SSSSSSDDDDDDDDDD----
--------D-----------------------------------g-D------------D----DD-------------#--##------tt-----------#---#-----D-----##-----##-----------------------
--------t--------------------------------DDDDDDD----------------#D-------------#--##-----#tt----------##---#---SSD-----#------##-----------------------
--------tt---------TT-----------TT------------------------------#D------------##--##----ooo-----------o#--##---oDD----##o-----##-----------------------
--M-----tt---------tt-----------tt------------------------------#D---D--------##--##-----o------------o#--##---oDD---D#-o-o---##-------o---------------
--XXXXXXtt----TT---tt---TT---TT-tt---TT---XXXXXXXXX-XT-----TTXX-XXXXXXX--TTXX-XXXXXXXXXXXXXXX-X-----XXXXXXXXXXXXXXXXXXXXXXXXXXXXXXXXXX-X---TT--TT---XX-
--XXXXXXtX-X--tt---tt---tt---tt-tt---tt--XXXXXXXXXX-tt--XX-ttt--XXXXXXX-XttXXXXX-XXXXXXXXXXXXX-------XXXXXXXXXXXXXXXXXXXXXXXXXXX-XXXXXXXXX-tt--tt---XX-