---------------------------------------------D---------------------------D-----------------------------------------------------------------------------
---------------------------------------------D---------------------------D-----------------------------------------------------------------------------
---------------------------------------------D---------------------------D-----------------------------------------------------------------------------
-------------------D-------------------------D-------------------------!-D-----------------------------------------------------------------------------
-------------------D-------------------------D---------------------------D------------------------------------------------------------D----------------
-------------------D-------------------------D---------------------------D-----------------------------------------------------------oD----------------
-------------------D-------------------------D---------------------------D-----o-------------------------------o----------------------D-------o--------
M------------------D-------------------------D-------------o------------------o-o-----------------------------o-o----------------------------o-o-------
X------D----D------D-------------D-----D---o-XXXXXXXXXXXX-ooo----------------o-o-o---##--o--------------o----o-o----------------------D----DD-o-o------
XXXXXX-X----DD-----D-----DDDDD--DDDDDDDDDDDDDXXXXXXXXXXXXXXX#-----SSSSSS--XDDXDDDDDDD#D-#-------------D-DDDDDDDD------o------DD---------DDDDDDDDDDD----
XXXX---D-----D------------------------------------------XXX------g--------XtX--------##--D--gggD---------------------##--------------------------------
-------DDDDDDD-------------------------------------------------DDDDD---DSS#t--------------DDDDDD-----#---------D-----##--------------------------------
-------------D---------T------------------T----------------------------ttoot-------------------D-----#---------D-----##--------#---------------TT------
-------------D--------tt------------------t----------------------------ttoot-------------------D----##---------------#---------#---------------tt--#---
--------XXXXXXXXXXXXX-tt---TT---TT----TT--tt--------------------XXXXXXXXXXXtT--tt--------------XXXX-XX--TT-------------TT---TT-XXXXXXXXX---TT--tt-XXXXX
------XXXXXXXXXXXXXXX-tt---tt--Xtt----tt--tt--------------------XXXXXXXXXXXtt--tt-------------XXXXXXXXX-tt-----------X-tt---tt-XXXXXXXX-XX-tt--tt--XXXX