---------------------------------------------D--------------------------------------------------------D------------------------D----------D------------
------------------------------------------------------------------------------------------------------D------------------------D----------D------------
------------------------------------------------------------------------------------------------------D------------------------D----------D------------
------------------------------------------------------------------------------------------------------D------------------------D----------D------------
---------------o--------------------------------------------------------------------------------------D------------------------D----------D------------
--------------o---------------------------------------------------------------------------------------D------------------------D----------D------------
-------------o----------------o------------------------------------------------o---------o------------D--D---------------------D----------D------------
M----------o-----------------o-o-------o-----------o--------------------------o-o-------o-o-----------D---D--------------------D----------D------------
XXXXX-----o-o-DD------------o-o-o-----o-o-----o-o-o-o--o-----------------D---o-o-o---D-o-o-o------TT------DD-----------------o-D----------D------------
XXXXXX--DDDDDDDDDD#---##D-DDDDDDDDDDDDDDDDDDD#####DDDDDDDDDDDDDD--------SSS----DDDDDDDDDDDDDDDD----t--------o-------------T-oD-D------#-##-------------
---------------------##---------------------------------------##-----##---------------------------ttt----TToot-------Dg---D--o-------##--#-------------
--------------------##----------------------------------------##-----##----------------------------tt-----toott--DDDDDDDDDDDDD-------##----------------
---------------------------------------------------------T----#t-----##----------TT---------------tt-----ttoott--D---------------#---##----------------
---------------------------------------------------------t----tt-----##oo--------tt---------------ttt----ttggtt-DD-------t------###--##----------------
---------TT---TTT-----------TT---T---T--TT---T-------TT--tT---tt-----XXXXXXXXXT--tt---TTT----XXXXXXXXXXXXXXXXXXXXXXXXXXXXXXXXXXXXXXX-XX-#---------T---X
---------tt----tt-------X-X-tt---t--ttt-tt---t-------tt--tt---tt-----XX-XXXXXXX--ttt--ttt----X-XXXXXXXXXXXXXXXXXXXXXXXXXXXXXXXX-XXXX-XX-X--------tt--XX