-----------D-----------D-------D---------------------------------D-----------------------------D-D-----DD----------------------------------------------
-----------D-----------D-------D----------------------------------------------------------------DD-----DD----------------------------------------------
-----------------------D-------D-----------------------------------------------------------------D-----D-----------------------------------------------
-----------------------D-------------------------------------------------------------------------D-----DD----------------------------------------------
---------------D-------D-------------------------------------------------------------------------D-----D--------------------------o--------------------
---------------D-------D--------------------------------------------------------------------------D----D------------------------tt-o-------------------
---------------D-------D-------------------------------------------------------o-----------------DD----DD----------------------------------------------
M--------------D-------D------------o--------D--------------------------------o-o---o------------DD----DD------------------------------o---------------
XXXXXX---------D------------------o--o-------D-------D-D---------------------o-o-o-o-o-D-o----o--DD-----D--------D-------ooTXXXXXXXXXXX-o--------------
XXXXXXXXXXX--X-D----TT-XXXXXXXXX-DDDDDDDDD---DDDDDDDDDDD--#----D-------D-DDDDDDDDDDDDDDDDDDDDDDD-DD-----D--------D-------XotXXXXXXXXXXXD---------------
------XXXXXXXXXTT---ttXXXXXXXXXX-------------D------------##---D---gg----------------------------DD--Dg-g-g-DDD--D-------ott--------------#D-----------
------------XX-tt---tt------------------------------------##--DD-DDDDD---------------------------DDDDDDDDDDDDDD--D--------tt---------------D---D-------
---------------t----tt----------------------oT------------##--DD---------------------------------------------D----------oott------------------DD-------
---------------t----tt------------t----D-----t------------##-oDD--------------------------------------------------------ggtt---------------oooDD---#---
--------------XXXXXXttX------XXXXXXXXXXXXX---T--TT----T--XXXXXXXXXXXXXX------TT----------------XXXXXXXXXXXXXXXXXXXXXXXXXXXXXXXXXXX--XTXXXXXXXXXXXXXXXXX
--------------XXXXXXttt------XXXXXXXXX-X-X---tt--t-------XXXXXXXXXXXXXXXX----tt----------------XXXXXXXXXXXXXXXXXXXXXXXXXXXXXXXXXXXXX-XX-XXXXXXXXXXXXXXX