------------D---------DD-------------------------------------------D-------D---------------------------------------------------------------------------
----------------------DD-------------------------------------------D-------D---------------------------------------------------------------------------
------------DD---------D-------------------------------------------D-------D----------------------------------------------------------------#----------
-------------D---------D-------------------------------------------D-------D---------------------------------------------------------------------------
-------------D--------DD-------------------------------------------D-------D---------------------------------------------------------------------------
-------------D---------D-------------------------------------------D-------D---------------------------------------------------------------------------
-------------D---------D---------------o---------o-----------------D-------D------------------o---------------------o----------------------------------
-------------D---------D--------o-----o-o-------o-o--------o-o-----D-------------------------o-o-------------------o-o-----o---------------------------
-------D-----DD--------DD------o-o---o-o-o-----o-o-o----o-o-o-o----D-------D----XXXXXXX-X---D-o-D----o------------o-D-D-----o--------------------------
--SSSSSS------DD-------DDDDDDDDDDDDDDDDDDDDDDDDDDDDDDDDDDDDDDDDDDD-D---#--X#XXXXXXXXXXXX-DDDDDDDDDDDDDD--------DDDDDDDDDDDDDDDDDXXXXSSSSSSSSSSSD-------
-----DDDD--g-gg-D-g---------------------------------------------------##---ttXXXX--------------------D--------------------------XXX------------S-------
---DDDDDDDDDDDDDDDDDDD--D---------------------------------------------##---------------------------SSD------------------------------------------SS-----
---------------------D--D------------TT-------------------T--------#--##-----------------------TT--ooDD----------------------TT------------------o##---
DM-------------------D--DD-----------tt-------oo----------t--------#--##-----------------------tt--ooDD----------------------tt-----------------oo##---
XXXXXXXXXXXXXXXXXXXXXXXXXXXX----TT---tt---TTT--o------TT--t---TT--XXX-XX------------T------TT--ttXXXXXXXXXXXXX-XT----TT------tt---------TT----XXXXXXXXX
XXXXXXXXXXXXXXXXXXXXXXXXXXXXXXX-tt---tt---tt--o-------tt-tt---tt--XXX-XX------------tt-Xt--tt--ttXXXXXXXXXXXXXXtt-X--tt--t---tt---------tt--X-XXXXXXXXX