-----------------------------------D-------------------------------------------------------------------------------------------------------------------
-----------------------------------D-------------------------------------------------------------------------------------------------------------------
-----------------------------------D-------------------------------------------------------------------------------------------------------------------
-----------------------------------D-------------------------------------------------------------------------------------------------------------------
-----------------------------------D-------------------------------------------------------------------------------------------------------------------
-----------------------------------D-------------------------------------------------------------------------------------------------------------------
M--------o------------oo-----------D-------------------------------o------------------o----------------------------------------------------------------
XX-------o---oo------o--o----------D------------------------------oo-------------------------------------------o---o----------------o------------------
XXXXXX----o-o--o----o-Do-o---------D---------TTXXXXXX------------XXX-----T-------XXXXXXXXX---o--#----------Xo--DD---o----TT----------o--oo-------------
-XXXXXXDDDDDDDDDDDDDDDDDDDDDDDDDDDDD---------ttXXXXXXXXTXXXXXXXXXXXX-----t--------XXXX#XXXXDX#--#---------XX---DDDDX-TTX-tt---------##--#D----D--------
-----------------------------------------T---tt------XttXXXXXXXXXX---TToott------------#-yX--#-D#----Dgg-D-----------ttXott----------#--#--------------
--------------------------------------##-ttoott-------tt-------------ttoott-------------##----#D---DDDDDDDD----------ttoott-o--------##----------------
----------TT-----------------------#--##-tooott-------tt-------------ttoott--o-----------------------------------T---tto-tt----------------------------
----------tt-----------------------#--##ottggtt----------------------ttggtt--o-----------------------------------t---tt--tt------------------------#---
------TT--tt---TT------TT-----TT---XX-XXXXXXXXXXXX-------------------XXXXXXXXXXXXX-----------------XXXXXXXXXXXX--t---tt-XXXXXXXXXXXXXXXXXXXX------XXXX-
------tt--tt---tt-X--X-tX-X---ttt--XX-XXXXXXXXXXXXX---t--------------tXXXXXXXXXXXX------------------XXXXXXXXXXX-tt---tt--XXXXXXXXXXXXXX-XXXXX---X-XXXXX