-------------------------------------------------------------------------------------------D---------------------------------------D---D---------------
-------------------------------------------------------------------------------------------D---------------------------------------D---D---------------
-------------------------------------------------------------------------------------------D---------------------------------------D---D---------------
-------------------------------------------------------------------------------------------D---------------------------------------D---D---------------
--------------------------------o----------------------------------------------------------D---------------------------------------D---D---------------
-------------------------------o-----------------------------------------------------------D---------------------------------------D---D---------------
M------------------------------#--------------------------------------------D--------------D---------o-----------------------------D-------------------
X-----------------------------##--------------------------------------------D--------------D-------Xo-o----------------------------D-------------------
X--------o--TT------------oo--##-----------o--------X--g-XX--------------------------D-----D---XXXXXXo---XXXXX-X-------------------DD---D--o----o------
XXXXXXXXX---tt---SSSSSS---##--##--#-------o-#####--X####-XXXXXXXXTX--------DDDD--DD--DD----DDDXXXXXXXTXXXXXXXXXX-------------------DD---D--#---o-------
XXXXXXXXtToott-----------#-#--##--#----DDX-X-#--#--T--------XXXXXtXX-----------------DD-----------XXttt-XXX---------TT-oott-----T-o-------X#---#-------
---------toott-----------#----##---##SSDD---------#--------------tt------------------DD-------------ttt-------------tt-oott-----t-o----#---#--##-------
---------tooot----------#-----##------oD-------------------------t---------TDD-------DD-------------ttt-------------tt-oott-------ot---##--#--##-------
---------ttgot-------#--##--###-------oD-------------------------t---------tt--------DD-------------ttt-------------ttgggtt-------gtt--#D--##-##---#---
-------XXXXXXXXXXXXXXXX-XX---XXX-X-XXXXXX------------------------t----TT---tt--TT--XXXXXXX---TT-----ttt--------XXXXXXXXXXXXXXXXXXXXXXX-XX--XX-XXXXXXXXX
------XXXXXXXXXXXXXX-XX-XX---XXX-XXXXXXXX------------------------t----tt--ttt--tt-XXXXXXXXXX-tt-----ttt--------XXXXXXXXXXXXXXXXXXXXXXX-XX--XX-XXX-XXXXX