---------------------------------------------------------------------------------------D-------------------D-------------------D-----------------------
---------------------------------------------------------------------------------------D-------------------D-------------------DD----------------------
---------------------------------------------------------------------------------------D-------------------D-------------------DD----------------------
-----------------------------------------------------------------------------------------------------------D-------------------DD----------------------
-----------------------------------------------------------------------D------------------------------D------------------------DD----------------------
-----------------------------------------------------------------------D---------------------!tt------D------------------------DD----------------------
M---------------------------------o--------o---------------------------D---------------------o--------D------------------------D-----------------------
X-------o--------D--------oo-----o-oo-----o-o--------------------------D------------------------------D------------------------D---------o-----D-------
XXXXXXXX-o-------D-------o--o---o-o-DD---o-o-oXXXXXXX------------------DD----------------XXXXX-D--X-------------------D--------DD-------o------D-------
XXXXXXXXD-------o-DD--D--#DDDDDDDDDDDDDDDDDDDXXXXXXXX#-SSSDDDD-------T-o-S-----D---TXXXXXXXXXXXDDDXXXXXXXXXXXXXS------D--------DD--#---#-o------o------
X--------D-----gDDDD-------------------------------------------------TTX--S-S-D----tXXXXX-----------XXXXXXXXXXXX-----DD------------#--#--D------oo-----
---------DDDDDDDDDD----------------------#---------------------------tto---SSSDDDDDDD---------------------------D---DDD--------#----##-S-D------oo-t---
---------------------------------TT-----##-----------------To--------ttoo---ooDD---D-----------------------------o---DD------TT#-------oDD------oott---
---------------------------------tt-----##-----------------tt--------ttgg---ooDD--------------------------------oo---DD------tt--------ooD------ogo#---
-------XXXXXXXXXXXXX----------TT-tt--TT-#X--------------T-XXXXXXXXXXXXXXXXXXXXXXXXXXXX-----T---TT---------------XXXXXXXXXXXXXXXX-------XXXXXXXXXXXXXXXX
-------XXXXXXXXXXXX-----------tt-tt---t-XX----------------XXXXXXXXXXXXXXXXXXXXXXXXXXXXXX---t---tt---------------XXXXXXXXXXXXXXXX-----X-XXXXXXXXXXXXXXXX