-------------------------------------------------------------------------------------------------------------------------------------------------------
-------------------------------------------------------------------------------------------------------------------------------------------------------
------------D------------------------------------------------------------------------------------------------------------------------------------------
------------D------------------------------------------------------------------------------------------------------------------------------------------
------------D------------------------------------------------------------------------------------------------------------------------------------------
-------------D------------------------------------------------------------------------------------------------D--------------------D--------o----------
-------------D-----------------------------------------------------------------------oo---o-------------------D--------------------D------o--o---------
-------------D---------------------------------------------------------o-------------o----o-------------------D----D---------------D-----o--o-o--------
-------#-----D-------------------------------------------D------o-------o--ooo--o---o-o-XXX-oo--oo---o-o-o---DD----DD--------------D----D-DDDo-o-------
------##-----D---SSS---------------------o-----------------------SS---##--X###-y#DDXXXXXXXXD##-y#######DDDDD-DD-----D--------------DDDDD----D-DDD------
------##-----DD---o------D-gg-g-ggD-ggggggg------o-----------------D-D---X---#-y#-XXXX-------#-y#-------------D-----D----------------------------------
------##---DDDD---D----DSDDDDDDDDDDDDDDDDDDD----oD---DD-----------DDDDD-D-----##--------------##--------------D-----D----------------------------------
------##---DDDD--oo-----oD---------------------oDo---------------DDD-----------------------------------------DD-----D----------------------------------
-M----##-----D---oo-----o---------------------ooo-----------------o-----------------------------------------oDD------------------------------------#---
-XXXX-XXXXXXXXXXXXXXXXXXXXXXXXXXXXXXXXXXXXXXXXXXXXXXXXXXXXXX-TTX-XXXXXXXXX--------------------------------TT-XXXXXXXXXXXXXXXXXXXXXXXX---TTT-XXXXXXXXXXX
---XXXXXXXXXXXXXXXXXXXXXXXXXXXXXXXXXXXXXXXXXXXXXXXXXXXXXXXXXXtt--XXXXXXXXX---------------------------tt---tt-XXXXXXXXXXXXXXXXXXXXXXXXXX-ttt--XXXXXXXXXX