------------------------------------------------------------------------------------------D---------------------------------------------------D--------
------------------------------------------------------------------------------------------D---------------------------------------------------D--------
---------------------------------------------------D--------------------------------------D---------------------------------------------------D--------
---------------------------------------------------D--------------------------------------D---------------------------------------------------D--------
---------------------------------------------------D-------------------------------------DD------------------------------------------------------------
---------------------------------------------------D---------------------------------------------------------------------------------------------------
-----------------------------------------------o---D----------o-----------------o------o-------------------------------------------------D-------------
M---oo----------------------------------------oo---D---------o-o---------------o-o----o-o------------------------------------------------D-------------
XXXXXXo-oXXXXX---------D--------------TT-----oo-o--D--------o-o-o------o-o----o-o-o--o-o-o-------------DD------D---#-----------D---------D-------------
XXXXXXXXXXXXXXX--Xo----D----T---XD----tt--XXXX-----D----DDDDDDDDDDDDDDDDDDDDDDDDDDDDDDDDD-o---------D--DD------D--##------SSSSSS---------DD-----D------
----------------DD-D-g-D--XXttXXXX--X-tt-----gg-D--D---------------------------------------S------gggg-DD------D--##----T-----S----D-----DD--D-DD------
----------------DDDDDDDD----tt---D----tt----DDDDD------------------------------------------SSSDDDDDDDD-DD------D--##----t------SSSSD-----DDDDDDDD------
----------------------------tt---D----tt-------------------TT----------T-------T-------------oD--------DD------D--##----oo-------ooD------D------------
----------------------------tt--------tt-------------------tt-tt-------t-------tt-----------oo--------------------##----Dg-g-----ooD---------------#---
-------TT-----X-XXXXXXXXXXXXXXXXXXXXXXXXXXXXXXXXX-XT---TT--tt-tt----T--t---TT--tt---TT--XXXXXXXXXXXXXXXXXXXXXXXXXXXXXXXXXXXXXXXXXXXXXXXXXXXXXXXXXXXXXXX
-------tt-------XXXXXXXXXXXXXXXXXXXXXXXXXXXXXXXXXXXX-X-tt--tt-tt----t--t---tt--tt---tt--XXXXXXXXXXXXXXXXXXXXXXXXXXXXXXXXXXXXXXXXXXXXXXXXXXXXXXXXXXXXXXX