---------------------------D---D-----------------------------------------DD------------------------------------D-------------------------------D-------
---------------------------D---D-----------------------------------------D-----------------------------------------------------------------------------
---------------------------D---D-----------------------------------------D-----------------------------------------------------------------------------
---------------------------D---D-----------------------------------------D-----------------------------------------------------------------------------
--------o------------------D---D-----------------------------------------D-----------------------------------------------------------------------------
--------o------------------D---D-----------------------------------------D----------------------------------------------------D------------------------
-------o--------#----------D---D-----------------------o-----------------D--------------------o-------------------------------D------------------------
------##-------o#--------------D-------o-----------o-ooo-----------------D-------------------o-o----o------------------------DD------------------------
M-----##------o-D----T-X-------D------o-o-----o-o-o-o-o----------D-------D-D-o-------D------o-o-D--o-o---D-------------------D----o--o-ooo---o--o------
XXXX--##--#-SSSS----DD#SSSXXXXXDDDDDDDDDDDDDDDDDDDDDDDDDDD-------D---DD-DDDDDDDDDD---D------DDDDDDDDDDDDDDDSSSSSSS-o---------DD--DDDDDD-#----#--#------
XXXXX-##--X--------------S---------------------------------------D------------------------------------------------D-D--------------------#--##--#------
-------------------SSS----SSS------------------------------------D---------------------------------------------SSSDDDDD-DD----------------###--#-------
-------------o------ooD-----oD---------------------TT------------D---------T--------o------o-T--------------------D--------------------------------#---
-------------------oooD-----o------------------------------------D---------t-------ooD-----DDtt---------------g--------D---------------------------#---
------------------XXXXXXXXXXX--TT------TT-----TTT-----TT---XXXXXXXXX--TT---tt--TT-XXXXXXXXXX-tt--TT---TTXXXXXXXXXXXXXXXXXXX--TT----T---X-------XXXXXXXX
------------------XXXXXXXXXXXX-t--t----tt-----ttt---X-tt--XXXXXXXXXXXXtt--ttt---t-XXXXXXXXXX-tt--tt---t-XXXXXXXXXXXXXXXXXXXX-tt----t---t------XXXXXXXXX