---------------------------------------------D-----D-------------------------------------D-------------------------------------------------------------
---------------------------------------------D-----D-------------------------------------D---------------------D---------------------------------------
------------------------!--------------------D-----D-------------------------------------D---------------------T---------------------------------------
---------------------------------------------D-----D-------------------------------------D-------------------------------------------------------------
---------------------------------------------D-----D----------------------------o--------D-----------------------------------------------------D-------
---------------------------------------------D-----D---------------------------oo--------D---------------------X-!-----------------------------D-------
-----------------o---------------------------D-----D---------------------------o---------D-------------------------------------o---------------D-------
----------------o------------------------#---D-----D-----------------------#--Xo---------DD-----------------------------------o-o--------------D-------
M-X------------o-o-XXXXXX----------------#---D-----DD----o-----D----o----------o----------D------o--------XXXXXX-------------o-D-o-----------D-D-------
XXXXXX-------XXXXXXXXXXXX---#Dt---------##---D-----DDDD--#---####XXXXXXXXXXXXXXXX---------D--DD-DDDDDXXXXXXXXXXXXXXXXXXXDDDDDDDDDDDDD--DDDDDDDDD-------
-XXX---------XXXXX------#--##-tt-----#--#------------------yy#----XXXXXXXXXXXXXXX--------------------XXXXXX----XXXXXXXX--------------------------------
-------------t-----------##---t-----###-#-----------------##-------------------------------------------------------------------------------------------
---------o--------------------#-----##--#----------------------------------------------o-------TT---------------------------TT-------------------------
--------oo-------------------##-#---##--#----------------------------------------------o-------tt---------------------------tt------------------t------
------XXXXXXXX---------------XX-XXXXXXX-XXXX-X-X---TT----------------------------XXXXXXXXXXXX--tt-----------------------TT--tt-----Tt--TT----TT-t------
------XXXXXXXXX---------------X-XXXXXXX-XX-XXXXX-X-tt---------------------------XXXXXXXXXXXXXX-tt-----------------------tt--ttt----tt---t----tt-t------