-------------------------------------------------------------------------------------------D-----------------------------------------------------------
-----------------------------------------------------------------------------D-------------D-----------------------------------------------------------
------------------------!----------------------------------------------------DD------------D-----------------------------------------------------------
-----------------------------------------------------------------------------DD-----------D------------------------------------------------------------
-------------------------------------------------------D---------------------DD-----------D------------------------------------------------------------
-------------------------------------------------------D---------------------D-----------D-------------------------------------------------------------
---------------------------------o---------------------D---------------------D-----------D--------------------------------------------o--------oo------
--------------------------------o-o--------------------D---------------------------------D--------------------------------------------#---------o------
XXXXXX----------------------oD---oXXXXXX---------------D-------D--------------D----------D-------o---D--oggXXX-Xo----o-----------T---##--XDXXXXXXXXXXX-
XXXXXX----SSS-S-###-XX#--SSSDDDDDXXXXXXX--------------DD-------D-----------D--D-D----TT--D------#---##--####XX-X##--##-#---------tt--##--##-XXXXXXXXXXX
-------------------------------------------------------D-------#--#----#---D------XX-tt--D---ggg-D---#-X#----------y##-#------T--tt--##--------------tt
-------------------------------------------------------D--DDD-DDDSSD--##--#D---------tt--DDDDDDDDDD----#----------##---##-----t--tt--##----------------
--t----------T-----------------------------------------D----------DD--##--#D---------tt------------------------------------------tt--##----------------
--tM--------tt----------------------------------D------D------o--ooD--##--DD---------tt------------------------------------------tt--##----------------
--XXXXXXXXX-tt----------------TT------XXXXXXXXXXXXXXXXXXXXXXXXXXXXXXXXXXXXXXXX-------tt---XXXXXXXX----------------------XXXXXXXXXXXX-XX--------------XX
---XXXXXXXXXtt----------------tt------XXXXXXXXXXXXXXXXXXXXXXXXXXXXXXXXXXXXXXXXX------tt---XXXXXXXX--------------------X-XXXXXXXXXXXX-XX-X------------XX