---------------D-----------------------------------------------D-----------------------D---------------------------------------------------------------
---------------D-------------D---------------------------------D-----------------------D---------------------------------------------------------------
---------------D-------------D-------------------------#-------D-----------------------D---------------------------------------------------------------
---------------D-------------D-------------------D-------------D-----------------------D---------------------------------------------------------------
---------------------------------------------------------------D-----------------------D---------------------------------------------------------------
-----------------------------D-------------t-----------!-------D---------------------------------------------------------------------------------------
-----------o-----------------D-------------------------D-------D---------------------------------------------------------------------------------------
----------oo-----------------D---------------------------------D-----o---------------------------------o-----------------------------------------------
M--------XXXX---------TT-----D-XXXXXXXXXXXXXXXX--o-------------D----o------------------!--------------o-o------------o-------------TT------------------
XXXXXXXXXXXXXXXXXXS-X-tt-----DXXXXXXXXXXXXXXXXXSSSD------D-----DDDDDDD-------#------------D-------SSSo-o------------------SSS------tt-o-#--D-----------
XXXXXXXXXXXXXXXXX--XXott--------tt---------------------ott------------------#------STT-SS-D----g-D---oott-o----------#-##------TTo-tt------------------
----------------------tt--------tt-----------------D---oot--------------------------tt----t----DDD---oott--o----------##----S-tttoott------------------
----------------------tt--------tt----------------oD---oot----------oDo--------------t----D----------o-tt-oo----------##-----otttoott------------------
----------------------tt--------tt---------------oot---ggt----------to-o-----D-g-----tt--DD---------tg-tt-------------##-----otttg-tt--------------#---
-----------------X--X-tX--------tt-------------TToXXXXXXXXXXXXXXXXXXXXXXXXXXXXXXXXXXXXXXXXXXXXXXXXXXXXXXXXXXXXXXXXXX--XXXXXXXXXXXXXXXX---------TT-XXXXX
---------------X-X--XXtX--X-----tt-------------ttXXXXXXXXXXXXXXXXXXXXXXXXXXXXXXXXXXXXXXXXXXXXXXXXXXXXXXtX-XXXXXXXXX---XXXXXXXXXXXXXXXX---------tt--XXXX