-------------------------------------------------------------------------------------------------------------------------------------------------------
-------------------------------------------------------------------------------------------------------------------------------------------------------
-------------------------------------------------------------------------------------------------------------------------------------------------------
-----------o-------------------------------------------------------------------------------------------------------------------------------------------
-------------------------------------------------------------------------------------------------------------------------------------------------------
--------------------------------------------------------------------------------------------------------------D----------------------------------------
---------------------------------------------------------o-----------------o----------------------------------D--------------------------------o-------
--------------------------------------#-----------------o-o---------------------------------------------D-----D-----o--------------#---#------o-o------
--------------XXXXXXX----D----XXXXXX--##------------TTXXXXXo-o-o---------XXXXXXX------D------XXXXX-------o----D----o-o-o-D---X-X---#--##-----o-o-o-----
---------##-XXXXXXXX----oD--###XXXXX--##-------o---XttXXXXXXDDDDDDDDDDSXXXXXXXXXXX##--#-XXXXXXXXXXDDDDDDDDD---DDDDDDDD-####-X#XX--##--##----DDDDDDDDD--
----------------------#--D-----------T#---#---##--o-ttt-----------------tt--------#t-----XXXX----------------------------------D---#--##---------------
-----------------------#DDD---------#-----##--##---o-tt----------------------------#-----------------------------------------------#--##---------------
-------------------------D----------------##--##---o-tt------------------t---------#-----------------TT------T-------TT---------------##---------TT----
-M-------------------------------------#--##--##---ggt-----------t------tt---------#-----------------tt------tt------tt----------------#---------tt----
-X-----T--------------XXXXXXXXX--------X--XXX-XXXXXXXXXXXXXX--T-Tt---TT-tt-------------XX------------tt--TT--tt--T---tt----------------XX----TT--tt---T
----XX-t-------------XXXXXXXXXXX-------X--XXX-XXXXXXXXXXXXXXX-X-tt---tt-tt-------------XX------------tt--tt--tt--t---tt----------------XX--X-tt--tt---D