---------------------------D-------D-------------------------------------------------------------------------------------------------------------------
---------------------------D-------D-------------------D-----------------------------------------------------------------------------------------------
---------------------------D-------D-------------------!-----------------------------------------------------------------------------------------------
---------------------------D-------D-------------------------------------------------------------------------------------------------------------------
---------------------------D-------D-------------------------------------------------------------------------------------------------------------------
---------------------------D-------D-------------------!-----------------------------------------------------------------------------------------------
--------o------------------D-------D-------o-----------------------------------------o---------o-------------------------------------------------------
M------o-o-----------------D-------D---------------------------------------o--------o-o--------o------------D------------------------------------------
XXX-X-o-XXXD-D-------------D----o--D---XXXXXXXXXXX-----------------------TTXo--XX-XXXo-o----o-o-o----------D------o--------o-o-D---D-------------------
XXXXXXTTXXXDDDDDDDDDDDD----D---o---D--XXXXXXXXXXXXXXXXXXXXXXXXXX--X------ttX-X-XXXXXXDDDDDDDXXXXXX-----####SDDDDDD-DDDDDDDDDDDDDDDDD---TTXXXXXX--------
---XXXtt-X-----------------D--o-o-----------------XXXXXXXXXXXXXX-##--TToott------------------XXXXXX-####------------D------------------ttXXXXXX--------
------tt-----------------------DD--------------------------------##--ttoott------------------------##-------------S-D---------------Toott--------------
------tt----------------------oDD------------------------------------ttoott------------T---------------ooT---------DD-------TT------toott--------------
------tt-----------------------tt------------------------------------ttggtt------------tt--------------oot---------oD--------t------t-gtt----------#--X
------tt-----------TTX-XX-XXXXXXXXXXX-----------------------------XXXXXXXXXX-XT--TT----tt---T------------XXXX--TT-XXXX---TT--t------XXXXXXXXXXXXXXXXXXX
------tt-----------tt--XXXXXXXXXXXXX-X----------------------------XXXXXXXXXXXtt--tt----tt--tt------------XXX-X-tt-XXXXXX-tt--t------XXXXXXXXXXXXXXXXXXX