-------------------------------------------------------------------------------------------D-------------------DD--------------------------------------
-------------------------------------------------------------------------------------------D-------------------D---------------------------------------
-------------------------------------------------------------------------------------------D-------------------D---------------------------------------
-------------------------------------------------------------------------------------------D-------------------D---------------------------------------
-------------------------------------------------------------------------------------------D-------------------D---------------------------------------
-------o-------------D---------------------------------------------------------------------D-------------------D---------------------------------------
------o-o------------D---D-------------------------------------------------------------------------------------D---------------------------------------
-M---o---------------D---D-------------------------------------------------------------------------------------D---------------------------------------
-XXX-----------------D-o-D-------XXXXXXXXXXXg----Xo------------TXX---------------------------------------------D-------------------------------D-------
-----T---------------DDDDDDXXXXXXXXXXXXXXXXX#XXXXXXXXXXXXX---SSSSSSSSSSSSD----D----X-----D----SS-----SSSSSDDDD-DDDDDD----TT----------------------------
-----t---------------------XXXXXXXX-----------XXXXXXXXXXXX----tt--------D----gD-D----X--##-----S---------------------TTX-tt--##--------D---------------
-----t-------------------------------------------------------oot--------DDDDDDDDDDDD-D#-#D---------------SS----------ttoott--##--------#---------------
-----t-------------TT----------------------------------------oot---------D-----------##--D---------ooo----o--TT------ttoott--##--------#---------------
-------------------tt---------------------------------------ooo----------------------##------------ooo----o--tt------ttggtt--##--------D-----------#---
------XXXXXXXXXXXX-tt-------------------XXXX---------------XXXXXXXXXXXXXXXXXXXXXXXXXXXXXXXXXXXXXXXXXXXXXXXX--tt------TXXXXXXXXXXXXXXXXXXXXXXXXXXXXXXXXX
-----XXXXXXXXXXXXXXtt-----------------XXXXXX---------------XXXXXXXXXXXXXXXXXXXXXXXXXXXXXXXXXXXXXXXXXXXXXXXX--tt------tt-XXXXXXXXXXXXXXXXXXXXXXXXXXXXXXX