-------------------------------D-----------------------------------------------------------------------------------D-----------------------------------
-------------------------------D-----------------------------------------------------------------------------------D-----------------------------------
-------------------------------D-----------------------------------------------------------------o-----------------D-----------------------------------
-------------------------------D-----------------------------------------------------------------------------------D-----------------------------------
-------------------------------D----------------------------------------------------------------t!-----------------D-----------------------------------
-------------------------------D---------------------------------------------------------------tt------------------D-----------------------------------
-----------------------------o-D-----------------------------------o-------D-------------------o------------------oD----------------------oo-----------
-------------------------------D----------o-----------------------##-------D-------------------------------------o-o---------------------o--o--oo------
------TT-------X-----------#---D---------o-o---------T-o----------##--------DD-------o------XXXXXXXXXX---------Do-o-----o-oo---XXXXXXXXXXXDD-DD-D------
--TTXott--XXXXXX------#---##---D--------o-o-------o--------------------------D------XTTTXXXXXXXXXXXDDXX--##DDDDDDDDDDDDDDDDDDD-XXXXXXXXXXXXDDDDDDDD----
--TtXott--XXXXXX------o---##---D--##---T-o------DTX--t--------------------------------tt-------------------------------------------XXX-----------------
--ttoott--------------##--##-------#D-DtDDDD-----tt--t#----------------T----------o--ttt---------------------------------------------------------------
--ttoott----------o---##--##------#---DDDDDD-----ttoott---------------Tt---------ooo-ttt-------TT-----------------------TT-----------------------------
M-ttggtt----------o--###--##------#---oooo-D-----ttoott---------------tt----o----ooo--tt-------tt-----------------------tt------------------------t#---
X-XXXXXXX-------XXXXXXXX-XXXXXXXXXXXXXXXXXXXXXXXXXXXXXXXXXXXXXXXXXTT--tt---XXXXXXXXXXXXXX------tt--------------TT----TT-tt-------------------TT--tt---X
XXXXXXXtt--------XXXXXXX-XXXXXXXXXXXXXXXXXXXXXXXXXXXXXXXXXXXXXXXXXXX--tt----XXXXXXXXXXXXX------tt--------------tt--X-tt----------------------tt--tt---t