--------------------------------------------------------------------------------------------------D---------D----------------------------DD------------
--------------------------------------------------------------------------------------------------D---------D-----------------------------D------------
--------------------------------------------------------------------------------------------------D---------D-----------------------------D------------
--------------------------------------------------------------------------------------------------D---------D-----------------------------D------------
--------------------------------------------------------------------------------------------------D---------D-----------------------------D------------
-------------------------------------------------------------------------------------------------D----------D-----------------------------D------------
-----------------------o-----------------------------------------------D------------o------------D-------------------------------------o-D-------------
M---------------------o-o----------------------o------o-------o--------D-----------o-o-D---------D-----o------------------------------o-o----------D---
XXXXXXX-o--o---------D-o--D-o-o---------------oDDo---o-o-----o-o-------D---------o--o--D---------D--------------TTTXXXXXXXXXXXXXX--D-o-o-o-----o----D--
XXXXXXXXXTD--------DDDDDDDDDDDD--#####SSSDDDDDDDDDDDDDDDDDDDDDDDDDDDDD-D---o-D-DDDDDDDDDDD---DD-DDDDDDDDDDD------tXXXXXXXXXXXXXXXDDDDDDDDDDDD--D-------
------XXtt----------------------y#-------------------------------------D---D---------------------------------TToott--------------------------DD-D--D---
--------tt---------------------##--------------------------------------D-------------------------------------ttoott--------------------------------D---
--------tt----------------------------------------TT-------T-------TT------------TT-----------------TTT------ttoott-----------------TT-----------------
--------tt----------------------------------------tt-------t-------tt------------tt--------#---------tt------ttggtt-----------------tt-------------#---
--------tt----XXXXXX---TT----------------TT----TT-tt---TT--t---TT--tt--XT---TTT--tt-----TT-----TT----tt---TTXXXXXXX-------------TT--tt--TT----TT--XXXXX
--------tt-----XXXXXXX-tt--------------X-tt--X-tt-tt---tt-ttt--tt--tt--X-XX-ttt--tt-----tt--XX-tt----tt---tt-XXXXXXX------------tt--tX--tt--X-tt--XXXXX