----------------DD---------D---------------D--------------------------------------------------------------------------------------D--------------------
----------------DD---------D---------------D--------------------------------------------------------------------------------------D--------------------
-----D----------DD---------D---------------D-----------------o--------------------------------D-----------D-----------------------D--------------------
-----D----------DD---------D---------------D----------------o---------------------------------------------D-----------------------D--------------------
-----D----------DD---------D---------------D--------------------------------------------------------------D-----------------------D--------------------
-----D----------DD---------D---------------D---------------#----------------------------------------------D-----------------------D--------------------
M----D----------DD---------D---------------D---------------#-------------------------------o--------------D--------o--------------D-----------D--------
X----D----------DD---------DD------D-------D--------o-----##-------------------------------------o----------------o---------------D----------oD--------
oX-XXXXX-----D--DD---------DDD-----D--D----D---D---o-o-o---#---o-o----o-----------------D-o-D---o-o--D--D--D----D--o--------o--D----------o-o-o--------
XXXXXXXXSSSSSD--DDDDDDD------------DDDDDD--DDDDDDDDDDDDD---#---SSDDDDDDDDD------------DDDDDDDDDDDDDDDDDDDDDDD--DDDDDD------o---#---##D-D-DDD-DD--------
XXXX---------D--------------------------------------------##--------------------------------------------------------------oXD-#D---#-------------------
-------------D----------------D---------------------------##-----------------------------------------------D---------------#---#-----------------------
-------------D----------------D-------------------TT------##---------T----------------TT--------------o----o---TT---------------------------T----------
------------------------------#-------------------tt------##---------tt------o--------tt----------tt--g----o---tt---------------------------tt---------
--------XXX--X-XXXXXXXXXXXXXXXXXXX--TT---T---T----tt------XXXX---TT--tt---TT-XXXXXXXX-tt---TT-----tt-XXXXXXXXXXXX--TT-------------------T---tt--TTXXXXX
-------X----XXXXXXXXXXXXXXXXXXXXXXXXtt--tt--tt---ttt------XXXXX--tt--tt---tt--XXXXXXX-tt---tt-tt--tt-XXXXXXXXXXXX--tt-------------------t---tt--tt--XXX