----------------DD-------------------------------------------------D---------------DD------------------------------------------------------------------
-----------------D-------------------------------------------------D----------------D------------------------------------------------------------------
-----------------D-------------------------------------------------D----------------D------------------------------------------------------------------
-----------------D-------------------------------------------------D----------------D------------------------------------------------------------------
-----------------D-------------------------------------------------D----------------D------------------------------------------------------------------
----------------DD-------------------------------------------------D-----------------D-----------------------------------------------------------------
M----------------D----------------o--------------------------------D-------o---------DD------o---------------------o-----------------------------------
XXXXX------------D---------------o-------------o-------------------D------oo---------DD----o-o-o----------o-o-----o-o-------o------------o-------------
XXXXXXX-o-o-o-o-D---------------o-o-XXXXXX----##-XTT--XXX--X---o---------------------DD---o-o-o-o------o-D-o-DD--o-o-D-----o------------o-o---o-------X
XXXXXXDDDDDDDDDDDDDDDDDDD---DDDDDDDDXXXXXX#---##XXttXXXXXX##---#-###---SSSSSSSSD-----DDDDDDDDDDDDDDDDDDDDDDDDDDDDDDDDDDDDDDDDDDD------DDDDDDDD-TTXXXXXX
------------------------------------------#--y#---tt-X------#-y#--##--#-------SD--D---D--------------------------------D-----------------------ttXXXXXX
-------------------------------------------##-----tt---------##-----DD---------DSDDD-----------------------------------------------------------tt----tX
--------TT----T--------------T--------------------tt-------------------ooo-----------------TT---------TT----------TT---------------------------tt------
--------tt#---t-------------tt-----------------------------------------o-gg----------------tt---------tt----------tt--------------------------ttt------
-----T--tt----t-----TT---T--tt--TT-----------------------------------XXXXXXXXXXXXXXXX--TT--tt--TTT----tt----TT----tt---T----TT--XXXXXX---TTT--ttt------
-----t-ttt---tt-----tt--tt--tt--tt-----------------------------------XXXXXXXXXXXXXXXXX-tt--tt---tt----tt----tt----tt---t----ttt-XXXXXX-X-ttt--ttt------