---------------D---------------------------------------D---------------------------------------D------D----------------------DD------DD----------------
---------------D---------------------------------------D---------------------------------------D------D-----------------------D------DD----------------
---------------D---------------------------------------D---------------------------------------D------D-----------------------D------DD----------------
---------------D---------------------------------------D---------------------------------------D------o-----------------------D------DD----------------
---------------D---------------------------------------D---------------------------------------D------------------------------D------DD----------------
---------------D---------------------------------------DD--------------------------------------D------D------------D----------D------DD----------------
---------------Do-----------------------------o--------DD-------o------------------------------D------D-----------------------D-------D-----o----------
---------------D-o---o-o--o------------------ooo-------DD------o-o-----------------o--------o--D------D--------#----------------------D-----o----------
-------------o-Do-D-D-o-o--o----XXXXX-o-----oXXT-XXXXXXXXX------o-o--------TT---XXXXX-----oD---D------#--------#---------ooo-----DD---D---XXXo---------
XXXX-------DD-DDDDDDDDDDDDDDDDDDXXXXXDDDDDDDXXXTXXXXXXXXXDDDDDDDDDDD-------XXXXXXXXXXDDDDDDDDD-DD----##---###-S#--DDDDD---###-XXXXXXXXXXSXXXXXSS-------
XXXXX-D---------------------------------------ttt-------------------S-----#X--X----------------------##--##---S#--D----#-#---XXXXtt---tX---------------
----DoD----------------------------------------tt--------------------SS#--##-------------------------##--#-----SSSD----##--------tt---t----------------
----ooD--------TT---------TT--------------T----tt----------------------#--##-------------------------##---------ooD----#---------t----t-o----------#---
---MooD--------tt---------tt--------------t---ttt---------------------oD--##-------------------------#----------ooD--------------tt---t-g----------#---
---XXXXXXXXXX--tt---TT----tt---------TT---tt--ttt---------------TT--XXXXXXXXXX-----------T---TT------X-------XXXXXXXXXXXXXXX-----tt----XXXXXXXXXXXXXXXX
---XXXXXXXXXX--tt---tt---ttt---------tt--ttt--ttt---------------tt-XXXXXXXXXXX-----------t---tt------XX------XXXXXXXXXXXXXXX-----tt---X-XXXXXXXXXXXXXXX