---------------------D---------------------------------D---------------------------------------D-------------------------------------------------------
---------------------D-------------------------------------------------------------------------D-------------------------------------------------------
---------------------D-------------------------------------------------------------------------D-------------------------------------------------------
---------------------D-----------------------------------------D-------------------------------D-------------------------------------------------------
---------------------D--------------------------------D--------D-----------D-------------------DD------------------------------------------------------
---------------------D-------------------------------D---------D-----------D-------------------DD----o-------------------------------------------------
---------------------D------D---------o--------------D---------D-----------D-------------------DD-----o------------o---o------o------------------------
---------------------D------D------o-o-o-------------D---------D---o-o-----D-------------------DD---DD------------o-----o----o-o----o-o----------------
XXXXXX----#----------D------D-----D-o-o-D------------D---------D--D-D-D----D--------ooooo------D-DDD-DDDDDD------o-o--XoXoX-o-o-o--o-o-o---------------
XXXXSSSS--#----------D---D--DD---DDDDDDDDDDD-##XXXXX-D----DDDDDDDDDDDDDDD--DDD---SSSS#-##--T##---------------#DDDDDDDDXXXXXXXDDDDDDDDDDDDDDD-----------
----------##---------D-------D-----------------XXXX--D----------------------------------##yt#----------------#-----------------------------D-----------
-------#--##---------D-----------------------------------------------------------------#--#---------T-------------------------------------DD-----DD----
-------#--##------------------------TT--tt------------------TT-------TT---------oo------------------t---------------T---------------------DD-----------
-M---o---###--D---------------------tt--tt------------------tt-------tt---------oo-------------tt---t---------------t--------------------to------------
-XXXXXXXXXXXXXXXXXXXXXX-TT---T--TT--tt--tt----------XXXXXXX--t---TT--tt--XXXXXXXXXXXX----------Tt--XXXXXXXX----TT---tt---------------TT-XXXXXXXXXXXXXXX
--XXXXXX-XXXXXXXXXXXXXXXtt---Xt-tt--ttt-tt----------XXXXXXX-tt---tt--tt-tXXXXXXXXXXXXX---------tt--XXXXX-X---X-tt---tt---------------tt-XXXXXXXXXXXXXXX