-------------------------------------------------------------------------------------------------------------------------D-----------------------------
-------------------------------------------------------------------------------------------------------------------------D-----------------------------
-------------------------------------------------------------------------------------------------------------------------D-----------------------------
-------------------------------------------------------------------------------------------------------------------------------------------------------
--------------------------------------------------------------------------------------------------------------------------D----------------------------
--------------------------------------------------------------------------------------------------------------------------D----------------------------
-----------------------------------------------------------------------D----------------o------------------o--------------D----------------------------
-----------------------------------oo------------------o-----------DD------------------o-o---o-o----------o-o----o-------------------------------------
M---XXXX-------------------D---------o-------o-o------##---------------XXX-o--ooTTXXXXo-o-o-o-o----------o-o-o--o-o------------------T-----------------
XXXXXXXXXXXXXXTXXXXX-----SSSSS-DDDDDDDDDD---DDDD------##--DSS------XXXXXXXXXXXX-##X-XDDDDDDDDDDDDDDDD--DDDDDDDDDDD-SS-----SSSSS------t--------#--------
XXXX-----ttXXXttXXX----T---------------------------#--##-------------XXXXXXXXXX-tt-----------------------------------------o-----T---tTo-----##--------
--------------tt-------t------------------------------##-------------------------#----------------------------------------------St-o-ttoot---##--------
---------tt---t--------t-------oD---------------------#--------------------------T-----------------o-------------T------oo------tto--tto-t#--##--------
---------tt-----------#t------ooD---------------------#--------------------------t-----------------o-------------##--oo-oo------ttg--ttggt#--##----#---
-------T-ttt---TT--XXXXXXXXXXXXXXXX--TT--TTT----TT----XTT---XXXXXXXX-------------t---TT----TT--TT-XXXXXX-T---TT-XXXXXXXXXXXXXXXXXXXXXXXXXXXXXXXXXXXXXXX
-------t-ttt---tt--XXXXXXXXXXXXXXXXX-tt--ttt--X-tt--X--tt--XXXXXXXXX-------------t----t----t---tt--XXXXX-tt--tt-XXXXXXXXXXXXXXXXXXXXXXXXXXXXXXXXXXXXXXX