-----------------------------------------------------------------------------------------------------------D-------------------------------------------
-------------------------------------------D---------------------------------------------------------------D-------------------------------------------
-------------------------------------------D---------------------------------------------------------------D-------------------------------------------
-------------------------------------------D-------o-------------------------------------------------------D-------------------------------------------
-------------------------------------------D------o--------------------------------------------------------D-------------------------------------------
-------------------------------------------D-----o---------------------------------------------------------D----------D--------------------------------
-------o-------------------o---------------D-----#-----#----------------------o-------o-------------------------------D---------------o----------------
------ooo-----------------ooo--------------D----##----##--#-----o--------------o-------o------------------------------D-------D------o---o----o--------
M--XXXX#--------TT-------o---o----------D--D----##----##--#---oo-o------------o-o--XXXXXXXXXXXXX-----oo------oo------D----o-D-D------#XXXXXXXXX--------
XXXXXXXX--XoTTT-tt------oDDDX-TT-XDDDDDDDDDDDDD-DD----##-##---#-S-SSSS--DDDDDDDDDDDXXXXXXXXXXXXX-------------##------DD-------D------XtXXXXXXXX--------
XXXXX--tTTXXtttott----TT-ot-X-tt----------------DD----##--##-y#------D------------------------------#----##-##---------------DD------------------------
-------tttX-tttoot----tto-tt--tt-----------------T-----#----#--------DD---------------------------###------#----------------DDD------------------------
-------tt---tttoot-----toDtt--tt---------TT-----tt-------------------------------------------------#-------------------T-------------------------------
-------tt---tttggt-----togtt--tt---------tt-----tt--------------------------------------------------------------------Dt-------o-------------------#---
-----T-ttXXXXXXXXXXXXXXXXXXXX-tt-----TT--tt-----tt--------------XXXXXXXX-TT---t----T-------------------------------TT-XXXXXXXXXXXXXX-X-------------XXXX
-----t-tXXXXtXXXXXXXXXXXXXXXX-tt-----ttt-tt-----tt-------------XXXXXXX-X-tt--tt----t---------------------------X----t--XXXXXXXXXXXXX--X------------XXXX