-----------------------------------------------------------------------------------------------------------------------------------D-------------------
-------------------------------------------------------------------------------------------------------------------------------------------------------
-----------------------------------------------------------------------------------------------------------------------------------D-------------------
-----------------------------------------------------------------------------------------------------------------------------------D-------------------
-----------------------------------------------------------------------------------------------------------------------------------DD------------------
----------------------------------------------------------------------------------------------------o-------------------------------D------------------
-------------------o-----------o-------------------------------------------------------------------o--------------------------------D------------------
M------------------o----------o-o------------------------D----------------------------------------------------------------o---------D------------------
XXXXXXXXXXXXXXXXXXXXX--------#-oooo----#--D------o-------D-------o----o--------o-XXXX---------------o-o--ooo-------XXX--oo-o--------DDD--TT------------
XXXXXXXXXXXXXXXXXXXXXXXTXX--##--####--##--#---#-####DD---t-----------##-#----###-XXXXXXXXX----DDDDDDDDDD--##---#--#--DDDDDDDDDD----------tt------------
----------------------ttX----#-T#-#---##--#--##---------tt----D--#---##-##-y#--#--------X------------------#--y#------------------o--tToott---t--------
-----------------------t-----###----#--#---###----------tt--------####---###---#-----------------------------##-----------------T-o--ttoott---t--------
-----------------------t-----------------------------T-ott-----------#---#-----#-----------------------------------------TT-----too--ttoott--tt--------
-----------------------t-----------------------------t--tt-------o------##----oo-----------------------------------------t------tgg--ttggtt--tt--------
-------------------------------------------------T---t--ttX-XXXXXXX--X--#X-XXXXXXXXXXXXXXXXXXXXXXXXXXTX--------------TT--t---TTXXXXXXXXXXXXXXXXXXX---X-
-------------------------------------------------t---tt-tt--XXXXXXXX----XX---XXXXXXXXXXXXXXXXXXXXXXXXtX-X------------tt--tt--tt-XXXXXXXXXXXXXXXXXXX--XX