-------------------------------------------------------------------------------------------------------------------------------------------------------
-------------------------------------------------------------------------------------------------------------------------------------------------------
----------------------------------------!---------------------------------------------------------D----------------------------------------------------
--------------------------------------------------------------------------------------------------D----------------------------------------------------
--------------------------------------------------------------------------------------------------D-----------o----------------------------------------
-----------------------------------------D--------------------------------------------------------D----------o-----------------------------------------
M--------------------------------o-----------------------------------o--------------------------------------o------------------------------------------
XX------------------------------o-o--------------------------o------o-o----o-------------------------------D-o---------o-------------------------------
XXXXXXXXXXXXXX---------D-------o-o-o--DD----------------------o---o--o-o--o-o---------TT--------------DDDDDDDDD-------##---#---XXXXX-----T-------------
-XXXXXXXXXXXXX---------D---DDDDDDDDDDDDDDDDDDD--#----D---#XXXXXXXDDDDDDDDDDDDDSS------tt-----------DDDDDD--------#---D##---#---XXXXX-----t-------------
--------------TT-------------------------------y#----D------XXX----------------X-TToottoo---gggg-ggD-------------#---##X---#---------TToot-------------
--------------tt------------------------------##----DDDD-------------------------ttoott-o-DDDDDDDDDD-------------#---##X-------------ttoot----D--------
--------------tt------------TT-------------T-------oo--------------TT------------ttoott-o----------DD-TT------#-###--###-------------ttoot----D--------
--------------tt-------------t------------tt------oo---------------tt------------ttggttD--------------tt------#--##--###-------------ttggt----D----#---
--------------tt---T---TT---tt--TT----TT--tt---XXXXXXXXXX----------tt---TT--XXXXXXXXXXXXXXXXXXXXXXXXX-tt---T-XX--XX--XXX-----------XXXXXXXXXXXXXXXXXXXX
--------------tt--tt---tt---ttt-tt----tt--tt---XXXXXXXXXX----------tt-X-tt--XXXXXXXXXXXXXXXXXXXXXXXXXXtt---tttX--XX--XXX-----------XXXXXXXXXXXXXXXXXXXX