--------------------------------------------------------------------------------------------------D----------------------------------------DD----------
-----------------------------D--------------------------------------------------------------------D----------------------------------------D-----------
-----------------------------D--------------------------------------------------------------------D----------------------------------------D-----------
-----------------------------D--------------------------------------------------------------------D----------------------------------------D-----------
--------------------o--------D-------------------------------------------------------------------DD----------------------------------------D-----------
-------------------o---------D-------------------------------------------------------o-----------DD----------------------------------------D-----------
----------o--------#---------D---------------------------------------o--------------o-o-----o----D------oo----o----------------------------DD----------
----D----o-o------##---------------------------------------o--------o-o------------o-o-o---o-o----------oo---oo----------------------------DD----------
M-------o-o-------##--------TT-----------------o---------oo-o---o--o-o-o-D--D-----o-o-D-D--Do-o--------X-----Xo-XXD-XXXXXoo------XX---o-D---D--X-------
XXXXXXDDDDDD-TT---##---S----tt-----------------D---DDDDDDDDDDDDDDDDDDDDDDDDDDDDDDDDDDDDDDDDDDDDD--D#XXXXXXXXXXXT##---#XXXXXDDXXXXXXXDDDDDDDDDDXXXXX----
XXXXX--------tXX-###----TTXott------------g-g-D------------------------------------------------------XXXXXXXXXX-------------XXXXXX-------------XXX-----
-------------tto-###----ttoott----------DDDDDDDD-------------------------------------------------------------------------------------------------------
--------TT---tto-t##----ttooot---ttoo-------------T----TT----------------------------T------TT------------------------------------------TT-------------
--------tt---ttD-###----ttoggt---ttgg------------------tt----------------------------t------tt---t--------------------------------------tt-------------
--------tX-XXXXXXXXXXXXXXXXXXXXXXXXXXXXXXXXXXXXX----T--tt----TT----TT--T---TT---TT---t--TT--tt---T----------------------------------TT--tt---TT-------X
------X-tt--XXXXXXXXXXXXXXXXXXXXXXXXXXXXXXXXXXXX-X-----tt----tt----tt--tt--tt---tt---tt-tt--tt--tt----------------------------------t---tt---tt------XX