-----------------------------------------D---------------------D---------------------------D-------------------D---------------------------------------
-----------------------------------------D---------------------D---------------------------D-------------------D---------------------------------------
-----------------------------------------D---------------------D---------------------------D-------------------D---------------------------------------
-----------------------------------------D---------------------D---------------------------D-------------------D---------------------------------------
-------D---------------------------------D---------------------D---------------------------D-------------------D---------------------------------------
-------D---------------------------------D---------------------D---------------------------D-------------------D---------------------------------------
-------D---------------------------------D------o--------------D---------------------------D-------------------D--------------------o------------------
-------D---------------------------------------o-o-------o--o--D----o--------------o-------D------o------------D--------------------oo-----------------
-------D-----------------XXXXXXXXXXXX---------o-o-o-----o-ooDo-D---o-D--------------o--------DDD-----XXXXXXX---D--------o#--------XXX-o-o----ooo-------
-------D----SSSSSS-D----DXXXX##XXXXXXXXXXXX---#DDDDDDDDDDDDDDDDDDDDDDDDDDDDD###-##---#-------------#XXXXXXXXXXXXXX----#-##---#XXXXXXXDDD#D--####---#---
-----DDD------o----D----------------XXXXXX------------------------------------------#D-----T-------#--------XXXXXX---------XXXXXX-----------X--#-y#----
---DDDDD----------SD--------------------------------------------------------------##-------t---#---##--------------------------------------#----##-----
-------D----o-o----D-----------------------------------------------------------------------t---#---#---------------------------------------------------
DM-----D-----gg----D-----------------------o----------------------------------------------ott--#---#---------------------------------------------------
XXXXXXXXXXXXXXXXXXXXXXXX-------------------X--X----TTT---T---t---TTT----------------------XXXXXXX-XX---------------------------------T-----------------
XXXXXXXXXXXXXXXXXXXXXXXX--tt---------------X--XX---ttt---t--tt-X--tt----------------------XXXX-XX-XX---------------------------------t----------------X