-------------------------------------------------------------------------------------------------------D------D----------------------------------------
-------------------------------------------------------------------------------------------------------D------D----------------------------------------
---------------------------------------------------------------D---------------------------------------D------D----------------------------------------
-------------------------------------------------------------------------------------------------------D------D----------------------------------------
-------------------------------------------------------------------------------------------------------D--------------------------------------------o--
---------------------------------------------------------------!---------------------------------------D------t----------o-----------------------------
--------------------------------o----------------------------------------------------------------------D-------D---------#-------------------------o---
-------------------------------o-o-------------------------o-------------------------o-----------------D------------------------------------------o----
o---M--------XXXXX------------o-o-o--------------------X--#---XXXXXX-----o-----ooo--o-o----------------DDXXXXXXX---------DD------TT---D----------o-----
#---####-###XXXXXXXXXXX-------tDDDDDSSS------XXXXXXXXXXXXXX--XXXXXXXXX-oo-o-----DDDDDDDD-##--#---------t--XXXXXX---SS--SSo-TT-o--tt---D---SSSSSSDDD----
#-yy#-------------XtXXXX-TTToot--------S----D-ttXXXXXXXX--------------o-DDDDDD-D-------------D------Toott------------ottD---t-Xoott---D----------------
--#----------------------tttoot---------SSSDD-tt----------------------------------------------------toott----------toott-o-ttt-oot----D----------------
-------------------------ttoootT-----------DD-tt---------------------------------------------------ttoott----------ooott----tt-oot---------------------
-------------------------tttggtt-----g--------tt---------o-----------------------------------------ttggtt----------oogtt----tt-ggtt-------og-------#---
--------TT--------------XXXXXXXXXXXXXXXXXXXXX-tt-------XXXXXXXTT------TT-----TT--T---------------TTXXXXXXXXXXXXXXXXXXXXXXXXXXXXXXXX---T--XXX--TTT-XXXXX
--------tt--------------XXXXXXXXXXXXXXXXXXXXXXtt-------XXXXXXXtt------tt-----tt--t---------------tt-XXXXXXXXXXXXXXXXXXXXXXXXXXXXXtt---t-XXXXX--tt-XXXXX