---------------------------------------------------------D---D--------------------------------------------------------------------------------D--------
--------------------------------------------------------DD---DD-------------------------------------------------------------------------------D--------
--------------------------------------------------------DD---D--------------------------------------------------------------------------------D--------
--------------------------------------------------------DD----D-------------------------------------------------------------------------------D--------
---------------------------------------------------------D----D-------------------------------------------------------------------------D-----D--------
--------------------------------------------------------DD---DD------------------------------------------------------------------------DD-----D--------
--------oo-------D--------------------------------------DD----D----------------------------------------------o-------------------------DD-----D--------
M-------ooo------o---D----------------------------------DD--------------------------------------------------o-o-----------D----o------o-D-----D--------
XXXXXXXXXX-o----o-o---------------D-D------------D-------D---------------------D---------------------------o-o-o----------DD---DD----o-oDoXXXXXX-------
XXXXXXXXXXDDDDDDDDDDDD-------DDDDDDDDDD----S-----D------DDDDXXXXXXX----o---X--#D-----------------T------DDDDDDDDDDDDD-------D--DDDDDDDDDDDXXXXXX-------
------------------------------------------#D----DDD--------XXtXXXXX---#T--XX--XDXX---#---DD-----#t--------------------------D--------------------------
------------------------------------------SD---DDD-----------t--------#tto-----DDo---#DDDDDDDDDDDt-----------------------DD-D--------------------------
-----------------------------------------ooD-----------------t-------oottoo------o---#---D---------------T-----------------DD--------TT----------------
----------------------------o------------ooD-----------------tt------oott-o------o--##---D--------------tt-----------------DD--------tt------------#---
-------------TT---XXXXXXXXXXX---TT---XXXXXXXXXXXX-TT----TT---tt---XXXXXXXXXXXXXXXXXXXXXXXXXXXXXXX-------tt----TT------XXXXXXXXX-XX---tt-------TT---XXXX
------------------XXXXXXXXXXX-X-tt---X-XXXXXXXXXXXtt----tt---tt--XXXXXXXXXXXXXXXXXXXXXXXXXXXXXXXX-------tt-----t------XXXXXXXXXXXX---tt-------tt---XXXX