-----------------------------------------------------------------------D--------------------------------------------------D----------------------------
-----------------------------------------------------------------------D--------------------------------------------------D----------------------------
-----------------------------------------------------------------------D--------------------------------------------------D----------------------------
--------------------------------------------D--------------------------D---------------------------------------D----------D----------------------------
--------------------------------------------D--------------------------D---------------------------------------D----------D----------------------------
--------------------------------------------D------------------------------------------------------------------D----------D----------------------------
---------oo------o--------------------------D--------------------------------------------o---------------------D----------D----------------------------
---------o-o----o---------------------------D-------------------------------------------o-o------o--------XXXX-D---------oD----------------------------
MXXXXXXXXXo-o--o-o-D----------##------------D------oo-------------------XXXXXXXXXXXXX--o-o-o----o-o-----XXXXXX-D---o-o--o-o-------------------D--------
XXXXXXXXXXDDDDDDDDDDDD---TS---##-------D----D-----o--T-----SSSSSS-----#-XXXXXXXXXXXXDDDDDDDDDDDDDDDD-X----X----DDDDDDDDDDDDDDD---------#------D--------
-----------------------Xtt##--##------------D----D-o-----g---------D-DD------------------------------#-----------------------------#--##------D---D----
------------------------tt----DDDD----------DDDDDDDDDDDDDDD-----SSSDDDD-------------------------------------------------------------##---------DDDDD---
---------------TT------oot------------------DD------DDD----o-----ooDDDD----------------T------------------------T------TT----TT------------------------
---------------tt------ott------------------oD-------------------ooD-DD----------------t------------------------t------tt----tt------------------------
-----------TT--tt----XXXXXXXXXXXXXXXXX-TT-XXXXXXXXXXXXXXXXXXXXXXXXXXXDD------------TT--t---TT-------------------t---TT-tt----tt--------------TT-XXXXXXX
-----------tt--tt----XX-XXXXXXXXXXXXXX-Xt-XXXXXXXXXXXXXXXXXXXXXXXXXXXX-------------tt--t---tt------------------tt----tttt----tt--------X-----tt-XXXXXXX