------------------------------------------------------------------------------------------------------------------------------------------D----D-------
------------------------------------------------------------------------------------------------------------------------------------------D----DD------
----------------------------------------------------------------------------------------------------------------------#-------------------D----D-------
------------------------------------------------------------------------------D------DD---D-----------------------------------------------D----D-------
------------o----------------------------------------------------------------DD------DD---D-----------------------------------------------D----D-------
-----------------------------------------------------------------------------D-------DD--D-----------------------------t------------------D------------
------------------o-----o-------------------------o--------------------------D-------DD--D-------------------------------------------------------------
M---------#------o-o---o-o-----------------------o-o-----DD------------------D-------DD--D-------------------------------------------------------------
XXXXX-o--D#-----o-o-o-D-o-o---------------------o-o-o---o-o-D-D-D---o-------oDD-o-o--DD--D--------------------o-ooo-ooo--------TT----------TT----------
XXXXXX#-y###TTDDDDDDDDDDDDD---SSSSSDDD------DDDDDDDDDDD-DDDDDDDDDDDDDDD-#--###DDDDDD-DD--D-TT---XXXXXXX------##-##---###SSSSSS-tt---------ottSS--------
XXX---#-y#--------------------------------------------D-------------------y----------------tt---XXXXXXX--#---##--#--y#------TXott------TT--tt----------
-------##----------------------------------------------------------------##----------------tt------------#---##---##-------ttoott------tt-oo------D----
------------TT---TT-----------------DT----------TT---------TT--T-----T---------------------tt------------#---#-------------ttoott-------t-oo----ooD----
------------tt---tt-----------------Dt----------tt---------tt--t-----tt--------------------tt----------------#-------------ttogtt-------t-ggt---ooD----
------------tt---tt-----XXXXXXXXXXXX-tt----TTT--tt---------tt--tt----tt--------TT--TT--XXXXXXX-X--------XX---T-------------XXXXXXX-----TTXXXXXXXXXXXXXX
------------ttt--tt------XXXXXXXXXXXXtt----ttt--tt---------tt--tt----tt--------tt--tt--XXXXXXX-X-------------t------------XXXXXXXX-----ttXXXXXXXXXXXXXX