--------------------------------------------------------D--------------D---D---------------------------------------------------------------------------
--------------------------------------------------------D--------------D---D---------------------------------------------------------------------------
---------------------------------------------------------------D-------D---D---------------------------------------------------------------------------
---------------------------------------------------------------D-------D---D---------------------------------------------------------------------------
-----------------------------------------o---------------------D-------D---D---------------------------------------------------------------------------
--------------------------------------------------------------DD-------D---D---------------------------------------------------------------------------
--------------------------------------------------------------DD-------D---D----------------------o----------------------------------------------------
M-------------------------------------------------------------D-----o--D---D----------#------------o-----o----------------o----------------------------
XXXXXXXXXXX---------TT-o-------D-oo-----#D----------XXX------------D-D-D-o--oo--##---##-----------#-o---o-o----o-----------o--------------------T------
XXXXXXXXXXXX---XTTXXttoXSSSS---D-##----####------XXXXXXXXX----DDDDDDDDDDDDDDDDD-##---##--------#--DDDDDDDDDXXXXXTTX-------DDDD---------#----SSSSS------
-X-----------XX-tTXott---------D---##-y#-----------X-----------------------------#---##--#----g#-----------XXXXXtt---------------------#------X--------
----------------tt-oot---------D----###------#---------------D-------------------#---##--#DDDDD#----------------ttt---------------DDD-##-------S-------
----------------ttooot---------D-------------------------------------TT--------------##-##----------------------ttt----------------D--##--------o------
----------------tttggt---------D-------------------------------------tt--------------##-#-----------------------tt--------##g------o--##-------oo--#---
--------TT---XX-XXXXXXXXXXXXXXXXX---------------------XXXXXXXXX-TT---tt--T-----------XX-XXXXXXXXXXX--TT--t------tt----TT--XXXXXXXXXXXXXXXXXXXXXXXXXXXXX
--------tt--XXX-XXXXXXXXXXXXXXXXX-X----------------X-XXXXXXXXXXXtX--ttt--t-----------XX-XXXXXXXXXXXX-tt-tt------tt----t---XXXXXXXXXXXXXXXXXXXXXXXXXXXXX