-----D-----------------------D-----D-------------------D-----------------------------------------------------------------------------------------------
-----D-----------------------D-----D-------------------D-----------------------------------------------------------------------------------------------
-----D-----------------------D-----D-------------------D-------------------------------------------------#----#----------------------------------------
-----D-----------------------D-----D-------------------D---------------------------------------------------------------------------o-------------------
-----D-----------------------D-----D-------------------D-----------------------o--------------------------------------------------o--------------------
-----D-----------------------D-----D-------------------D-----------------------------------------------------------------------------------------------
-----D---------D------o------D-----o-------------------D-----------------------------------------------------------o-------------#---------------------
M--------------D-------o-----DD----o----------------------------------#--#----------------------------------------oooo----------##---------------------
XXXXXX---------D------o-o---XXXXXXXXXXXXXXXXXXXT-----------------o---##-##---#--XXXXX----------D-------XXXXXXDD--o--o----oo---#-##--oo-o------oo-------
-XXXXX---------D----D-D--o-TXXXXXXXXXDXXXXXXXXTT--o---D------D--o----##-##---#--XXXXXXXXXX--SSSSSSXX#XXXXXXXXXDDDDDDDDDD-##--##-##--##DXX---####DXXXX--
------------DD-D----------tt------X-tt--------tt------#-gg-g-DD-##---##-##-------------XX------------------------------------##-##--##-XXXX##----XXXXX-
----------DDDDDD---------ott------------------tt--##--DDDDDDDDDDDDD--##-##-------------D------------------------------------###---##-------#-----------
--------------DD--------oott------------------tt---#-----------------##-##-------------------------------------TT------#-----##------------------------
-----oo--------D--------ggtt------------------tt---#-----------------##-##-------------------------------------tt------#-----#-------------------------
----XXXXXXXXXXXXXXXXXXXXXXXXX-----------------tXXXXXXXXXXXXXXXXXXXXXXXX-XXXXXXXXXXXXXXXXXXXXXXXXXX---TT----TT--tt---T--X----#XX------------------------
----XXXXXXXXXXXXXXXXXXXXXXXXX-----------------tXXXXXX-XXXXXXXXXXXXXXXXX-XXXXXXXXXXXXXXXXXXXXXXXXXXXX-tt----tt--tt---t--X----t--------------------------