-------------------------------------------------------D---------------------------------------------------------------------------D-----------D-------
-------------------------------------------------------D---------------------------------------------------------------------------D-----------D-------
-------!-----------------------------------------------D---------------------------------------------------------------------------D-----------D-------
-------------------------------------------------------D---------------------------------------------------------------------------D-----------D-------
-------------------------------------------------------D---------------------------------------------------------------------------------------D-------
--XXtt-o-----------------------------------------------D-----------------------------------------------------------------------------------------------
---------------------------o--------------------------DD-----------------------------------------------------------------------------------------------
M-------------------------o-o-------------------------Do------------------------------------------------------------------------------o----------------
XXXXXXXXXXXXXXXXX--------D-DDD-D-------------XXXXXXXXXXX---------#------------o--------------TT----------------T-----------T---o-----o-o---o---#-------
XXXXXXXXXXXXXXXXXXXX--DDDDDDDDDDDD-----------XXXXXXXXXXXTTXXX-X-X#----TT-X-S-##--#--##-------tt---------D------tt---------Xtt-##DDDDDDo---##---##------
------------------X-------------------------t---------XXttXXX-tt-#----tt-----#--##--##---TTo-tt------g-DD----oott--------X-tt-------------##---##------
--------------------------------------------t-----------tt----tt-#----tt--------##--------oo-tt---DDDDDDD----oott--------------------------##--##------
------------------------T-------------D---oot-------T---tt----tt-#----tt------------------oo-tt--------DD---toott----------------T-----#---##----------
------------------------t-----------------oDt------tt---tt----##------tt-------------------o-tt--------DD---t--tt----------------t---------#-----------
---------------------T--X---TT--XXXXXXXXXXXXXX-T---tt---tt----XXXXX---ttt-------------------XXXXXXXXXXXXXXXXXXXtt---------------tt---TT---XXX--XX---X--
---------------------t--XX-ttt--XXXXXXXXXXXXXX-t---tt---tt----X--XXXX-ttt-------------------XXXXXXXXXXXXXXXXXXXtt---------------tt---tt----XX---X---XX-