---------------------------------------------D------------D--------------D----------------------------------------------------------------D------------
---------------------------------------------D-------------D-------------D----------------------------------------------------------------D------------
-----------D---------------------------------D-------------D-------------D----------------------------------------------------------------D------------
-----------D---------------------------------D-------------D-------------D----------------------------------------------------------------D------------
-----------D---------------------------------D-------------D-------------D---------------------------------o------------------------------D------------
-----------D-------------------o-------------D-------------D-------------D----------------------------------------------------------------D------------
----o------D----o--------------------------------------------------------D--------------o------D-----------D------------------o--------o--D------------
----o------D---o-o-------------------------------------------------------D------------oo-o-----D-----------D-----------------o-o------o-o-D--------D---
---XX--D---D--D-o-D-DXXXXXXXXXXXX------------T-------------D------TT-----D-----D-----DD-o-o----D-----------D---o---XXXXXX--o--o-o-----Do-DD--------D---
MXXXXDDDDDDDDDDDDDDDDXXXXXXXXXXXXX----tt-----T--XSSSSSSSSSSSS------t-----DDDDD-DDDDDDDDDDDDDDD-D--------DDDDDDDD---XXXXXX-DDDDDDDDDDDDDDDDDDDDDDD--D---
XXX-----------------------------------tt-X---tt-XX---------------o-t---------------------------DD--------------#--#--------------------------------D---
X-------------------------------------ot--SS-tt-------------DS---ott---------------------------DD----------------#---------------------------------D---
---------TT----TT--------------------oot---oott---------------oDDott-----TT---------TT---------DD----------TT------------------------TT------------D---
---------tt----tt--------------------oot----ott-------#--oo--ooDD#-t-----tt---------tt----------D----------tt------------------------tt----------------
-----TT--tt----tt-------------------XXXXXXXXXtX------XXXXXXXXXXXXXXXXXTT--t-----TT--tt--TT---XX-XXXXXXXXXT-tt---TT---------------TT--tt--TT---TTXXXXXXX
-----tt--tt----tt---t---------------XXXXXXXXXtX-------XXXXXXXXXXXXXXXXXX-ttt--X-tt--tt--tt---X--XXXXXXXXXX-tt---tt---------------tt--tt--tt---ttXXXXXXX