----------------DD-----------------------------------------D-------------------------------------------------------------------------------------------
-----------------D-----------------------------------------D-------------------------------------------------------------------------------------------
----------------DD-----------------------------------------D----------------------------------o--------------------------------------------------------
------------o---DD-----------------------------------------D-------------------------------------------------------------------------------------------
----------------DD-----------------------------------------D-------------------------------------------------------------------------------------------
----------------DD--------o--------------------------------D----------------------------X--!-----------------------------------------------------------
----------------DD-------o-o---------------o---------------D-----o----o-------o---------------------------------------------o--------------------------
M------D#-------DD--------o---------------o----------------D----o-o---oo-----o#--------------------D-----------------------o-o-------------------------
XXXXXX#-#----D--DD-----D-o-o--o----------o-o---------------DD-DDDD-o-o-------##---------T-XXXX-----D--D----------ooo-o---oXXDDo------o-T---------------
XXXXXX----D-DDD-DDDDDDDDDDDD--##--##----o-SSSSSS--SSSSSSS--DDDDDDDDDDDD------##---SSS---DXXXXXDDDDDDDDDDDD-##TTXXXDDDDDDDXXXDDSSSSSTTXotXXXXXDDD-------
------------------------------##--##--##-o----S--D-----S---------------------##-----S---t--------------------ttXXXX----------------ttX-ttXXXX----------
-----------------------t------##--##--D#SS----SSSD-----------------------D---##------DSott-------------------tt--------------------ttoott-------------D
------------------TT--tTT-----##--##----oo-----ooD---------D----TT----D-DD---##-------oott---------TT--------tt--------------------ttoott-------------D
------------------tt---tt------#--#-----ogg----ooD---o-----D----tt----DoDD---##-------oott---------tt--------tt--------------------ttggtt----------#---
--------TT----TT--tt---tt------X-XXXXXXXXXXXXXXXXXXXXXXXXXXXXXXXXXXXXXXXXXXXXXXXXXXXXXXXtt-----TT--tt--TT----tt--------TT--XXXXXXXXXXXXXXXX--TT-tt-XX-T
--------tt----tt--tt---tt------X-XXXXXXXXXXXXXXXXXXXXXXXXXXXXXX-XXXXXXXXXXXXXXXXXXXXXXXXtt-----tt--tt--tt----tt--------tt--XX-XXXXXXXXXXXXXX-tt-tt--X-X