---------------D-----------------------------------------------------------------------D----D------D-----------------------------------D---------------
---------------D----------------------------------------------------------------------------D------D-----------------------------------D---------------
--------!------D----------------------------------------------------------------------------D------D-----------------------------------D---------------
---------------D----------------------------------------------------------------------------D------D-----------------------------------D---------------
---------------DD--------------------------------------------------------------------------DD------D-------------------------o---------D---------------
--------!------DD-------------------------o------------------------------------------------D-------D------------------------o----------D---------------
---------------DD--------------------------------o-----------------------------o-----------D-------D-----------------------o-o---------D---------------
M--------------D------------------------##----------------------D--------------o--------o--D-------D---------------D----D--------------D---------------
XXXXXXXXX------DD---------o----D--------##---X-X-XXXXX-----------------D------o-D-D----o-o-D---D---D---------------D-------------------D---------------
XXXXXXXXXXXXXXX-DD-----o------##--------##--XXXXXXXXXXX----------------DDDDDDDDDDDDDDDDDDDDDDDDD---D----DDDDDDDD---DD-----otT--SSSSS---DD--------------
-------XXXXXXX---D-----#--#---##--------##--------XX---------------T-------------------------------D-DDD------------D----oott----------D---------------
-----------------D----##--##--##--------#-------------------------tt-----------------------------DDDDDDDD--------------Ttoott-------DSSDD--------------
-----------------D----##--##--##-------------------------------o--tt-----------T-------TT------------------------------ttoott---------oDD--------------
-----------------D----##--##--##----------------------o--------o--tt----------tt-------tt------------------o-----------ttggtt--#------oDD-----o--------
-----------------XXX--XX--XX--XX-XXXXXX-------------XXXXXXXXXXXXXXXXXXXXX-XTT--t---TT--tt---TTXXXXXXXXXXXXXXXXXXXXXXXXXXXXXXXXXXXXXXXXXXXXXXXXXXXXXXXXX
----------------X-XX--XX--XX--XX-XXXXXX--------------XXXXXXXXXXXXXXXXXXXXXXtt--t---tt--tt---tt-XXXXXXXXXXXXXXXXXXXXXXXXXXXXXXX-XXXXXXXXXXXXXXXXXXXXXXXX