-----------------------------------------------------------------------D-------------------------------------------------------------------------------
-----------------------------------------------------------------------D-----------------------------------------------------------------------!-------
-----------------------------------------------------------------------D-----------------------------------------------------------------------!-------
-----------------------------------------------------------------------D-------------------------------------------------------------------------------
-----------------------------------------------------------------------D-----------------------------------------------------------------------!-------
-----------------------------------------------------------------------D----o-----------------------------------------------------------o------!-------
-----------------------------------o---------------------------------------------------------------------------------------------------o-------D-------
---------oo-------o---------------o-o--------------------------------------------------------------------------------------------------#---------------
M---------oo-----o--o------------D-o-DDD------o----------------TT---------##--XXXXXXXXXXXXX------oo--------------X---------------D-----#------##-------
XXXXXXXXXXXDDDDDDDDDDD-----D----DDDDDDDDDDDDDD#tX#XXXXXXXX-----tt------T--##XXXXXXXXXXXXXXX----T-Xo---X-#-----XDSSSSS--#-----SSSSD----##--##D-##-------
XXXXXXXXXXX----------------D------------------tt-XXXXXXXXX-TTXott------t--#t--XX---------------tt--tTXX-##---#--------##---------#----#--#----##-------
-----------------------D---D-------------------t-----------ttoott-----t#--#t-------------------#---ttXo--DD-----------##---------#---##-##----##-------
-----------------------D------------TT---------t-----------ttoott--tt-tt--tt------------------##---ttoo---------------##------o--#---##--------#-------
-----------------------D---D---------t---------t-----------ttggt---t--tt---t------------------##---tto----------------##---#-ooo-#---##--------#---#---
-----------T--TT--TTT--XXXXX-T---TT--t-T---XX--------------XXXXXXXXXXXXX---t--------------TT--XXXXXXXXX-X-----XXXXXXX-XXXXXXXXXXXXX--XX--------X---XX--
-----------t--tt--ttt--X-XXX-tt--tt--ttt--XX--XX------------XXXXXXXXXXXXX--t--------------tt--XX-X-XXXX------X--X-XXX-XXXXXXXXXX-XX--XX--------X---XX--