-----------D-----------------------------------------------------------------------------DD--------------------------------------------DD--------------
-----------D-------------------D---------------------------------------------------------DD--------------------------------------------DD--------------
-----------D-------------------!---------------------------------------------------------DD--------------------------------------------DD------!-------
-----------D------------------------------------------------------------oo---------------DD--------------------------------------------DD--------------
-----------D------------------------------------------------------------o-----------------D--------------------------------------------DD--------------
-----------D-------------------!---------------------------------------o----------D-------D--------------------------------------------DD------D-------
-----------------------------------------------------------------------#----------D------DD------------------------o-------------------DD------D-------
M----------------o---------------o--o--------------------------o---o--##----------D-------D-----------------------o-o------------------DD------D-------
XX--------------o#-----------DD-o-oD-oo-o----o-o---o-o-o-oo----o--##--##----------D------DD--D-------------------o------XXXXX------D----D------D-------
-XD-##-##SXXXX--##-----SSSSDDDDDDDDDDDDDDDDDDDDDSSS#DDDDDDDDDDDD--##--##--##--####DDXDDDDDD--##----------DDDDDDDDDDDDD-XXXXXXXXX---#----D---D--D-------
y#---#-----XXX--##---------------------------------------------#--##--##--##-y#------X-------##-----------------------------------##---DDgggDg-D-------
#---------------##------------------------------------------------##--##---D#-------------#--##-----------------------------------##DDDDDDDDDDDD-------
---------------###------------------------------------------------##--##---------------------##---------tt-------------------------#D----------D-------
---------------##D-----------------------------T------------------t#---#---------------------##---------tt------------------------##-----------D---#---
---------------XXXXXXXXXXXXXX---TT---TT----TT--Xt--------T----TT--tX---X-----------------T---XX-XX---XX-tt---TT--TT--Tt--------X-XXXXXXXXXXXXXXXXXXXXXX
---------------XXXXXXXXXXXXXX-X-tt---ttt-X-tt--tt-------ttt---tt--tt---X-----------------t---XX--XXX-XX-ttt--tt--tt--tt--------X-XXXXXXXXXXXXXXXXXXXXXX