-----------D-------------------------------------------------------D---------------------------------------------------------------------------DD------
-------------------------------------------------------------------D---------------------------------------------------------------------------DD------
-------D---D-------------------------------------------------------D-------------------------------D-------------------------------------------DD------
-------!---D-------------------------------------------------------D-------------------------------D-------------------------------------------DD------
-----------D-------------------------------------------------------D-------------------------------D-------------------------------------------DD------
-----------D-------------------------------------------------------D-------------------------------D-------------------------------------------DD------
-----------D-----o---------------------o--------------o------------D-------------------------------D-------------------------------------------DD------
M----------D----Xo--------------------o--------------o-o-------D---D-------------------------------D-------------------------------------------DD------
XXXXXXXXXXXX----Xo-----XXXXXXXXXXXXXXXXX-----XX-XXXX--o-o------D---D---------------oo-ooo----------D-XX--------D-TT----------------------------DD------
XXXXXXXXXXXXDDXXXXTXXXXXXXXXXXXXXXXXXXXXX---XXXXXXXXSSSDDDD----D---D-----------#--####-###----####-XXXX----SS--o-tt-------------o---T----------DD------
--------------XXXXttXXX--------------------------------------D-D---DD------D---#--X---T--#--y#-#-----X-------TT--otD-----------o-o--t----------DD------
------------------tt-----------------------------------------DDDDDDDDDDDDDDD---------##----##----------------ttootto---------DDDDDDDD----D-----DD------
------------------tt-----------------------------------o-TT----D-------D-oDD---------------------------------ttoottto--------------DD-------oooD----t--
------------------tt-----------------------------------o-tt------------D-o-----------------------------------ttgggtt------D----o---DD-------oo-----tttg
------------------tt---------------------------------TT-XXXXXXXXXXXXXXXXXXXXXXXXX---------------------X-XXXXXXXXXXXXXXXXXXXXXXXXXXXXXXXXXXXXXXXXXXXXXXX
------------------tt---------------------------------tt-XXXXXXXXXXXXXXXXXXXXXXXXX---------------------X-XXXXXXXXXXXXXXXXXXXXXXXXXXXXXXXXXXXXXXXXXXXXXXX