-----------------------------------------------------------------------------------------------------DD------------------------------------------------
-----------------------------------------------------------------------------------------------------DD------------------------------------------------
-----------------------------------------------------------------------------------------------------DD------------------------------------------------
------------------------------------------------------------------------------------------------------D------------------------------------------------
---------------------------------------------------------D--------------------------------------------D------------------------------------------------
-------------------------------------------o-------------D--------------------------------------------D------------------------------------------------
---------o-----------------------------o---------o-------D--------------------------------------------D-------------------------------o----------------
M------oo---------------------------o-o-o-------o-o------D-----------------o-oo-o---o-----------------D------------------------------o-o---------------
XXXXX-##-o---XXXXXXo---------------D-DDD-D--D--o-o-o-----D---D------------o-o--o-o-o--------------------------o------------TT-------o---o--------------
XXXX--##-DDDDXXXXXSSD---------D----DDDDDDDDDDDDDDDDDDDD-DDDDDDDD-----------DDDDDDDDDDD-------TT---XXXXXXXXX--o--------SSSSStt------DD--D---------------
------##----------------D-------------------------------------------o-tt----------------SSSo-ttoX-ttXXXXXXX---S--DD----ttoott----T-DD------------D-----
----------------------SSDD-----------------------------------------ooott-----------------D-o-tt-o-ttt----------SSSD----ttoott---SSSD-----------DDD-----
-----------------------oDD------------T-----------------TT--------oooott-----TT-------------ott---tt------------ooD----ttoot-----ooD-------------------
----------------------oooD------------t-----------------tt--------toggtt-----tt-------------ott---tt------------ooD----ttggt-----ooDD--------------#---
--------TT----TT--XXXXXXXXXXXXXXXXXX--t------TT------T--tt---TT-XXXXXXXXXXX--tt---TT--XXXXXXXXXXXXXtX-----XXXXXXXXXXXXXXXXXXXXXXXXXXXXXXXXXXXXXXXXXXXXX
--------tt----tt--XXXXXXXXXXXXXXXXXX-ttt-----tt------tt-tt---tt-XXXXXXXXXXXX-tt---tt--XXXXXXXXXXXXXtX-----XXXXXXXXXXXXXXXXXXXXXXXXXXXXXXXXXXXXXXXXXXXXX