-------------------------------------------------------D-----------------------------DD----------------------------------------------------------------
-------------------------------------------------------D-----------------------------D-----------------------------------------------------------------
-------------------------------------------------------D-----------------------------D-----------------------------------------------------------------
-------------------------------------------------------D-----------------------------D-----------------------------------------------------------------
-------D-----------------------------------------------D-----------------------------D-----------------------------------------------------------------
-------D-------D-----------------------D---------------D-----------------------------D-----------------------------------------------------------------
-------D-------D-----------------------D---------------D----------------------------------------------------------------------------------#------------
-------D------DD-----------------------D-----D---------D--------------------------------TT---------------------Do------------------------##------------
MXXXXX-D-------D--D-D--------------o-o-o----##XXXXXXXXXXXX-----oo-----XXXXXXXXXX--------ot---XXXXX-ooooo-------o-o---------------#---------------------
XXXXXX-D-------D------DD---------SSSSDDD-D--XXXXXXXXXXXXXXDDDDDXXXXXXXXXXXXXXX-X------To-tDXXXXXXXX####--###--o#DDDDSSSSSSDD-----#--------##DDDDDD-----
XX-------------D-----------------------------------------------XXXXXXX----------------oo-t------------#-X#----#--------ttoot------#---#---#------------
--------------DD---------------#---------#-------------------------------------------t---t-------------##----##--------ttoot------#---##--#------------
-------------#-D--------------##--------##-----------------------------------------------t-----------------------------tt-ot------##--##--##---TT------
--------#---###D-----------o--##--------##--#--------------------------------------------t-----------------------------tt-g--------##-##--##---tt------
--------XX-XXXXXXXXX------XXX-XX-XXXXXX-XXXXXXXXX--XX----TT--------------------TX-XXXX--tt-------------------------TT--XXXXXXXXXXXXXX#XXX-XXXT-tt---X--
--------XX--XXXXXXXX------XXX-XX-XXXXXX-XXXXXXXXXXXXXX-X-tt-----------------------XXXXX-tt-------------------------tt--XXXXXXXXXXXXXXX-XX--XXt-tt---X--