-------D----------------D------------------D-----D---------------------D-------------------------------------------------------------------------------
-------D----------------D------------------D-----D---------------------D-------------------------------------------------------------------------------
-------D----------------D------------------D-----D---------------------D------------------------------------------------------------------#----!-------
-------D----------------D------------------D-----D---------------------D-------------------------------------------------------------------------------
-------D----------------D------------------D-----D---------------------D-------------------------------------------------------------------------------
-------D---------------DD------------------D-----D---------------------D-----------------------------------------------------------------o-D-----------
-------D----------------D------o-------o---D-----D---------------------D----------o----o------------D-----------------o----------------o--D------------
M------DD---------------D-----o-o-----o-o--D------------------o-----------o------oo---o-o-----o----oD----------------o-o-------o------o----------------
XXXXXX-DD---------------D----o-o-o---D-o-D-D-----------o---D-o-o------XXXo-o--D---o--oXo-D---D----o-o---------------o-o-o------DD----o-o---------------
XXXXXDDDDDD-SSSSSS-DD--DDDDDDDDDDDDDDDDDDDDDDDDDDDDD---DDDDDDDDDDDDDXXXXXXDDDDDDDDDTTXXDDDDDDDDDDDDDDD---------DDDDDDDDDDDD----DDDDDDDDDDDDDDDD--------
---------------S----------------------------------------------------X-------------ttt---------------------------------------------------------#--------
----------------S-----------------------------------------------------------------tt----------------------------------------------------------#--------
---------------------oo--------------TT------T----------------TT------------------ttt-------TT---------------T-------TT--------------TT------#D--------
-------------g------oo--D------------tt------t----------------tt-----------------tttt-------tt------o--------tt------tt--------------tt------#D----o---
-----TT--XXXXXXXXXXXXXXXXX--XT--TT---tt--TT--tX-XXXXXXX--TT---tt------------TT---tttt---TT--tt--TT--XXXXXXXX-XX--TT--tt----------TT--tt--TT--XXXXXXXXXX
-----tt--XXXXXXXXXXXXXXXXXXXttt-tt---tt--tt--XXXXXXXXXXX-tt---tt--------t---tt--tttttt--tt--tt--tt--XXXXXXXX-tX--tt--tt-------XX-tt--tt--tt--XXXXXXXXXX