-----------D-------------------------------------------------------------------------------------------------------------------------------------------
-----------D-------------------------------------------------------------------------------------------------------------------------------------------
-----------D-------------------------------------------------------------------------------------------------------------------------------------------
-----------D----------------------------------------------------------------------------------#--------------------------------------------------------
-----------D-----------------------------------D-------------------------------------------------------------------------------------------------------
-----------D-----------------------------------D----------------------------------------------o--------------------------------------------------------
-----------------------------------------------D--------------------------------------o---------------o-----------------------o-------o----------------
M--------------------------------------o-o-o---D-------------------------------------o-o-------------o-o-----------------------------o-----------------
XXXXXX--D-----------------------o-------o-o-o--D---------T-------------o------------o-o-o---DXX-X--o--o-o----TTXXXXXX---------o-----XXXXXXXXXXXX-------
XXXXXSSSSSSSSSSSSS#---SSS------##---#DDDDDDDDDDDDDDDDDDD-t------------o----------DDDDDDDDDDDDDDDDDDDDDDDDD---tt--XXXXXXXXXXXTXXXXXXXXXXXXXXXXXXX-------
---------------------D-o-D--DD--#-y##------------------#-t-----------o---------------------------------------tt-------XXXXXtt-XXXXXX-------------------
-----------SS----SSSSDDDDDDDDD---##--------------------#-t-----------#------------------------------------So-tt------------tt--------------------------
------------o-----ooD-----DDDD--------------------------Tt-----o-----#-------------TT---------------------oo-tt------------tt--------------------------
------------gg----oo------ooD---------------------------tt----oo---o##----##-------t----------------------ooott------------tt----------------------#---
-----XXXXXXXXXXXXXXXXXXXXXXXXXX-X-XT---t----------------tt-XXXXXXXXXXXXXXXXXXX-TT--t---TT--T-T----TT----TXXXXXXXXX---------tt-------------------X-XXXXX
-----X-XXXXXXXXXXXXXXXXXXXXXXXX-X-tt---t--------tt------tt--XXXXXXXXXXXXXXXXXXXtt--tt--tt--t-tt---tt----ttXXXXXXXXX--------tt-------------------X-XXXXX