---------------------------D---------------D-----------------------------------------------------------------------------------------------------------
---------------------------D---------------D-----------------------------------------------------------------------------------------------------------
---------------------------D---------------D------------------------------------------------------------------o----------------------------------------
---------------------------D---------------D-----------------------------------------------------------------o-----------------------------------------
---------------------------D--------------------------------------------------------------------------------o------------------------------------------
---------------------------D----------------------------!--t-------------------------------------------------------------------------------------------
--------------o------------D----------------------o------------o---------------------------------------------------------------------------------------
-------------o-------------D----------------------------------o-o--------------------D-----------------------------------------------------------------
M------X---o---------o-o---D----------------XXXXXXXXXXXXXXXXXD-o-o-----o--##---D-----D---D----o------ooo-----oo--o-------------------oooo------o-------
XXXXXXXX--DDDDDDDDDDDDDDDD-DD------#-#####XXXXXXXXXXXXXXXXXXXDDDDDDDD-##--##D--------DD--D-SSS##D----###---####--##TTXXXXXXXXXXX----####---#####-------
XXXXX-----------------------------##----------------------------------##-----------gDDD---------#------#-y##---#-XXttXXXXXXXXXXXX--X---#--y#-----------
----------------------------------##----------------------------------##--------DDDDDDD----------##-----##------#--tt-------------------##-------------
------------T-------TT--TT--------------------------------------TT----##--------------D----------------------------tt----------------------------------
------------o-------tt--tt--------------------------------------tt----##--#-----------D----------------------------tt------------------------------#---
---------XXXX---TT--tt--tt---TT------------------------------TT-tt----XX-XXXXXXXXXXXXXXXXX--T----------------------ttt---------XXXX----------------XXXX
---------X-XX-X-tt--ttt-tt---tt------------------------------tt-tt----XX-XXXXXXXXXXXXXXXXXX-t----------------------tt-----------XXX----------------XX-X