-----------D---------D------------------DD-----------------------------D----------------------------------------------D-------------D------------------
-----------D---------D-------------------D-----------------------------D---------------------------------------------DD-------------D------------------
-----------D---------D-------------------D-----------------------------D-------------------------------D-------------DD-------------D------------------
-----------D---------D-------------------D-----------------------------D-------------------------------D-------------DD-------------D------------------
-----------D---------D-------------------D-----------------------------D-------------------------------D-------------DD-------------D------------------
-----------D---------D-------------------D-----------------------------D-------------------------------D-------------DD------------D-------------------
-----------D---------D-------------------D-----------------------------D-------------------------------D-------------DD------------D-------------------
MX---------D-----o---D-------------------D---------------------------o-D-------------------------------D--------------D-------o----D-------------------
XXXXXXTTXXXDD--D-----DD----------------g-DXXXXXXXXXXX-----------o---D--D-------TT----------------------D-------------DD-----XX-o---D----------oo-------
XXXXXXtt-X-DD----D---DDDD--#--------T-##-XXXXXXXXXXXX#------XTXXXTDDDD-DDDD-SS-tt----o--------oD------oDT-o-----------D-DDDXXXX##--D----g----###D------
------tt------------------##---SSS--tt---------------#----XXtttXXtX--------T---tt---------TTXott---TTX-ttX-------------------------D---gggggD----------
------tt------------------##-----SSDtt---------------##-----ttt-tt---------ttoott----DD--tttoott---tt--tt-XtT#----------------------DDDDDDDDD----------
------tt---------T--------##-----ooDtt---------------##-----ttt-tt---TT----tooott--------tttoott---tt--tt--tt#-----------------------------------------
------tt---------tt-------##-----oo-tt---------------##-----ttt-tt---tt----ttggtt--------tttggtt---tt--tt--ttt-----------------------------------------
------tt---TT----t--------XX---X-XXXXX---------------XX------tt-tt---tt---XXXXXXXXXXXXXXXXXXX-ttt--TT--tt---TX--XXXXXX------------------XXX------------
------tt---tt----tt--------X---X-XXXXX---------------X------XtX-tt---tt--XXXXXXXXXXXXXXXXXXXXXttt--tt--tt--tt---XXXXXX---------------------------------