---------------------------------------------------------------------------------------------------------------D---------------------------------------
---------------------------------------------------------------------------------------------------------------D---------------------------------------
---------------------------------------------------------------------------------------------------------------D---------------------------------------
---------------------------------------------------------------------------------------------------------------D---------------------------------------
---------------------------------------------------------------------------------------------------------------DD--------------------------------------
---------------------------------------------------------------------------------------------------------------D---------------------------------------
M-------------------o----------------------------------o-------------------------------------------------------D-------o---o---------------------------
X------------------------------------------------------#--------------------------------------------------------D-----o---o----------------------------
XXXXXXXXXXXX--------#-XXXXXXXXX-----------------------##-XXXX-DD--o--------D-------------------------D---------DD----o-o-oo-o-----------------o--------
XXXXXXXXXXXX-------#XXXXXXXXXXXX---------------XTT-#--#XXXXX--#--##D-------D----------------------SSSSDDDDDDDDDDDDDDDDDDDDDDDD---##-------o--#D--------
----------t----g-g-D-------------Dggg------TT-oXtt-#--#-------#--#-----DD-DD----g--------To-------------------------------------XX-#-t---g-gDDD--------
---------------DDDDD------------DDDDDDDD---ttXo-tt--------------#---DDDDDDDD--DDDDD--D---t-o--D--------------------------------#----#---DDDDDD---------
--------oo---------------------------------tt-o-tt----------------------D--D-------------t--o-D------oD---------T-------TT----##-----------------------
--------og---------------------------------ttD--tt---------------------oD--D-------------t----DD-----oD--------tt-------tt----##-------------------#---
-------XXXXXXXXXX-------------XXXXXXXXXXXXXXXXX-tt-----------------TT-XXXXXXXXXXXXXXXXXXXXXXXXXXXXXXXXX-X---TT-tt---TT--tt----XXXXXXXXXXXXXX-XXXXXXXXXX
-------XXXXXXXXXXX------------XXXXXXXXXXXXXXXXX-tt-----------------tt-XXXXXXXXXXXXXXXXXXXXXXXXXXXXXXXXXXXX--tt-tt---ttt-tt----XXXXXXXXXXXXXXXXX-XXXXXXX