---------------------------------------------------D---D-----------------------------------------------------------------------------------------------
---------------------------------------------------D---D-----------------------------------------------------------------------------------------------
---------------------------------------------------D---D------------------------------------------------------------------D----------------------------
---------------------------------------------------D---D------------------------------------------------------------------D----------------------------
---------------------------------------------------D---D------------------------------------------------------------------D----------------------------
---------------------------------------------------D---D-------------D----------------------------------------------------D----------------------------
---------------------------------------------------D---D-------------D-----------------------------o----------------------D---------o------------------
M-------------------------------------------oD-----D---D-------------DD---------------------------o-o------------------------------o-o-----------------
XXXXXX--TT--------------------------------D--o-----o--DDD------------D---D--ooo-ooo---#------X---o-Xo---------------------D---D-D-o-o-o-------oD-------
XXXXXXX-#D------o----#--------#SSSDDDDDDSDDDDDDDDDDDDDDDDDDDD----D---DDDDDDDDD--####--##--#####-XXXXXXTXXXXXXX-----TT-SSSSDDDDDDDDDDDDDDD---X--#-------
---------t-----ooT---#-------------------------------------------D-------------y#-----##--#------XXXXXtXXXXXXXX--XtttXXX-----------------XXXXXD--------
--------------ooot---#-------------------------------------------D-------------#------##----------------------t----tt-------------------------DD-------
--------------oott--##-----------------------T-----TT-------------D----T--------------##----------------------t----tt------T-------------------D-------
--------t----oogtt#-##---------------oo------t-----tt-------------D----t--------------##---------------------------tt------o-----------------------#---
------XXXXXXXXXXXXXXXXX---------TT--XXXX-TTT-t--T--tt---------XXXXXT--Tt---TT---------XX-------tt-----------------XXXXXXXXXXTT--TT---TT----T--XXXXXXXXX
------XXXXXXXXXXXXXXXXX---------tt-XXXXXX-tt-tX-tt-tt---------XXXXXX--tt---tt---------XX-X------------------------XXXXXXXXXXtt--tt---tt----t--XXXXXXXXX