-------D-------------------------------------------------D---------------------------------------------------------------------------------------------
-------D---------------D---------------------------------D---------------------------------------------------------------------------------------------
-------D---------------D---------------------------------D---------------------------------------------------------------------------------------------
-------D---------------D-------------------------------------------------------------------------------------------------------------------------------
-------D---------------D---------D------------------------------------------------------------------------------------------------------------o--------
-------D----X----------D---------D-------------------------------D---------------------------------------------------------------------------o---------
-------D-----D---------D---------D---------o---------------------D---------o---------------------------------o------------------o-----------oo---------
------DD---------------D---------D-------------------------------D--------o-o-------------------------------o-o----------------ooo---------o-----------
----M--D-----D--------DD--------DD---------XXXXXXXXXXXXXXXXX-X---D-------o-o-D-D---------o--------ooo----XXXXo-o--------------o-o-oXXXXX--o-D-DD-------
----D--DDDDDDDD-------DD-SSSSSD-DD###-##XXXXXXXXXXXXXXXXXXXX-D---DDDDDDDD------D---------DDDDDD--##-##XXXXXXXXDDDDDDDDDDDDDDDDDDDXtXXXXX---------------
--------------------------------------X-XXXX-----------------------------------D-g-gD-D-------------XXXXX----------------------------------------------
-----------------------------------------------------------------------------DDDDDDDDDD---------------------------------------------------TT-----------
--------TT----------tt---------------------------------------------------------------------TT----TT--------------------------TT-----------tt-----------
--------tt----------tt---------------------------------------------------------------------tt----tt--------------------------tt-----------tt-------#---
-----TX-tt-XXXXXXXXXXXXXXXXXXX-X-T---------------------------T--TT----TT--XXXXXXXXXXXXXXX--tt-TT-tt---------------TTt----TT--tt---T----TT-XX-XXXXXXXXXX
-----tX-tt-XXXXXXXXXXXXXXXXXXX-X-tt--------------------------t--tt--X-tt--XX-XXXXXXXXXXXXX-tt--t-tt---------------ttt--X-tt--tt--tt----tt-XX-XXXXXXXXXX