-------------------------------------------------------------------------------------------------------D---------------------------------------D-------
-------------------------------------------------------------------------------------------------------D---------------------------------------D-------
--------D----------------------------------------------------------------------------------------------D---------------------------------------D-------
--------D----------------------------------------------------------------------------------------------D---------------------------------------D-------
--------D----------------------------------------------------------------------------------------------D---------------------------------------D-------
--------D----------------------------------------------------------------------o-----------------------D---------------------------------------D-------
--------D-------------------------------o--------------------------------------#-----------------------D---------------------------------------D-------
--------D-------#----------------------o-o-----o------------D------------------#-----------o-----------D--------------------------------------D--------
XX------D-------D-------D-------#------D------o-----X------------------T-#----##----------o-o-------D--D------o----ooo--o--------------------DD--------
XXX-----DD--SSSSSDDDTT--#------##------DDDDXXXXXXXXXX------------------t-#----##-----DDDDDDDDDDDDDDDDD-DDD---D#-######-y#D##----o------o----D-D--------
X--TTXo-DD----------tXXXXX--##--##---------XXXXXXXXX---------------TTottt#----##---------------------------------#---#-y#--#--DD-g--Dgggg-gggDD--------
---ttoooDD----------t----#--##--#-----------------------------------toott#---##---------------------------------------##---DDDDDDDDDDDDDDDDDDDD--------
---ttoooDD---------TT----------##------TT--------------------------ttoott#---##-----------TT-----------TT-------------------------------------D--------
-M-ttgg-DD---------tt-----------#------tt--------------o-----------ttggt#D---##-----------tt--t--------tt-------------------------------------D----#---
XXXXXXXXXXXXXX--TT-tt------------------tt---------------XXXXXXXXXXXXXXXXXXXXXXXXXX---TTT--tt--t---TTT--tt---TT---------------XXXXXXXXXXXXXXXXXXXXXXXXXX
--XXXXXXXXXXXXX-tt-tt------------------tt---------------XXXXXXXXXXXXXXXXXXXXXXXXXX-X--tt--tt--t---ttt--tt---tt---------------XXXXXXXXXXXXXXXXXXXXXXXXXX