------------------------------------------D------------------------------------------------------------------------------------------------------------
------------------------------------------D------------D-----------------------------------------------------------------------------------------------
------------------------------------------D------------!-----------------------------------------------------------------------------------------------
------------------------------------------D------------!-----------------------------------------------------------------------------------------------
------------------------------------------D------------!-----------------------------------------------------------------------------------------------
------------------------------------------D------------!-----------------------------------------------------------------------------------------------
-----------------o------------------------D------------o---------------------------o-------------------o-----------------------------------------------
M---------------o-----------o--------------------o----------o--------------D------o--------------------o-----------------------S-----------------------
XXX-------------#XXXXXXXXX-o-o-----o---D---D----o-o--XXXXXXX-o-------------D-----o-o-------T----------X-X-X----o--oo----o----o-o-------o---------------
XXXXXXtt-------o#-XXXXXXXXDDDDDDDDDD---D---SSSSSSSSSSSXXXXXXXD--#-------o--D-D#--##XXX#----t---------XXXXXXXXXXX--##---o##--##D#DDDDDDSSSS-----t-------
-XXXXXtt------o#t----------------------D------------------------##-----g------#--##XX-X----t----------------XXXX-X#-----#---y#-------------TToott------
------tt-----ooot----------------------D------------------------##--DDDDD------###----------------------------------DDDD-t##---------------ttoott------
------tt-----oo-t---------TT-----T-----D----------o------t---------------------------------------------------------------ttoo--------------ttoott------
------oD-----og-tt--------tt----tt-----D--------ooo------t-------------------------------------o-------------------------ttgoo-------------tt-gt---#---
-----XXXXXXXXXX-tt----TT--tt---Tt----TXXXXXXXXXXXXXXXXXXXXXX----XXXXXXXX-------------------XXXXXXXX---TT----------XXXXXXXXXXXXX-T-TT---------XXXXXXXXXX
-----XXXXXXXXXX-tt----tt--tt---tt----ttXXXXXXXXXXXXXXXXXXXXX-----X-XXXXX-------------------XXXXXXXX-X-t------------XXXXXXXXXXXX-X-ttt-------XXXXXXXXXXX