----------------------------------------------------------------------------------------------------------------------------------------------------------------------------------------------------------------------
----------------------------------------------------------------------------------------------------------------------------------------------------------------------------------------------------------------------
----------------------------------------------------------------------------------------------------------------------------------------------------------------------------------------------------------------------
----------------------------------------------------------------------------------------------------------------------------------------------------------------------------------------------------------------------
----------------------------------------------------------------------------------------------------------------------------------------------------SS----------------------------------------------------------------
----------------------------------------------------------------------------------------------------------------------------------------------------------------------------------------------------------------------
------------------------------------TS-----------TS-------------------------SSSSSSSS-------------------------------------------------------------------SSS----SS----SS----SS----------------------SSS-------S---------
----------------------------------------------------------------------------------------------------------------------------------------------------------------------------------------------------------------------
------------------------------------------------------TT--------------------------------------------SS----------------------------------------------------------------------------SS----------------------------------
------------------------------------------------------TT------------------------------------------------------------------------------#---#---------------------------------------------------------------------------
------------------------------t-----------------------XX--T------TT----------------------S---SST-----------------TT------------------##---------------------------------S-----T---------TT--------------TT----T-------
-----------------------------------------------------------T-#--TTT-----------------------------------TT--------TTT---------TT----TT--#-------------------------------TT------TT--------TT-----------T--TT---TTT------
----------t-TT------TTTT------------TT---------------##---TT-##-TTTT----------------------------------TT--------TT----TT----TT---#TT-###-T-#---TTT------------------#-TT------TT--------TT-----------T--TT---TTT------
-M-------#t-TT---#--TTTT------------TT-------------T-#---TTT-##-TTTT-----------------------k----------TT------k-TT----TT-k--TT--##TT####-T-#---TTT--------------TT-##-TT------TT--------T------------T--TT---TTT---#--
XXXXXXXXXXXXXXXXXXXXXXXXXXXXXXXXXXXXXXXXX--XXXXXXXXXXXXXXXXXXXX-XXXXXXXXXX----------XXXXXXXXXXXXXXXXXXXXXXXXXXXXXXXXXXXXXXXXXXXXXXXXXXXXXXXXXXXXXXXXXXXXXX--XXXXXXXXX-XXXXXXXXXXXXXXXXXXXX-X--XXXXXXXXXXXXXXXXXXXXXXXX
XXXXXXXXXXXXXXXXXXXXXXXXXXXXXXXXXXXXXXXX---XXXXXXXXXXXXXXXXXXXX-XXXXXXXXXX----------XXXXXXXXXXXXXXXXXXXXXXXXXXXXXXXXXXXXXXXXXXXXXXXXXXXXXXXXXXXXXXXXXXXXXX--XXXXXXXXX-XXXXXXXXXXXXXXXXXXXX-X--XXXXXXXXXXXXXXXXXXXXXXXX