----------------------------------------------------------------------------------------------------------------------------------------------------------------------------------------------------------------------
----------------------------------------------------------------------------------------------------------------------------------------------------------------------------------------------------------------------
----------------------------------------------------------------------------------------------------------------------------------------------------------------------------------------------------------------------
----------------------------------------------------------------------------------------------------------------------------------------------------------------------------------------------------------------------
----------------------------------------------------------------------------------------------------------------------------------------------------------------------------------------------------------------------
----------------------------------------------------------------------------------------------------------------------------------------------------------------------------------------------------------------------
----------------------------------------------SS------------------SSSSSSSSS---------------------------------------------TT---------------------------S-----SS---------------------------------------------------------
------------------------------------------------------------------------------------------------------------------------TT--------------------------------------------------------------------------------------------
----------------SS-----T------TT----S--------#--------------------------------------------------------TT------TT--------XXS----SS-----------S-------------------------------------------------------------------------
----------------------TTT-----TT------------##---------------------------------------------------------T------TT------T-----------------------------------------TT------------##--------------------------------------
----------------------XXT-----TT---------#--##--------------------------------------T-----SS-----------X------TT------XX-------------T---------S-------------SS-TT-----tt----###--------------TT----TT-----T-T--------
----------TT------------------TT------T-##TT-#--------TT----------------------------T--------------T----------TT--------------------TT--------------------------TT-----tt---####---------T----TT----TT----TT----------
--------#-TT------------TT----TT------TT-#T-##------TTTT--tt-------------------t--TTTT------------------TT----TT-#--T---------------TT--------------------------TT-----t--TT####--------------TT----TT-----TTT------tt
-M-----##-TT---------k--TT----TT------TT###-##------TTTT--tt----------T--------t--TTTT------------------TT----TT----T---------------TT--------------------------TT-----t--TT####--------------TT----TT-----TTT------tt
XXXXXXXXXXXXXXXXXXXXXXXXXXXXXXXXXXXXXXXXXXXXXXXXXXXXXXXXXXXXXXXXXXXXXXXX------XXXXXXXXXXXXXXXXXXXXXXXXXXXXXXXXXXXXXXXXXXXX------XXXXXXXXXXXXXXXXXXXXXXXXXXXXXXXXXXXXXXXXXXXXXXXXXXXXXXXXXXXXXXXXXXXXXXXXXXXXXXXXXXXX--
XXXXXXXXXXXXXXXXXXXXXXXXXXXXXXXXXXXXXXXXXXXXXXXXXXXXXXXXXXXXXXXXXXXXXXXX------XXXXXXXXXXXXXXXXXXXXXXXXXXXXXXXXXXXXXXXXXXXX------XXXXXXXXXXXXXXXXXXXXXXXXXXXXXXXXXXXXXXXXXXXXXXXXXXXXXXXXXXXXXXXXXXXXXXXXXXXXXXXXXXXX--