------------------------------------------------------------------------------------------------------------------------------------------------------
------------------------------------------------------------------------------------------------------------------------------------------------------
------------------------------------------------------------------------------------------------------------------------------------------------------
------------------------------------------------------------------------------------------------------------------------------------------------------
---------------------------------------------------------------------------------------------------------------------------------g--------------------
-----------------------------%%%%%%o------------------------oo--oo----------------oo----------------oo--------oo--------------%%%%%-------------------
--------------------%%#-------||---------------------------------------------------------------g-------------------------------|||--------------------
---------------------##-------||------------------------------------------------------------%%%%%%----------------------------||||--------------------
---------------------##-------||---------------------%----------------------SS-#-----------%%||||-----------------------------||||-------g------------
--------------------###-------|||------ooo-----------------------------%%%%---##------------|||||-----------------------------||||---%%%%%%-----------
---------SS--------###--------%%%%%--%%%%%%-----SS-------------%%%%-----||---###------%%%%--||||---------%%%%%%-----o---------|||||---||||------------
-------------------###--------||||-----|||----------------------||------||---###------||%---||||----------||||----------------|||||---||||------------
------------SS----------------||||----||||-------------%-%------||------||--####------||----||||----------||||----------------||||||--||||------------
-M--------------------------o-||||-----|||--o--------%%%------%-||------||-#####------||----||||----------||||----------------||||||--||||------------
XXXXXXXXX-----XXXXXXXXXXXXXXX-||||-----|||------------|||-------||------||-XXXXXXXX-%-||----||||--%%------||||--%%------------||||||--||||---%%%------
XXXXXXXXX-----XXXXXXXXXXXXXX--||||------||------------||--------||-------|||XXXXXXXX--||----||||---|------||-|---|------------||||||--||||----||------