----------------------------------------------------------------------------------------------------------------------------------------------------------------------------------------------------------
----------------------------------------------------------------------------------------------------------------------------------------------------------------------------------------------------------
----------------------------------------------------------------------------------------------------------------------------------------------------------------------------------------------------------
----------------------------------------------------------------------------------------------------------------------------------------------------------------------------------------------------------
----------------------------------------------------------------------------------------------------------------------------------------------------------------------------------------------------------
----------------------------------------------------------------------------------------------------------------------------------------------------------------------------------------------------------
-------------------------------------------SS-----------SS---S@@SSSSSSSS-S---------SSS------------------------------------------------SSSSSS------------------------------------------------------SS------
-----------------------------------------------------------------------------------------------------------------------------------------------------------#----------------------------------------------
--------------------------#--------#------------------------------------!------S----------------------------------------#---------------------------------###---------------------------------------------
-------------------------###--##--##-----------------------------------------------------------------------------------###-------------------------------####---------------------------------------------
----------##--##--------###---##--##-------@------------------S-S----------------------------------#####--##--##--##--####----!-------S-------!--------######-------------S@----------------S@S-!---------
-------#--######-------####---##--##--------------------------------------------------------------######--##--##------####----------------------------#######---------------------------------------------
-------#--######----tt####----##--###---------------------------------------------XX-------------#######--##--###--#-#####--#------------------------#########----------------------------------t---------
-M----###-######----t#####----##--###-------------g-g--------g--------------------XX------------########--##--####--#-####--#-----------------------##########-------------------------------g------------
XXXXXXXXX-XXXXXXXXXXXXXXXX---XXX--XXXXXXXXXXXX--XXXXXXXXXXXXXXXXXXXXXXXXXXXXXXXXXXXXXXXXXXXXXXXXXXXXXXXX--XXX-XXXX--XXXXXXXXXXXXXXXXXXXXXXXXXXXXXXXXXXXXXXXXXXXXXXXXXXXXXXXXXXXXXXXXXXXXXXXXXXXXXXXXXX----
XXXXXXXXXXXXXXXXXXXXXXXXXXX-XXXX--XXXXXXXXXXXX--XXXXXXXXXXXXXXXXXXXXXXXXXXXXXXXXXXXXXXXXXXXXXXXXXXXXXXXX--XXX-XXXX--XXXXXXXXXXXXXXXXXXXXXXXXXXXXXXXXXXXXXXXXXXXXXXXXXXXXXXXXXXXXXXXXXXXXXXXXXXXXXXXXXX----