-----------------------------------------------------------------------------------------------------------------------------------------------------
-----------------------------------------------------------------------------------------------------------------------------------------------------
-----------------------------------------------------------------------------------------------------------------------------------------------------
-----------------------------------------------------------------------------------------------------------------------------------------------------
-----------------------------------------------------------------------------------------------------------------SS---------------%%%%---------------
-----------------------o-----------------------------------------------------o---o---------ooo-------------------------------------||----------------
------------------------%-------------------------------------------------------%%%--o--%%%%%%--------------------------------%%%--||--o-------------
------------SS--------%|----------------------SS---------------o---SSSSS---------|---o---||||----SSSS------S--------SSS--------|---||----------------
-----M----------------|||%%%%%%--------------------------------------------------|--%|%--|-||----------------------------------||o-||--%%--%%--------
-----SSS--------------|||-||||--------------------SSS----|-----------------SS----|---|---|-||-----------------SSS--------------|-r-||--|---||--------
----------------------|||-|||----------------o-----------|-------------%-------------|||||-|----------------r----------------%-|---||--|---||-o----|-
-----------------%%%%%|||-|||----------------------------|----%%%%-----|%|%------%%%%%%|||-|------------%%%%%-----------%%%---|----||--|---||--------
-------------------||-|||-||%%%%%%-------------------|---|-----||||%%%-|||--------|||||||%%%%%-----------|||-------------|----|----|%%%%---|---------
-------------------||-|||-|||||||--------------------|---|-----||||||--|||--------|||||||||||------------|||-------------|----|----||-|----|-------|-
--------XXXXXXXXX-|||%%%%%%||||||-------XXXXXXXX-----|---|%%%%%||||||--|||-S%-----|||||||||||------%-----|||XXXXXXXX-----|---%%%%%%%-|%%%%%%%%%XXXXXX
--------XXXXXXXXX--||||||||||||||-------XXXXXXX------|---||||||||||||--|||--------|||||||||||------------|||XXXXXXX------|----|||||--||-|||||||XXXXXX