----------------------------------------------------------------------------------------------------------------------------------------------------------------------------------------
----------------------------------------------------------------------------------------------------------------------------------------------------------------------------------------
----------------------------------------------------------------------------------------------------------------------------------------------------------------------------------------
----------------------------------------------------------------------------------------------------------------------------------------------------------------------------------------
----------------------------------------------------------------------------------------------------------------------------------------------------------------------------------------
-----------------------------------------------------------------------S----------------------------------------------------------------------------------------------------------------
---y-----------------------------------------------------------------------------------------------------------------#-------------------------------------------------------oo---------
--SS-?ooQ----------------------------------------------------------------------------------------------------------y##-----------------------------------------------y------------------
-------------------------------ooo---------------------------------------------------------------------------------###---------------------------------------------y-S------------------
------------------------------------------------------------------------SS-oo-------------------------------------####---------------------------------------------#--------------------
-----------------#--T-----------------------------------------Qo------------------------------SC-----------------#-###--------SSQQQ--------------------###--------##--------------------
------SSSS------##--TT-------------------------------------------------------------------#-#--------------------##-###--------------------------------###--------###--------------------
---------------###-----------------------------------------------------#--------------##-###---SSS-------------##--###-------------------------------####-------####--------------------
-M------------####-----------------------------y---y-----------------#----SSSS-----####--#-#-------------y----##---###--------T--------------------######------#####--------------------
XXXX--------XXXXXXXXX-XXXXXXXXX-XXXXXXXXXXXXXXXXXXXXXX--XXXXXXXXX--XXXXX---X--XXXXXXXXXX-XXX--XX--XXXXXXXXXXXXXXXXXXXXXXXXXXXXXXXXXXX-XXXXXXXXXXXXXXXXXXXX----XXXXXX--XX--XXXXXXXXXX----
XXXX--------XXXXXXXXX-XXXXXXXXX-XXXXXXXXXXXXXXXXXXXXXX--XXXXXXXXX--XXXXX---X--XXXXXXXXXXXXXX--XX--XXXXXXXXXXXXXXXXXXXXXXXXXXXXXXXXXXXXXXXXXXXXXXXXXXXXXXXX----XXXXXX--XX--XXXXXXXXXX----