-----------------------------------------------------------------------------------------------------------------------------------------------------
-----------------------------------------------------------------------------------------------------------------------------------------------------
-----------------------------------------------------------------------------------------------------------------------------------------------------
-----------------------------------------------------------------------------------------------------------------------------------------------------
-----------------------------------------------------------------------------------------------------------------------------------------------------
-----------------o-------------o-----------------o---------------------o---------------------o-------------------------------------------------------
--------%-------%%%----------%%%%---------------%%%-------------------%%%%--------------%%%%%%%---------------------o-%%%----------------------------
-----------------|------------||---o-----o-------SS--------------------|-----------------|||-|--------------------o------------------SS--o-----------
-----------------|------------||--------%%%------|---------------------|-----------------|||%|------------------%%%%%------------o-----%%%%----------
--------|S-----------|--SS----||---SSS---|---o---|----SSSo-------------|---------------r-|||-|-R------SSS--------||---SS----------------||--So-------
--------%%%---------%%--------||---------|--%%%--|---------------------|--------------%%%|||---------------------||o--------------------||-----------
------%-||-----------||%%%%---||---------|---|---|--%%%----------------|---------------|-|-|---------------------||------------%%%%%%%-||||----------
-------|||-----------||||||%%%||---------|---|---|---|----------------%%%%%%%%%--------|-|-|--------------------%%%%%%%---------|||||--||||--------X-
-M-----|||-----------|||||||||-|---------|---|---|---|-----------------|||||||---------||--|---------------------|||||----------|||||--||||--------XX
XX-----|||---XXXXXXX-%||||||||-|--------%%%%%%%%%|---|----%%%%%--------|||||||---------||--|-----------------%%%-|||||---------||%%%%%%%|||----XXXXXX
XX-----|||--XXXXXXX--|||||||||-----------|||||||||---------|||---------|||||||---------||--|------------------||-|||||---------||||||||||||----XXXXXX