------------------------------------------------------------------------------------------------------------------------------------------------------------------------------------------------------------------------------
------------------------------------------------------------------------------------------------------------------------------------------------------------------------------------------------------------------------------
------------------------------------------------------------------------------------------------------------------------------------------------------------------------------------------------------------------------------
------------------------------------------------------------------------------------------------------------------------------------------------------------------------------------------------------------------------------
------------------------------------------------------------------------------------------------------------------------------------------------------------------------------------------------------------------------------
-----------------------------------------------------------------------------------------------------------------------------------------------------------------------------------------ooooo--------------------------------
------------------------------------------------------------------------------------------------------------------------------------------------------------------------------------------------------------------------------
--------------------------------------------------------------------------------------------------------------------------------------oo----------oo--------------------------------------------------------------------------
--------------------------------------------------------------------------------------------------------------------------------------------------------------------------#---------------------------------------------------
--------------------------------------------------------------------------------------------------------------------------------------------------------------------------##--------------------------------------------------
-----------------------------------------QQQ--------Q-------------------------------------------------------------QQ-----------------------------T---------------Q-------###-----------------------------TT-------------------
--------TT----------------#----------------------------------------------------------------------------------------------------------------------T----------------------####-----------------------------TT-------------------
--------TT----------------#-----------------------------------------------------------------------------------------------------------------TT---T--------------------######------------#----------------T------TT------------
-M------TT----------------#------------y--y--------------------------------------------------------------y-------------------y--------------T----T-----------------y--######-----y------#------y---------T------TT------------
XXXXXXXXXXXX--XXXXXXXXXXXXXXXXXXXXXXXXXXXXXXXXXXXXXXXXX----XXXXXXXXXXXXXXXXXXXX---XX----XXXXXXXXXXXXXXXXXXXXXXXX--XXXXXXXXXXXXXXXXXXXXXXXXXXXXXXXXXXXXXXXXXXXXXXXXXXXXXXXXXXXXXXXXXXXXXXXXXXXXXXXXXXXXXXXXXXXXXXXXXXXXXXXXXXXX
XXXXXXXXXXXX--XXXXXXXXXXXXXXXXXXXXXXXXXXXXXXXXXXXXXXXXX----XXXXXXXXXXXXXXXXXXXX---XX----XXXXXXXXXXXXXXXXXXXXXXXX--XXXXXXXXXXXXXXXXXXXXXXXXXXXXXXXXXXXXXXXXXXXXXXXXXXXXXXXXXXXXXXXXXXXXXXXXXXXXXXXXXXXXXXXXXXXXXXXXXXXXXXXXXXXX