------------------------------------------------------------------------------------------------------------------------------------------------------
------------------------------------------------------------------------------------------------------------------------------------------------------
------------------------------------------------------------------------------------------------------------------------------------------------------
------------------------------------------------------------------------------------------------------------------------------------------------------
-------g-----------------------------------------------------------------------------------------------------------------------|----------------------
--------%-%o---o--------------oo------------------------------------------oo---------------------------------o-------------%%%%%----------------------
-----------------------------%%%%------------------------------------%%%%---------------------SSS----------------------------|---%%%%%%---------------
---------##-------------------||------------------oo--------o-------%%||-----------------------------------------------------|----||||----------------
-------####-------------------||--------------------------------------||-----------------------------------------------------|----|||||---%%%---------
-------####---------oo%%%%-----------------------------------------#|-||--------------oo-------------------------------------|----||||-|--||----------
------#####--------%%%%|||-------%%-------------------------------##|-||------%|---------------#-----------%%%%%%--SS---%----%----||||||--||---------X
------####----------||||||---------------------------------#-----##-||||-------|---------------#------------||||--------#---------||||||--||----------
-----#####----------||||||---------------------------------#-----##-||||------||---------------#------------||||--------##--------||||||--||----------
-M---#####------oo--||||||---------------------------------#-----##-||||------||---------------#------------||||--------##--------||||||--||----------
XXXXXXXXXXX---%%%%--||||||-----%%%%%--%%%%%%%%----%%%-XXXXXXXXXXXXX-||||-----%%%%-----%%%-XXXXXXXXXXX-------||||----XXXXXXXXXXXXX-||||||--|%%%%-%%--XX
XXXXXXXXXXXX---%|---||||||------|||----|---|-------|--||XXXXXXXXXXXX||||------|||-----||---XXXXXXXXXX-------||||----XXXXXXXXXXXXX-||||||--||||--%----X