-------------------------------------------------------------------------------------------------------------------------------------------------------------------------------------------
-------------------------------------------------------------------------------------------------------------------------------------------------------------------------------------------
-------------------------------------------------------------------------------------------------------------------------------------------------------------------------------------------
S-----SSSSSSSSSSSSSS---------SSSSSSSSS---SS-SSSSSSSSSSSSSSSSSSSSSSSSSSSSSSSSSSSSSSSSSSSSSSSSSSSSSSSSSSSSSSSSSSSSSSSSSSSS-SSSSSS-SSSSSSSSSSSSSSSSSSSSSS-----SSSSSSSSSSSSSSSSSSSSSSSSSSSSSSSS
S-------SSSSS------------------------------------SSSSSSSS-----------------------------SSSSSSSSSSSS---------------------------SS-SSSSSSSS-------------------------------SSSSSSSS------------
S-------SSSSS--------------------------------------SSSSSS------------------------------SSSSSSSSSSS-------------------------S-SS--SSSSSSSS-----------------------------SSSSSSSSS------------
S-----SSSSSSS-----------------------------------------SSS---------------------------------SSSSSSSS-------------------------S-SS----SSSSS--------------------------------SSSSSSS------------
S------------------------------------------------------------------------------------------------------------------------------------------------------------------------------------------
S--------------------------------------------S----SS-----------------------------------------------------------------------------------------------------T---------------------------------
S------------------------------------------------SSSSSSooo-----------------------------------------------------------------------------------------------TT--------------------------------
S--------SS------------SSSSSSSSSSSSSS-----------SSSSSSSSSS--QQ-------------S---Q---------#---S-------------------T--TT---TT---S--T-S---TT----------------T---------------SSS--TT-----------
S-----------------------SSSSSSSSSSSS--S#--------SSSSS-----------------------------------##S--S-------T------#----T--TT---TT------T-----TT-----#S---TT----T--------------------TT-----------
S------------------------SSSSSSSSSSS---#---------SSSS----------------------------------##SS-S------S-------##-------TT---T------TT-----t-----##----TT----tt-------###---##----TT-----T---S-
SM--------------------k--SSSSSSSSSS----#------------------##--------------------------S#SS----------------###-------TT---T-----kTT---kk------##---------ktt-----#####--##----kTT---#-----S-
XXXXXXXXXXXXXXXXXXXXXXXXXXXXXXXXXXXXXXXX-------XXXXXXXXXXXX--------XXX-----XXXXX-X---XXXXXXXXXXXXXXXXXXXXXXXX--XXXXXXXXXXXX-XXXXXXXXXXXXXXXXXXX----XXXXXXXXXXXXXXXXXX--XXXXXXXXXXXXXXX-----
XXXXXXXXXXXXXXXXXXXXXXXXXXXXXXXXXXXXXXXX-------XXXXXXXXXXXX--------XXX-----XXXX--X----XXXXXXXXXXXXXXXXXXXXXXX-XXXXXXXXXXXXXXXXXXXXXXXXXXXXXXXXX----XXXXXXXXXXXXXXXXXX--XXXXXXXXXXXXXXX-X-X-