--------------------------------------------------------------------------------------------------------------------------------------------------------------------------------
--------------------------------------------------------------------------------------------------------------------------------------------------------------------------------
--------------------------------------------------------------------------------------------------------------------------------------------------------------------------------
--------------------------------------------------------------------------------------------------------------------------------------------------------------------------------
--------------------------------------------------------------------------------------------------------------------------------------------------------------------------------
-------------------------------------------------#------------------------------------------------------------------------------------------------------------------------------
----------SSSS----------------------------------##-------SSS-SSS------------SS--------------------------------------------------------------------------------------------------
-----------------------------------------------###------------------------------------------------------------------------------------------------------------------------------
-------------------------------------------------#------------------------------------------------------------------------------------------------------------------------------
-----------*-------------------------------------#--------------K---------------------------------------------------------------------------------------------------------------
---------SSSSS--------------------------SSSSSSSS------------SSSSSS--------------------------------SSSS-------------------------------------#--------------------QQQ-------------
-----------------------*------TT-------------------------T---------------------------*---------------------------------*------------------##----------------TT-------*---*------
------T--------*-------T-------*-----*-------------------T-----------*-------------------*-----------------*-----------*---------*-------###----------------TT-------*----------
-M----T--------*-------T-------*-----B------------------TT-----------*-------------------*-----------------#-----------*---------*------####--------TT------TT-------*----------
XXXXXXXXXXXXXXXXXXXXXXXXXXXXXXXXXXXXXXXXXXXXXXXXXXXXXXXXXXXXXXXXXXXXXXXXXXXXXXXXXXXXXXXXXXXXXXXXXXXXXXXXXXXXXXXXXXXXXXXXXXXXXXXXXXXXXXXXXXXXXXXXXXXXXXXXXXXXXXXXXXXXXXXXXXXXXXXX
XXXXXXXXXXXXXXXXXXXXXXXXXXXXXXXXXXXXXXXXXXXXXXXXXXXXXXXXXXXXXXXXXXXXXXXXXXXXXXXXXXXXXXXXXXXXXXXXXXXXXXXXXXXXXXXXXXXXXXXXXXXXXXXXXXXXXXXXXXXXXXXXXXXXXXXX--XXXXXXXXXXXXXXXXXXXXXX