------------------------------------------------------------------------------------------------------------------------------------------------------------------------------------------------------
------------------------------------------------------------------------------------------------------------------------------------------------------------------------------------------------------
------------------------------------------------------------------------------------------------------------------------------------------------------------------------------------------------US----
------------------------------------------------------------------------------------------------------------------------------------------------------------------------------------------------------
------------------------------------------------------------------------------------------------------------------------------------------------------------------------------------------------------
------------------------------------------------------------------------------------------------------------------------------------------------------------------------------------------------------
------------------------TT-------------------------------------------SUS-------------------------------------------------------------------------------------------------------------------T----------
------------------------TT----------------------------------------------------------------------------------------------------------------------------------------------------------------TT---#------
------------------------##----------------------------------------------------------------------------------------------------------------------------------------------------------------##--##------
---------------------------------------------------------------------------------------------------------------------------------------------------------------------------------------#--##--##---#--
------------------------------------------------------------------------##------------------#LS----------------#--##------------#L---##--------------------------------#####---------------##-##---#--
--------------------------TT----------------------------------------------------------------#------TT---------#-----------------#-------------------------------------#----#--------####--###-##---#--
--------------------------TT----TT-----------*----------------------------------------------#------TT--------##-----------------#---#----------------------*---------K#------------#####-----------#--
-M------gg---ggg----------TT----TT---ggg-----*-ggg-----ggg----------#------gg----ggg------k-#-----kTT-------####----------------#----#-------ggg-----------*---gg-----#------------#####------#----#--
XXXXXXXXXXXXXXXXXXXXXXXXXXXXXXXXXXXX--XXXXXXXXXXXXXXXXXXXXXXXXXXXXXXXXXXXXXXXXXXXXXXXXXXXXXXXXXX---XXXXXXXXXXXXXXXXXX---XXXXXXXXXXXXXX--XXXXXXXXXXXXXXXXXXXXXXXXXXXXXXXXXXXXXXXXXXXXXXXXXXXXXXXXXXXXXX
XXXXXXXXXXXXXXXXXXXXXXXXXXXXXXXXXXXX--XXXXXXXXXXXXXXXXXXXXXXXXXXXXXXXXXXXXXXXXXXXXXXXXXXXXXXXXXX---XXXXXXXXXXXXXXXXXX---XXXXXXXXXXXXXX--XXXXXXXXXXXXXXXXXXXXXXXXXXXXXXXXXXXXXXXXXXXXXXXXXXXXXXXXXXXXXX