-------------------------------------------------------------------------------------------------------------------------------------------------------------------------------------------------------------------------------------------------------------------------------------------------------------------------------------------------------------------------------------
-------------------------------------------------------------------------------------------------------------------------------------------------------------------------------------------------------------------------------------------------------------------------------------------------------------------------------------------------------------------------------------
-------------------------------------------------------------------------------------------------------------------------------------------------------------------------------------------------------------------------------------------------------------------------------------------------------------------------------------------------------------------------------------
-------------------------------------------------------------------------------------------------------------------------------------------------------------------------------------------------------------------------------------------------------------------------------------------------------------------------------------------------------------------------------------
-------------------------------------------------------------------------------------------------------------------------------------------------------------------------------------------------------------------------------------------------------------------------------------------------------------------------------------------------------------------------------------
-----------------------------------------------------------------------------------------------------------------------------------------------------------------------------------------------------------------------------------------o-------------------------------------------------------------------------------------------------------------------------------------------
-----------------------------------ooo-----------------------------------------------------------------------------------------------------------ooo-------------------o---------------------------------------------------------------------------------------------SSSSS---------------------------------#oo-----------------------------------------------------------------------
-----------------------------------------------------------------------------------------o-------------------------------------------------------##--------------------o-----------------------------------------------------------------------------------------------------------------------------------##------------------------------------------------------------------------
-------------------------------------------------------------------------------------------------------------------------------------------------#---------------------------------------------------------------------------------------------------------------------------------------------------------##------------------------------------------------------------------------
---------------------------------------------------------------oo------------------------------------------------------------------------------###-------------o---------------------------------------------------------------------------o-------------------------------------------------------------#-##------------------------------------------------------------------------
-------------------------------------------------------------------------------------------2---------------------------------------------------###---------------------------oo-------TT-------------------------------t-----------------------TT----------------TT---------------------------------T----#-##-----------TT---------------------------#---------------------#---------
--------------------------------------------------------------------------TT-----------------K------------------------------------------------#-##-----------------------K-----------TTT-------------------------------t-----------------------TT------TT--------TT------oo------------------------TT----#-##----------TTT-------------------------#---------------------------------
---------------------------------------------------------------------------T----------------------------------------TT-----------------------#--##------#----------------------------TTT----------------------------#--tt----------------------TT------TT--------TT-------------------oo-----------TT----####-----------TT-------------#-----------#-------------------#-#-----------
-Mggg-#--------k------------k-ggg-----------------------XX-------------gg--TT---------------------------------------TT------------g---k-ggg---####------#----------------------------TT-----k-k---------------------#--t-k----------------ggg--TT------TT---ggg--TT----------------k---------------TT--k-###--k---------TT-------------#-k-k--k-k--#------k--g---------#-#-#---------
XXXXXXXXXXXXXXXXXXXXXXXXXXXXXXXXXXXXXXXXXXXXXXXXXXXXXXXXXXX---------XXXXXXXXXXXXXXXXXXXXXXXX----X-X---X-XXXXXXXXXXXXXXXX-X--X-XXXXXXXXXXXXXXXXXXXXXXX-X-X-XXXXX-X-XXXXXXXXXXXXX-XXXXXXXXXXXXXXXXXXXXXXXXXXXXX-XXX-X-X--XXXXXXXXXX---X-X-XXXXXX-XX--XX-XXXXXXXXXXXXX----XXXX-X-X-XXXX-XXXXXX----XXXXXXXXXXXXXXXXXXXXXXXXXXXXXXXXXXXXXXXXXXXXXXXXXXXXXXXXXXXXXXXXXXXXXXXXX-X-XXXXXXXXXX
XXXXXXXXXXXXXXXXXXXXXXXXXXXXXXXXXXXXXXXXXXXXXXXXXXXXXXXXXXXX--------XXXXXXXXXXXXXXXXXXXXXXXX----X-X-X-X-XXXXXXXXXXXXXXXXXX--X-XXXXXXXXXXXXXXXXXXXXXXXXX-XXXXXXX-X-XXXXXXXXXXXXX-XXXXXXXXXXXXXXXXXXXXXXXXXXXXXXXXXXX-X--XXXXXXXXX----X-X-XXXXXXXXX--XX-XXXXXXXXXXXXX----XXXX-X-X-XXXX-X-XXXX----XXXXXXXXXXXXXXXXXXXXXXXXXXXXXXXXXXXXXXXXXXXXXXXXXXXXXXXXXXXXXXXXXXXXXXXXXXXXXXXXXXXXXX