--------------------------------------------------------------------------------------------------------------------------------------------------------------
--------------------------------------------------------------------------------------------------------------------------------------------------------------
--------------------------------------------------------------------------------------------------------------------------------------------------------------
S-SSSSSSSSSSSSSSSSSSSSSSSSSSSSSSSSSSSSSSSSSSSSSSSSSSSSSS-------SSSSSSSSSSSSSSSSSSSSSSSSSSSSSSSSSSSSSSSSSS------------SSSSSSSSSSSSSSSSSSSSSSSSSSSSSSSSSSSSS----
S-SS--SS------------------S-------------------------------------------------SSSS--------SS--------SS--SSS-----------------------------------------------------
S--S----------------------SS------------------------------------------------SSSS--------SS--------SS--SS------------------------------S-----------------------
S-------------------------------oS------oo----------------------------------o---------------------SS----------------------------------S---------------ooo-----
S-------------------------------SS----------------------------------------------------------------SS----------------------------------Sg-g--------------------
S-------------------------SSSSSSSS-------S--------------------------------SSSSSS------------------SS-----------------------S-S-SSSSS--SSSS-----------SSSS-----
S-----SS------------------SS-----------------------------------------------SSSSS------------------SS-----------------------SoSSSSS------------------SSSS------
S-----SSSS-----------------------------------------------#---------------------------------QQ-----SS-----------------------SSS-SSSS----------#-#----SSSS------
S--------------------------------------------------------#-----#-----------------------------------------------------------------------------#-#--------------
S------------------#-#-------------------------#---------#-#-#-#-S------------------------------------S-------------TT----------------------##-#--------------
SM----------------g#-#---------------------#-----------#-#-#-#-#-------------------------------------------------g-gTT-------------------#-#-#-#-kkk----------
XXXXXXXXXXXXXXXXXXXXXXXXXXXXXXX-XXXXXXXXXXXXXXXXXXXXXXXXXXXXXXXX-----XXXXXXXXXXXXXXXXXXXXXXXXXXXXXXXXXXXXXXXXXXXXXXXXXXXXXXXXXXXXXXXXXXXXXXXXXXXXXXXXXXXXXXXXX
XXXXXXXXXXXXXXXXXXXXXXXXXXXXXXXXXXXXXXXXXXXXXXXXXXXXXXXXXXXXXXXX-----XXXXXXXXXXXXXXXXXXXXXXXXXXXXXXXXXXXXXXXXXXXXXXXXXXXXXXXXXXXXXXXXXXXXXXXXXXXXXXXXXXXXXXXXX