-------------------------------------------------------------------------------------------------------------------------------------------------------------------------------------------------------------------------------------------------------------------------------------------------------------------------------------------------------------------------------------
-------------------------------------------------------------------------------------------------------------------------------------------------------------------------------------------------------------------------------------------------------------------------------------------------------------------------------------------------------------------------------------
-------------------------------------------------------------------------------------------------------------------------------------------------------------------------------------------------------------------------------------------------------------------------------------------------------------------------------------------------------------------------------------
--------------------------------tt---------------------------------------------------------------------------------------------------------------------------------------------------------------------------------------------------------------------------------------------------------------------------------------------------------------------------------------------------
-------------------------------------------------------------------------------------------------------------------------------------------#-----------------------------------------------------------------------------------------------------------------------------------------------------------------------------------------------------------------------------------------
------------------------------------------------------------------------------------------------------------------------------------------##-------------------------------------------------------------------------------------------------------tt--------------------------------------------------------------------------------------------------------------------------------
-----------------------------------------------------------------------------------------------------------------------------------------###-------------------------------------------------------------------------------------------------------tt--------------------------------------------------------------------------------------------------------------------------------
-----------------------------t----------------------------------------------------------------------------------------------------------####-------------------------------------------------------------------------------------------------------tt--------------------------------------------------------------------------------------------------------------------------o-----
-----------------------SS---------------------------------------------------------------------------------------------------------------####--SCSSS-S------o-----------------------------------------------------------------------------------#---CS--------------------------------------------------------------------------------------------------------------------------------
-------------------------------------------------------------------------------------------o--------------------------------------------####---------------o-----------------------------------------------------------------------------------#---------------------------------o-------------------------------------------------------------------------#-------------------------
----------------------------tt---------TT---------------------------------------------------------------------T-------------------------###----------------------------------------------------------------------------------------------------#---------t-------------------------------------#---------------------------TT------------------------------#-#----TT---T-------------
-----------------------TT---tt---------TT------------------------t------------##------------------------------TT------------------------###--------#---#-------------------------------------------------------------------------------------#-###-------tt------------------------------------#-------t---------TT--------TT--------------TT------------#-#-#----TT---TT--TT--------
----------------------TTT---tt---------TT------------T---t--------------------##----TT--------------#---------TT----------------------#####-------##---#---------------#------------------------------------------------------------T--------#-###-------tt----------------T-----------------#-#---TT------------TT------------------------TT------------#-#-#----TT---TT--TT--------
-M--------ggg---------TT----t----------TT------------T---t------------gg#-##---#----TT------------#-#----gg---TT--------kk--#-k--------#-###------##---#-------------kk#--------------k-k--------ggg------k------g-------ggg-------TT--------#-###-------tt--------ggg-----T-------------k-----#---TT----gg------TT----------------T-------TT------------#-#-#----TT-------TT--------
XXXXXXXXXXXXXXXXXXXX--T-----XXXXXXXXXXXXXXXXXXXXXXXXXXXXXXXXXXXXXXXXXXXXXXXXXXXXXXXXXX--X---X-XXXXX-X-XXXXXXXXXXXXXXXXXXXXXXXXXXXXXXXXXXXXXXXXXX--X-X-XXXXXX--X-X---XXXXXXXX----X-XXXXXXXXXXXXXXXXXXXXXXXXXXXXXXXXXXXXXXXXXXXXXXXXXXXXXXXXXXXX-X-XXX-XX--XXXXXXXXXXXXXXXXXXXXXX-----X--XXXXXXXXXXXXXXXXXXXXXXXXXXXXXXXXXXXXXXXXXXXXXXXXXXXXXXXXXXXXXXXXXX--X-XXX-XX-----X--XXXXXXXXXX
XXXXXXXXXXXXXXXXXXXX--T-----XXXXXXXXXXXXXXXXXXXXXXXXXXXXXXXXXXXXXXXXXXXXXXXXXXXXXXXXXXX-XX--XXXXXXXXXXXXXXXXXXXXXXXXXXXXXXXXXXXXXXXXXXXXXXXXXXXXX-#-#-XXXXXX--X-X---XXXXXXXX----XXXXXXXXXXXXXXXXXXXXXXXXXXXXXXXXXXXXXXXXXXXXXXXXXXXXXXXXXXXXXXXX-XXX-XX--XXXXXXXXXXXXXXXXXXXXXX---X-X--XXXXXXXXXXXXXXXXXXXXXXXXXXXXXXXXXXXXXXXXXXXXXXXXXXXXXXXXXXXXXXXXXX--X-XXX-XX-----X--XXXXXXXXXX