-------------------------------------------------------------------------------------------------------------------------------------------------------------------------------------------
-------------------------------------------------------------------------------------------------------------------------------------------------------------------------------------------
-------------------------------------------------------------------------------------------------------------------------------------------------------------------------------------------
S--SSSSSSSSSSSSSSSSSSSSSSSSSSSSSSSSSSSSSSSSSSSSSSSSSSSSSSSSSSSSSSSSSSSSSSSSSSSSSSSSSSSSSSSSSSSSSSSSSSSSSSSS----SSSSSSSSSSSSSSSSSSSSSSSSS-------------SSSSSSSSSSSSSSS----SSSSSSSSSSSSSSSSSSS
S----------------------------------------------------------SSSSS-----SSSSSSSSSSSSSS--------------------------------------------------------------------------------------------------------
S----------------------------------------------------------SSSSS-----SSSSSSSSSSSSSS--------------------------------------------------------------------------------------------------------
S------------S---------------------------------------------SSSSSSSSSSSSSSSSSSSSSSSS------------------------------------------------------------S-------------------------------------------
S----------------------------------------------------------------------------------------------------------------------------------------------S-------------------------------------------
S---------------QS-----------------------SSS--------------SSSS---------S-----------------------------------------S---------------------------------------S---------------------------------
S----------------------------------------------------------------------------------------------------------------S---------------------------------------------------T---------------------
S-------------------------S-------SSS-QQ-----------#-------SSSSSS--SSS-SSSSS----SSSSSSSSSSSSST-------------------------------S---------SS--------------------TT------TT--SSSSSSSSSSS-------
S------------#----------------TT----S--S----------##--TT---------------------SS-SSSSSSSSSSSSSS-------------#---------------------S--S#SSS--------------------TT--##--TT---SSSSSSSSSSS------
S-----------##----------------TT----S------------###--TT---------------------SS--SSSSSSSSSSSSS------------##-------------------ttS-SSSSSS--------------------tT--##--TT--SSSSSSSSSSSS------
S-M---------##---------------------tS-----------####--TT----------------------S------S-SSSSSSS-------T---###-------------------tt--SSSS----------------------tT--##--TT-SSSSSSSSSSSSS------
S-XXXXXXXXXXXX--XXXXXXXXXXXXXXXXXXXXXXXXXXXXX-XXXXXX-------XX----XXXX---XXXXXXXXXXXXXXXXX--XXXXXXXXXXXX--X-X---------XX--XXXXXXXXXXXXXXXX--------------XXXXXXXXXXXX--XX-XXXXXXXXXXXXX------
S-XXXXXXXXXXXX--XXXXXXXXXXXXXXXXXXXXXXXXXXXXX-XXXXXX-------XX----XXX----XXXXXXXXXXXXXXXXX--XXXXXXXXXXXX--X-----------XX--XXXXXXXXXXXXXXXX--------------XXXXXXXXXXXX--XX-XXXXXXXXXXXXX------