----------------------------------------------------------------------------------------------------------------------------------------------------------------------------------------
----------------------------------------------------------------------------------------------------------------------------------------------------------------------------------------
----------------------------------------------------------------------------------------------------------------------------------------------------------------------------------------
----------------------------------------------------------------------------------------------------------------------------------------------------------------------------------------
----------------------------------------------------------------------------------------------------------------------------------------------------------------------------------------
----------------------------------------------------------------------------------------------------------------------------------------------------------------------------------------
-------------------------------------------U--y---------------------oo-------------------------------------------------------------###--------------------------------------------------
-------------------------------------------------------------------------------------y-------------------------------------------#-###-----------------------------------S--------------
---------------------------------------------------S---------------------------------S-------------------------------------------#-###--------------------------------------------------
-----------------------------------------------------------------------------------##-----------------------------------#SSSS------###----------------------------#y--------------------
-------------------------------------------#----##---------------#---###----------###----------------------------------##-----------##----------------------------#----#----------------
----------------TT--------------------TT--########-------------####-##-----------####----------------#---------------#####---------###------------------------######-##----SSS----------
----------------TT----------------T---TT---###--------S-------####--------------#####----------------#--------------######--##-----#-------------------------#######--------------------
-M-----------y---y---SSS-y---S----T---TT--###---------------######-----------------##----------------#---------------#####---------#---------------------y-#######----------------------
XXXXXXXXXXXXXXXXXXXXX-XXXXXXXXXXXXXXXXXXXXXXX--XXXXX---XXXXXXXXXXX----XXXXXXXXXXXXXXXXXX--XXXXXXXXXXXXXXXXXX--XXXXXXXXXX-----X---XXXXXXXXXXXXXXXXXXXXXXXXXXXXXXX--------XXXXX--XXXXXXXXX
XXXXXXXXXXXXXXXXXXXXX-XXXXXXXXXXXXXXXXXXXXXXXXXXXXXX---XXXXXXXXXXXXX--XXXXXXXXXXXXXXXXXX--XXXXXXXXXXXXXXXXXX--XXXXXXXXXXXX---X---XXXXXXXXXXXXXXXXXXXXXXXXXXXXXXXX-------XXXXXXXXXXXXXXXX