------------------------------------------------------------------------------------------------------------------------------------------------------------------------------------------------------------------------------
------------------------------------------------------------------------------------------------------------------------------------------------------------------------------------------------------------------------------
------------------------------------------------------------------------------------------------------------------------------------------------------------------------------------------------------------------------------
------------------------------------------------------------------------------------------------------------------------------------------------------------------------------------------------------------------------------
------------------------------------------------------------------------------------------------------------------------------------------------------------------------------------------------------------------------------
------------------------------------------------------------------------------------------------------------------------------------------------------------------------------------------------------------------------------
--------------Q---------------------------------------------------------------------------------------------------------------------------------------------------------------------------------------------------------------
----------------------------------------------------------oo-------ooo------------oooo------------------------------------oo-----------------------------------------------------ooo------------------------------------------
------------------------------------------------------------------------------------------------------Q---------------------------------------------Q---QQ--------------------------------------------------------------------
------------o-----------------------------------------------------------------------------------------------------------------------------------------------------------------------------------------------------------------
---------------QQ-------------------------------------TT--------------------------------------------------------------TT-----------------------------------------------------------------------------------------------QQQ----
------------------------------------------------------TT---------------------------------------------------------------T------------------------------------------------------------------------------------------------------
------------------------------------------#-----------TT---------------------------------------------------------------T----------------------------------------------------TT------------------------------------------------
-M----------------------------------------#-----------TT---------------------o-------y---------------------------------TT--------------------------------------------y------TT---------------------y---------------------y----
XXXXXXXXXXXXXXXXXXXXXXXXXXXXXXXXXXXXXXXXXXXXXXX-XXXXXXXXX---XXXXXXXXXXXXXXXXXX----XXXXXXXXXXXXXXXXXXXXXXXXXXXXXXXXXXXXXXXX------------XXXXXXXXXXXXXXXXXXXXXX--XX--XXXXXXXXXXXXXXXXXXXXXXX---XX--XXXXXXXXXXXXXXXXXXXXXXXX--XX--
XXXXXXXXXXXXXXXXXXXXXXXXXXXXXXXXXXXXXXXXXXXXXXXXXXXXXXXXX---XXXXXXXXXXXXXXXXXX----XXXXXXXXXXXXXXXXXXXXXXXXXXXXXXXXXXXXXXXX------------XXXXXXXXXXXXXXXXXXXXXX--XX--XXXXXXXXXXXXXXXXXXXXXXX---XX--XXXXXXXXXXXXXXXXXXXXXXXX-XXX--