---------------------------------------------------------------------------------------------------------------------------------------------------------------------
-----------------------------------------------------------------------------------------------|---------------------------------------------------------------------
----------------------------------------------------------------------------------------------%|%--------------------------------------------------------------------
-----------------------------------------------------------------------------------------o-----|---------------------------------------------------------------------
-------------------------------------|---------------------------------------------------------|---------------------------------------------------oo----------------
-------------------------------------|---------------------------------------------------------|---------------------------------------------oo-------------oooooo---
----------------------------------SS-|-------------SSS-------------------------------SS-SS-----|---S%%%------------%%------------SSSS---%%%-------S------------------
-------------------------------------|------------------Sooo-----------------------------------|-----||------------|---------------------|---------------------------
--------%%%---------------------------%%%---------------------oo-------------------------------|-----||------------|-----------SS-------------------------SSSSSSS----
---------|-----------------------------|%%%%------------------SS-------------------------------|-----||------------|-------------------------------SSS---------------
---------|-----------------------------|||||--------------SS-------|%%%-SS--%%%%%%-------------|-----|||-------SS--|-----------------%%%-%%%%------------------------
---------|||---------------------------|||||-----------------------|||-------||||--------------|-----|||-----------|------------------%%%%||-------------------------
--------||||---------------------------|||||-----------%%%%--------|||-------||||--------------------|||--------%%%|-------------------|||||-------------------------
--------||||---------------------------||-||-------------|---------|||-------||||--------------------|||---------|-|-------------------|||||-------------------------
M---%%%-||||-%%%%%--%XXXXXXXXXXX%%-----||||||%%%%-------||---------|||-----%-||||---%%%%-------------|||-----%%%%|||%%%%%%%-%%%%%%%%%%-|||||-%%%---------------------
X----|--||||-||||----XXXXXXXXXXX-------||-|||-|---------||---------|||-------||||----||--------------|||------||-|||--||||----||%-|||--|||||-||----------------------