-------------------------------------------------------------------------------------------------------------------------------------------------------------------------------------------
-------------------------------------------------------------------------------------------------------------------------------------------------------------------------------------------
-------------------------------------------------------------------------------------------------------------------------------------------------------------------------------------------
S--SSSSS--SSSSSSSSSSSSSSSSSSSSSSSSSSSSSSSSSSSSSSSSSSSSSS-------SSSSSSSSSSSSSS-----SSSSSSSSSSSSSSSSSSSSSSSSSSSSSSSSSSSSSSSSSSS-------S--------------SSSSSSSSSSSSSSSSSSSSSSSSSSSSSSSSSSSSSSSS
S---------------------------------SSSSSSSSSSSS-----------------SSSSSSSS---------------------------SSSSSSSSSSSSSSSSSSSSSSSSSSSSS--------------------------SSSSSSSSSSSSSS------------------SS
S---------------------------------SSSSSSSSSSSS----------------SSSSSSSSS---------------------------SSSSSSSSSSSSS-SSSSSSSSSSSSSSS-------------------------SSSSSSSSSSSSSSS------------------SS
S------------------------------SSSSSSSSSSSSSSS--------------SSSSSSSSSS----------------------------SSSSSSSSSSSS---SSSSSSSSSSSSSS------------------------SSSSSSSSSSSSSSSS--------------------
S------------------------------------------------------------------------------------------------------------------------------------------------------------------------------------------
S-------------------------------------------SSS---------------------------------SS---------------------------------------------------------------SSS-----------------------------------SS--
S--------------------T----------------------------------------------ooooooooo------------------------------------------------oo---------------------oooooooS---oo--------------------------
S-------------------TTT-----S-SSSSSSSSSSSS------SSS-SS------SSS-----SSSSSSSSSS-S----TT--SS---------------------------SSSS-SSSSSSSS------------------SSSSSSSSSSSSSS-S-------------SSSS------
S--SS-----S-----#----T--------SSSSSSS--------------------T--------------------------TT----TT------------------------------SSS----------------------------SSSSSS----------------------------
SSSSS-SS-------#-----TT------SSSSSSSSS------------------TT--------------------------TT----TT------------------------------S-S-----S----------------------SSSSSS--S------------------#------
S-M-----------##-S---T--------SSSSSSSS-------------k-----T--------------------------TT----TT---k--------------------------------###----#-------------------S-------------------kk--#-------
S-XXXXXXXXXXXXXXXXXXXXXXXXXXXXXXXXXXXXXXXX------XXXXXX--XXXXXXX---XXXXXXXXXXXX------XXXXXXXXXXXXXXXXXXXXXXXXX------XXXXXXXXXXXXXXXXXXXXXX------------XXXXXXXXXXXXXXXX--XXXXXXXXXXXXX-------
--XXXXXXXXXXXXXXXXXXXXXXXXXXXXXXXXXXXXXXXXX-----XXXXXX---XXXXXX-X-XXXXXXXXXXXX------XXXXXXXXXXXXXXXXXXXXXX-XX------XXXXXXXXXXXXXXXXXXXXXX------------XXXXXXXXXXXXXXXX--XXXXXXXXXXXX--------