------------------------------------------------------------------------------------------------------------------------------------------------------
------------------------------------------------------------------------------------------------------------------------------------------------------
------------------------------------------------------------------------------------------------------------------------------------------------------
------------------------------------------------------------------------------------------------------------------------------------------------------
-------------------------------------------------------------------------------ggg-----------------------------g-----------g--------------------------
----------oo-----------------%----------------------------------o------------%%%%%%---oo-----------------------%------oo%%%%-------oooo---------------
--------------------------SSS-------------------------------------------------||||---------------###--------------------||---------%%%%---------------
------------------------------------o-------------oo--------------------------||||----------------##-------------o------|-----------||----------------
-------------------------------------------------%%%%%------------------------|||||--------------###-------%%%%--------##----%------||----------------
----------oo--------------------------------------||||--------------------------|||-------oooo---###--------||--------###---|-------||----------------
---------------------------------#--##------------||||--------------------------||||-----%%%%%%-S#-----------|---#--#####---%%---%%%||---------#------
---------------------------------##-##------------||||--------------------------||||------||||---------------|------#####---||----|-||---------#------
--------------------------------######------------||||---------%%%%-----%-------||||------||||------||--------------###-----||----|-||-------###------
-M------------%%---------------#######------------||||----oo----||--------------||||------||||------||--oo%%%----#--####--%-||----||||-------###---#--
X%-----XXXXX--|----------XXXXXXXXXXXXXXXXXXXXX----||||----%%----||-----------%%-||||||----||||----%-||-----|---XXXXXXXXX--||||----||||--XXXXXXXXXXXXXX
X-X-----XXXX--|---------XXXXXXXXXXXXXXXXXXXXXX------||----------||-----------|--||||||----||||------||-----|----XXXXXXXXX-|-||-----|||--XXXXXXXXXXXXXX