-----------------------------------------------------------------------------------------------------------------------------------------------------
-----------------------------------------------------------------------------------------------------------------------------------------------------
-----------------------------------------------------------------------------------------------------------------------------------------------------
---------------------------------------------------------------------------------------------------------------------------------------o-------------
---------------------------------------------------------o-------------------------------------------------------------------------------------------
---------------------------------------------------------%%--------------------------------------------------------------------o---------------------
-------oo---------------------------------------%%%--%%%%%%---------------%-%-----------------------------%%%%---------S------%%%--------------------
--------------------------------SSSS---o---o-----|----||||-------o-------S-------|-------------o-----------|--SS---------------|---------------------
-------------------------------------%%%%-%%%----|----||||----------%%%%%------|---------------------------|-------------------|---------------------
----------SSSS------------%%%%--------||---|-----|-----|||------SSSo-|||-------%%--------------------------|-----SSS-----SSSS--|-------SS-----r------
---------------------------|-----------|---|---|-|-%---|||-----------|||-------|-----------%%%-----------|||--%----------------------------%%%%%-----
---------------------------|-|---------|---|---|-||----|||-----------|||-------|---o--%%%%-||--%---------|||---------------------|----------|||------
------------------------%%%%%%%-----%%%%%%%%%--|-||-%%%%%%%%%%-----|-|||%%%%%%%%%%%%%%|||--||--|-----%%%%%%%%%%----%%------------||---------|||------
M------o-----------------|||||------|||||-||---|--|-|||||||||------|-||||-|r-||||-|||||||--||-||------|||||||||%%%%|-------------||------rr-|||------
X--------------XXXXX-----|||||------|||||-||---%%%%%%||||||||--%---||||||%|%-||||-|||||||--||-||------||||||||||-|||-------------%%%%%%%%%%%|||--%%%%
X--------------XX-X------|||||-------|-||-||---||||||||||||||------||||||-||-||||-|||||||-||||||------||||||||||-|||-------------||||||||||-|||---||-