-------------------------------------------------------------------------------------------------------------------------------------------------------------------------------------------
-------------------------------------------------------------------------------------------------------------------------------------------------------------------------------------------
-------------------------------------------------------------------------------------------------------------------------------------------------------------------------------------------
S--SSSSSSSSSSSSSSSSSSSSSSSSSSSSSSSSSSSSSSSS---SSSSSSSSSSSSSSSSSSSS---SSSS----SSSSSSSSSSSSSSSSSSSSSSSSS-----SSSSSSSSSSSSSSSSSSSSSSSSSSSSSSSSSSSSSSSSSSSSSSSSSSSS--------SS---SSSSSSSSSSSSS--
S---------------------------SSSSSSSSSSSSSSS-------------------SSSS-------------------------------------------------SS-SS-----------------------------SSSSSS-----------------------SSSS-----
S---------------------------SSSSSSSSSSSSSSS-------------------SSSS-------------------------------------------------S--SS------------------------------SSSS----------------------SSSSSSS----
S---------------------------SSSSSSSSSSSSSS-------------------SSS------------------------------------------------------SS------------------------------------------------------SSSSSSSSSSSS-
S------------------------------------------------------------------------------------------------------------------------------T-----------------------------------------------------------
S-----------------------SS----------------------------------------------------------------------------------------------------TT---------------------------------SS------------------------
S----------------------------S------oooooo------------------------------------------------------------------------------------TT------------------------------S--------------oooooooo------
S----SSSS-----------Q-------SS-----SSSSSSSS----------------T--SS-------------------T-------S-----------------------------S--SSTTSS---------S--SSS----SSSSSSSSSS------Q-------SSSSSSSS------
S---SSSSS---#-------------------SSSS------------------T---TT------------TT--------TT---#---------T---S------------------------TT------------------TT-SSSSSSSSS---------------------------SS
SSSSSSSS----#----#S------------SSSSSS-----------------T---TT-----t------T----------T--##S-------------------------------------TT-----##-----------TT-S-SS-SS-S---------------------------SS
SM---------##---###-----------------------------------T---TT-----t------TT-------------k-----------------------k-------------kTT----###----------kTT--SSS-SS--------------------kk-------SS
SSSSXXXXXXXXXXXXXX---------XXXXXXXXXXXXXXXXX---XXXXXXXXXXXXX---XXXXXXXXXXXXXXXXXXXXXXX-XX--XX----XXXXXXXXXXXXXXXXXXXXXXXXXXXXXXXXXXXXXXXX--XXXXXXXXXXXXXX-X--XX--XX--XXXXXXXXXXXXXXXX----XS
-S-XXXXXXXXXXXXXXX---------XXXXXXXXXXXXXXXXX---XXXXXXXXXXXXX---XXXXXXXXXXXXXXXXXXXXXXXXXX--XX----XXXXXXXXXXXXXXXXXXXXXXXXXXXXXXXXXXXXXXXX--XXXXXXXXXXXXXX-X---X--XX--XXXXXXXXXXXXXXXX----X-