------------------------------------------------------------------------------------------------------------------------------------------------------------------------------------------------------------------------------
------------------------------------------------------------------------------------------------------------------------------------------------------------------------------------------------------------------------------
------------------------------------------------------------------------------------------------------------------------------------------------------------------------------------------------------------------------------
------------------------------------------------------------------------------------------------------------------------------------------------------------------------------------------------------------------------------
------------------------------------------------------------------------------------------------------------------------------------------------------------------------------------------------------------------------------
--------------------------------------------------------------------------------------------------------------------------------------------------------------------------------------------------------#---------------------
------------------------------------------------------------------------------------------------------------------------------------------------------------------------------------------------------------------------------
------------ooo------------------------------------------------------------------o---------oo-----------------------------------------------------------------------------ooo-------------------------------------------------
------------------------------------------------------------------------------------------------------------------------------------------------------------------------------------------------------#-----------------------
----------------------------------------------------------------------------------------------------------------------------oo--oo--------------------------------------------------------oo----------##----------------------
-------------------------------------------------------------------------------------------------------------------------------------------------------------------------------------------------oT---##--------T-------------
--------------------------------------------------------------------------------------------------------------------------------------------------------------------------------------------------TT---#-------TT----o--------
--------------------------------------------------------------------T---------------TT------------------------------------------------------------------------------------------------------------TT---#-------TT-------------
-M---------------------y-----------------------------y-----y-----y--T------------y--TT---------y---------------------------------------------------------------------------------y---y------------TT---#-------TT-------------
XXXXXXXXXXXXXXXXXXXXXXXXXXXXXXXXXXXXXXXXXXXXXXXXXXXXXXXXXXXXXXXXXXXXXXXXXXXXXXXXXXXXXXXXXXXXXXXXXXXXXXXXXXXXXXXXXXXXXXXXXX-XXXXXXXXXXXXXXXXXXXXXXXXXXXXXXXXXXXXXXXXXXXXXXXXXXXXXXXXXXXXXXXXX--X---XXXXXXXXXXXXXXXXXXX---XXX---
XXXXXXXXXXXXXXXXXXXXXXXXXXXXXXXXXXXXXXXXXXXXXXXXXXXXXXXXXXXXXXXXXXXXXXXXXXXXXXXXXXXXXXXXXXXXXXXXXXXXXXXXXXXXXXXXXXXXXXXXXX-XXXXXXXXXXXXXXXXXXXXXXXXXXXXXXXXXXXXXXXXXXXXXXXXXXXXXXXXXXXXXXXXX--XX--XXXXXXXXXXXXXXXXXXXX--XX----