--------------------------------------------------------------------------------------------------------------------------------------------------------------------------------
--------------------------------------------------------------------------------------------------------------------------------------------------------------------------------
--------------------------------------------------------------------------------------------------------------------------------------------------------------------------------
--------------------------------------------------------------------------------------------------------------------------------------------------------------------------------
--------------------------------------------------------------------------------------------------------------------------------------------------------------------------------
--------------------------------------------------------------------------------------K-----------------------------------------------------------------------------------------
--------------------------------------------SS#---------------SSSS----------------------------------#---SS----------------------------------------------------------------------
---------------------------------------------------------------------------------------------------------------------------------------------------------------#----------------
---------------------------------------------------------------------------------S-----------------#-------------------------SS------------------#------------##-*--------------
--------------------------------------------------------------------------------------------------###-------------------------------------------#----K-------###----------------
---------------------------------SSS-------#---------------SSSSS---------------------------------###-------------------------------------------#-#-QSS-----#####--CS------------
----TT-----------------------*-------------#-------*---------------*----------------------------####---------------TT------------------------##-----------######----------------
----TT-----------*-----------*--------#----#-------*---------------*-----*--TT-----------------#####---------*------T----------------*-------##----------#######----------------
-----TM----------B-----------B-------##----#-------*---------------*-----*--TT----------------######---------*------T------------------------##---------########----------------
------XXXXXXXXXXXXXXXXXXXXXXXXXXXXXXXXXXXXXXXXXXXXXXXXXXXXXXXXXXXXXXXXXXXXXXXXXXXXXXXXXXXXXXXXXXXXXXXXXXXXXXXXXX---SSTXXXXXXXXXXXXXXXXXXXXXXXXXXXXXXXXXXXXXXXXXXXXXXXXXXXX------
------XXXXXXXXXXXXXXXXXXXXXXXXXXXXXXXXXXXXXXXXXXXXXXXXXXXXXXXXXXXXXXXXXXXXXXXXXXXXXXXXXXXXXXXXXXXXXXXXXXXXXXXXXX----TTXXXXXXXXXXXXXXXXXXXXXXXXXXXXXXXXXXXXXXXXXXXXXXXXXXXX------