--------------------------------------------------------------------------------------------------------------------------------------------------------------
--------------------------------------------------------------------------------------------------------------------------------------------------------------
--------------------------------------------------------------------------------------------------------------------------------------------------------------
SSSSSSSSSSSSSSSSSSSSSSSSSSSSSSSSSSSSSSSSSSSSSSSSSSSSSSSSSSSSSSSSSSSSSSSSSSSSSSSSSSSSSSSSSSSSSSSSSSSSSSSSSSSSSSSSSSSSSSSSSSSSSSSSSSSSSSSSSSSSSSSSSSSSSSSS------
S-----SS----------------------------------------------------------------------------------SSSS------------------------------SSSSSSSSSSSSSSSSS---SS---SSS------
S-----SS----------------------------------------------------------------------------------SSSS------------------------------SSSSS-SSSSSSSSSSSS--SS---SSS------
S----S-S------------------------oooooooooooo----------------------------------------o--------SSo----------------------------------SS--SSSS--SS--SS---SSS------
S----SoS---------------------------------------------------------------------------S-----------------------------------------------S---SSS---S--SS----SS------
S----SSS-----------------------SSSSSSSSSSSSSSS--------------SS---------------------SSSS-----SS-SSS---------------------------------------S------SS----SS------
S------S------------------------SSSS---SS-----------SS------SS--------------Sg-----SSSS------SSSSS-------------------SoS--------------SS-S------SS----SS------
S-------------------------------S-SS----------------SSSS--------------------SS------SS-------SSSSSS------------------SSS--------------SSSSS------SSSSSSS------
S-----------------TT--------------SS----------------------S#---------#-#---------------------S----S------------------------------------------------SSS--------
S------------------TT-------------SS---------------------S-#---------#-#--------------------------S------------#-#---------------------------------SSS--------
SM-----------------T----------SS--SS---------------------#-#--kk---#-#-g------TT-------------------------S-----#-#----kk-g------------------------------------
XXXXXXXXXXXXXXXXXXXXXXXXXXXXXXXX--XS--XXXXXXXXXXXX--XXXXXXXXXXXXXXXXXXXXXXXXXXXXXXXXXXXXXX--XX----XXXXXXXXXXXXXXXXXXXXXXXXXXXXXXXXXXXXXXXXXX--XXXXXXX---XX--XX
XXXXXXXXXXXXXXXXXXXXXXXXXXXXXXXX--XX--XXXXXXXXXXXX-XXXXXXXXXXXXXXXXXXXXXXXXXXXXXXXXXXXXXXX--XX----XXXXXXXXXXXXXXXXXXXXXXXXXXXXXXXXXXXXXXXXXX--XXXXXXX---XX--XX