----------------------------------------------------------------------------------------------------------------------------------------------------------------------------------------------------------------------
----------------------------------------------------------------------------------------------------------------------------------------------------------------------------------------------------------------------
----------------------------------------------------------------------------------------------------------------------------------------------------------------------------------------------------------------------
----------------------------------------------------------------------------------------------------------------------------------------------------------------------------------------------------------------------
-------------------------------------------------------------------------------------------------------------------------------------------------------------------##-------------------------------------------------
-------------------------------------------------------------------------------------------------------------------------------------------------------------------##-------------------------------------------------
----------------TT----------------------------------SS------------------SS---------SSS--SS---------------------------SSSSSSSS-------------------SSSS---------------##-#-----------------------------------------------
----------------TT-------------------------------------------------------------------------------------------------------------------------------------------------##-#-------------------------------TT--------------
----------------TT----SS------------------------------------------------------------------------------------------------------------------------------SS---------####-#---------SSSSS-S---------------T---------------
----------------TX-----------------------------------------------------------------------------------------------------------------------------------------------######-----------------------------TT----------------
------------TT------------------------TT---------------SSS--S-----------------------SS--------t---------------------SS--------------------------------------T---T####-#--------#-------------------TTT----------------
------------TT-#----------------------TT-------------------------------------------------T--------TT----TT--------------------------------------------------TT--T###--#-T---TT--------------------TTTT----TT----------
------------TT-#------------T---------------TT--TT--------------------------------------TT--------TT----TT----TTT-----------------#-TT----------------------TT--####--#-TT-#TT-#----------------TTTT-T----TT----------
----M-------TT-#------------T---------------TT--TT----------------------------TT--------TT-----k--TT----TT----TTT----------------##--T--------------------k-TT--####-##-TT-#TT-#----------------TTTT-T----TT-------#--
----XXXXXXXXXXXXXX-------XXXXXXXXXXXXXXXXXXXXXXXXXXXXXXXXXXX---XXXXXX----X--XXXXXXXXXXXXXXXXXXXXXXXXXXXXXXXXXXXXXXXX--XX---XXXXXXXX-XXXXXXXXXXXX--X---XXXXX-XXXXXXXXXXXXXXXXXXXXXXXXX----XXXXXXXXXXXXXXXXXXXXXXXXXXXXX
----XXXXXXXXXXXXXX---------XXXXXXXXXXXXXXXXXXXXXXXXXXXXX--XX---XXXXXX-------XXXXXXXXXXXXXXXXXXXXXXXXXXXXXXXXXXXXXXXX--X----XXXXXXXX-XXXXXXXXXXXX--X---XXXXXXXXXXXXXXXXXXXXXXXXXXXXXX-----XXXXXXXXXXXXXXXXXXXXXXXXXXXXX