------------------------------------------------------------------------------------------------------------------------------------------------------
------------------------------------------------------------------------------------------------------------------------------------------------------
------------------------------------------------------------------------------------------------------------------------------------------------------
------------------------------------------------------------------------------------------------------------------------------------------------------
-------------------g----------------------------------------------------------------------------------------------------------------------------------
----------------%%%%%------------%%%%%---------o------------------------------o-------Xooo-----%%%%%----------------oo-------------------%%%%---------
------------------||-------%%%%%%||||--------------S---------------------%%%%%%----SS-----------|||%%-------------------------------------||----------
------------------||--------|||||||||-----o------------SSS----------------||||------------------||||--------------------------or----------||----------
-------%%%%%%----S||--------||||||||||-----%%%----------------------------||||------------------||||------------------------%%%%----------||----------
--------||||----||||--------|||||||-||------|-----------------------------||||------------------||||-------------------------||-----------||----------
--------||||-----|||--%%%%%-||||||--||------||---------------------%%%%---||||-------%%%%-----%-||||-------%%%%--SSS---------||-----SSSSS-||----------
--------||||-----|||----||--||||||--|-------||-|--------------------||----||||--------||--------||||--------||--------------|||-----------||----------
--------||||---%%%%|----||--||||||--|-------||----------------------||----||||--------||--------||||--------||--------------|||-----------||----------
-M------||||----||-|-%%%||--||||||---|----%-||-|--------------------||----||||--------||-%%-----||||--------||---------------||--o---------|----------
X%------||||----||-|--||||--||||||-XXXXX----||-|----%%----XXXXX-----||----||||------%%%%%-------||||---%%%%-||--%%%%%-----%%%%%%%%%-----%%%%%%%%---%--
|-------||||----||-X--|-||--||||||-XXXXX----||------------XXXXX-----||----||||--------||--------||-|----||--||---|%--------X||--||-------|---||-------