-----------------------------------------------------------------------------------------------------------------------------------------------------
-----------------------------------------------------------------------------------------------------------------------------------------------------
-----------------------------------------------------------------------------------------------------------------------------------------------------
-----------------------------------------------------------------------------------------------------------------------------------------------------
-----------------------------------------------------------------------%%----------------------------------------------------------------------------
-----------------------------------------------------------------------|-------------o--------------------------------------%%%%---------------------
------------------------------------------------------%%%--------------|------------%%%---------%--o-------------------------||----------------------
---------------------------|---o-------------------o---|---o-----------|----------%%-|---oS-------%o%--o-----SS--------------||-----SSS--------------
--------------------------%%%-%%------------------%%%--|--%%%----|-----|-o---------|-|--%%%%%%%%---|--%%%---------%%%--------||----------------------
----------------SS--SSSS---|---|-------------------||--|---|-S---|-----|---------r-|-|---||--|||---|---|SSSS-------SS--------||----------------------
---------------------------|---|--r----------------||-||---|-----|-----|----%%%%%%%|||---||--|||---|---|---------------------||%%-------------%------
---------------------------|--%%%%%%%%%------------||-||-r-|-----|---------%-|||||-||||--||--|||---|---|---------r-----------||-------------%%%%-----
X--------------------------|-%|||||-||----------%%-|%%%%%%%%%----|--%%%%%%%%%||||%%%%||--||--|||---|---|--------%%%%%--------|||-------------||------
XXXM-----------------------|--|||||-||-----------|-||-||||||-----|---||||||||||||||||||--||--|||-r-|---|----%%%|||||---------||--------------||----o-
XXXXXXXXXXXXXXXX------%%%%%%%||||||-||-----------|-|||||||||-----|%%-||||||-|||||||||||--||%-|||%%%|---|-----|||||||---------||||--------XX--||--X%%%
XXXXXXXXXXXXXXX--------|-||||-|||||-||-----------|-||||||-||-----|---||||||||||||||||||--||--|||||||---|-----|||||||---------||||--------X---||--X-|-