-------------------------------------------------------------------------------------------------------------------------------------------------------------------------------------------------------------------------------------------------------------------------------------------------------------------------------------------------------------------------------------
-------------------------------------------------------------------------------------------------------------------------------------------------------------------------------------------------------------------------------------------------------------------------------------------------------------------------------------------------------------------------------------
-------------------------------------------------------------------------------------------------------------------------------------------------------------------------------------------------------------------------------------------------------------------------------------------------------------------------------------------------------------------------------------
-------------------------------------------------------------------------------------------------------------------------------------------------------------------------------------------------------------------------------------------------------------------------------------------------------------------------------------------------------------------------------------
-------------------------------------------------------------------------------------------------------------------------------------------------------------------------------------------------------------------------------------------------------------------------------------------------------------------------------------------------------------------------------------
-------------------------------------------------------------------------------------------------------------------------------------------------------------------------------------------------------------------------------------------------------------------------------------------------------------------------------------------------------------------------------------
------------------------------------------------------------------------------------------------oo-----------------------------------------------------------------------------------------------------------------------------------------------------------------------------------------------------------------------------------------------------------------------------------
-------------------------------------------------------------------------------------------------------------------------------------------------------------------------------------------------------------------------------------------------------------------------------------------------------------------------------------------------------------------------------------
-------------------------------------------------------------------------------------SSSSSS----------------------------------------------------o---------------------------------------o---------------------------------------------------------------SSS-----------------------------------------SSCSSS---------------------------------S------------------------------------------
-----------------------------------------------------------------------------------------------------------------------------------------------o-t-------------------------------------o---------------------------------------------------------------------------------------------------------------------------------------------------------------------------------------------
----TT--tt------------------------------TT--------------------------------------------------------oo------------------------------------------------------------------------T----------------------------------------------------------------------t------------T-----------------------------------------------------------TT-------------------------------------------------------
----TT--tt----------TT------------------TT---------------------------#-----------------------------------------------------------------T-------------------------------------------------------------------------------------------------------TT--t-----------TTT----------------------------------------------------------TT---TT------------------------------------------T-------
----TT--tt----------TT------------------TT-------------#-------------#-------------#---o-----------#-------------------------------------------------------------------------------------------------------------#-----------------------------------------#---TTT-------#---------------#-------#o--#-----------------------T---TT----TT----------------------#---------------------
-M--TT--tt--g-------TT-----ggg----------TT--k--------k-#------k-ggg--#------------##-------------#-#------------k-------------------------------------ggg-----k---kkk-------T-------------------k--gg-------ggg--#------------ggg------------------------k-#---TTT-----k-#------------ggg#----ggg##--#-------kk--------ggg--TT---TT----TT------gg----k-g-------#------ggg------------
XX--XXXXXXXXXXXXXXX-XX--XXXXXXXXXXXXXXXXXXXXXXXXXXXXXXXXXXXXXXXXXXXXXXXXXXXXXXXXX--#-----XXXXXXXXXXXXXXXXXXXXXXXXXXXXXXXXXXXXXXXXXXXXXXXXX--------X-XXXXXXXXXXXXXXXXXXXXXXXXXXXXXX-------XXXXXXXXXXXXXXXX-X-XXXXXXXXXXXXXXXXXXXXXXXXX-XXXXXXXXXXXXXXXXXXXXXXXXXXXXXXXXXXXXXXXXXXXXXXXXXXXXXXXXXXXXXXXXXXXXXXXXXXXXXXXXXXXXXXXXXXXXXXXX-XX--XX-XXXXXXXXXXXXXXXXXXXXXXXXXXXXXXXXXXXXXXX
XX--XXXXXXXXXXXXXXX-XX--XXXXXXXXXXXXXXXXXXXXXXXXXXXXXXXXXXXXXXXXXXXXXXXXXXXXXXXXX--#-----XXXXXXXXXXXXXXXXXXXXXXXXXXXXXXXXXXXXXXXXXXXXXXXXX--------X-XXXXXXXXXXXXXXXXXXXXXXXXXXXXXX-------XXXXXXXXXXXXXXXXXXXXXXXXXXXXXXXXXXXXXXXXXXXX-XXXXXXXXXXXXXXXXXXXXXXXXXXXXXXXXXXXXXXXXXXXXXXXXXXXXXXXXXXXXXXXXXXXXXXXXXXXXXXXXXXXXXXXXXXXXXXXX-XX--XX--XXXXXXXXXXXXXXXXXXXXXXXXXXXXXXXXXXXXXX