----------------------------------------------------------------------------------------------------------------------------------------------------------------------------------------------------------
----------------------------------------------------------------------------------------------------------------------------------------------------------------------------------------------------------
----------------------------------------------------------------------------------------------------------------------------------------------------------------------------------------------------------
----------------------------------------------------------------------------------------------------------------------------------------------------------------------------------------------------------
--------!--------------------------#----------------------------------------------------------------------------------------------------------------------------------------------------------------------
----------------------------------##----------------------------------------------------------------------------------------------------------------------------------------------------------------------
--------------------------------S###------------------------------SS--------------------------------------------------------------------------SS---------------------##-##--------------------------------
-----------------------------------#---------------------------------------------------------------------------------------------------------------------------------####---------------------------------
---------------------------------###-----------------------------------------------------------------------SSS!----------------------##---------------------##--##--#####---------------------------------
----------------------------------##------------------------------------------------------------------------------------------------###--------------------###--##-######---------------------------------
------!-------S@S-----------------##--------------------------------------------!-------------##----##--------------------##----##-#####---@S------SSS---#####--##-#######--------!-----------------------
-------------------------------#--###------------------------------------------------------#--##---###-------------------####---#########---------------######--##--######--------------------------------
------------------------------tt--###-------------------tt--------------------------------##--###--###-----------------####-##--##########-------------#######--##--######------------------------tt------
--M----------------g-g--------tt-####-------------------tt----g-g----------g-------------####-###--###----------------#####--#--##--########-----g----########--##--######------------------------tt------
S-XXXXXXXXXXXXXXXXXXXXXXXXXXXXXXXXXXXXXXXXXXXXXXXXXXXXXXXXXXXXXXXXXXXXXXX-XXXXXXXXXXXXXXXXXXX-XXXX-XXXXXXXXX--XXXXXXXXXXXXXXXX--XX-----XXXXXXXXXXXXXXXXXXXXX--------XXXXXXXXXXXXXXXXXXXXXXXXXXXXXXXXXXXXX-
--XXXXXXXXXXXXXXXXXXXXXXXXXXXXXXXXXXXXXXXXXXXXXXXXXXXXXXXXXXXXXXXXXXXXXX--XXXXXXXXXXXXXXXXXXX-XXXX-XXXXXXXXX--XXXXXXXXXXXXXXXXXXXXXXXXXXXXXXXXXXXXXXXXXXXXXXXXXXXXXXXXXXXXXXXXXXXXXXXXXXXXXXXXXXXXXXXXXXX-