------------------------------------------------------------------------------------------------------------------------------------------------------
------------------------------------------------------------------------------------------------------------------------------------------------------
------------------------------------------------------------------------------------------------------------------------------------------------------
------------------------------------------------------------------------------------------------------------------------------------------------------
--------------------------------###---------||-g-----------------------g----------------------------------------|-------------------------------------
--------------------------------###------%%%%%%%%%%----ooo-----------%%%%%----------------ooo--------%%%%%%--%%%%%%-oo--------------------------------
-----------------------------######-------||||||||----------------SS--|||---------#-------------------||||----||||--------%--%%%%%%-------------------
-------------------------o---######-------||||||||--------------------|||---------#-------------------||||----||||--------||%%||||--------------------
--------------SS----------#########-------||||||||--------------------|||---------#-------------------||||----||||--------||||||||--------------------
-------#-----------------##########-------||||||||--------------------|||#--------##------------------||||----||||--------||||||||--------------------
-------#------------SS---##########-------||||||||---%%%%%%----------#######------##------------------||S-----|||||%%%%---||||||||--------------------
-------------------------##########-----U-||||||||----||||-----o----########------##------------------||-------|||||||----||||||||--------------------
-------------------------##########-------|||||%%%%---|||----%%%---#########-------#------------------||-------|||||||----||||||||--------------------
-M-----------------------##########-------|||||-||----||||----||--###########------##-----------------||--oo---|||||||----||||||||--------------------
XXXXXXXXXXXXXXXXXXXXXXXXXXXXXXXXXXXXXXXXX-||||--||----|||-----||-XXXXXXXXXXXXXXXXXXXXXXXXXXXXXXXXXXX%-||--%%---|||||||----||||||||--XXXXXXXXXX-XXXXXXX
XXXXXXXXXXXXXXXXXXXXXXXXXXXXXXXXXXXXXXXXX-||||--||----|||-----||-XXXXXXXXXXXXXXX--XXXXXXXXXXXXXXXXXX--||---|----||||||----||||||----XXXXXXXXX---XXXXXX