-----------------------------------------------------------------------------------------------------------------------------------------------------
-----------------------------------------------------------------------------------------------------------------------------------------------------
-----------------------------------------------------------------------------------------------------------------------------------------------------
-------------------------------------------o---------------------------------------------------------------------------------------------------------
------------M-----------------------------%%%--------------------------------------------------------------------------------------------------------
------------%%%----------------------------|---------------------------------------------------------------------o-----------------------------------
-------------|-------------------------%---|----------%%%------------------------------------------------------%%%%----------------------------------
-------------|-SS----------------------|---|-----o-----|--------------------------------------SS-|-------o------||-----------------------------------
--------------------------------------%%%--|-----------|-----------------------------------------|------%%%%----||--------------------%%%-%%%%-------
-----------|o-----SSSS-----------------|---|---------o-----------------------o-------------------|--SSS--||-----||---SS-%%%%%%%--------||--||--------
-----------|------------------o--------|---|--------------------o--------------------------------|-------||-----||-------|||||%%%%%%%%-||--||--------
-----------|------------S-------%%%%%-||-r-|----------------------------%%%%---------------%%%%%-||-||---||----|||-------||||||||||||--||--||--------
-----------|--------------------|||||%%%%%%%---------------------------%|||-----------------|||--||-|%%%-||----||||--%---||||||||||||%-||--||--------
----------||---------------------|-|-|||-||-----------------------%%%%%||||-----------------|||--||-||||-||--r-|||--|----|||||||||||||-||--||--------
----------||---------------------|-|-|||-||-----%%%%%%------------|||||||||XXXXXXXXXXXXXXX--|||-|||-|||--|%%%%%|||--|--%-|||||||||||||-||--%%%%XXXXXX
----------||---------------------|----||-||------||||-------------|||-||||XXXXXXXXXXXXXXXX-||||-|||-||||-|||||-|||--|-|--|||||||||||||-||--|-----XXXX