----------------------------------------------------------------------------------------------------------------------------------------------------------------------------------------------------------
----------------------------------------------------------------------------------------------------------------------------------------------------------------------------------------------------------
----------------------------------------------------------------------------------------------------------------------------------------------------------------------------------------------------------
----------------------------------------------------------------------------------------------------------------------------------------------------------------------------------------------------------
----------------------------------------------------------------------------------------------------------------------------------------------------------------------------------------------------------
----------------------------------------------------------------------------------------------------------------------------------------------------------------------------------------------------------
------------------------------!-----------SSSSSSSSSSS--------------#S-----S-----------------------------------------S@S-----------------------------------------------------------------------------------
------------------------------------------------------------------##--------------------------------------------------------------------------------------------------------------------------------------
---------------------------------------------------------------#####----------------------------S---------------------------------------------------------------------------------------------------------
--------------------------------------------------------------######--------------------------------------------------------------------------------------------------------------------------------------
------##--------!---------S-------------S--------------------#######------!-----SS---------#------------------------XS----SS---------S!S----------!-----tt----------------------------------------!S------
-----###----------------------------------------------------#########-----------------------------------------------------------------------------------tt------------------------------------------------
----####---------------------------t----------------------############-------------t--------------------------------------------------------------------tt------tt-------------t---##----t----------------
--M-####--------------------------tt-g-------------------##############-------gg---t-------#------------------------------------gg-------------g--------tt------tt------------tt--####---t----------------
--XXXXXXXXXXXXXXXXXXXX--XXXXXXXXXXXXXXXXXXXXXX---XXXXXXXXXXXXXXX-XXXXXXXXXXXXXXXXXXXXXXXXXXXXXXXXX--XXXXXXXXXXXXXXXXXXXXXXXXXXXXXXXXXXXXXXXXXXXXXXXXXXXXXXXXXXXXXXXXXXXXXXXXXXXXXXXXXXXXXXXXXXXXXXXXXXX---
--XXXXXXXXXXXXXXXXXXXX--XXXXXXXXXXXXXXXXXXXXXX---XXXXXXXXXXXXXXXXXXXXXXXXXXXXXXXXXXXXXXXXXXXXXXXXX--XXXXXXXXXXXXXXXXXXXXXXXXXXXXXXXXXXXXXXXXXXXXXXXXXXXXXXXXXXXXXXXXXXXXXXXXXXXXXXXXXXXXXXXXXXXXXXXXXXX---