----------------------------------------------------------------------------------------------------------------------------------------------------------------------------------------
----------------------------------------------------------------------------------------------------------------------------------------------------------------------------------------
----------------------------------------------------------------------------------------------------------------------------------------------------------------------------------------
----------------------------------------------------------------------------------------------------------------------------------------------------------------------------------------
----------------------------------------------------------------------------------------------------------------------------------------------------------------------------------------
---------------------------------------------------------------------------y------------------------------------------------------------------------------------------------------------
-----------S--------------------------###----------------oo----------------#-So--------------------------ooo---------------------###----------------------------------------------------
------------------------SSSS--SS------------------------------------------##-----------------------------------------------------###--SS------------------------------------------------
--------------------------------------------------------------------------##---------Qo------------------------------------------###----------------------------------------------------
------------------------------------------------------#-------------------##---------------------------#-------------------------###----------------------------------------------------
-----------SSS-------------S---------SS#-----------y-###-----------------###---------------------------##---SQ-------------------###-------------####-----------------SC----------------
-------T-------------------------------------------#-###----------------####-----------------------######------------TT-------##-###-----SS-----#---------------------------------------
-------TT-----------------------------------------#-####---------------#####--------------------##-###-##------------TT-------##--##-----------##----------------------SSS--------T-----
-M-----TT-----------y--------------y-----------------###-----------y--######-----#-------------##---#--##---------y--TT-----------###--------------------------------------------TT-----
XXXXXXXXXXXXXXXXXXXXXXXXXXXXXXXXXXXXXXXXXXXXXXXXXXXXXXXXXXXXXXX-XXXXXXXXXXXXXXXXXXXX---XXXXXXXXXXXXXX-XXXXXXXXX-XXXXXXXXXXXXXXXXXXXXXXXXXXXXXXXXXXXXXXXX------XX----------XXXXXXXXXXXXXX
XXXXXXXXXXXXXXXXXXXXXXXXXXXXXXXXXXXXXXXXXXXXXXXXXXXXXXXXXXXXXXX-XXXXXXXXXXXXXXXXXXXX---XXXXXXXXXXXXXXXXXXXXXXXXXXXXXXXXXXXXXXXXXXXXXXXXXXXXXXXXXXXXXXXXX------X-----------XXXXXXXXXXXXXX