------------------------------------------------------------------------------------------------------------------------------------------------------------------------------------------------------------------------------
------------------------------------------------------------------------------------------------------------------------------------------------------------------------------------------------------------------------------
------------------------------------------------------------------------------------------------------------------------------------------------------------------------------------------------------------------------------
------------------------------------------------------------------------------------------------------------------------------------------------------------------------------------------------------------------------------
------------------------------------------------------------------------------------------------------------------------------------------------------------------------------------------------------------------------------
--------------------o---------------------------------------------------------------------------------------------------------------------------------------------------------------------------------------------------------
-------------------------------------------------------------------------------------------------------------------------------------------------------------------------------------------------------------------------Q----
------oo----------------------ooo--------------------------------------------------------ooo----------------------------------oo----------------------------------------------------------------------------------------------
----------------------QQQ-----------------------------------------------------------------------------------------------------------------------------------------------------------------------------------------------------
------------yy---------------------o------------------------------------------------------------------------------------------------------------------------------------#-----------------------------------------------------
------QQSSSSSSQQ------------TT----------Q---------------------TT----------Q-------------------------------------------------------------------------------------#---#---#-----------------TT---------------Q-Q----------------
----------------------------TT--------------------------------T-------------------------------------------------------------------------------------------------#---#---------------------TT----------------------------------
---TT-----------------------TT--------------------------------T---------------------TT------------------------------------#-------------------------------------#---#---------------------TT----------------------------------
-M-T----------#-------------TT-------------y------------------T---------------------TT------------------------------------#--------------------------y----------#---#------------y--------TT-------------------y--------------
XXXXXXXXXXXXXXXXXXXXXXXXXXXXXXXXXXXXXXXXXXXXXXXXXXXXXXXXXXXXXXXXXXXXXXXXXXXXXXXXXXXXXXXXXXXXXXXXXXXXX---XXX-XXXXXXXXXXXXXXXXXXXXXXXXXXXXXXXXXXXXXXXXXXXXXXXXXXXXXXXXXXXXXXXXXXXXXXXXX----XXXXXXXXXXXXXXXXXXXXXXXXXXXXXXXXXXXXX
XXXXXXXXXXXXXXXXXXXXXXXXXXXXXXXXXXXXXXXXXXXXXXXXXXXXXXXXXXXXXXXXXXXXXXXXXXXXXXXXXXXXXXXXXXXXXXXXXXXXXX--XXX-XXXXXXXXXXXXXXXXXXXXXXXXXXXXXXXXXXXXXXXXXXXXXXXXXXXXXXXXXXXXXXXXXXXXXXXXX----XXXXXXXXXXXXXXXXXXXXXXXXXXXXXXXXXXXXX