-----------------------------------------------------------------------------------------------------------------------------------------------------
-----------------------------------------------------------------------------------------------------------------------------------------------------
-----------------------------------------------------------------------------------------------------------------------------------------------------
-----------------------------------------------------------------------------------------------------------------o-----------------------------------
----------------------------------------------------------------------------------------------------------------%%%----------------------------------
---------------------------------------------o-------------------------------------------------------------------|---------or--------%---------------
---------------------------------------------------------------------------------------------------------|%------|------%%%%%%-----------------------
--------------o------------S--------%--------SSSSSSS-------oo----------------------o---------------------|-r-----|-------||||--o---------------------
----%%%%-----------------------------|%%%%%---------------%%%%------------------------------------------%%%%%%%--|-------||||-------|----------------
-----||----------------o------SSS----|||||-----------------||-------------SSSS---------SSS-----------o---||--|---|-------||||------||----------------
-----||----------------------------%%%||||-----------------||--------------------------------------------||--|---|---%%%%%|||------||----------------
-----||-%%%%----%%%%%%%%%%%%%-------||||||--SSS----------------------------------------------------------||--|-------||||||||------||%%%%%%%-|-------
-----||%-|||%%%%|||||||||||--------|||||||---------------------------------------------------------------||--|--------|||||||------||-||||||-|-------
-M---||||||||||-||||||||||||-----|-|||||||-------------------|-------------------------------------------||--||------||||||||------||-|||--|-|-------
XX-X-||||||||||-||||||||||||-----|||||||||--------XXXXXXXXXXXXXXXXXXXXXXXXXXXXXXXXX------XXXXXXXXXX---|--||--||------||||||||------|||||||%%%%%--XXXX
XX--|||||||||||-||||||||||||----||||||||||--------%XXXXXXXXX||----XXXXXXXXXXXXXX-XX------XXXXXXXX-X---|||||--||------||||||||-------|||||-|||||--XXXX