-----------------------------------------------------------------------------------------------------------------------------------------------------
---------------------------------------------------------------------------------------------------------------------------------------------------X-
-----------------------------------------------------------------------------------------------------------------------------------------------------
-----------------------------------------------------------------------------------------------------------------------------------------------------
-------------------------------------------------------------------------------------------------------------------------------------S---------------
-----------------------------------------------------------------------------------o---o---------------------------------------o-o---SSS-------------
-----------------------%%%%%--------------------------%%%%-----------------------%%%%-%%%---------------------------------------%%-------------------
------%%%-----oo---------||--o-------------------o-----|---o%----------------------|---|---oo----------------------------o-------||-------SSS--------
-------|------%%%--------||-----------------%%%%%%%----|---|-----------------------|---|--%%%%----------------------r-%%%%%------||------------------
------||-------|-r-------||--------SSS-------|||||-----|---|-----------------------|---|---||--------------%%%%%%%%%%%%||||--o---||---SS-------------
------||-------%%%%%%----||------------------|||||----%%%%||-----------------------|--%|%--||---------------|||||||||||||||-%%%%-||------------------
------||---------|||-----||---------------%%%%||||-----||-||-------|---------------|---|---||---------------||||%||||||-|||--||--||------------------
------||---------|||-----||-%-------------||||||||%----||-|||------|-----------%%%%|---|---|--------------%%%%%%%|||||%%%%%%-||--||||----------------
M-----||---------|||-----|--------------%-||||||||-rr--||-|||--|---o-----------|---|---|---|---r-------|---|||||||||||||||||-||--||||--oo--ooo-------
X-----||-----%---|||-----||%%%%%%-------|-||||||||%%%%-||-|||--|--%%%--%%%-----|||%%%%%%%%%%%%%%%%-----|---||||||||||||||%%%%%%%%||||%%%----%------XX
X-----||---------|||-----|||||||--------|-||||||||-||||||-|||--|---|----%------|||||||-||-|||||||------||--||||||||||||||||||||||||||-||-----------X-