-----------------------------------------------------------------------------------------------------------------------------------------------------------------------------------------------------
-----------------------------------------------------------------------------------------------------------------------------------------------------------------------------------------------------
-----------------------------------------------------------------------------------------------------------------------------------------------------------------------------------------------------
-----------------------------------------------------------------------------------------------------------------------------------------------------------------------------------------------------
-----------------------------------------------------------------------------------------------------------------------------------------------------------------------------------------------------
-----------------------------------------------------------------------------------------------------------------------------------------------------------------------------------------------------
--------------------------------------------------------QQQS--------------------------------------------------------------------------SSSS---------S-------------------------------------------------
-----------------------------------------------------------------------------------------------------#-----------------------------------------------------------------------------------------------
--------------S----------------------------------------------------------k---------------------------#-----------------------------------------------------------------------------------------------
-----------------------------------------------------------------------------------------------------#-----------------------------------------------------------------------------------------------
------T-------------------------------T------------------QQQ---#---------------S------S--#-----#-----#------------TT---------S-S-----------------------------#-------------S-------------------------
------TT-----------T------------------TT-----------------------#-------------------------#-----#---#--------------TT-----------------------------------####------------------------------------------
------TT-----------T------------------TT-----------------------#-------------------------------##--#--------------TT----------------------------------#######----------------------------------------
-M-----T----gg------------------------TT-----------XXXXg--kk---#-------------------------#-----##--##----gg--#----TT--g-----------gg---k-------------########--------------gg---------------K--------
XXXX---XXXXXXXX-------XXXXXXXXXXXXXXXXXX-----XXXXXXXXXXXXXXXX--XXXXXXXXXXXXXXXXXXXXXXXXXXXXXXXXXXXXXXXXXXXXXXXXXXXXXXXXXXXXXXXXXXXXXXXXXXXXXXXXXXXXXXXXXXXXXXXXXXXXXXXXXXXXXXXXXXXXXXXXXXXXXXXXXXXX--
XXXX---XXXXXXXX-------XXXXXXXXXXXXXXXXXX----XXXXXXXXXXXXXXXXX-XXXXXXXXXXXXXXXXXXXXXXXXXXXXXXXXXXXXXXXXXXXXXXXXXXXXXXXXXXXXXXXXXXXXXXXXXXXXXXXXXXXXXXXXXXXXXXXXXXXXXXXXXXXXXXXXXXXXXXXXXXXXXXXXXXXXX--