----------------------------------------------------------------------------------------------------------------------------------------------------------------------------------------------------------------------
----------------------------------------------------------------------------------------------------------------------------------------------------------------------------------------------------------------------
----------------------------------------------------------------------------------------------------------------------------------------------------------------------------------------------------------------------
----------------------------------------------------------------------------------------------------------------------------------------------------------------------------------------------------------------------
----------------------------------------------------------------------------------------------------------------------------------------------------------------------------------------------------------------------
----------------------------------------------------------------------------------------------------------------------------------------------------------------------------------------------------------------------
-------------------------------------------------------------------------#----------------SS----------------------------------TT---------------------------------S----SS----SS--------SS----TT------------------------
-----------------------------------------------------T------------------##----------------------------------------------------TT------------------------------------------------------------TT------------------------
--------------------------------------------------TTTT------------------##------------------------TT--------------------------XX----------------S-------------------------------------------TT------------------------
--------------------------------------------------TTTT----------------#####---TT------TT----------TT----------------------------------------------------------TT----------------------------TT------------------------
----------S-----------------------TT-----tt-------XXXX---------SSS----T####---TT------TT-------T--TT------TT------------------------------TT------------TT----TT----------------------------TT-----T------S-----------
--------------------------TT------TT-----tt--------------------------#T####---TT------TT-----TTT--TT------TT----------TT--TT--------------TT------------TT----TT----------------------------TT----TT------------------
------------TT--TT--------TT------TT-----tt-----T-------------------#########-XT------TT----TTTT--TT------tt--TT------TT--TT------TT------TT--TTTT----T-TT--#-TT----------------------------TT----TT--------TT--------
--M------k--TT--TT--------TT------TT------------T------------------########-#---------TT----TTTT--TT------tt--TT----#-TT--TT------TT------TT--TTTT----T-TT-##--TT---------------------------TT----TT--------TT-----#--
--XXXXXXXXXXXXXXXXXXXXXXXXXXXXXXXXXXXXXXXXXXXXXXXXXXXXXXXXXXXXXXXXXXXXXXXXXXXXXXXXXXXXXXXXXXXXXXXXXXXXXXXXXXXXXXXXXXXXXXXXXXX-----XXXXXXXXXXXXXXXXXXXXXXXXXXX-XXXXX------XXXXXXXXXXXXXXXXXXXXXXXXXXXXXXXXXXXXXXXXXXXXX
--XXXXXXXXXXXXXXXXXXXXXXXXXXXXXXXXXXXXXXXXXXXXXXXXXXXXXXXXXXXXXXXXXXXXXXXXXXXXXXXXXXXXXXXXXXXXXXXXXXXXXXXXXXXXXXXXXXXXXXXXXXX-----XXXXXXXXXXXXXXXXXXXXXXXXXXX-XXXXX------XXXXXXXXXXXXXXXXXXXXXXXXXXXXXXXXXXXXXXXXXXXXX