----------------------------------------------------------------------------------------------------------------------------------------------------------------------------------------------------------------------
----------------------------------------------------------------------------------------------------------------------------------------------------------------------------------------------------------------------
----------------------------------------------------------------------------------------------------------------------------------------------------------------------------------------------------------------------
----------------------------------------------------------------------------------------------------------------------------------------------------------------------------------------------------------------------
----------------------------------------------------------------------------------------------------------------------------------------------------------------------------------------------------------------------
--------------------------------------------------------------------------------------------------------#-------------------------------------------------------------------------------------------------------------
----------------------------------------SSSSS-------SSSSSSS--------------------------------------------##-------------------------------------------##-----SSSSS------------------SSS-----TT--------------SS----------
------------------------------------------------------------------------------------------------------###------------------------------------------#---------------------------------------X--------------------------
------------------------S-----TT------------------------------SS---------------------------------------#-------------------------SSS--------------##-----------------------#--S-X------------------------------SSS----
------------------------------TT---------------------------------------------------T------------------##-----------------------------------------#-###---------------------#------------------------------------------
------------------------------XX---------------T------------------TT--------TT----TT------SS--------TT##----------TT------------XX---------------#--#-------S-------------###------S--------------TS------------------
-------T---------------------------T------------------------------TT--------TT----TT---------------#TT##------T-----------------------------TTTT-------------------------#-##----------T------TT----------------------
-----TTT--------------------TT----TT------------------------------TT--TT----TT--T-TT---------------#TT##----TTT------T----TT----------------TTTT--TT----------TT-------#TT###---------TT------TT--------tt------TT----
--M-T-TT--------------------TT----TT-------k-----#----------------TT--TT----TT--T-TT---------------#TT##----TTT-----TT----TT----------------TTTT--TT----------TT-------#TT####--------TT------TT--------tt------TT-#--
--XXXXXXXXXXXXXXXXXXXXXXXXXXXXXXXXXXXXXXXXXXXXXXXXXXXXX-XX--XXXXXXXXXXXXXXXXXXXXXXXXXXXXXXXXXXX-XXXXXXXXXXXXXXXXXXXXXXXXXXXXXXXXX---------XXXXXXXXXXXXXXXXXXXXXXXXXXXXXXXXXXXXXXXXXXXXXXXXXXXXXXXXXXXXXXXXXXXXXXXXXXXX
X-XXXXXXXXXXXXXXXXXXXXXXXXXXXXXXXXXXXXXXXXXXXXXXXXXXXX------XXXXXXXXXXXXXXXXXXXXXXXXXXXXXXXXXXX-XXXXXXXXXXXXXXXXXXXXXXXXXXXXXXXX----------XXXXXXXXXXXXXXXXXXXXXXXXXXXXXXXXXXXXXXXXXXXXXXXXXXXXXXXXXXXXXXXXXXXXXXXXXXXX