--------------------------------------------------------------------------------------------------------------------------------------------------------------------------------
--------------------------------------------------------------------------------------------------------------------------------------------------------------------------------
--------------------------------------------------------------------------------------------------------------------------------------------------------------------------------
----------------------------------------------------------U---------------------------------------------------------------------------------------------------------------------
--------------------------------------------------------------------------------------------------------------------------------------------------------------------------------
------------------------------------------------------------------K--------*----------------------------------------------------------------------------------------------------
--------------------SSSSSSSS----------------SS---------------##----------SS#SS------------------------------------------------------SS------------------------------SS----------
------------------------------------------------------------###---------------------------------------------------------------K-----------------U-------------------------------
-----------------------------------------------------------####------------*------------------------------------------------SSSS------------------------------------------------
---------------------K-----------------------------------######------------*----------------------------------------------------------------------------------------------------
---------------------SSSSS------------------S-----------######----------SSS#CS----------------------SSSSSS---------------------------------------#-----------------SSS--QQ------
------------TT------------------------TT---------------#######-K---*-----------------------------------------*-------TT----K---------------*----##------------TT-------------*--
------------TT----TT-----------*------TT-------*------#######------*-----------*-------------*----TT---------*--------T--------------------*---#-#---------*--TT----------------
-M----------TT----TT-----------*------TT-------*-----########------B-----------*-------------*----TT------------------T--------------------*--##-#---------*--TT----------------
XXXXXXXXXXXXXXXXXXXXXXXXXXXXXXXXXXXXXXXXXXXXXXXXXXXXXXXXXXXXXXXXXXXXXXXXXXXXXXXXXXXXXXXXXXXXXXXXXXXXXXXXXXXXXXXXXXXXXXXXXXXXXXXXXXXXXXXXXXXXXXXXXXXXXXXXXXXXXXXXXXXXXXXXXXXXXXXX
XXXXXXXXXXXXXXXXXXXXXXXXXXXXXXXXXXXXXXXXXXXXXXXXXXXXXXXXXXXXXXXXXXXXXXXXXXXXXXXXXXXXXXXXXXXXXXXXXXXXXXXXXXXXXXXXXXXXXXXXXXXXXXXXXXXXXXXXXXXXXXXXXXXXXXXXXXXXXXXXXXXXXXXXXXXXXXXX