------------------------------------------------------------------------------------------------------------------------------------------------------
------------------------------------------------------------------------------------------------------------------------------------------------------
------------------------------------------------------------------------------------------------------------------------------------------------------
------------------------------------------------------------------------------------------------------------------------------------------------------
------------------------------XX---------------------%---------------------------------------------------------------------X---g----------------------
------------------------------%%%%-----o-oor-----%%%%%------------------oo--------oo-%------------------ooo-------------------%%%%--------------------
------------------oo----------|----------%%%%-----|||-------------------------------------------------%%%%%------SSS-----------|----------------------
-------------#----------------|-----------||------|||--------------------------------|-------%%-------||||------S--------------|---------%%%%%--------
-------------#-------------SS-|-----------||------|||--------%%%%------%%%%%--oo----||-------|--------||||------------------%--|----------|||%%%%%%---
-------------#----------------|-----------||------||----%%%%--||--------||||--------||-------|--------||||-------------%%%%%%-------------||||||------
-------------#---------------%|-----SS----||------||----------|---------||||--------||---%%%%%--------||||--------------||||--------------||||--------
-------------|----------------|-----------||------||----------|---------||||--------||----||||--------||||--------------||||-----------%--||||||------
------------------------------------------||------||--%%%----%|%---%----||||--------||----||||--------||||--------%-%---||||---%%%%%%-%%%-||||||------
-M----------------------------------------||------||--||---||||%%%%%----||||------oo||----||||--------||||-----%%%--|---||||----||||--||--||||||------
XXXXXXXXXXXXXXXXXXXXXXXXXXXXXXXXXXX-------||------||--||---|-|||--|-----||||------%%%%%---||||-----%--||||---%--||--|---||||----||||--||-|||||||------
XXXXXXXXXXXXXXXXXXXXXXXXXXXXXXXXXXX-------||------||--||---|--|||-|-----||||-------|||----||||--------||||---|--||------||||----||||--||-||||||-------