-------------------------------------------------------------------------------------------------------------------------------------------------------------------------------------------
-------------------------------------------------------------------------------------------------------------------------------------------------------------------------------------------
-------------------------------------------------------------------------------------------------------------------------------------------------------------------------------------------
S--SSSSSSSSSSSSSSSSSSSSSSSSS----SSSSSSSSSSSSSSSSSSSSSSSSSSSSSSSSS-SSS-SSSSSSSSSSSSSSSSSSSSSSSSSSSSSSSSSS---------SSSSSSSSSSSSSSSSSSSSSSSSSSSSSSSSSSSSSSSSSSSSSSSSSSSSSSSSSSSSSSSSSSSSSSS---
S-------------SSS-------------------------------SSSSSSSSSSS-----------------SSSSSSSS--------------------------------------------------------SSSSSSSSSSSSSS---------------------------------
S-----------SSSSS--------------------------------SSSSSSSSS------------------SSSSSSS----------------------------------------------------------SSSSSSSSSSSSS---------------------------------
S---------SSSSSSSS-------------------------------SSSSSS--------------------SSSSSSS---------SS---------------------------------------------SSSSSSSSSSSSSSS----------------------------------
S------------------------------------------------------------------------------------------------------------------------------------------------------------------------------------------
S--------------------------------------------------------SSS----------------------------SS-----SSSSSS-S----S-------------------------------------------------------------------------------
S-----------------------------------------------ooooooSSSSS--------------------------------------------------------------------------------------------------------------------------------
S-------T---SS--SS------------------------------SSSSSSSSSSSS--------------SSSSSSSSSS-------------------------S-----SSS--SSSSSSS-SS---Q-----SSSS--SSSSSSSSS--#--TTS-##--------------------SS
S------TT-----------------------------------------SSSSSSSSSS------S---------SSSSSSS--------------------------------S------------------t-------S-SSSSSSSSSS-S#--TT--#---------------------SS
S------TT-------T---------------------------------SSSSSSSSSS------t---------SSSSSS---------#-------------------tt--------------------tt----#--SSSSSSSSSSSSSS#--TT------------------------SS
SM-----TT-------TT-----------S---------------------SSSSSSSS------k----------SSSSSS--------##-------------------tt----kk-------------ktt-----------SSSSSSSSSS#--T-------------------------SS
XXXXXXXXXXXXXXXXXX---XXXXX-------XXXXX--XXXXXXXXX-XXXXXXXXXXXXXXXXXXXXXXXXXXXXXXXXXXXXXXX-XX------------XXXXXXXXXXXXXXXXXXXXXXXXXXXXXXXXXXXX--X--XXXXXXXXXXXXXXXXXXXXXXXX------XXXXXXXXX-XX
XXXXXXXXXXXXXXXXXX---XXXXX-------XXXXX--XXXXXXXXX-XXXXXXXXXXXXXXXXXXXXXXXXXXXXXXXXXXXXXXX-XX------------XXXXXXXXXXXXXXXXXXXXXXXXXXXXXXXXXXXXX----XXXXXXXXXXXXXXXXXXXXXXXX------XXXXXXXX--XX