------------------------------------------------------------------------------------------------------------------------------------------------------------------------------------------------------
------------------------------------------------------------------------------------------------------------------------------------------------------------------------------------------------------
------------------------------------------------------------------------------------------------------------------------------------------------------------------------------------------------------
------------------------------------------------------------------------------------------------------------------------------------------------------------------------------------------------------
------------------------------------------------------------------------------------------------------------------------------------------------------------------------------------------------------
------------------------------------------------------------------------------------------------------------------------------------------------------------------------------------------------------
-----------------------------------------------------------------------------------------------------------------------------------------------------------------------#------------------------------
----------------------------------------------------------------------------------------------------------------------------------------------------------------------#-------------------------------
-------------------------------------------------------------------------------------------------------------------------------------------#-------------------------###------------------------------
------------------------------------------------------------------------------------------------------------------------------------------##------------------------####------------------------------
----------------------------------------#LS-----------------------------------#LS---------##----------------------------------------------##-----------------------#####------------------------------
----------------------------------------#-------------------------------------#---------#-------------------------------------------------##---------------------######-------------------------------
--------------------------TT------------#---TT--------------------------------#---------#-------------------------------------------TT-----#-------------*------#####---------------------------------
-M------ggg-----------k---TT-----------k#---TT--------gg-------ggg--------g-kk#--ggg--###--------ggg-----------------------gg-------TT----##-------------*------#####------gg-------gg--k--ggg--------
XXXXXXXXXXXXXXXXXXXXXXXXXXXXXXXXXXXXXXXXXXXXXXXXXXXXXXXXXXXXXXXXXXXXXXXXXXXXXXXXXXXXXXXXXXXXXXXXXXXXXXXXXXXXXXXXXXXXXXXXXXXXXXXXXXXXXXXXXXXXXXXXXXXXXXXXXXXXXXXXXXXXXXXXXXXXXXXXXXXXXXXXXXXXXXXXXXXXXX
XXXXXXXXXXXXXXXXXXXXXXXXXXXXXXXXXXXXXXXXXXXXXXXXXXXXXXXXXXXXXXXXXXXXXXXXXXXXXXXXXXXXXXXXXXXXXXXXXXXXXXXXXXXXXXXXXXXXXXXXXXXXXXXXXXXXXXXXXXXXXXXXXXXXXXXXXXXXXXXXXXXXXXXXXXXXXXXXXXXXXXXXXXXXXXXXXXXXXX