-----------------------------------------------------------------------------------------------------------------------------------------------------------------------------------------------------
-----------------------------------------------------------------------------------------------------------------------------------------------------------------------------------------------------
-----------------------------------------------------------------------------------------------------------------------------------------------------------------------------------------------------
-----------------------------------------------------------------------------------------------------------------------------------------------------------------------------------------------------
-----------------------------------------------------------------------------------------------------------------------------------------------------------------------------------------------------
-----------------------------------------------------------------------------------------------------------------------------------------------------------------------------------------------------
---------S--TT------------------USS---------------SS------------SS-------S---------------------S----------SS---------------------------------------------------------C-------------SSS---------------
-------------T---------------------------------------------------------------------------------------------------------------------------------------------------------------------------------------
--------------------------------------SSS----------------SS----------------------------#-------------------------------------------------------------------------------------------------------------
---------------------------------------------------------------------------------------#-------------------------------------------------------------------#-----------------------------------------
------------------------------T--------------------------------QQ--------#---T--S------#-----------#------------------------QQ-----------------------------##--------TT---QQQ-------------T----------
------------TT----------------TT-----------------------------------------#--TT---------#-----------#----------------------------------------------T--------##--------TT------------------TT----------
------------TT----------------TT-------------------------------------K---#--TT--------##-----------#---------------------------------------------TT--------##--------TT------------------TT----------
--M---gg----TT----------------TT---------k----------------gg-------------#--TT---k-----#-----g-----#---g--------------------------gg---k---gg----TT----k---##----k---TT------g------ggg--TT----------
--XXXXXXXXXXXXXXXXXXXXXXXXXXXXXXXXXXXXXXXXXXXXXXXXXXXXXXXXXX---XXXXX-----XXXXXXXXXXXX--XXXXXXXXXXXXXXXXXXXXXXXXXXXXXXXXXXXXXXXXXXXXXXXXXXXXXXXXXXXXXXXXXXXXXXXXXXXXXXXXXXXXXXXXXXXXXXXXXXXX---XXXXXXX
--XXXXXXXXXXXXXXXXXXXXXXXXXXXXXXXXXXXXXXXXXXXXXXXXXXXXXXXXXX---XXXXX-----XXXXXXXXXXXX--XXXXXXXXXXXXXXXXXXXXXXXXXXXXXXXXXXXXXXXXXXXXXXXXXXXXXXXXXXXXXXXXXXXXXXXXXXXXXXXXXXXXXXXXXXXXXXXXXXXX---XXXXXXX