--------------------------------------------------------------------------------------------------------------------------------------------------------------
--------------------------------------------------------------------------------------------------------------------------------------------------------------
--------------------------------------------------------------------------------------------------------------------------------------------------------------
SS-SSSSSSSSS-----SSSSSSSSSSSSSSSSSSSSSSSSSSSSSSSSSSSSSSSSSSSSSSSSSSSSSSSSSSSSSSSSSSSSSSSSSSSSSSSSSSSSSSSS-----SSSSSSSSSSSSSSSSSSSSSSSSSSSSSSSSSSSSSSSSSSS-----
S-------------------------------------------------------------------------------------SS--------SSSSSSSSSSSSSSSS---------------------SSS----------------------
S-------------------------------------------------------------------------------------SS--------SSSSSSSSSSSSSSSS----------------------SS----------------------
S-----oo-------------------S-------------SSS--SSSS---S----------------------------------------------------SS--------------------------SS----------------------
S----------------------------S----------------------------------------------------------------------------SS--------------------------SS----------------------
S----SSS-----------SS-----S--S---S--------SS---------------------------------SSS------------------------------------------------------SS----------------------
S-----S------------SSS----SoSS---SoS------SS------------------------------------------SS------------------Soo-------------------------SS----------------------
S-------------------SSSS--SSSS---SSS------SS--QQQ------g-###---g-#---------------------SSS-#-----#-#------SSSSSS-----SSQQQ-----g-#-----S-#-T------------------
S------------#---#----SS----SS-------------------------#-#-#---#-#-#-------------#-#------##-#---#-#---------------------------#-#-------#-#-#-#-#--#-##------
S------------#-#------SS----SS-------------------T---#-#-#-#-#-#-#-#---------g-###-##----###-#-#-#-#-#-----------------------S-#-#-#------T#-#-#-#-##--#------
SM---------#-#-#------SS---------------g---------T-#-#-#-#-#-#-#-#-#---------#-#-#-##---#-#--#-#-###-#--kk-----g--gg------g-g--###-#------TT-#-#-#-###-#------
SXXXXXXXXXXXXXXXXXXX--XX----XXXXXXXXXXXXXXXXXXXXXXXXXXXXXXXXXXXXXXXX---XXXXXXXXXXXXXXXXXXXXXXXXXXXXXXXXXXXXXXXXXXXXXXXXXXXXXXXXXXXXXXXXXXXXXXXXXXXXXXXXXXXXXXX
XXXXXXXXXXXXXXXXXXXX--XX----XXXXXXXXXXXXXXXXXXXXXXXXXXXXXXXXXXXXXXXX---XXXXXXXXXXXXXXXXXXXXXXXXXXXXXXXXXXXXXXXXXXXXXXXXXXXXXXXXXXXXXXXXXXXXXXXXXXXXXXXXXXXXXXX