----------------------------------------------------------------------------------------------------------------------------------------------------------------------------------------
----------------------------------------------------------------------------------------------------------------------------------------------------------------------------------------
----------------------------------------------------------------------------------------------------------------------------------------------------------------------------------------
----------------------------------------------------------------------------------------------------------------------------------------------------------------------------------------
----------------------------------------------------------------------------------------------------------------------------------------------------------------------------------------
----------------------------------------------------------------------------------------------------------------------------------------------------------------------------------------
--------------------QQ------------------------------------------------oo------2--------------------------------------------#--------------------y-##----ooo-----------------------------
------------------------------------------------------------------------------------------------------------------------------------------------##-#------------------------------------
---------#Sy-----------------------------------------------------------------------------------------------------------------------------------###--------------------------------------
---------#------------------------------------------------##-y--------------------------------------------##----------------------------------####--------------------------------------
-------###--SC----------------------S---------------------##-S--------------------------------------------##-----------#-###-----------------#-###--------------------------------------
------####-------------------------------------------#-####----------------------#-----------------------###----------####---------#--------#--###--------------------------------------
-----#####----SSS---------------#-------------------#######--------------------------------------------#####---------#####-------#####-----#---###----------------------TT--------------
-M----####----------------y--y---------------y----######--#---------------y---------------------------######--------######------#####-----##---###----------------------TT----y---------
XXXXXXXXXX--------XXX---XXXXXXXXXXXXXXXXXX--XXXXXXXXXXXXXXXXX-XXXXXXXXXXXXXXXXXXXXXXXXXXXXXXXXXXXXXXXXXXXXXXXXXXXXXXXXXXXXXX--XXXXXXX---XXXXXXXXXXXXXXXXXX--XXXXXXXXXXXXXXXXXXXXXXXX---X
XXXXXXXXXX-----X-XXXX---XXXXXXXXXXXXXXXXXX--XXXXXXXXXXXXXXXXXXXXXXXXXXXXXXXXXXXXXXXXXXXXXXXXXXXXXXXXXXXXXXXXXXXXXXXXXXXXXXXX--XXXXXXX---XXXXXXXXXXXXXXXXXX--XXXXXXXXXXXXXXXXXXXXXXXX--XX