-------------------------------------------------------------------------------------------------------------------------------------------------------------------------------------------
-------------------------------------------------------------------------------------------------------------------------------------------------------------------------------------------
-------------------------------------------------------------------------------------------------------------------------------------------------------------------------------------------
---------SSSSSSSSSSSSSSSSSSSSSSSSSSSSS------SSSSSSSSSSSSSSSSSSSSSSSSSSSS---SSSSSSSS-------SSSSSSSSSSSSSSSSSSSSSSSSSSSSSSSSSSSSSSS--SSSSSSSSSSSSSSSSSSSSSSSSSSSSSSSSSSSSSSSSSSSSSSSSSSSSSSSS
S---------SSSSSSSSSSSSS-----------------------------------------------------------------------------------------------------SSSS-----------------------------------------------------------
S---------SSSSSSSSSSSS------------------------------------------------------------------------------------------------------SSSS-----------------------------------------------------------
S---------SSSSSSSSSSS----------------------SS------------------------------------SS-----------------------------------------SSSS-----------------------------------------------------------
S---------S--------------------------------------------------------------------------------------------------------------------------------------------------------------------------TT----
S---------SS-------------------SSSS--SSSS----------------------------------------------------------------------------------------------SS--------------------------------------------TT----
S-----------SSS----S--oooo-----------------------------------------------------------------------------------------------------------------------------------------------------------T-----
S-----------SSSSSSSSSSSSSS--QQ-------------SSSSS----SS-------------------T---SSSSSSS----------------QQ-------SS--T---SSS--SSS------S---------------S-S-----------------------Q-------TT--SS
S---TT-------SSSSSSSS-----------------------------T---------------------TT---------S-----#---tT------------------T---S-------------------------------S-------------------------------TT--SS
S---TT-------SSSSSSSS-----------------------------TT-----------t-----#--TT---------SSS--#t---t--TT-----#---------T------------------------------t----------##--------tt--------------TT--S-
SM--TT---------SSSS------------------------------kT------------t---k-#--TT-------------kSt-------T-----#---------T-----------------------------t----------###-------ktt------------------SS
XX--XX--XX---X--XXXXXXXXXX--XXX-----------XXXXXXXXXXXXXXXXXXXXXXXXXXXXXXXXXXXXXXXXXXXXXXXXXXXXXXXXXXXXXXX----XXXXXX-XXXXXXXXXXXXXXX--XX------XXXXXXXXXXXXXXXXXXXXXXXXXX---X---X---XXXXXX-XS
XX--XX--XX---X--XXXXXXXXXX---XX------------XXXXXXXXXXXXXXXXXXXXXXXXXXXXXXXXXXXXXXXXXXXXXXXXXXXXXXXXXXXXXX----XXXXXXXXXXXXXXXXXXXXXX--X-------XXXXXXXXXXXXXXXXXXXXXXXXXX---X---X---XXXXXX-XS