----------------------------------------------------------------------------------------------------------------------------------------------------------------------------------------------------
----------------------------------------------------------------------------------------------------------------------------------------------------------------------------------------------------
----------------------------------------------------------------------------------------------------------------------------------------------------------------------------------------------------
----------------------------------------------------------------------------------------------------------------------------------------------------------------------------------------------------
----------------------------------------------------------------------------------------------------------------------------------------------------------------------------------------------------
----------------------------------------------------------------------------------------#-----------------------------------------------------------------------------------------------------------
----------------------S---------------------------------------------------------SS-S-S--S-------------------------------------SQSS-----------------SQS-----------------------Q---S-------Q----------
----------------------------------------------------------------------------------------------------------------------------------------------------------------------------------------------------
--------------------------------------------------------------#-------------------------------------------------------SSS------------------------------------------S--SQSS?-------------------------
------------------------------------------------#-------------#-------------------------------------------------------------------------------------------------------------------------------------
-------------------QSSSSSS----S---------------###------------##-----------------SSSS-S---------------##-#T#-----SSSSS----------SSSSSS-------------SSS------------------------Q-SSSSS--SS-SSSSSS-----
--------T-----------------------------------#####-----------###-------------------------------------##------------------------------------------------------------------K---------------------------
--------T---------T---------------------TT--#####----------####------------------------------------##-------------------#---------------------------------------------------------------------------
-M------TT----k---T---------------------TT-######---------#####-------------------------K-g-------####------------------#---------------------gg--TT--------K-----------------------gg----K------#--
XXXXXXXXXXXXXXXXXXXXXXXXXXXXXXXXXXXXXXXXXXXXXXXXX-XXXXXXXXXXXXX---XXXXXXXXXXXXXXXXXXXXXXXXXXXXXXXXXXXX----XXX-------XXXXXXXXXXXXXXXXXXXXXXXXXXXXXXXXXXXXXXXXXXXXXXXXXXXXXXXXXXXXXXXXXXXXXXXXXXXXXXXX
XXXXXXXXXXXXXXXXXXXXXXXXXXXXXXXXXXXXXXXXXXXXXXXXX-XXXXXXXXXXXXX---XXXXXXXXXXXXXXXXXXXXXXXXXXXXXXXXXXXX-----XX---X---XXXXXXXXXXXXXXXXXXXXXXXXXXXXXXXXXXXXXXXXXXXXXXXXXXXXXXXXXXXXXXXXXXXXXXXXXXXXXXXX