----------------------------------------------------------------------------------------------------------------------------------------------------------------------------------------------------------
----------------------------------------------------------------------------------------------------------------------------------------------------------------------------------------------------------
----------------------------------------------------------------------------------------------------------------------------------------------------------------------------------------------------------
----------------------------------------------------------------------------------------------------------------------------------------------------------------------------------------------------------
----------------------------------------------------------------------------------------------------------------------------------------------------------------------------------------------------------
----------------------------------------------------------------------------------------------------------------------------------------------------------------------------------------------------------
--------------------S-!S----------------------------------------------SS-----------------------------------------------------SSS--------------##----------------------------------------------------------
---------------------------------------------------------------------------------------------------------------------------------------------###----------------------------------------------------------
------------------------------------------!-----------------------------------------------------------S-------------------------------------####----------------------------------------------------------
-------------------------------------------------------------------------------------------#-----------------------------------------------#####----------------------------------------------------------
--------S!----------S@S-------!---S@--------------SSSSSS------!-S---S-!-------!-----##----##--####--------!-------------------S@S---SUS---#######-----------------S-----------!--------------------SSS----
------------------------------------------------------------------------------------##----##--####--#----------#-------------------------#########--------------------------------------t-----------------
-----------------------------------------------------------#----------------------tt-#---###--####--#----------##------------------------#########--tt---------------------------------tt-----------------
---M--g-g--------------------t-g---------------------------#-#--------------------tt##----##--####--#-----g-g-####-------------g--------##########--tt--##-------------------------g---tt-----------------
---XXXXXXXXXXXXXXXXXXXXXXXXXXXXXXXXXXXXXXXXXXXXXXXXXXXXXXXXXXXXXXXXXXXXX-XXXXXXXXXXXXXXX--XX--XXXXXXXXXXXXXXXXXXXXXXXXXXXXXXXXXXXXXXXXXXXXXXXXXXXXXXXXXXXXXXXXXXXXXXXXXXXXXXXXXXXXXXXXXXXXXXXXXXXXXXXX----
---XXXXXXXXXXXXXXXXXXXXXXXXXXXXXXXXXXXXXXXXXXXXXXXXXXXXXXXXXXXXXXXXXXXX--XXXXXXXXXXXXXXXXXXX-XXXXXXXXXXXXXXXXXXXXXXXXXXXXXXXXXXXXXXXXXXXXXXXXXXXXXXXXXXXXXXXXXXXXXXXXXXXXXXXXXXXXXXXXXXXXXXXXXXXXXXXXX----