----------------------------------------------------------------------------------------------------------------------------------------------------------------------------------------------------
----------------------------------------------------------------------------------------------------------------------------------------------------------------------------------------------------
----------------------------------------------------------------------------------------------------------------------------------------------------------------------------------------------------
----------------------------------------------------------------------------------------------------------------------------------------------------------------------------------------------------
----------------------------------------------------------------------------------------------------------------------------------------------------------------------------------------------------
----------------------------------------------k-----------------------k-----------------------------------------------------------------------------------------------------------------------------
-------------------SSS------S----------------SQS-SQS-----------------SQS---------------------------------------------------------SSS-S-----------------SCS------------------------------------------
--------------------------------------------------------------------#---------#K----#--------------------------------------------------------------------K------------------------------------------
-----------------------------------------------------------------#-----------##----###--------------------------------------------------------------------------------------------------------------
--------------------------------##------------------------------##----------###---####--------------#--------------------------------------------------K--------------------------------------------
------------------SSSSSSSS---#####----S------SCSSS-------------###---------####---#####-----###----##-----------------TT------------SS------------------SS---------------TT------#------------------
------------------------------###--------------K--------------####--------##-##---#####-----###---###-----------------TT----------------------------TT-------------------TT-----##------------------
----TT------S----------------#####---------------------------#####------------#---##--#---###########-----------------TT--------------------TT------TT-------------------------###------------------
-M--TT--k---K---K---K---K---##--##-----------K----K---------######------------#---#---#---###########-------------k---TT----ggg-------------TT------TT--K-----------------T---####------------------
XXX-XXXXXXXXXXXXXXXXXXXXXXXXXX--XXX---XX--XXXXXXXXXXXXXXXXXXXXXXXX----XX------X---XX--X---XXXXXXXXXXXX-----XXXXXXXXXXXXXXXXXXXXXXXXXXXXXXXXXXXXXXXXXXXXXXXXXXXXXXXXXXXXXXXXXXXXXXXXXXXXXXXXXX-------
XX--XXXXXXXXXXXXXXXXXXXXXXXXXX--XXX---X---XXXXXXXXXXXXXXXXXXXXXXXX-----XX---------X---X---XXXXXXXXXXXX-----XXXXXXXXXXXXXXXXXXXXXXXXXXXXXXXXXXXXXXXXXXXXXXXXXXXXXXXXXXXXXXXXXXXXXXXXXXXXXXXXXX-------