------------------------------------------------------------------------------------------------------------------------------------------------------
------------------------------------------------------------------------------------------------------------------------------------------------------
------------------------------------------------------------------------------------------------------------------------------------------------------
------------------------------------------------------------------------------------------------------------------------------------------------------
------------------------------------------------------------------------------------------------------------------------------------------------------
------------------------------------------------------------------------------------------oooo----o-----------ooo-------------------------------------
---------------------------------------------------------------------%%%%%%%%%----%--S---%%%%----------------%%%%-------------------------------------
--------------oo----------------------------------------------------||||||||||------------||------------------||--------------------------------------
----------------------------%%%%%%%----------SS------------------%%%||||||||||----||------||------------------||------%%%-----------------------------
---------------------------%%|||||--------------------------------||||||||||||---%%%%-----||------------------||-------|----So------------------------
--------------------%%%%%%%%||||||------------##-----SS-----------||||||||||||----||------||------------------|%%%%----|------------------------------
--------oo-----------||||||||||||-------------##------------------||||||||||||----||------||------------------||||------|--------%--------------------
---------------------||||||||||||-------------##-------------%%%--||||||||||||----||------||------------------||||------|%%%--------------------------
-----M---------------||||||||||||-------------##--------------||--||||||||||||----||------||------------------||||-%%%%-||||--------------%-------o#--
-----%------%%%%-----|||||||||||----XXXXXXXXXXXX-------XXXX---||--||||||||||||----||------||--------%%%%%%%%%-||||--||--||||-----------%%%%-------%%-X
-----|-------||------|||||||||||----XXXXXXXXXXXX--------XXX---||--||||||||||||----||------||-----------%|-||--||||--||--||||------------|||--------|--