---------------------------------------------------------------------------------------------------------------------------------------------------------------------
---------------------------------------------------------------------------------------------------------------------------------------------------------------------
--------------------------------------------------------------------------------------------------------------------------------%%%----------------------------------
---------------------------------------------------o--------------------------------------------------------oo-------------------|-----------------------------------
---------------------------------------------------------------------------------------------------------S-----------------------|---------------o-------------------
---------------------------------------------------------------------------------------------o-----------------------------------|--------------SS-------------------
------------------SSS-------------------------------SSS------------%%%%-------------SSS-SSS-----------------SS------SSS----------|--------SSSS-----------------------
-----------------------------------------------------------ooooo----||-----------------------------------------------------------|-----------------------------------
---------------------------------------------------------SSS--------||----------SS----------------------------------------SSSoo--|--------------SS-------------------
--------------------------------------------------------------------||--------------------------------------------------------ooSS----%%%----------------------------
------------SS--------------------------%%%%-----------------SSS-----|%%%------------------S%%%------%%%%-----SSSS-----------------%%-||--------%%%%%%%%%------------
---------SSS----------------------%%-----|||---------%---------------||----------------------|-------|||------------------------------||--------|||--|||-------------
-----------------------------------|-----|-|------%%%|---------------|||---------------------|-------|||-----------------------------|||--------|||--|||-------------
-M---------------------------------|-----------------|---------------|||---------------------|-------|||-----------------------------||||-------|||--|||-------------
XXXX%%----------%%%%--------%%%%%XXXXXXXXXXXXXXXXXXXX|---------------|||-XX--%%%%-------%%%%%%%%%%%-%||||---%%%%%%%%-----------------||||-%%%%%%%|%%%%%%%---%%%------
XX-X|------------||----------||--XXXXXXXXXXXXXXXXXXXX|---------------|||-XX---||---------%||-||||----||||----||-|||------------------||||--||||-||-|||||-----|-------