------------------------------------------------------------------------------------------------------------------------------------------------------
------------------------------------------------------------------------------------------------------------------------------------------------------
------------------------------------------------------------------------------------------------------------------------------------------------------
------------------------------------------------------------------------------------------------------------------------------------------------------
------------------------------------------------------------------------------------------------------------------------------------------------------
----------------------oo---ooo--------------------------o---------------oo%-oo--------------%%-------------------------------%%%%%--------------------
-------------SSS---##%------%%%%-------------%%%%%--------%%---------%%%%%%--------------------%%%%%#-----------------SSS-----|||---------------------
-------------------###--------|---------------||||-------###----------||||---------------------######-------------------------||----------------------
-----------------#####--------|---------------||||------####----------||||------------oo-----|-######-------------------------||----------------------
-----------------####%----oooo||------%%%-----||||-----#####----------||||-------------------########------------------------%|%|-----------oo--------
------------%----###||---%%%%%%|-------|------||||-----#####----------||||----------------S--########-------------------------|||----------%%%%-------
-------#---##---###-||----||||||-------|------||||-----#####----------||||-------------------########-------------------------||------------||--------
-------#--------###-||----||||||----%%%%%%----||||-----######---------||||------------------#########-------------------------||------------||--------
-M-----#-#####---#--||----||||||-|----||------||||-----######---------||||-------------------########----------%%%%--------%%%||------------|------#--
XXXXXXXXXXXXXXXXXXX-||----||||||-|----||------||||---XXXXXXXXXXXX---%-||||--%|------------XXXXXXXXXXXXXXXXX-----||--%%------||||----%%%%%%%%%%%-XXXXXX
XXXXXXXXXXXXXXXXXXX-||----||||||||----||----|-||||---XXXXXXXXXXXX----|||||---|-------------XXXXXXXXXXXXXXX------||---|------||||-----%%-%%%||---XXXXXX