------------------------------------------------------------------------------------------------------------------------------------------------------
------------------------------------------------------------------------------------------------------------------------------------------------------
------------------------------------------------------------------------------------------------------------------------------------------------------
------------------------------------------------------------------------------------------------------------------------------------------------------
----------------------------------------------------------------------------------------------------------------------------------------------%%%-----
-----------------------------------------------------ooo----------oo---%%%%%%%----oo--------------------oo------------------------------------||------
---------%%%------------SS----------------------------------------------||||||-------------------------------------------------------%%%%%%---||------
------------------------------------------------------------------------||||||--------------------------------------------------------||||----||------
------------------------------------------------------------------------|||||-------------------------------------------------------S-||||----||------
-----------ooo----------------------------------------------------------||||------------------------oo%-------------------------------||||------------
---------%%%%%%---------------------------------%%%%%%---------%%%%%%%%-||||--%%%%%----------------%%%%---%%%SS----------------------|||||------------
----------||||-----------------------------------|||------------||--||--||||--||||---%%%------------||------------------------------||--||------------
----------||||-------------------%%%%--%%%%%%----|||------------||--||--||||--||||-|--|----%%%%%----||-------------------------------|--||------------
--------M-||||--------------------||----||||-----|||------o-|%%-||o-||--||||--||||-|--|-----||||%---||----------oo--|----------------|--||---------#--
--------%%||||---XXXXXXXXXXXXXXXX-|X----||||----%%%|------%-||--%%%-||--||||--||||||--|-----||||----||----------%%%-||---XXXXXXXXXXXXXXXXXXXXXXXXXXXXX
----------||||---XXXXXXXXXXXXXXXX-||----||||-----|-|--------||--||--||--||||--||||||--|-----||||----||--------------|----XXXXXXXXXXXXXXXXXXXXXXXXXXXXX