----------------------------------------------------------------------------------------------------------------------------------------------------------------------------------------------------
----------------------------------------------------------------------------------------------------------------------------------------------------------------------------------------------------
----------------------------------------------------------------------------------------------------------------------------------------------------------------------------------------------------
----------------------------------------------------------------------------------------------------------------------------------------------------------------------------------------------------
----------------------------------------------------------------------------------------------------------------------------------------------------------------------------------------------------
----------------------------------------------------------------------------------------------------------------------------------------------------------------------------------------------------
---------------------------------------------------------SCS-----------------------SCSSS----------------#-------SS------------------SQS-------------------------------------------------------------
-------------------------------S---------------------------K-------------------------K------------------#-------------------------------------------------------------------------------------------
-----------------------------------------------------------------------------------------------SCS-----##---------------------------------------------------------------------------------QS--------
-------------------------------------g-----------------------------------------------------------K----####----------------------------------------#gg---------------#-------------------------------
------------TT------------#----------#----------TT-------######S---------------Q-----T--------#---#######---------#----------Q-----SSSSS------###########-----------#-------SSS----------------##---
------------TT----------#-----------------------TT----------------------------------TT-------##K-----####---------#--------------------------###-------------------##-------------------------#-----
---T--------TT--TT-----##------------#----------TT----------------------------------TT------###-------###---------#-------------------------###---#-----------------##-----------------------#------
-MTT--------TT--T-----###------------#--------ggTT----------------------------------TT-----####-------###---------#-----k------------------####---#--------------#--#------------------------##-----
XXXXXXXXXXXXXXXXXXXXXXXXXXXXX----X--XXX---XXXXXXXXXXXXXXXXXXXXXXXXXXXXXXXXXXXXXXXX--XXXXXXXXXXXXXXXXXXXXXXXXXXXXXXX--XXXXXXXXXXXXXXXXXXXXXXXXXXX--X---X------XXXXXXXXXXXXXXXXXXXXXXXXXXXXXXXXXXX----
XXXXXXXXXXXXXXXXXXXXXXXXXXXXX---XX--XXX---XXXXXXXXXXXXXXXXXXXXXXXXXXXXXXXXXXXXXXXX--XXXXXXXXXXXXXXXX-XXXXXXXXXXXXXX-XXXXXXXXXXXXXXXXXXXXXXXXXXXX--X---X-----XXXXXXXXXXXXXXXXXXXXXXXXXXXXXXXXXXXX----