------------------------------------------------------------------------------------------------------------------------------------------------------
------------------------------------------------------------------------------------------------------------------------------------------------------
------------------------------------------------------------------------------------------------------------------------------------------------------
------------------------------------------------------------------------------------------------------------------------------------------------------
------------------------------------------------------------------------------------------------------------------------------------------------------
-------------------------%%%%--%------------------------------------------------------------------------------------------------oo--------------------
---------------------%%---||--|%%-------------#----------------------------------------SSSSSS-----------------------SSSSSS---------------%%%%---------
------------o---oo----|---||--||--------------#--------------------------o----------------------------------------------------------------||----------
---------%%%%---------%%%%%|--||--------------#-------%%%---------------------------------------------------------------------------------||----------
----------||----------||||||--||||---------------------|--------------o----------------------------#-----------------------------------%%-||----oo----
----------||----------|||||---||||---------------------|-----%%%%----------SSSSS----S%%%%-----SSS------------------%%%%---SSSS---------||-||----------
----------||----------||||----||||------------------%%%%%%----||----------------------||----------------------------||-----------------|||||----------
------SS--||----------||||----||||-------------%%%%---|-||----||----------------------||----------------------------||-------%%%%------|||||----------
-M--------||------oo--||||----||||---o----------||----||||----%%%%--------------------||----------------------------||--------||-------|||||----------
XXXXXX----||------%%%-||||----||||--XXXXXXXXX---||----||||----||-----%--------%%%-----||--X%XXXXXXXXX-%%----%%------||--------||-------|||||-XXXXXXXXX
XXXXXX----||------||--||||----||||--XXXXXXXXXX--||----||||----||----|----------|------||--XXXXXXXXXXX-||----|-------||--------||--------||||--XXXXXXXX