-------------------------------------------------------------------------------------------------------------------------------------------------------------------------------------------
-------------------------------------------------------------------------------------------------------------------------------------------------------------------------------------------
-------------------------------------------------------------------------------------------------------------------------------------------------------------------------------------------
S-------SSSSSSSSSSSS--SSSSSSSSSSSSSSSSSSSSSSSSSSSSSSSSSSSSSSSSSSSSSSSSSSSSSSSSSSSSSSSSSSS----SSS--------SSSSSSSSSSSSSSSSSSSSSSSSSSSSSSSSSSSSSSSSSSSSSSSSSSSSSSSSSSSSSSSSSSSSSSSSSSSSSSSS---
S-------SS----------------------SSSSSSSSSS-----------------------------------------------------------------------------SSSSSSSSSSSSSSSSS------------------SSSSSSSS-------SSSSSSSSSSSS------
S-------SS----------------------SSSSSSSSSS-----------------------------------------------------------------------------SSSSSSSSSSSSSSSSSS-----------------SSSSSSSS-------SSSSSSSSSSSS------
S-------SS----------------------SSSSSSSSSSS--------S--SSSSS--------------------------------------------------SS----SSSSSSSSSSSSSSSSSS-S--------S-----------SSSSSSS------SSSSSSSSSSSSS------
S--------------------------------------------------------------T---------------------------------------------------------------------------------------------------------------------------
S---TT---------------------------------------------------------T---------------------S-----------------------------------------------------------------------------------------------------
S---TT--S-ooooooo----------------------------------------------------------------------------------------------------------------------------------------------------oooS----------------SS
S---TT-SSSSSSSSSSS----------SS----SSSSSSS-----------SSSSSS----------TTSSS------S------QQ---Q----------TT-----------------SS------SS----T-SS---------------S--------SSSSS-----SSSSSSSSS---SS
S---TT----------------------SS---------------------SSSSSSS----------TT---------------------------T----TT------------------------------TT----------------------#--------------------------SS
S------------------------##-SS--------------------SSSSSSSSS----------T---------------------------T----TT---T-----------------#---------T-----------tt--------##--------------------------SS
SM--T-------------------###-----------------------SSSSSSSS-----------T-----kk----------------T--TT----T----T---------------k----------TT--------------------###--------------------------SS
XXXXXXXXXXXXXXXXXXX-XXXXXXX------XXXXXXXXXX-XXXXXXXXXXXXXXXXXXXXXXXXXXXXXXXXXXXXXXXXXXXXXXXXXXXXXXXX--XX------XXXXXXXXXXXXXXXXXXXXXXXXXXXXXXXXXXXXXXXXXXXXXXXXX--XX--XX------XXXXXXXXXX--XS
XXXXXXXXXXXXXXXXXX--XXXXXXX--------XXXXXXXX-XXXXXXXXXXXXXXXXXXXXXXXXXXXXXXXXXXXXXXXXXXXXXXXXXXXXXXXX----------XXXXXXXXXXXXXXXXXXXXXXXXXXXXXXXXXXXXXXXXXXXXXXXXX--XX--XX------XXXXXXXXXX--X-