------------------------------------------------------------------------------------------------------------------------------------------------------------------------------------------------------
------------------------------------------------------------------------------------------------------------------------------------------------------------------------------------------------------
------------------------------------------------------------------------------------------------------------------------------------------------------------------------------------------------------
------------------------------------------------------------------------------------------------------------------------------------------------------------------------------------------------------
------------------------------------------------------------------------------------------------------------------------------------------------------------------------------------------------------
------------------------------------------------------------------------------------------------------------------------------------------------------------------------------------------------------
-----------------SS--------------------#-------------------------------------------------------------------------------------------------------------S------------------------------------------------
--------------------------------------##--------------------------------------------------------------------------------------------------------------------------TT----------------------------------
--------------------------------------##--------------------------------------------------------------------------------------------------------------------------##----------------------------------
--------------------------------------##--------------------------------------------------------------------------------------------------------------------------------------------------------------
--------------------------------#L######---------------------------------------T--------------------------------S---#LS-------------------TT----##----------------------------##----------------------
--------------------------------#-----##----------------------------------------------------------------------------#-------TT------K-----TT----------------------------------#-----------------------
--------------------------------#-----------------------------------------------------------------------*-----------#-------TT------------T#----------------------------------#-----------------------
-M-----ggg----ggg-------------kk#------------gg-------k---------------------------------------ggg-------*----#----k-#-----k-TTg---------kkT#-----------ggg-----------ggg-----##--ggg-------ggg--------
XXXXXXXXXXXXXXXXXXXXXXXXXXXXXXXXXXXX--------XXXXXXXXXXXXXXXXXXXXXXXXXXXXXXXXXXXXXXXXXXXXXXXXXXXXXXXXXXXXXXX--XXXXXX---XXXXXXXXXXXXXXXXXXXXXXXXXXXXXXXXXXXXXXXXXXXXXXXXXXXXXXXXXXXXXXXXXXXXXXXXXXXXXXXX
XXXXXXXXXXXXXXXXXXXXXXXXXXXXXXXXXXXX--------XXXXXXXXXXXXXXXXXXXXXXXXXXXXXXXXXXXXXXXXXXXXXXXXXXXXXXXXXXXXXXX--XXXXXX----XXXXXXXXXXXXXXXXXXXXXXXXXXXXXXXXXXXXXXXXXXXXXXXXXXXXXXXXXXXXXXXXXXXXXXXXXXXXXXX