--------------------------------------------------------------------------------------------------------------------------------------------------------------
--------------------------------------------------------------------------------------------------------------------------------------------------------------
--------------------------------------------------------------------------------------------------------------------------------------------------------------
S---SSSSSSSSSSSSSSSSSSSSSSSSSSSSSSSSSSSSSSSSSSSSSSSSSSSSSSSSSSSSSSSSSSSSSSSSSSSSSSSSSSSSSSSSSSSSSSSSSSSSSSSSSSSSSSSSSSSSSSSSSSSSSSSSSSSSSSSSSSSSSSSSSSSS------
S------------------------S--SSSS--------------------SSSS-------SSSSSSS------------------------------------------------------------------SS--SSSSSS---S--------
S------------------------S--SSSS--------------------SSSS-------SSSSSSS--------------------------------------------------S---------------SS--SSSSSS---S--------
S------------------------S---SSS--------------------SS--------oo----SS-------------------------------------Sooo---------Soo-----SSSSSSSSSSSSSS--SS------------
S----------------------SSS-----S--------------------SS---------S--------------------------------------------------------S-------------SS--SSSS--SS------------
S----------------------SSS--------------------------SS--------SS-----------------------------------------SSSSSS---------SSSSSS--------SS--------S-------------
S-----------------------SS-----oooS---------SS------SS-S------SS--S--------------------------------------S--SS----------SSSSSS--------SS----------------------
S------------------------SSS-SSSSSSSSSSQQQS-SS-------SSSSS----SS--SSSS-----------T-----------#-#-#---#--SS------QQ----------SS---SSS--SSSSSSSS----QQ----------
S--------------------------------------------------------------------------------TT----------#-#-#-#-#--------------------------------------------------------
S----------TT--------------------------------------------------------------------T----T----#-#-#-#-#----------------------------------------------------------
SM----------TT-------------------------------#-------------------------------g---T----TT---#-#-#-#-----------------------S-----------------------------g------
SX--XX------XXXXXXXXXXXXXXXXXXXXXXXXXXXXXXXXXXXXXXXXXXXXXXXXXXXXXXXXXXXXXXXXXXXXXXXXXXXXXXXXXXXXXXXXXX--XX--XXXXXXXXXXXXXXXXXXXXXXXXXXXXXXXXXXXXXXXXXXXXXXXXXX
XX--XX-----XXXXXXXXXXXXXXXXXXXXXXXXXXXXXXXXXXXXXXXXXXXXXXXXXXXXXXXXXXXXXXXXXXXXXXXXXXXXXXXXXXXXXXXXXXX--XX-XXXXXXXXXXXXXXXXXXXXXXXXXXXXXXXXXXXXXXXXXXXXXXXXXXX