----------------------------------------------------------------------------------------------------------------------------------------------------------------------------------------------------
----------------------------------------------------------------------------------------------------------------------------------------------------------------------------------------------------
----------------------------------------------------------------------------------------------------------------------------------------------------------------------------------------------------
----------------------------------------------------------------------------------------------------------------------------------------------------------------------------------------------------
----------------------------------------------------------------------------------------------------------------------------------------------------------------------------------------------------
------------------------------------------------------------------------------------------------------------------------------------------------------------------------------------------k---------
------------------S----------------------------------SSS--SSSS--------------------------------------S------------------------------------------------------------------------------------SSS--------
-----gg---------------------------------------------------------------------------------k----------------S------------------------------------------------------#-----------------------------------
-----------------------S?S-----------------------------------------------------SQS-----SS---------------#------------------------------------------------------##-----------------------------------
------------------------------------------------------------------------------------------------------gg#-----------------------------------------------------###-----------------------------------
-----------------SCSSS----S------------------SS-------SSSSSSS-----------------------------------------###------------SCS-####-----SS------------------------#####----SSS-----------------SS---------
-------------------K--------------------##------------------------TT-----------------------------------##--------------K--###-------------------------------#---------------------------------------
----------------------------------------##------------------------TT------------------------------------#-------------------#-------------------------------------------------TT--------------------
---M-------------K--------ggk-----------##--gg----------g-------ggTT------------------------------------#------------K---####-----------K-gg--------------------------------ggT---------#--------#--
---X--XXXXXXXXXXXXXXXXXXXXXXXXXXXXXXX---XXXXXXXXXXXXXXXXXXXXXXXXXXXXXXXXXXXXXXXXXX--XXXXXXXXXXXXXXXXXX--X---XXXXXXXXXXXXXXXXXXXXXXXXXXXXXXXXXXXXXXXXXXXXXXXXX---XXXXXXXXXXXXXXXXXXXXXXXXXXXXXXXXXXXX
---X--XXXXXXXXXXXXXXXXXXXXXXXXXXXXXXX---XXXXXXXXXXXXXXXXXXXXXXXXXXXXXXXXXXXXXXXXXX--XXXXXXXXXXXXXXXXX---X---XXXXXXXXXXXXXXXXXXXXXXXXXXXXXXXXXXXXXXXXXXXXXXXXX---XXXXXXXXXXXXXXXXXXXXXXXXXXXXXXXXXXXX