----------------------------------------------------------------------------------------------------------------------------------------------------------------------------------------
----------------------------------------------------------------------------------------------------------------------------------------------------------------------------------------
----------------------------------------------------------------------------------------------------------------------------------------------------------------------------------------
----------------------------------------------------------------------------------------------------------------------------------------------------------------------------------------
----------------------------------------------------------------------------------------------------------------------------------------------------------------------------------------
----------------------------------------------------------------------------------------------------------------------------------------------------------------------------------------
------yS-------------y----------------------oo----------------------------------------------2-----------------------------ooo----------SSo----------------------------------oo----------
----#S-------------y---------------------------------------------------------------------------------------------------------------SSS--------------------------------------------------
------------------##---------------------##----------------------------------------------------------------------------------------------------------y-y--------------------------------
----#-------------##--------------#------##----------------------------------------------------------------------------------------------------------##S--------------------------------
---###-----------###--------------------###----------###--S--------------------------------##---y----------------------------------###-S------------##-----------#----------------------
--####---------#####-----------y------##-#----------####----------------------------------#--------------------------------SS-----####------------##-##---------##---SS-----TT----------
--####---------#####-----------####----------------#####---------------------------------##--------------------------------------####---------y--###-##--------###----------TT----------
-M####-------#######----------#####--------S------######-------------------------y------###------------y---y--------------------#-###---------#####--###-------###----------TT----------
XXXXXXXXXXXXXXXXXXXXXX--XXXXXXXXXX-----X-XXXXXXXXXXXXXXXXXXXXXXXXXXXXXXXXXXXXXXXXXXXXXXXXXXXXXXXXXXXXXXXXXXXXXXXXXXXXXXXXXXXXXXXXXXXXX--XXXXXXXXXXXXXXXXXXXXXXXXXXXX--XXXXXXXXXXXXXXXXXX
XXXXXXXXXXXXXXXXXXXXXX--XXXXXXXXXXX----X-XXXXXXXXXXXXXXXXXXXXXXXXXXXXXXXXXXXXXXXXXXXXXXXXXXXXXXXXXXXXXXXXXXXXXXXXXXXXXXXXXXXXXXXXXXXXX--XXXXXXXXXXXXXXXXXXXXXXXXXXXX--XXXXXXXXXXXXXXXXXX