------------------------------------------------------------------------------------------------------------------------------------------------------------------------------------------------------------------------------
------------------------------------------------------------------------------------------------------------------------------------------------------------------------------------------------------------------------------
------------------------------------------------------------------------------------------------------------------------------------------------------------------------------------------------------------------------------
------------------------------------------------------------------------------------------------------------------------------------------------------------------------------------------------------------------------------
------------------------------------------------------------------------------------------------------------------------------------------------------------------------------------------------------------------------------
------------------------------------------------------------------------------------------------------------------------------------------------------------------------------------------------------------------------------
-----------------------Q---------------------------------------------------------------------------------------------------------------------------------------------------------------------------Q------Q-------------------
------------------------------------------------------------------------------------------------------------------------------oo----------------------------------------------oo----------------oo----------------------------
------------------------------------------------------------------------------------------------------------------------------------------------------------------------------------------------------------------------------
---------------------------------------#------####--------------------#-------------oooo---------------------------------------------------------------------------------------------------------y----------------------------
---------------------------Q-----------#------####------Q---------#----#--------------------------------------------------------------------------------------------------------------------TT-?SSQQ--------------------------
---------------------------------------#-----#####----------------#----#--------------------------------------------------------------------------------------------------------------------TT--------------------------------
------------------------------------#--#--#--#####----------------##-#------------#---------------------------------------------------------------------------------------------------------TT--------------------------------
-M-----------y---------------y------#--#--#--##--#--------------#######-----------#--------y---------------------y---------------y-----------------------------y----------------------------TT---------------------y----------
XXXXXXXXXXXXXXXXXXXXXXXXXXXXXXXXXXXXXXXXXXXXXXXXXXXXXXXXXX--XXXXXXXXXXXXXXXXXXXXXXXXXXXXXXXXXXXXXXXXXXXXXXXXXXXXXXXXX---XXXXXXXXXX--XX--XX--XXXXXXXXXXXXXXXXXXXXXXXXXXXXX---XXXXXXXXXXXXXXXXXXXXXXXXXXXXXXXX--XXXXXXXXXXXXXX--
XXXXXXXXXXXXXXXXXXXXXXXXXXXXXXXXXXXXXXXXXXXXXXXXXXXXXXXXXX--XXXXXXXXXXXXXXXXXXXXXXXXXXXXXXXXXXXXXXXXXXXXXXXXXXXXXXXXX----XXXXXXXXX--XX--XX--XXXXXXXXXXXXXXXXXXXXXXXXXXXXX---XXXXXXXXXXXXXXXXXXXXXXXXXXX-XXXX--XXXXXXXXXXXXX---