----------------------------------------------------------------------------------------------------------------------------------------------------------------------------------------
----------------------------------------------------------------------------------------------------------------------------------------------------------------------------------------
----------------------------------------------------------------------------------------------------------------------------------------------------------------------------------------
----------------------------------------------------------------------------------------------------------------------------------------------------------------------------------------
----------------------------------------------------------------------------------------------------------------------------------------------------------------------------------------
--------------------------------------------##--------------------------------------------------##--------------------------------------------------------------------------------------
--------------------y----------------------###--------------------------------#----------------###-----------------------------###------------------------------------------------------
------------------#S-----------------------###-------------------------------###---------------###----SS---------------------###----------------------------------------SS--------------
-----------------##1-----------SSQ---------###----------------------------y--###------------y--###--------------------------##-----------------------------------------------------y----
-----------------###-----------------------###-------------------------------###------------#--###--------------------------#----#-----------------------------------------------y-S----
------------oo---###---------#-------------###-------------------------#########-----------#---###---###--SSC--------------------#--------------------------##-------------------#------
-----------------###--------##-----------#-###-----------------------#-#########----------####-###--####-----------------##-##---#------------------------####------------SSS---##------
-----------------###-------##---------y-######----------------------######-------------######--#-#--####-----S----------###-##-------------------------y-#####------------------##------
-M---------------###------##-#----XX---#######-------y-----y-------####---------------######-----#---###--------------#####-##------------------------######------SSS-----------##------
XXXXXXXXXXXXXXXXXXXXXXXXXXXXXX----XXXXXXXXXXXXX-X---XXXXXXXXXXXXXXXXXX----------XXXXXXXXXX-----XXX--XXXX------XXXXXXXXXX---X----XXXXXXXXXXXXXXXXXXXXXXXXXX---------X--XXXXXXXXXXXX--XX--
XXXXXXXXXXXXXXXXXXXXXXXXXXXXXX----XXXXXXXXXXXXXXX---XXXXXXXXXXXXXXXXXX----------XXXXXXXXXXX----XXX--XXXX-----XXXXXXXXXXX----XX-XXXXXXXXXXXXXXXXXXXXXXXXXXX---------X--XXXXXXXXXXXX--XX--