----------------------------------------------------------------------------------------------------------------------------------------------------------------------------------------------------------------------
----------------------------------------------------------------------------------------------------------------------------------------------------------------------------------------------------------------------
----------------------------------------------------------------------------------------------------------------------------------------------------------------------------------------------------------------------
----------------------------------------------------------------------------------------------------------------------------------------------------------------------------------------------------------------------
------------------------------------------------------------------------------------------------------------S---------------------------------------------------------------------------------------------------------
----------------------------------------------------------------------------------------------------------------------------------------------------------------------------------------------------------------------
----------------------------------------------------------------SS--------------------------TT------------------------------------------------------------------------------------------------------T---------SS------
--------------------------------------------------------------------------------------------TT------------------------------------------------------------------------------------------------------TT----------------
--------------------------------------------------------S-----------------------------------XX--------TT---------------------SS-------------------------------------------------TT------------------XXS---------------
---------------------------------------------T--------------------------------------------------------TT------------------------------------------------##----------------------TX------------------------------------
--------------------T------------------tt---TT------TT---------------S--------tt-------T-------T------TT--------------------------------tt--TT---------##---------------TT----S-X-------------------------------------
--------------------TT---T--------TT---t----TT------TT------------------------t-----#-TT------TT------TT----TT----------TT--------------tt--TT-------#------------------TT------------------------TT------T-----------
----------------TT--TT---TT-----TTTT--tt--TTT------TTT----tt------------TT-T-----T--#---TT----TT------TT----TT----------TT--------------tt--TT-----###--#-------TT------TT--------------------TT--TT------------------
-M--------------TT--TT---TT-----TTT----t--TT-------TTT----tt------------TT-T-----T--#---TT----TT------TT----TT----------TT--------------tk--TT----####-##-------TT------TT--------------------TT--TT---------k--------
XXXXXXXXXXXXXXXXXXXXXXXXXXXXXXXXXXXXXXXXXXXXXXXXXXXXXXXXXXXXXXXXXXXXXXXXXXXXXXXXXXXXXXXXXXXXXXXXXXXXXXXXXXXXXXXXXXXXXXXXXXXXXXXXXX--XXXXXXXXXXXXXXXXXXXXXXXXXXXXXXXXXXXXXXXXXXXXXXXXXXXXXXXXXXXXXXXXXXXXXXXXXXXXXX----
XXXXXXXXXXXXXXXXXXXXXXXXXXXXXXXXXXXXXXXXXXXXXXXXXXXXXXXXXXXXXXX-XXXXXXXXXXXXXXXXXXXXXXXXXXXXXXXXXXXXXXXXXXXXXXXXXXXXXXXXXXXXXXXXXX--XXXXXXXXXXXXXXXXXXXXXXXXXXXXXXXXXXXXXXXXXXXXXXXXXXXXXXXXXXXXXXXXXXXXXXXXXXXXXX----