-----------------------------------------------------------------------------------------------------------------------------------------------------
-----------------------------------------------------------------------------------------------------------------------------------------------------
-----------------------------------------------------------------------------------------------------------------------------------------------------
---------------------------------------------o-------------------------------------------------------------------------------------------------------
------------------------------------------%%%%%------------------------------------------------------------------------------------------------------
-------------------------------------------|||-----------o-------------------S-------------------------o-------o-----------------------%%%-----------
------M-----------------------%%%----------|||-----------%%--------------------------------------o-------------------------SS-----------|------------
------SS-----o---|-----------o--------%SS--|||-----------|------------------------SSS----------o------SSS--o----SSSSSSSS----------------|------------
----------------||------%%%-%%%-%%%%%--|---|||-----S-----|------o-------------------------%%%-------------------------------------------|---%%%%-----
----------SS----||-------|---||-|-||---|---|||-----SSS---|------SSS------------S-----------|----------------------------------SSSSSS---------||------
----------------||-------|---||-|-||---|---|||-----------|-----------------------o----%%%--|-------------------------------------------------||------
----------------||-------|--|||-|-||---|-r-||%%%%%%------|-----------------------------%%%-|-------------------------------------------------||------
----------------||---%%%%%%%|%%%%%||--%%%%%||||-||-------|-----------------------------||--|----------------------%%%------------------------||------
-----------------|----|||||-|||||-||---|||-||||-||-------|-r---|-------------------%%%-||--|----------------%%%%%%%|-------------------------||----o-
-----------XXXXXXX----||||--|||||-|%%%%%|||||||%%%%%--%%%%%%%-%|----XXXXXXXXXX------|-|||--|--------------------||-|-------------XXXXX-------|-----X%
-----------XXXXXXX----|||||-|||||-|||||||||||||-|||----|||||---|-----XXXXXXXXX------|--||-||--------------------||-|-------------XXXXX-------------X-