-------------------------------------------------------------------------------------------------------------------------------------------------------------------------------------------
-------------------------------------------------------------------------------------------------------------------------------------------------------------------------------------------
-------------------------------------------------------------------------------------------------------------------------------------------------------------------------------------------
S--SSSSSSSSSSSSSSSSSSSSSSSSSSSSSSSSSS--------SSSSSSSSSSSSSSSSSSSSSSSSSSSSSSSSSSSSSSSSSSSSSSSSSSSSSSSSSSSSSSSSSSSSSSSSSSSSSSSSSSSSSSSSSSSSSSSSSSSSSSSSSSSSSSSSSSSSSSSSSSSSSSSSSSSSSSSSSSSSSS
S-----------S-SSSSSS---------SSSSS------------SS---------------------------------------------SSSSSSSSSSSSSSSSSSSSSSSSSSSSSSSSSSSSSSSS------------------------------------------------------
S-----------SSSSSSSS----------SSSS------------SS---------------------------------------------SSSSSSSSSSSSSSSSSSSSSSSSSSSSSSSSSSSSSSSSS-----------------------------------------------------
S-----------SSSSSSSSS-----SSSSSSSSS-TT--------SS-SS---------------------SS----SS---------------SSSSSSSSSSSSSSS-SSSSSSSSSSSSSSSSSSSSSSS-----------------------------------------------------
S-----------------------------------TT-----------------------------------------------------------------------------------------------------------------------------------------------------
S-----------S---------S-------------TT---S-----------------------------------------------------------------------------SS--------------------------------------TT--------------------------
S----------------oooo---------------TT---------------------------------------------------------------------------S---------------------------------------------TT--------------------------
S-TT--S---------S---------SSS----SSSTT----------SSSSSS---SSS------------------SS-----------#-------SSSSSSSSSSSSSSSSS-----SSSSSSSSSSSS-----QQS---------#--SSSS--TT-------SSSSSSS------------
S-S------------------------------SS-TT-----------SSSSS------------------------------------##-----------SSSSSSSSSSSS-------SSSSSSSSS------------TT----##--------TT--St---SSSSSSS------------
S-S----------SSSSS--------------SSS-TT-----------SSSSS----------#-----------------------#-#S-----------SSSSSSSSSSS--------SSSSSSSSSSS----------TT----##--------TT---t---SSSSSSSSS----------
SM-T--------------------------kk-S--TT------------------------S##----------------------##--S----------SSSSSSSS#-----------SSSSSSSSS-----------kTT--k-##--------TT--kt---SSSSSSSS---------S-
XXXX-XXXXX-------XXXXXXXXXXXXXXXXXXXXX---X-----XXXXXXXXXXXXXXXXXXXXXXXXXX-XXXXXXXXXXXXXXXXXXXXXXXXXXXXXXXXXXXXX---XXXXXXXXXXXXXXXXXXX--XXXXXXXXXXXXXXXXXXXXXXXXXXXXXXXXXXXXXXXXXXXXXX------
XXXX--XXXX-------XXXXXXXXXXXXXXXXXXXXXX--X-----XXXXXXXXXXXXXXXXXXXXXXXXXX--XXXXXXXXXXXXXXXXXXXXXXXXXXXXXXXXXXXX----XXXXXXXXXXXXXXXXXX--XXXXXXXXXXXXXXXXXXXXXXXXXXXXXXXXXXXXXXXXXXXXXX------