--------------------------------------------------------------------------------------------------------------------------------------------------------------------------------
--------------------------------------------------------------------------------------------------------------------------------------------------------------------------------
--------------------------------------------------------------------------------------------------------------------------------------------------------------------------------
--------------------------------------------------------------------------------------------------------------------------------------------------------------------------------
--------------------------------------------------------------------------------------------------------------------------------------------------------------------------------
--------------------------------------------------------------------------------------------------------------------------------------------------------------------------------
-------------------------------------------------------------------SSS----------------------------------------------------------------------SSSS--------------------------------
-----------------------------------------------------------------------------------------------------------K--------------------------------------------------------------------
-------------------------------------------S-------------------------------------------------------------------------SS---------------------------------------------------------
--------------------------------------------------------------------------------------------------------------------U----------------------*------------------------------------
------------------------------------------------------TT------SSS---------QQ----------------------------SSS------------------------SSS-SSSS#SSS--S------------------------------
---------------------*--------------T-----------------TT-----------*-----------*------T-------------------------------------------------------------------T-----------TT--------
---*-----------------*-------*-----TT--------------------*---------*------T----*-------------------*------------------------TT----------------------------T-----------TT--------
-M-*-----------------*-------*------T--------------------*---------*T-----T----B-----#-------------*------------------------TT----------------------------T--k--------TT--------
XXXXXXXXXXXXXXXXXXXXXXXXXXXXXXXXXXXXXXXXXXXXXXXXXXXXXXXXXXXXXXXXXXXXXXXXXXXXXXXXXXXXXXXXXXXXXXXXXXXXXXXXXXXXXXXXXXXXXXXXXXXXXXXXXXXXXXXXXXXXXXXXXXXXXXXXXXXXXXXXXXXXXXXXXXXXXXXX
XXXXXXXXXXXXXXXXXXXXXXXXXXXXXXXXXXXXXXXXXXXXXXXXXXXXXXXXXXXXXXXXXXXXXXXXXXXXXXXXXXXXXXXXXXXXXXXXXXXXXXXXXXXXXXXXXXXXXXXXXXXXXXXXXXXXXXXXXXXXXXXXXXXXXXXXXXXXXXXXXXXXXXXXXXXXXXXX