-------------------------------------------------------------------------------------------------------------------------------------------------------------------------------------------------------------------------------------------------------------------------------------------------------------------------------------------------------------------------------------
-------------------------------------------------------------------------------------------------------------------------------------------------------------------------------------------------------------------------------------------------------------------------------------------------------------------------------------------------------------------------------------
-------------------------------------------------------------------------------------------------------------------------------------------------------------------------------------------------------------------------------------------------------------------------------------------------------------------------------------------------------------------------------------
-------------------------------------------------------------------------------------------------------------------------------------------------------------------------------------------------------------------------------------------------------------------------------------------------------------------------------------------------------------------------------------
-------------------------------------------------------------------------------------------------------------------------------------------------------------------------------------------------------------------------------------------------------------------------------------------------------------------------------------------------------------------------------------
---------------------------------------------------------------------------------------------------------------------------------------------------------------------------------------------------------------------------------------------------------------------------------------------------------------------------------------------------------------------tt--------------
------------------------------------------oooo---------------------------------------------------------------------------------------------------------------------------SSCS----------------------------------------------------------------------------------------------------------------------------------------------------------------------------------------ttSSSSSS--------
-------------------------------------------------------------------------------------------------------------------------------------------------------------------------------------------------------------------------------------------------------------------------------------------------------------------------------------------------------------------------------------
-------------------------------------------------------------------------------------------------------SS----------------------------------------------------------------------------------------------------------------------------------------------------------------------------------------------------------------------------------------------------------------------------
------o---------o----------------------------------------------------------------------------------------------------------------------------------------------------------o---------------------------------------------------------------------------------------------------------------------------------------------------------------------------------------------------------
---------------------------T-------------------------------------------T------------------------------------------------T--------------------------------T-------------o--------------------------TT-------TT-----T----------------------------TT----TTT---tt------------------------------------------------------------------------------------------------------------oo-------T--
--------------------------TT-------------T----TT----------------------TT--------------------------------------------------------------------------------TT----------------------------------------TT-------TT----------------------------------TT----TTT------------TT------------------------------------------------------------------------------------------------------------T--
--------------------------TT------------TT----TT----------------------TT-------#---------------------------------------TT-------------------------------TT----------------------------------------TT---------------T-------------------#-------T-----TTT----#-------T----------------------------T----------------------#---------------------------------------------------------T--
-M------t-------------ggg-TT------------TT--ttTT----k-k---ggg-----gg--TT-------#-#-#-###--------------------------k-k--TT-----ggg---------k-------------TT----------------------------------------TT--------------T--------------------#-------T-----TT-------------T---k---------k----kk--------T----------ggg--ggg----#-kk---------------kkk-------gg--kk---k------kk----------TT--
XXXXXX--XXXXX-XX--XXXXXXXXXXXXXXXXXXXXXXXXXXXXXXXXXXXXXXXXXXXXXXXXXXXXXXXXXXXXXX-X-X-XXXXXXXXXXXXXXXXXX---XXXXXXXXXXXXXXXXXXXXXXXXXXXXXXXXXXXXXXXXXXXXXX-X--X-XXXXXX--X-X----XXXXXXXXXXXX-XXX-X-XXXXXXXXXXXXXXXXXXXXXXXXXXXXXX----XXXXXXXXX-X-XXXXXXXXXXX-X-XXXXXXXXXXXXXXXXXXXXXXXXXXXXXXXXXXXXXXXXXXXXXXXXXXXXXXXXXXXXXXXXXXXXXXXXXXXXXXXXXXXXXXXXXXXXXXXXXXXXXXXXXXXXXXXXXXXXXXXXX
XXXXXX--XXXXXXXX--XXXXXXXXXXXXXXXXXXXXXXXXXXXXXXXXXXXXXXXXXXXXXXXXXXXXXXXXXXXXXXXXXXXXXXXXXXXXXXXXXXXXX---XXXXXXXXXXXXXXXXXXXXXXXXXXXXXXXXXXXXXXXXXXXXXXXX--X-XXXXXX--X-X----XXXXXXXXXXXX-XXXXX-XXXXXXXXXXXXXXXXXXXXXXXXXXXXXX----XXXXXXXXXXXXXXXXXXXXXXX-X-XXXXXXXXXXXXXXXXXXXXXXXXXXXXXXXXXXXXXXXXXXXXXXXXXXXXXXXXXXXXXXXXXXXXXXXXXXXXXXXXXXXXXXXXXXXXXXXXXXXXXXXXXXXXXXXXXXXXXXXXX