------------------------------------------------------------------------------------------------------------------------------------------------------------------------------------------------------------------------------
------------------------------------------------------------------------------------------------------------------------------------------------------------------------------------------------------------------------------
------------------------------------------------------------------------------------------------------------------------------------------------------------------------------------------------------------------------------
------------------------------------------------------------------------------------------------------------------------------------------------------------------------------------------------------------------------------
------------------------------------------------------------------------------------------------------------------------------------------------------------------------------------------------------------------------------
------------------------------------------------------------------------------------------------------------------------------------------------------------------------------------------------------------------------------
----------------------------------------------------------------------------------------------------------------------11------------------------------------------------------------------------------------------------------
-------------------------------y#------------ooo--------------------------------------------------oo-------------------------------------------------------------------------o------------------------------------------------
------------------------------####--------------------------------------------------------------------------------------------------------------------------------------------------------------------------------------------
-----------------------------#####--------------------------------------------------------------------------------------------------------------------------------------------------------------------------------------------
----------------------------######--------TT----------------------------------------QQQ--------QQ-----------------------T-------------------------Q---Q------------------T--------------------------TT------------------------
--------------------------########--TT----TT----------------------------------------------------------------------------TT----------------oo-----------------------------TT-------------------------TT------------------------
--------------------------########--TT----TT----------------------------------------------------------------------------TT-----------------------------------------------TT---------------------------------------------------
-M-----------------------#########--TT----TT-----y--------#------------y---y---------y----------------------------------TT-------------------------------y---------y-----TT------y---y---------y------------------------------
XXXXXXXXXXXXXXXXXXXXXXXXXXXXXXXXXXXXXXXXXXXXXXXXXXXXXXXXXXXXXXXXXXXXXXXXXXXXXXXXXXXXXXXXXXXXX---XXX--XX-----XX--XXXXXXXXXXXXXXXXXXXXXXXX--XXXXXX--XXXXXXXXXXX-XXXXXXXXXXXXXXXXXXXXXXXXXXXXXXXXXXXXXXXXXXXXXXXXXXXXXXXXXXXXXXXX
XXXXXXXXXXXXXXXXXXXXXXXXXXXXXXXXXXXXXXXXXXXXXXXXXXXXXXXXXXXXXXXXXXXXXXXXXXXXXXXXXXXXXXXXXXXXX---XXX--XX-----XX--XXXXXXXXXXXXXXXXXXXXXXXX--XXXXXX--XXXXXXXXXXX-XXXXXXXXXXXXXXXXXXXXXXXXXXXXXXXXXXXXXXXXXXXXXXXXXXXXXXXXXXXXXXXX