------------------------------------------------------------------------------------------------------------------------------------------------------
------------------------------------------------------------------------------------------------------------------------------------------------------
------------------------------------------------------------------------------------------------------------------------------------------------------
------------------------------------------------------------------------------------------------------------------------------------------------------
---------------------------------g-------------------------------------------------##-----------------------------------------------------------------
-----------------------------%%%%%%-------------------------o%%%%---o--------------###------oo-------%%%%-----------------------------------------oo--
----------%%------------------||||-----------------------%%%%%||-----------------######---------------||----------------------------------------------
-----Moo%%%%------------------||||------------oo---------||||--------------------#####----oo-----------|----------------------------------------------
-----%%%|||----%%%%%%--%%%%---|||-----------------------||||-----------------g-#######-----------------|---------------------------%%%----------------
------||||||----||||----||-----||-----------------------||||-------------%%%%%%-######----------------------------------------------|-----------------
------||||||----||||----||----|------------######--%%%%-||||--------------||||-#######-----SSS----SS-------------------%%%%%%%%-----|-----------------
------||||||----||||----||-----------------######---||--||||--------------||||--######----------------------------------||--||------------------------
------||||||----||||----||----------------#######---||--||||-----%%%------||||--####------------------------------------||--||------------------------
------||||||----||||%%--||----------------#######---||--||||------||------||||---###------------oo--%%%%%-----------oo--||--||---------------------#--
------||||||----||||-|--||------%%%%%%---XXXXXXXXXX-||--||||---%%-||------||||--XXXXXXXXXXXX%%%%%%-----|------------%%%-||--||------%%---XX%%XXXXXXXXX
------||||||----|||--|--||-------%%%|-----XXXXXXXXX-||--||||------||------||||---XXXXXXXX-%%---%|------|-------------|--||--||------|-----X-|-X-XXXXXX