------------------------------------------------------------------------------------------------------------------------------------------------------
------------------------------------------------------------------------------------------------------------------------------------------------------
------------------------------------------------------------------------------------------------------------------------------------------------------
------------------------------------------------------------------------------------------------------------------------------------------------------
-----------------------------------------------------------------------------------------|-|----------------------------------------------------------
------oo------%%%%--------------------oo---------o-------------------------------------%%%%%%-----------oo-------oo-------oo--------------------------
-------------%%||------%%%%%%---------------------------------------------------SS------||||-----##%%%-------------------------SS-----------%%%%%%%---
--------------||--------||||------------------------------------------------------------||-------####-----------------------------------------||||----
--------------||------%-||||-----------------%%%%%%%%--%%%%-----o-----------------------||----#######-----------------------------------------||||----
-----Moo------||-------|||||------------------||||||----||------------------------------||---#########----------oo%%--------------------%%%%%-||||----
-----%%%%--SS-||-------|||||-----%%%%--%%%%---||||||----||-----------------------%%%----||-###########--%%%%%%%%%%||-------------%%%%-----||--|%%%%---
------||------||-------|||||-|----||----||----||||||----||------------------------|-----||-##########-----||----||||--------------||------||--||||----
------||------||-%%%%--|||||||----||----||----||||||----||------------------------|-----||-##########-----||---|||||--------------||------||--||||----
------||------||--||---|||||||----||----||----||||||----||------------------------|------|-##########-----||--||||||--------------||------||--||||----
------||-------|--||----||||||----||----||----||||||----X|XX------%%%%-----%%%---%%%%--XXXXXXXXXXXXXXXX--|||--||||||--------%%--%-||----%-||--||||----
------||-------|--||----||||||----||----||----|||-||----X|XX----------------X-----||---XXXXXXXXXXXXXXXX--|||--||||||---------|----||------||--||||----