--------------------------------------------------------------------------------------------------------------------------------------------------------------------------------
--------------------------------------------------------------------------------------------------------------------------------------------------------------------------------
--------------------------------------------------------------------------------------------------------------------------------------------------------------------------------
--------------------------------------------------------------------------------------------------------------------------------------------------------------------U-----------
--------------------------------------------------------------------------------------------------------------------------------------------------------------------------------
---------------------------------------------------------------------------------K--------------------------K-------------------------------------------------------------K-----
---------------------------------------SSS---------------------------S----------SSSS------------------------------1-------------------------------------------------------------
--------------------------------------------------------------------------------------------------------------------------------------------------------------------------------
--------------------------------------------------------------------------------------------------------------------------------------------------------------------------------
--------------------------------------K--------S---------------------------------K----------------------------------------------------------------------------------------------
--------SS----------SS----------------SS-----S-#C----------SSS-S---------#------SSS#----------------------------------------------------------QQ--------------------------------
-------------------------K---*----------T--------------------------------#---#--------------------TT----TT-----------------*-----------------------*----------TT----------------
----#------------------------*-----*----T--------------------------------#---#--------------------TT----TT---------*-------*-------*----TT---------*----------TT-----*----------
-M--#------------------------*-k---*----TT-----------------------------------#--------------------TT----TT-------------------------*----TT---------*----------TT-----*----------
XXXXXXXXXXXXXXXXXXXXXXXXXXXXXXXXXXXXXXXXXXXXXXXXXXXXXXXXXXXXXXXXXXXXXXXXXXXXXXXXXXXXXXXXXXXXXXXXXXXXXXXXXXXXXXXXXXXXXXXXXXXXXXXXXXXXXXXXXXXXXXXXXXXXXXXXXX----XXXXXXXXXXXXXXXXXX
XXXXXXXXXXXXXXXXXXXXXXXXXXXXXXXXXXXXXXXXXXXXXXXXXXXXXXXXXXXXXXXXXXXXXXXXXXXXXXXXXXXXXXXXXXXXXXXXXXXXXXXXXXXXXXXXXXXXXXXXXXXXXXXXXXXXXXXXXXXXXXXXXXXXXXXXXX----XXXXXXXXXXXXXXXXXX