-------------------------------------------------------------------------------------------------------------------------------------------------------------------------------------------
-------------------------------------------------------------------------------------------------------------------------------------------------------------------------------------------
-------------------------------------------------------------------------------------------------------------------------------------------------------------------------------------------
S-SSSSSSSSSSSSSSSSSSSSSSSSSSSSSSSSSSSSSSSSSSSSSSSSSSS----SSSSSSSSSSSSSSSSSSSSSSSSSSSSSSS--------------SSSSSSSSSSSSSSSSSSSSSSSSSSSSS---SSSSSSSSSSSSSSSSSSS------------SSSSSSSSSSSSSSSSSSS---
S----------------SSS-------------------------------------------------------S-----------------------------------------------------------SSSSSSS-----------------------SSSSSSSSSSSSSSSSS-----
S--------------------------------------------------------------------------S----------------------------------------------------------SSSSSSSS-----------------------SSSSSSSSSSSSSSS-------
S--------------------------------------------------------------------------------------------------------------------------------------S-----------------------------S-SSSSSSSSSSSSS-------
S------------------------------------------------------------------------------------------------------------------------------------------------------------------------------------------
S------------------------------------------------------------------------------SS----------------------------------------------------SSSS---SSS--------------------------------------------
S---------------------------------------------------------------------------------------------------------------------------------------------------------------------------S--------------
S--------------------------------------------------------------------------------------T---TT-------------------SSS--Q-S-----------TT------------SS-------------------------SSSSSSS------SS
S-----TT---------------#----------##--TT---t---#----S---TT----t------------##---------TT---TT--##----------------------------------T---------------------------------------SSSSSSSS---#--SS
S-----TT--------------##---------###--TT---t---#--------TT---tt-----------####--------TT---#T--##--------t-------------------------TT--------------------------------------SSSSSSS---##--SS
SM-------------------##---------###---TT---t--k#--------TT----------------###--------kTT---##--##--------t---k---------------------T-----------------------------------St--SSSSSSSS--##--SS
XXXXXXXX---XXXXXXXXXXXXXXXXXXXXXX-XX--XXXXXXXXXXX-XXXXXXXXXXXXXXXX---XXXXXXXX----XXXXXXXX-XXX--XX----XXXXXXXXXXXXX-----------XXXX--XXXXXXXXXXXXXXXXXXXXXXXXXXXXXXXXXXXXXXXX--XXXXXXXXXXX-XX
XXXXXXX----XXXXXXXXXXXXXXXXXXXXXXXXX---XXXXXXXXXX-XXXXXXXXXXXXXXXX---XXXXXXX-----XXXXXXXX--XX--XX----XXXXXXXXXXXXX-----------XXXX--XXXXXXXXXXXXXXXXXXXXXXXXXXXXXXXXXXXXXXXX--XXXXXXXXXXX-XX