-----------------------------------------------------------------------------------------------------------------------------------------------------
-----------------------------------------------------------------------------------------------------------------------------------------------------
-----------------------------------------------------------------------------------------------------------------------------------------------------
-----------------------------------------------------------------------------------------------------------------------------------------------------
-------------------------------%---------------------------------------------------------------------------oo----------------------------------------
---------------------------------------------------------------------------o-----o------------------------%%%-----oo--o------------------------------
------------------o-------%%%-------------------------------SSS-----------%%%---%%%-----oSo----------------|-----%%%%%%%-----------------------------
-------------ooo-------o---|-----SSS-------------o---------------------|---|-----|---S-------------SS-SSS--||-----|--||----SSSSS-------SS------------
----------%%%%%%%-----%%%-||--------------------%%%-----%%%------------|---|-----|-------------------------||-----|--||------------------------------
-----------|-||--------|--||-----------SSS-------|-------|-----SSS-----|---|-SSS-|-------S-----SSS---------||----o|--||--S----------------S----o-----
----------||-|||-------|--||-----------|---------|-------|-------------|---|-----|-------------------------||-%-%%%--||--------------r---------------
----------||-||--------|--||-----------|------%%%%%%%%%%||-------------|---|----------------------------%%%%%%---|---||--------%%%%%%%%%%%%-%%%%%----
----------%%%%%%%------|--||-----------|-%%%%%||||||||||||-------------|---------------------------o-----|||||---|---||---------||||||||||---|||-----
-M--------||||||%%%%%%%|--||-----------|--|||-||||||||||||-------------|--------------------------%%%----|||||---|---||-----%%%-||||||||||---|||-----
XXXXXXXX%%%%|||||||||-||--||-%%%%%----%|--|||-||||||||||||-------------|---------------------------|-----|||||---|---||------|--|||||||||%%%-|||-----
XXXXXXXX|||||||||||||-||--||--|||------|--|||-||||||||||||-----------|-|---------------------------|-----|||||---|---||------|--||||||||||||-|||-----