------------------------------------------------------------------------------------------------------------------------------------------------------
------------------------------------------------------------------------------------------------------------------------------------------------------
------------------------------------------------------------------------------------------------------------S-----------------------------------------
------------------------------------------------------------------------------------------------------------------------------------------------------
-------g---------------------------------------------------------------------------------------------------------------------g------------------------
-----%%%%%-----------------------------------------%%%%%%------------------------------------------------------------------%%%%%%-----oo--oo------oo--
------||------------------SSSSS---------------------||||---------------------------------------------SSS-%%%%%%----%-g------||||-g----%%%%%%----------
------||--------------------------------------------||||------------oo-------------o----------------------||||----|%%%%-----||||%|----|||||-----------
------||--------------------------------------------||||--------------------------------------------------||||----||||---%%-||||||----||||||----------
------||%%------------------------------------------||||----------oo------------o---------------oo--------||||----||||-|--||||||||----||||||----------
------||||--S----S-%%%%%%%%--------------#---%%%----||||-----------------%%%---------------------%%-----%-||||%%%%||||||--||||||||----||||||-%%%%-----
------||||----------||||||---------------#----||----||||------------------S|----------------------|-----||||||||--||||||--||||||||----||||||--||------
------||||----------||||||---------------#----||-----|||------------------------------------------||----||||||||--||||||--||||||||----||||||--||------
-M----||||------%---||||||---------------#----||------||----oo------------------------------------||----||||||||--||||||--||||||||----||||||--||------
%%----||||---%%%%---||||||--------XXXXXXXXXXXXXXXXXXXXXXXXXX%%----%%%%---%%%%---%XXXXXXXX%--------||----||||||||-|||||||--||||||||-|--||||||--||---#XX
|-----||||-----|----||||||-------XXXXXXXXXXXXXXXXXXXXXXXXXX-|------||-----||-----%XXXXX-|---------||---|||||||||--||||||--||||||||||--||||||--||----XX