------------------------------------------------------------------------------------------------------------------------------------------------------
------------------------------------------------------------------------------------------------------------------------------------------------------
------------------------------------------------------------------------------------------------------------------------------------------------------
------------------------------------------------------------------------------------------------------------------------------------------------------
-------------------------------------------------------------------------------------------------------------------------------R-----------g--S-------
----------------------------------------------------------------------------------------o---------------oo---------------------R-------%%%%%----------
-----------------------------------SSSSS-------------------------------------------------SSS---------------------------SS----------------||-----------
-----%%%%----------------------------------------------------------------------------------------o------------------------SS-------------||-----------
------||----------%%%%%--------------------------------%%%%------------------------------------------------------------------------------%%%----------
------||----------||||--------------------------oooo----||----------------------------------------------S----------------------------%%%%-|-----------
------||---%%%%%%-||||---%%%%-------SSS%%%%%%%%%%%%%%----|-----------------SS---------SSSS---------------------------------------%%%--||--|-----------
------||----||||--||||----||-----------|||--||-|||||-------------------------------------------------%%%%-----------------------------||--|-----------
|-----||----||||--||||----||------------||--||-|||||---------------------------------------%%%--------|||%%%%-------------------%--|--||--|-----------
|M----||----||||--||||----||------------||--||||||||----------------------------------------|---------||||||--------------------|%%|--||||------------
XXXX--||----||||--||||--%-||------%%%%%%||%-||||||||---XXXXXXXXXXXXXXXXXXXX%%%--------------||%%%-----||||||-----%%%----%%%%%---||-|--||||------XXXXXX
|XXX--||----||||--||||----||-------%|||-||--||||||||---XXXXXXXXXXXXXXXX---%-|---------------||-|------||||||------|------|||----||-|--||||------XXXXXX