-----------------------------------------------------------------------------------------------------------------------------------------------------
-----------------------------------------------------------------------------------------------------------------------------------------------------
-----------------------------------------------------------------------------------------------------------------------------------------------------
---------------------------------------------------o-------------------------------------------------------------------------------------------------
----------------------------------------%%%--------------------------------------------------------------------%%------------------------------------
-----------SSS---------------------------|---------------------------------------------------------------------|-------------------------------------
-----------------------------------------|%%-------|----%%%----------------------------------------------------|-------------------------------------
----------------SSS--------------SSS-----||--------|-----|-----------------------------------------------------|--S------------o---RSSSSS---S--------
----------M-------------%%%-------------|||--------|-----|----------%%%------------o---------------------------|--------------%%%--------------------
----------SSSS--------------SSS---------|||---%%%%%%%----|-SS--------|-------------o-----o---------------------|---------------|--------------SSS----
-----|----------------------------------||%%%--|||-|-----|-----------|------------------------------------------------r--------|---------------------
-----|-------------------|------%%%%----|||||%%|||-|-----|-----------|------%%%%%%-|-%%%%%%%%%%%%%%%%%%%%%%%%-----%%%%%%%%%%%%%|------%%%%%%---------
-----|-------------------|-------||-----||||||||||-|-----------------|-------||-|%-|--||||||S%|||||-||||||||-------||||||||||||%%------|||-----------
-----|-------------------|----|--||-----|||||-||-|-|-------------------------||-||-|--|||||||||||||-||||||||-------||||||||||||||--%%%%|||-----------
----||---------------%%%%%%%--|--||----|||||||%%%%%%%%%%%------|%XXXXXXXXXX--||-||||%%|||||||||||||-||||||||-%%%---||||||||||||||---||-|||---------XX
----||-----------------|||-|--|--|-----|||||||||||||||||-------|XXXXXXXXXX---||-|-|||||||||||||||||---||||||--|----||||||||||||||---||-|||--------XXX