--------------------------------------------------------------------------------------------------------------------------------------------------------------
--------------------------------------------------------------------------------------------------------------------------------------------------------------
--------------------------------------------------------------------------------------------------------------------------------------------------------------
S--SSSSSSSSSSSSSSSSSSSSSSSSSSSSSSSSSSSSSSSSSSSSSSSSSSSSSSSSSSSSSSSSSSSSS---------SSSSSSSSSSSSSSSSSSSSSSSSSSSSSSSSSSSSSSSSSSSSSSSSSSSSSSSS---------------------
S---------------------SSS-------------------------------------------------------------------------------------------------------------------------------------
S---------------------SSS-------------------------------------------------------------------------------------------------------------------------------------
S-------------------------SSooo----------------So-----------------------------------------------------SS------------------------------------------------------
S--------------------------------------------S-S------------------------------------------------------SS------------------------------------------------------
S----------------------S--SSSSS--------------S-SSS----------------------------------------------------SS---SSS----------SS------------------------------------
S-----------------------------------------------------------------------------------------------------SS---SSS--------S-SS------------------------------------
S--------------------------------------SQ----------------#--------@QQ------###---------####-----SSS---SS----SS--------SSSS--SS------------------#####---------
S------------------------------------------------T-----#-#-#---------------#-#---------###------------SS---------#---#-----------------------#--##------------
S-----TT-----------------------------------------T-----#-#-#-------------#-#---------#-###------------SS-----g-#-#-#-#---------------------g-#-###------------
SM----TT-------------------------#---------g-#---T---g-#-#-#-------------#-#-#-------#-#-#-----T-------------#-#-#-#-#-S-------------------#-#-#-#-#----------
XXXXXXXXXXXXXX---X--XXXXXXXXXXXXXXXXXXXXXXXXXXXXXXXXXXXXXXXXXXXX--XXXXXXXXXXXXXXXXXXXXXXXXXXXXXXXXXXXXXXXXXXXXXXXXXXXXXXXXXXXXXXXXXXXXXXXXXXXXXXXXXXXXXXXXXXXX
XXXXXXXXXXXXXX--XX--XXXXXXXXXXXXXXXXXXXXXXXXXXXXXXXXXXXXXXXXXXXX--XXXXXXXXXXXXXXXXXXXXXXXXXXXXXXXXXXXXXXXXXXXXXXXXXXXXXXXXXXXXXXXXXXXXXXXXXXXXXXXXXXXXXXXXXXXX