------------------------------------------------------------------------------------------------------------------------------------------------------------------------------------------------------
------------------------------------------------------------------------------------------------------------------------------------------------------------------------------------------------------
------------------------------------------------------------------------------------------------------------------------------------------------------------------------------------------------------
------------------------------------------------------------------------------------------------------------------------------------------------------------------------------------------------------
------------------------------------------------------------------------------------------------------------------------------------------------------------------------------------------------------
------------------------------------------------------------------------------------------------------------------------------------------------------------------------------------------------------
------------------------------------------------------------------------------------------------------------------------------------TT------------------------##--#-----------------------------------
------------------------------------------------------------------------------------------------------------------------------------TT-------------------------#--#-----------------------------------
------------------------------------------------------------------------------------------------------------------------------------##------------------------##--------------------------------------
-------------------------------------------------------------------------------------------------------------------------------------------------------#------##--------------------------------------
--------------------------------------------------------------------#######---------------------------------------------------##--#---#----------------#------##--------------------------------------
------------------------------------------TT------------------------#---------------------------------------------------------##----------------------##---#--##--------------------------------------
------------------------------------------TT------------------------#--------*-------------*-------------------*-------------K##----------------------##---#--##-----T--------------------------------
-M------gg--------ggg-----------------k---TT-----------gg------gg---#--------*-----ggg-----*-------ggg---------*---ggg--------##-------------*------#g##---##-##-----T----gg------------------ggg-----
XXXXXXXXXXXXXXXXXXXXXXXXXXXXXXXXXXXXXXXXXXXXXXXXXXXXXXXXXXXXXXXXXXXXXXXXXX---XXXXXXXXXXXXXXXXXXXXXXXXXXXXXXXXXXXXXXXXXXXXXXXXXXXXXXXXX--XXXXXXXXXXXXXXXXXXXXXXXXXXXXXXXXXXXXXXXXXXXXXXXXXXXXXXXXXXXXXX
XXXXXXXXXXXXXXXXXXXXXXXXXXXXXXXXXXXXXXXXXXXXXXXXXXXXXXXXXXXXXXXXXXXXXXXXXX---XXXXXXXXXXXXXXXXXXXXXXXXXXXXXXXXXXXXXXXXXXXXXXXXXXXXXXXXX--XXXXXXXXXXXXXXXXXXXXXXXXXXXXXXXXXXXXXXXXXXXXXXXXXXXXXXXXXXXXXX