--------------------------------------------------------------------------------------------------------------------------------------------------------------
--------------------------------------------------------------------------------------------------------------------------------------------------------------
--------------------------------------------------------------------------------------------------------------------------------------------------------------
S---SSSSSSSSSSSSSSSSSSSSSSSSSSSSSSSSSSSSSSSSSSSSSSSSSSSSSSSSSSSSSSSSSSSSSSSSSSSSSSSSSSSSSSSSSSSSSSSSSSSSSSSSSSSSSSSSS----------SSSSSSSSSSS---SSSSSSSSSSSS-----
S------------S--SS----SS--SS--------------------------------------------------------------------------------SS------------------------------------------------
S------------S--SS----SS--SS--------------------------------------------------------------------------------SS------------------------------------------------
S-------SS------SS----SS--SS------------------------------------------------S------------------------------SSS------------------------------------oo----------
S-------SS---S---S----SS--SS------------------------------------------------SS-------------------------------------------------------------------------g------
S-------SS---S-S-S-S--SS--SS------------------------------------------------SS-----------------------------SSS------------------------------------SS--SS------
S-------SS---SSS-S-S--SS---S------------------------------------------------SS-----------------------------SoS------------------------------------------------
S-Q-----SS---SSSSSSSSSSS------------@QQ----------#-S-------------#----------------SS-----------------ST-----SS------------T-----------------------------------
S--------#-------------S-------------------#-#---#-S-------------#-#---------------S-------------------------------------TT-------------------SS-------#-#----
S----g-#-#--------------------S------------#-#---#-S-----------#-#-#-S----------------------------------------------------TT-------S-#--------SS-------#-#----
SM---#-#-#---------------S-----------------#---#-#-#-------g-g---T-----------------------g-----g-g-------g-kk--g-----g----T----S-g-#-#--------SS-----g-#------
XXXXXXXXXXXXXXXXXXXXXXXXXX-----XXXXXXXXXXX-XXXXXXXXXXXXXXXXXXXXXXXX-XXXXXXXXXXXXXXXXXXXXXXXXXXXXXXXXXXXXXXXXXXXXXXXXXXXXXXXXXXXXXX--XXX----X---X--XXXXXXXXXXXX
XXXXXXXXXXXXXXXXXXXXXXXXXX-----XXXXXXXXXXX-XXXXXXXXXXXXXXXXXXXXXXXXXXXXXXXXXXXXXXXXXXXXXXXXXXXXXXXXXXXXXXXXXXXXXXXXXXXXXXXXXXXXXXX--XXX---XX--XX--XXXXXXXXXXXX