----------------------------------------------------------------------------------------------------------------------------------------------------------------------------------------------------------
----------------------------------------------------------------------------------------------------------------------------------------------------------------------------------------------------------
----------------------------------------------------------------------------------------------------------------------------------------------------------------------------------------------------------
----------------------------------------------------------------------------------------------------------------------------------------------------------------------------------------------------------
----------------------------------------------------------------------------------------------------------------------------------------------------------------------------------------------------------
M---------------------------------------------------------------------------------------------------------------------------------------------------------------------------------------------------------
S-S-------!-------------SS----------------------!---------------------------------------------!--------------------------------S--------------------------------------------------------------------------
----------------------------------------------------------------------------------------------------------------------------------------------------------------------------------------------------------
------------------------------------------------------------------SS!S------!-----------------------------------------------------------------------------------------------------------------------------
---------------------------------------------------------------------------------------------------------------------------------------------------#---------------------------#--------------------------
----------------------#-----------!-------!-----S---------------!----------------------------------##---##----------------S-!----------##----------#--------tt-----S@S--------##--------------------------
---------------------###--------------------------------------------------------------------------###---###----#------------------------##-------t----------tt------------t--####-------------------------
--------------tt----###-------------------tt-----------t-----------------------------------------####---###----##---tt-------------------#------#t----------tt------------t-######------tt----------------
--------------tt----###---tt----g---------tt-----g-g---tt-------------------g-g-----------------#####---###----#----tt---------------#--###------t##--------tt-------g----t#######------tt----------------
--------XXXXXXXXXXXXXXXXXXXXXXXXXXXXXXXXXXXXXXXXXXXXXXXXXXXXXXXXXXXXXXXXXXXXXXXXXXXXXXXXXXXXXXXXXXXXX--XXXXXXXXXXXXXXXXXXXXXXXXXXXXXXXXXXXXXXXXXXXXXXXXXXXXXXXXXXXXXXXXXXXXXXXXXXXXXXXXXXXXXXXXXXXXXXXXXX-
--------XXXXXXXXXXXXXXXXXXXXXXXXXXXXXXXXXXXXXXXXXXXXXXXXXXXXXXXXXXXXXXXXXXXXXXXXXXXXXXXXXXXXXXXXXXXXX--XXXXXXXXXXXXXXXXXXXXXXXXXXXXXXXXXXXXXXXXXXXXXXXXXXXXXXXXXXXXXXXXXXXXXXXXXXXXXXXXXXXXXXXXXXXXXXXXXX-