----------------------------------------------------------------------------------------------------------------------------------------------------------------------------------------------------------------------
----------------------------------------------------------------------------------------------------------------------------------------------------------------------------------------------------------------------
----------------------------------------------------------------------------------------------------------------------------------------------------------------------------------------------------------------------
----------------------------------------------------------------------------------------------------------------------------------------------------------------------------------------------------------------------
----------------------------------------------------------------------------------------------------------------------------------------------------------------------------------------------------------------------
------------------##--------------------------------------------------------------------------------------------------------------------------------------------------------------------------------------------------
----S-----------###-------SSSS------------SS------------------TT----------------------------------------------------------ttTT-------------------SS---------------------S-------------------------------SSS-----------
--------------####--------------------------------------------TT----------------------------------------------------------t-------------------------------------------------------------------------------------------
-------------#####--------------------------------------------TT------------------------------------T------------------------------------------------------------------##-----------------------SS--------------------
------------##T###--------------------------------------------TT----------------------TT------------TT---------------------------------------#-----------------------#####--------------------------------------------
-----------T--T###---#----SS------TT------------------------SSXX------TT----SS---S---TTT------------TT--------------TT---SS--TTT---S--------##--SSS------SSSSS-----T-#####-------SSSSSSS------------------------------
----------TT-#T###----------------TT----------------------------------TT------------TT------TT--TT--TT--------------TT-------TT--------------#--------------------TT#####---------------------------------------------
--------TTTT-#TT##---#--------------------------TT--------------------TT------------TT------TT--TT--TT--------------TT-------TT-------TT-----#--------------------TT#####----------------TT----------------------tt---
-M------TTTT##TT##---#------------------T-------TT-------k-----------kTT----------T-TT------TT--TT--TT--------------TT------TTT-------TT---###--------------------TT-####---------------TT-T---------------------tt---
XXXXXXXXXXXXXXXXXXXXXXXXXXXXXXXXXXXXXXXXXXXXXXXXXXXXXXXXXXXXXXXXXXXXXXXXXXXXXXXXXXXXXXXXXXXXXXXXXXXXXXXXXXXXXX----XXXXXXXXXXXXXXXXXXXXXXXXXXXXXXXXXXXXXXXXXXXXXXXXXXXXXXXXXXXXXXXXXXXXXXXXXXXXXXXXXXXXXXXXXXXXXXXXXXX-
XXXXXXXXXXXXXXXXXXXXXXXXXXXXXXXXXXXXXXXXXXXXXXXXXXXXXXXXXXXXXXXXXXXXXXXXXXXXXXXXXXXXXXXXXXXXXXXXXXXXXXXXXXXXXX----XXXXXXXXXXXXXXXXXXXXXXXXXXXXXXXXXXXXXXXXXXXXXXXXXXXXXXXXXXXXXXXXXXXXXXXXXXXXXXXXXXXXXXXXXXXXXXXXXX-X