------------------------------------------------------------------------------------------------------------------------------------------------------
------------------------------------------------------------------------------------------------------------------------------------------------------
------------------------------------------------------------------------------------------------------------------------------------------------------
-----------------------------------------------------------------------------------------R------------------------------------------------------------
-----------------------------------------------------------------------g-------------------------------------g----------------------------------------
--------------------------------------oo----------------oo-----------%%%%%%%----o-----------------oo-----%%%%%%--%%%%%%---------oo------------oo------
------------------oo------S----------%%%%-----------------%%---%%%%---||||------%%%%%%--------------------||||----||||---------------%%%%--%----------
--------------------------------------||------------------------||----||||-------|||----------------------||||----||||----------%%----|||%%%----------
---------##-----------------S---------||----------------------|-||----||||-------|||----------------------||||----||||-------%%%||----||||||----------
---------##---------------------------||-------------------o----||----|||||o------||----%-%------------%%%%|||----||||--------||||----||||||----------
--------##---------------------SS---%-||---------%%----%%%%%%%--||----||%%%%%---%%||----||----%---------|||||-----||||-%%%%-%-||||----||||||----------
-------###----------------------------||--|-------------|||||---||----||||||----||||----||--------------|||||--o--||||||||----||||----||||||----------
-------###----------------------------||--|----%%%%%----|||||---||----||||||----||||----||--------------||||---%%%%|||||||----||||----|||||||---------
-M-----###----------------------------|||||-----|||-----||||||--||-o--||||||----||||--o-||--oo----------|||-----|--|||||||----||||----|||||||---------
XXXXXXXXXX------%%%%%%XXXXXXXXXXXXXXX-|||||-----||||----||||||--||----||||||----||||--%-||--%%%%%%-%%%%-||||----||-|||||||----||||----|||||||-----XXX-
XXXXXXXXXX-------%%%|-XXXXXXXXXXXXXXX-|||||-----||-|----||||||--||----||||||----|||-----||---|||----||--|||-----||--||||||----||||----||||||||----XXX-