-----------------------------------------------------------------------------------------------------------------------------------------------------
-----------------------------------------------------------------------------------------------------------------------------------------------------
-----------------------------------------------------------------------------------------------------------------------------------------------------
-----------------------------------------------------------------------------------------------------------------------------------------------------
-----------------------------------------------------------------------------------------------------------------------------------------------------
--------o--------------o-------o---------------------------------------------------------------------------------------------------------------------
-----------------------------%%%%-------%%%----------------------------------------------------------------------------------------------------------
------------------SS-----------|-o-------|------------SSS---------S---oo---o-----SS--------------------------------------------------SS--------------
-------------------------------|%%%---------------------%%%-----------%%%----------------------------------------------------------------------------
-------------S--o------SS%-----|-|-------|-SS--------o---|--S----------|-------------S------------------------------------SSSSS---------SS-----------
-------------------------------|-|-------|---------------|--------%----|---------------------------------------------------------%%%%%---------------
-------------------------------|-|------%%%%%%-------|---|---------|---|--------------------------------%%%%%%-----%%%%%%---------||||---------------
-------------------------------|-|-------||-|-------%%%%-|---------||%%%%--------------------------------||||-------||||----------||||---------------
-M------------o----------------|-|-------||-|--|-|---||--|-----o---|||||---------------------------------||||||%%%--|||-----------||||-------------o-
XXXX--------------------------%%%%%%%%%%-||-|--------||--|---%%%---||-||----------------------XXXXX----%-||||||||----||-----------||||------------%X%
XXXX------|--------------------||||||||--||-|----|---||-||----|----||-||----------------------X-XXX------||||||||----||-----------||||------------XXX