--------------------------------------------------------------------------------------------------------------------------------------------------------------------------------
--------------------------------------------------------------------------------------------------------------------------------------------------------------------------------
--------------------------------------------------------------------------------------------------------------------------------------------------------------------------------
--------------------------------------------------------------------------------------------------------------------------------------------------------------------------------
--------------------------------------------------------------------------------------------------------------------------------------------------------------------------------
--------------------------------------------------------------------------------------------------------------------------------------------------------------------------------
------------------------------SS------------------------------------------------------------------------------------------------------------------------------------------SS----
------------------------------------------------U-------------------------------------------------------------------------------------------------------------------------------
-------SS--------------------------------------------------#--------------------------------SSSS------------------------------------------------------------------------#-------
-------------------------------------------------------#---#-----------------------------------------------------------------*--------------------------------------#####-------
---------------------------------S-SS-----------------##---#--------------S-------------------------------QQQ-------------QQ-#CS------------------------------------#####SS--S--
-------K----------#----------------------------------##----#-------------------K---*---*-------------*-------------------------------------------------------------####---------
-----------------------*----------------------TT----####---#---------*-------------*---*-------------*------TT-----*-------------*----TT-----*----TT-----TT-------#####---------
-M-----------------------------*---------*----TT----####---#---------*-------------#---*-------------*------TT-----*-------------*----TT-----*----TT-----TT------######---------
XXXXXXXXXXXXXXXXXXXXXXXXXXXXXXXXXXXXXXXXXXXXXXXXXXXXXXXXXXXXXXXXXXXXXXXXXXXXXXXXXXXXXXXXXXXXXXXXXXXXXXXXXXXXXXXXXXXXXXXXXXXXXXXXXXXXXXXXXXXXXXXXXXXXXXXXXXXXXXXXXXXXXXXXXXXXXXXX
XXXXXXXXXXXXXXXXXXXXXXXXXXXXXXXXXXXXXXXXXXXXXXXXXXXXXXXXXXXXXXXXXXXXXXXXXXXXXXXXXXXXXXXXXXXXXXXXXXXXXXXXXXXXXXXXXXXXXXXXXXXXXXXXXXXXXXXXXXXXXXXXXXXXXXXXXXXXXXXXXXXXXXXXXXXXXXXX