---------------------------------------------------------------------------------------------------------------------------------------------------------------------
---------------------------------------------------------------------------------------------------------------------------------------------------------------------
---------------------------------------------------------------------------------------------------------------------------------------------------------------------
--------oo-----------------------------------------------------------------------------------------------------------------------------------------------------------
-----------------o---------------------------------------------------------------------------------------------------------------------------------------------------
----------------------SSSoo--------------------------oooo----------------------------------------------------------------------------------ooSSS%%ooo----------------
--------SSSS-------------S--------------------------SS--------------------SS-----S---------o-----o---SSSS------------------------------SSS---------------------------
---------------------------------------------------------------------------------------------------------------------------------------------------------------------
-----------------S---------------|---------------------SSS--------------------SSS----S---------------------------------SSSoo---------------SS---S--SSS---------------
-----------------S---------------|---------------------------------------------------SSS----------------------------------------------------------S------oo----------
---------------------S---%%%----S|-----------%%%%--------------%%%%%%%%-------------------SS----%%%%%---------%%%%%%%----S----%%%%---------------------SS-----%%%----
-------------------------||------|------------||----oo-----SS--|||||||---------------------------|||-----------||-||-----------|||-----------------------------||----
-------------------------||------|------------||---------------|-|||||---------------------------|||-----------||-||-----------|||-----------------------------||----
-M-----------------------||------|------------||---------------|-|||||---------------------------|||-----------||-||-----------|||-----------------------------||--X-
XX--%%%%%%%%%%-----------||-----XXXXXXXXXX----||-%%%%%%--------|-|||||-%%%%%---------------------|||-%%%-------||-||---------%%%||--%%%%%%%%%------------%%-%%%||---X
XX----||||-||------------||-----XXXXXXXXXX----||---|||---------|-|||||--|||----------------------|||-||--------||-||----------||||---|-|||||-------------------||--XX