--------------------------------------------------------------------------------------------------------------------------------------------------------------
--------------------------------------------------------------------------------------------------------------------------------------------------------------
--------------------------------------------------------------------------------------------------------------------------------------------------------------
S-SSSSSSSSSSSSSSSSSSSSSSSSSSSSSSSSSSSSSSSSSSSSSSSSSSSSSSSSSSSSSSSSSSSSSSSSSSSSSSSSSSSSSSSS----SSSSSSSSSSSSSSSSSSSSSSSSSSSSSSSSSSSSSSSSSSSSSSSSSSSSSSSS--------
------------------SS------SS------------SSSSSS---SSSSSSSSSSS-SSS---SSS--SSS---SSSS----------------------------------------------------------------------------
-----------------SSS------SS------------SSSSSS---SSSSSSSS-SS-SSS---SSS--SSSS--SSSS----------------------------------------------------------------------------
----------------SSSSSS----S--------SSSS-------------------SS--SS----SS---S-----S-S---------------------S------------SS----------o-------------SS--SSSS--------
-----------------S-S-S----S--S--------------S------SSg----SS--SS----SS--SS----SS---------------------------S--------SS----------S-----------------------------
S------------------S-S-------S------------S-S-------SSSS--SS--------SS-SSSSS--SS---------------------------S--------SSSS--SS----SSS---SS----SS----------------
S------------------S-S--oooSSS--SS--------SSSS-------------S-S-----SSS--SSSS--SS-----------------------SoooS--------SSSS--SSSS--S-S--------SSS----------------
S-----------Q-----------SSSS--------------SSSS-------------SSSS---SSSS--------SS--QQ-------QQ----S-----SSSSSS-------SSSSSSSSSS-------------SSS----------------
S-------TT--------------------------------------------------------------------------------------------------S---------SS--------------------SS----------------
S-------TT--------------------------TT---------------------------------------------T----------------------------SS----SS--------------------SS----------------
SM------TT-----T------------kkS--g--TT--------------------------------kk----------TT---g-----g-g--------------------------------------------------------------
XXXXXXXXXXXXXXXXXXXXXXXXXXXXXXXXXXXXXXXXXXXXXXXXXXXXXXXXXXXXXXXXXXXXXX--XXXXXXXXXXXXXXXXXXXXXXXXXXXXXXXXXXXX----------XXXXXXXXXXXXXXXXXXXXXXXX--XXXXXXXXXXXX--
XXXXXXXXXXXXXXXXXXXXXXXXXXXXXXXXXXXXXXXXXXXXXXXXXXXXXXXXXXXXXXXXXXXXXX--XXXXXXXXXXXXXXXXXXXXXXXXXXXXXXXXXXXX----------XXXXXXXXXXXXXXXXXXXXXXXX--XXXXXXXXXXXX--