-----------------------------------------------------------------------------------------------------------------------------------------------------------------------------------------------------
-----------------------------------------------------------------------------------------------------------------------------------------------------------------------------------------------------
-----------------------------------------------------------------------------------------------------------------------------------------------------------------------------------------------------
-----------------------------------------------------------------------------------------------------------------------------------------------------------------------------------------------------
-----------------------------------------------------------------------------------------------------------------------------------------------------------------------------------------------------
-----------------------------------------------------------------------------------------------------------------------------------------------------------------------------------------------------
------------QQQQQQ-----------------------------------------------------S---------------------------------------------------------S-------------------------------QQQQ--------------------------------
-----------------------------------------------------------------------------------------------------------------------------------------------------------------------------------------------------
--------------------------------------SS-------------------------g-------------------S---------------------------------------------------------------------##----------------------------------------
-----------------------------------------------------------------#-----------------------------------------------------------------------------------------##--------------------------g-------------
---------Q------QQQ-----------------------TT---------TT---------##------------------------S----T-------SSSSS---Q-----T-------------------------------------##----------QQ----TT--------TT------------
------------------------------------------TT---------TT---------##-----------------------------T---------------------T-----------------TT------------------##----------------TT--------TT------------
------------------------------------------TT---------TT--------###-----------------------------TT--------------------T-----------------TT--------------t---##----------------TT--------TT------------
---M-----K-------------g----------ggggk---TT---------TT-------####-------------------------k---TT--t---------k-------TT----k---k-ggg---TT--gg----------tt--##----------------TT--------TT------------
---XXXXXXXXXXXXXXXXXXXXXXXXXXXXXXXXXXXXX---XXXXXXXXX-TT---XXXXXXXXXXX-XXXXXXXXXXXXXXXXXXXXXXXXXXXXXXXXXXXXXXXXXXXXXXXXXXXXXXXXXXXXXXXXXXXXXXXXXXXXXXXXXXXXXXXXXXXXXXXXXXXXXXXXXXXXXXXXXXXXXXXXXXXXX--
---XXXXXXXXXXXXXXXXXXXXXXXXXXXXXXXXXXXXX---XXXXXXXXX-T----XXXXXXXXXXX-XXXXXXXXXXXXXXXXXXXXXXXXXXXXXXXXXXXXXXXXXXXXXXXXXXXXXXXXXXXXXXXXXXXXXXXXXXXXXXXXXXXXXXXXXXXXXXXXXXXXXXXXXXXXXXXXXXXXXXXXXXXXX--