----------------------------------------------------------------------------------------------------------------------------------------------------------------------------------------------------------------------
----------------------------------------------------------------------------------------------------------------------------------------------------------------------------------------------------------------------
----------------------------------------------------------------------------------------------------------------------------------------------------------------------------------------------------------------------
----------------------------------------------------------------------------------------------------------------------------------------------------------------------------------------------------------------------
------------------------------------------------------------------------------------------------------------------------------------------------SS--------------------------------------------------------------------
----------------------------------------------------------------------------------------------------------------------------------------------------------------------------------------------------------------------
--------------------------------TT--------S-------TT------------------------S---------------SS-----------------##---------------------------------------------------------TT----S---SSS-------------------------------
--------------------------------TT----------------TT----------------------------------------------------------###---------------------------------------------T-----------TT----------------------TT------------------
--------------------------------------------------XX---------------------------------------------------------#####-----------------SS-----SSSSS---------------TT----------X-----------------------TT------------------
---------------------------#--#------------------------------------------------------------------------------#####--------------------------------------------TT------TT--------------------------TT------------------
----------SSS------tt-----#-----------------------------TT-------------------------------------tt-----------######----SS---------------S----------TT--SS------TT------XX-S------------------------XX------TT-----SSS--
-------------------t------------------------------TT----TT-------T----TT-----------------------tt-TT-------#######----------TT--------------------TT--------#-TT------------------------------------------TT----------
------------------------#-##--##--TT------TT------TT--TTTT-------T----TT--------------TT-------tt-TT------########----------TT--------------TT----TT------------------------------------------------------TT----------
--M--------------T-----T####--##--TT------TT------TT--TTTT-----k-T----TT--------------TT-------tt-TT-----#-#######----------TT--------------TT-k--TT-----T----------------------------------------------k-TT----------
X-XXXXXXXXXXXXXXXXXXXXXXXXXXXXXXXXXXXXXXXXXXXXXXXXXXXXXXXXXXXXXXXXXXXXXXXXXX--XXXXXXXXXXXXXXXXXXXXXXXXXXXXXXXXXXXXXXXXXXXXXXXXXXXXXXXXXXXXXXXXXXXXXXXXXXXXXXXXXXXXXXXXXXXXXXXXXXXXXXXXXXXXXXXXXXXXXXXXXXXXXXXXXXXXXX--
X-XXXXXXXXXXXXXXXXXXXXXXXXXXXXXXXXXXXXXXXXXXXXXXXXXXXXXXXXXXXXXXXXXXXXXXXXXX--XXXXXXXXXXXXXXXXXXXXXXXXXXXXXXXXXXXXXXXXXXXXXXXXXXXXXXXXXXXXXXXXXXXXXXXXXXXXXXXXXXXXXXXXXXXXXXXXXXXXXXXXXXXXXXXXXXXXXXXXXXXXXXXXXXXXXX-X