--------------------------------------------------------------------------------------------------------------------------------------------------------------
--------------------------------------------------------------------------------------------------------------------------------------------------------------
M-------------------------------------------------------------------------------------------------------------------------------------------------------------
S-----SS--SSSSSSSSSSSSSSSSSSSSSSSSSSSSSSSSSSSSSSSSSSSSSSSSSSSSSSSSSSSSSSSSSSSSSSSSSSSSSSSSSSSSSSSSSSSSSSSSSSSSSSSSSSSSSSSSSS-------------SSSSSSSSSSSSSSS------
S-----SS--------------------------------------------------SS------------------------SS------------------------------------------------------------------------
S-----SS--------------------------------------------------SS------------------------SS------------------------------------------------------------------------
S----SSS-ooo------SS----------------------------------------------------------------SS-oooSS------------SSS---------------------------------------------------
S-----------------------------------------------------------------------------------S--S--SS------------------------------------------------------------------
S-----SSSSSS-------------------------------------------------------o-----------S----S-SSS-SSSS-----S-------S--------------------------------------------------
S-----SSSSSS-------------------------------------------------------S----------SSoS--SSSS-SSSS------SoS---S-SS-------------------------------------------------
S---------SS-----#-#--------------------------------------------SSSS----------SSSS--SSSS-SSS-------SSS--SSSSSSQQQ------#-#-#-----#-#--------------------------
S----------------#-#-------------------------#-#-------------------------#----------SS---------------------------------#-#-#-----#-#----------------TT--------
S----------------#-#-----------------------#-#-#-----------------------#-#--------------------TT---------------------#-#-#-#-#-----T----------T-----TT--------
S--------------#-#-###-------------------#-#-#-#--------------------Sg-#-#--------------------TT-----S------------g#-#-#-#-#-#-----T---------TT-----TT--------
S---XXXXXXXXXXXXXXXXXX--XXXXXXXXXXXXXXXXXXXXXXXXXXXXXXXXXXXXXXXXXXXXXXXXXXXX--XX--------XXXXXXXXXXXXXX--XX--XXXXXXXXXXXXXXXXXXXXXXXXXXXXXXXXXXXXXXXXXXXXXXXXXX
S---XXXXXXXXXXXXXXXXXX--XXXXXXXXXXXXXXXXXXXXXXXXXXXXXXXXXXXXXXXXXXXXXXXXXXXX--XX-------XXXXXXXXXXXXXXX--XX--XXXXXXXXXXXXXXXXXXXXXXXXXXXXXXXXXXXXXXXXXXXXXXXXXX