-----------------------------------------------------------------------------------------------------------------------------------------------------
-----------------------------------------------------------------------------------------------------------------------------------------------------
-----------------------------------------------------------------------------------------------------------------------------------------------------
-------------------------------o---------------------------------------------------------------------------------------------------o-----------------
-----------------------------%%%%%%%%--------------o-------------------------------------------------------------------------------------------------
-------------------o----------||--||---------o----%%%--------------------------------------------------------------------------%%%%------------------
------------------%%%%%%%%-----|--||---------------|--------------------------------------%%%%---------------------------------||||--------SS--------
---------SSSS------|--||-----o-|--||----SSSR-S-----|-----------------------o-S-------SSS---||---SSS--o-------------------------||||----SSSSS---------
-------------------|--||-------|-%%%%%%------------|------------------%%%%%%%--------------||-----------------------%%%-------%%%%|------------------
-----------------|-|--||-------|-|||||---------o---|---o------S--------||-||-----S---------||------------------------||--o-----||||-----------SSS----
------------%%%----|--||-------|-|||||--------%%%--|--%%%-------o------||-||---------------||--------|---------------||-%%%%---||||------------------
------%%%%%--|---------|-----o-|-|||||---------|-------|--------%%%%%--||-||--%%%%%--------||--------|---------------||--||--|-|||-------------------
-------|||-------------|-%--%%%--||-||---------|-------||%%%-----|||---||%%%%%-|||---------||-%%-----|---------------||--||--|-|||-------------------
M------|||-------------|-----|---||-||---------|-------||-|-----||||---||-|||--|||---------|--||---------------------||--||--|-|||-------------------
X------|||----%%%%-------|---|---||-%%%%%%%%%%-%%------||-|--%%-||||---||-|||--|||--------%%%-|-------%%%--------%%%-||%%%%%%%%%%%%%-------------XXXX
X------|||----|||--------|---|---||-|||||||||-||-------||-|-|----|||---||-|||-||||---------|||---------|----------|--||||||||||||||--------------XXXX