-------------------------------------------------------------------------------------------------------------------------------------------------------------------------------------------
-------------------------------------------------------------------------------------------------------------------------------------------------------------------------------------------
-------------------------------------------------------------------------------------------------------------------------------------------------------------------------------------------
S---SSSSSSSS------SSSSSSSSSSSSSS-----SSSS-------SSSSSSSSSSSSSSSSSSSSSSSSSSSS--------------SSSSSSSSSSSSSSSSSSSSSSSSSSSSSSSSSSSSSSSSSSSSSSSSSSSSSSSSSSSSSSSSSSSSSSSSSS-------SSSSSSSSSSSSS---
S-----------------SSSSSSSSSSSSSS----------------SSSSSS----------------------------------------------SSS--SSSSSSS--------------------------SSSSSSSSSSSSSSSSS----------------SS--------------
S-----------------SSSSSSSSSSSSSS----------------SSSSSS---------------------------------------------------SSSSSSS--------------------------SSSSSSSSSSSSSSSSS----------------SS--------------
S----------------SSSSSSSSSSSSSSS-----------------SSSSS--------------------------------------SSSSSS---------SSSSSS--S--SSS------------------SSSSSSSSSSSSSSSSS---------------SS--------------
S------------------------------------------------------------------------------------------------------------------------------------------------------------------------------------------
S--------------------------------------S----SS--------------------------------------------SSSS---SSSS--------------------------------------------------------------------------------------
S--------------------SS------g---------------------------------------------------------------------------------------------------------------------oooooooo--------------------------------
S--------------SSSSSSSSSSSSSSSSS---------------SSSSSS-------QQ---#---------------------------------------SSSSSS---------SQ------SS--------SSSSSSSSSSSSSSSSSSS--------------------Q---------
S----------------SSSSSSSSSSSSSSS---------------SSSSSTT----------##-------------------#-------------------SSSSSS---#------------------TT-----SSSSSSSSS-----------------------------#--------
S----------------SSSSSSSSSSSSSSS---------------SSSS-TT---------##S-------------------#S------------------SSSSSS--SSSSS----------------T------SSSSSSSSS---------------tt----------##--------
SM----------------SSSSSSSSSSSSSS--------------------TT--------###---------------------------------------------S--S#-------------------T----kSSSSSSSSSS---------------tt----------##--------
XXXXXX------XXXXXXX--XXXXXXXXXXXXXXXXXXX---XXXXXXXXXXXXXXXXXXXXXX------XXXXXXXXXXXXXXXXXX------XXX---XXXXXXXXXX--XX------XX---XXXXXXXXXXXXXXXXXXXXXXXXXXXXXXXXXXX--XXXXXXXXXXXXXXXX---X----
XXXXXX------XXXXXXX--XXXXXXXXXXXXXXXXXXX---XXXXXXXXXXXXXXXXXXXXX-------XXXXXXXXXXXXXXXXXX------XXX---XXXXXXXXXX--XX------XX---XXXXXXXXXXXXXXXXXXXXXXXXXXXXXXXXXXX--XXXXXXXXXXXXXXXX--------