----------------------------------------------------------------------------------------------------------------------------------------------------------------------------------------
----------------------------------------------------------------------------------------------------------------------------------------------------------------------------------------
----------------------------------------------------------------------------------------------------------------------------------------------------------------------------------------
----------------------------------------------------------------------------------------------------------------------------------------------------------------------------------------
----------------------------------------------------------------------------------------------------------------------------------------------------------------------------------------
----------------------------------------------------------------------------------------------------------------------------------------------------------------------------------------
----------------------------------------------##---------------SS-------------------------------------------------------------------------------------------------------y---------y-----
---------------------------------------------#---------------------------------SS--------------------------------------------------------------------------------------y----------------
-------------------------------------------###---------------------------------------------------------#--------------------------------------------------------------##-----y--SS------
------------------------------------------##-#-----------------y--------------------------------------##-------------------------------------------------------------###-------#S-------
-----------------------------------------#---##------------#---#-------------#-------Q---------------###---S---------------------------------------------------------###----------------
----------------------------------------##-###------------##--##-------y---###----------------------####-----------------------------------#----------------------######----#####-------
-------------------------------T-------##---##-----------###---------------#-#---------------------#####----------------------------------#---------y--###--------######---######-------
-M----------------y--y------y---------#-#---####--------####----------###-##---------------------#####---------------------------y-------------------####-------######------##----------
XXXX--XX--XXXXXXXXXXXX--XXXXXXXXXXXXXXXXXXX-XXXXXXXXXXXXXXXX---X---XXXXXXXXXXXXXXXXXXXXXXXX-XXXXXXXX---X--XX--XXXXXXXXXXXXXXXXXXXXXXXXXXXXXXXXXXXXXXXX--------XXXXXX-----------X--------
XXXX--XX--XXXXXXXXXXXX--XXXXXXXXXXXXXXXXXXXXXXXXXXXXXXXXXXXX---X---XXXXXXXXXXXXXXXXXXXXXXXX-XXXX-XXX---X--XX--XXXXXXXXXXXXXXXXXXXXXXXXXXXXXXXXXXXXXXXX--------XXXXXX-----------X--------