----------------------------------------------------------------------------------------------------------------------------------------------------------------------------------------------------------------------
----------------------------------------------------------------------------------------------------------------------------------------------------------------------------------------------------------------------
----------------------------------------------------------------------------------------------------------------------------------------------------------------------------------------------------------------------
----------------------------------------------------------------------------------------------------------------------------------------------------------------------------------------------------------------------
----------------------------------------------------------------------------------------------------------------------------------------------------------------------------------#-----------------------------------
-----------------------------------------------------------------#---------------------------------------------------------------------------------------------------------------##-----------------------------------
-----------S--------------------S---------------##------SS------##------SS----------------------------------------------T---------------------------------------------SSS-S-------#----------------SS-------SS--------
-----------------------------------------------###-------------###-------------------------T----------------------------T-----T----------------------------------------------------------------#----------------------
----------------S-----------------------------####------------####----------------------------------------------------------------------------------------------------------------------------##----------------------
----------T-----------------------------TT---T####-----------#####------------------------------------------------------------##----------------------------------T--------------------------####---------------------
---------XSS------TT-----T--------------TT---T####----SS----######-----SS--SSSS---------SSS--------S--------TT----TT--------TT##--------------TT-------S---SS-----TT------SSS-----------TT-#-####------------S---T----
------------------TT----TT------------T-TT-#TT#####--------#######------------------------------------TT----TT--TT-T--------TT-#----TT----TT--TT----------------TTT---------------------TT-#T#-#----------------------
----------------T-TT----TT----------TTTTTT-#-T#####-------##TT####----------------------------TT------TT----T---TT-------##-TT-#----TT--TTTT--TT--TT------------TTT---------------------TT-#T####-------TT----TT------
-M------------#---TT----TT----------TTTTTT-#--##--#-------##TT####----------------------------TT------TT----TT--TT-------##-TT-#----TT--TTTT--TT--TT------------TT-----k---------------###-#--###-------TT----TT---#--
XXXXXXXXXXXXXXXXXXXXXXXXXXXXXXXXXXXXXXXXXXXXXXXXXXXXXXXXXXXXXXXXXXXXXXXXXXXXXXXXXXXXXXXXXXXXXXXXXXXXXXXXXXXXXXXXXXXXXXXXXXX-XXXXXXXXXXXXXXXXXXXXXXXXXXXXXXXXXXXXXXXXXXXXXXXXXXXXXXXXXXXXXXXXXXXXXXXXXXXXXXXXXXXXXXXXXX
XXXXXXXXXXXXXXXXXXXXXXXXXXXXXXXXXXXXXXXXXXXXXXXXXXXXXXXXXXXXXXXXXXXXXXXXXXXXXXXXXXXXXXXXXXXXXXXXXXXXXXXXXXXXXXXXXXXXXXXXXXXXXXXXXXXXXXXXXXXXXXXXXXXXXXXXXXXXXXXXXXXXXXXXXXXXXXXXXXXXXXXXXXXXXXXXXXXXXXXXXXXXXXXXXXXXXX