----------------------------------------------------------------------------------------------------------------------------------------------------------------------------------------------------------
----------------------------------------------------------------------------------------------------------------------------------------------------------------------------------------------------------
----------------------------------------------------------------------------------------------------------------------------------------------------------------------------------------------------------
----------------------------------------------------------------------------------------------------------------------------------------------------------------------------------------------------------
----------------------------------------------------------------------------------------------------------------------------------------------------------------------------------------------------------
---------------------------------------------##-----------------------------------------##----------------------------------------------------------------------------------------------------------------
--------------------------------------------###S-SSS-----------------------------------###----------!---------------------------------------------SS------------------!S--------------SS------------------
------------------------------------------####----------------------------------------####--#-------------------------------------------------------------------------------------------------------------
-----------------------#------------##---#####--------------------------------------######--##-------------------------------------#----------------------------------------------------------------------
----------------------##------------##--######-------------------------------------#######--##------------------------------------###---------------------------------------------------------------------
--------S@S----------###----------####--######-----SSS------------------tt-------#########--##-----SS-------------------------#--####---tt----##----!---S@S!S-------S@S!----S-----------------------------
------------------######--------######-#######--------------------------tt------##########-###--------------------------------#--####---tt---###---------------------------------------------##-----------
-----------------#######-------#######-#######--------------------------tt-----#-#############------------tt--------------###-##-####---tt-#####--------------------------------------------tt##----------
---M------------########-g----########--#######--------------------g----tt-g--######--########------------tt-------------####-##-####---tt-#####---------------------------g----------------tt###---------
---XXXXXXXXXXXXXXXXXXXXXXXXXXXXXXXXX-----XXXXXXXXXXXXXXXXXXX--XXXXXXXXXXXXXXXXXXXXXXX-XXXXXXXXXXXXXXXXXXXXXXXXXXXXXXXXXXXXXXX-XXXXXXXXXXXXXXXXXXXXXXXXXXXXXXXXXXXXXXXXXXXX-XXXXXXXXXXXXXXXXXXXXXXXXXXXXXXX
---XXXXXXXXXXXXXXXXXXXXXXXXXXXXXXXXXXXXXXXXXXXXXXXXXXXXXXXXX--XXXXXXXXXXXXXXXXXXXXXXXXXXXXXXXXXXXXXXXXXXXXXXXXXXXXXXXXXXXXXXX-XXXXXXXXXXXXXXXXXXXXXXXXXXXXXXXXXXXXXXXXXXXX--XXXXXXXXXXXXXXXXXXXXXXXXXXXXXX