-------------------------------------------------------------------------------------------------------------------------------------------------------------------------------------------
-------------------------------------------------------------------------------------------------------------------------------------------------------------------------------------------
-------------------------------------------------------------------------------------------------------------------------------------------------------------------------------------------
S--SSSSSSSSSSSSSSSSSSSSSSSSSSSSSSSSSSSSS----------SSSSSSSSSSSSSSS--------SSSSSSSSSSSSSSSSSSSSSSSSS---------SSSSSSSSS----SSSSSSSSSSSSSSSSSSSSSSSSSSSSSSSSSSSSSSSSSSSSSSSSSSSSSSSSSSSSS--SSSS
S--------------------------SSSSSSSSSSSSS----------SSSSSSSSSSSSSS---------------------------------------------------------------------------SSSSSSSSSSSSSSSSSSSSSS--------------------------
S---------------------------SS---SSSSSSSSSSSSSSSSSSSSSSSSSSSSSSS---------------------------------------------------------------------------SSSSSSSSSSSSSSSSSSSSSS------------------------S-
S-------------------------SS-----SSSSSSSSSSSSSSSSSSSS-SSSSSSSSSS-----------------------------------------------SSS--------------------------SSSSSSSSSSSSSSSSSSSSS----------------SS------SS
S----------------------------------------------------------------------------------------------------------------------------------------------------------------------------------------SS
S------------------------------SSSSS------------------------------------------------------------SSS--------------------------T------------------------------------------------------SSS--SS
S---------------------------------SS----oooooooooo-S-------ooooo------------------------------------------------------------TT-----------SooooooS---------S------------------------------SS
S-----------------------------S---------SSSSSSSSSSSS------SSSSSSS------------------------SSSS----------T------------------S-TT-----------SSSSSSSSSSSSSSSSSSSSSSSSS---Q-------------------S-
S-----------TT-----------------------------------------------------------T-----#----------------------TT--------------------TT----TT----------SSSSSSSSSSSSSSSSSSSS-------------------------
S-----------TT-----------------------------------------#-----------------------#----------------TT----TT---------------##---TT----#T----------SSSSSSSSSSSSSSSSSS-T-----------------------SS
SM---------kTT-----------------------------------------------------------------#---------------kTT---kTT--------------S##--kTT---##T-------k--SSSSSSSSSSSSSSSSSSST-----------------------SS
XXXXXXXXXXXXXXXXXX--XXXXXXXXXXXX--------XXXXXX---XXX-------XX------------X---XXXXXXXX--XXXXXXXXXXXXXXXXXXXXXXXXXXXXXXXXXXXXXXXX-XXXX-XXXXXXXXXXXXXXXXXXXXXXXXXXXXXXXXXXX-XX------XX------XX
XXXXXXXXXXXXXXXXXX---XXXXXXXXXXX--------XXXXXX---XX--------XX------------X---XXXXXXXX--XXXXXX-XXXXXXXXXXXXXXXXXXXXXXXXXXXXXXXXX-XXX--XXXXXXXXXXXXXXXXXXXXXXXXXXXXXXXXXXX---------XX------XX