----------------------------------------------------------------------------------------------------------------------------------------------------------------------------------------
----------------------------------------------------------------------------------------------------------------------------------------------------------------------------------------
----------------------------------------------------------------------------------------------------------------------------------------------------------------------------------------
----------------------------------------------------------------------------------------------------------------------------------------------------------------------------------------
----------------------------------------------------------------------------------------------------------------------------------------------------------------------------------------
----------------------------------------------------------------------------------------------------------------------------------------------------------------------------------------
------------------------------------------------------------------------------------------------------------------o---------------------------------------------------------------------
-------------------------------------------------------------------------------------------------------------------------------#-#------------------------------------------------------
--------------------------------------------------------------------o----------------------------------------------------------###------------------------------------------------------
---------------------------------------------------------------------------------------------#---------------------------------###------------------------------------------------------
------------------------oo--------SSQ--------------------#--###--SSC--oo------oo---------#-###-----------------ooo-------------###-------------------------ooQ--------------------------
--------------------------------------------------------######--------------------------######----T--------------------------T-###--------------T----------------------------------#----
-----------------------------------------------------#y#####-#-----SS------------------###---#----T--------------------------T-###--------------T-----TT--------------------------##----
-M-----------------y-------------y-----y------------###-###----------------------------###--------T-----------------------y--T-###--y--y---y----T----TTT---------------y---------#------
XXXXXXXXXXXXXXXXXXXXXXXXXXXXXXXXXXXXXXXXXXXXXXXXXXXX--XXXX-----X------XXXXXXXXXXX--XXXXXXXXX--XXXXXXXXXXXXXXXXXXXXXXXXXXXXXXXXXXXXXXXXXXXXXXXXXXXXXXXXXXXXXXXXXXXXXXXXXXXXXXXXXXXXXXXX--
XXXXXXXXXXXXXXXXXXXXXXXXXXXXXXXXXXXXXXXXXXXXXXXXXXXX--XXXX-----X------XXXXXXXXXXX--XXXXXXXXX--XXXXXXXXXXXXXXXXXXXXXXXXXXXXXXXXXXXXXXXXXXXXXXXXXXXXXXXXXXXXXXXXXXXXXXXXXXXXXXXXXXXXXXXX--