----------------------------------------------------------------------------------------------------------------------------------------------------------------------------------------------------------------------
----------------------------------------------------------------------------------------------------------------------------------------------------------------------------------------------------------------------
----------------------------------------------------------------------------------------------------------------------------------------------------------------------------------------------------------------------
----------------------------------------------------------------------------------------------------------------------------------------------------------------------------------------------------------------------
----------------------------------------------------------------------------------------------------------------------------------------------------------------------------------------------------------------------
----------------------------------------------------------------------------------------------------------------------------------------------------------------------------------------------------------------------
-----------------------TT-----------------------------------------------------SSSS--SSSSSS----------------------------TT-----------------S---------------S--SS--------------------------------------------------------
----------------------TT----------------------------------------##----------------------------------------------------TT----------------------------------------------------------------------------------------------
--------------T-----TTTT----------SS---------------------------###---------------------------SS-----------------SSS---XX-----------------------SSS---------------#------------------------------------------S---------
--------------T------TT----------------------------------------###---------------------------S----------------------------------------------------------------TT##----------------------------------------------------
----tt----SSS-------XXXXS------------------S-------------S----####--TT------TT-S------------XX---SSS---------------------------------------S----------SS---SS#TT-#---------tt-------SSSSSS------------------------SS--
----t-TT-----------------------------------------------------#####--TT------TT----------------------------------------------------TT-------------------------#TT-#------------TT--------------------------------------
------TT------TTT---------------------------------TT--TT----######--TT------T-------------------------TT------TT------------------TT-T----TT--TT---------#---#T--#----TT------TT-----------#TT-#TT------#---T-TT------
-M----TT------TT----------------------------------TT--TT---#######--TT------T-------------TT----------TT------TT------------------TT-T----TT--TT--------##--##--##----TT----T-TT---------###TT---------##---T-TT---#--
XXXXXXXXXXXXXXXXXXXXXXXX---------XXXXX--------XXXXXXXXXXXXXXXXXXXXXXXXXXXXXXXXXX---------XXXXXXXXXXXXXXXXXXXXXXXXXXXXXXXXXXXXXXXXXXXXXXXXXXXXXXXXXXXXXXXXXXXXXXXXXXXXXXXXXXXXXXXXXXXXXXXXXX-XXXXXXXXXXXXXXXXXXXXXXXXXX
XXXXXXXXXXXXXXXXXXXXXXXX---------XXXXX--------XXXXXXXXXXXXXXXXXXXXXXXXXXXXXXXXXX---------XXXXXXXXXXXXXXXXXXXXXXXXXXXXXXXXXXXXXXXXXXXXXXXXXXXXXXXXXXXXXXXXXXXXXXXXXXXXXXXXXXXXXXXXXXXXXXXXXX-XXXXXXXXXXXXXXXXXXXXXXXXXX