--------------------------------------------------------------------------------------------------------------------------------------------------------------
--------------------------------------------------------------------------------------------------------------------------------------------------------------
--------------------------------------------------------------------------------------------------------------------------------------------------------------
S----SSSSSSSSSSSSSSSSSSSSSSSSSSSSSSSSS-S---SSSSSSSSSSSSSSSSS----SSSSSSSSSSSSSSSSSSSSSSSSSSSSSSSSSSSSSSSSSSSSSSSSSSSSSSSSSSSSSSSSSSSSSSSSSSSSSSSSSSSSSSSS------
S------S--------------SSS----------------------------------------------------------------------------------------SSSSSSSSSS-S---------------------------------
S-----SSS-------------SS-------------------------------------------------------------------------------------S---SSSSSSSSS------------------------------------
S---------------------SS-------------------------------------------------------------------------------------SoS---------------------------------o------------
S---------------------SS-------------------------------------------------------------------------------------S-S--------------------------------S--S----------
S---------------------SS---------------SSSS--------------------------------------------------------S--------SSSS------------SS----------SSS-----SSSS----------
S------S---------------S-----------------------SSS-------------------------------------------------SooS---------------------SS-------S--SSSSSS--SSS-----------
S-----SSSS------T------------------------------SSS-------------------------------------------------SSSSS----------------SS---------SSS------SS--SS------------
S---------------TT------------------------------------------------------------------TT------------------------------------------------------------------------
S------------g-#-#----SS-------------------#----------------------------------------TT-------------------------S-----------#----------------------------------
SM-----------#-#-#----SS-------------#-g-#-#-----------------------g----------------TT---------------------#---S---------#-#-----------------------g----------
XX--XXXXXXXXXXXXX--X---XXXXXXXXXXXXXXXXXXXXXXXXXXXXXXXXXXXXXXXXXXXXXXX---XXXXXXXXXXXXXXXXXXXXXXXXXXXXXXXXXXXXXXXXXXXXXXXXXXXXXXXXXXXXXXXXXXXXXXXXXXXXXXXXXXXXX
XX--XXXXXXXXXXXX--XX---XXXXXXXXXXXXXXXXXXXXXXXXXXXXXXXXXXXXXXXXXXXXXXX---XXXXXXXXXXXXXXXXXXXXXXXXXXXXXXXXXXXXXXXXXXXXXXXXXXXXXXXXXXXXXXXXXXXXXXXXXXXXXXXXXXXXX