------------------------------------------------------------------------------------------------------------------------------------------------------------------------------------------------------
------------------------------------------------------------------------------------------------------------------------------------------------------------------------------------------------------
------------------------------------------------------------------------------------------------------------------------------------------------------------------------------------------------------
------------------------------------------------------------------------------------------------------------------------------------------------------------------------------------------------------
------------------------------------------------------------------------------------------------------------------------------------------------------------------------------------------------------
------------------------------------------------------------------------------------------------------------------------------------------------------------------------------------------------------
---------------------------------------------------------------------------------------------------------------#------------------------------------TT------------------------------------------------
--------------------------------------------------------------------------------------------------------------##------------------------------------TT------------------------------------------------
-------------------------------------------------------------------------------SUS----------------------TTT---##-------------------------------K----##-------K----------------------------------------
---------------------------------------------------------------------------------------------------------TT---##------------------------------------#-------------------------------------------------
------------------------------------------------------------------#LS-----------------------------------###-----------------------------------------#-----------------#LSS----------------------#LS---
------------------------------------------------------------------#-------------------------------T-------------------------------------------------#---------T-------#-------------------------#-----
------------------------------------------------------------------#---------------------*----TT---TT--#-##---------------------------------T------------------T-------#-------------------------#-----
-M----gg----#-------------gg-------ggg-----------ggg-----K------k-#---------------------*----T----TT--####------------------kk-----------kTT--TT--------------T-----kk#----K--------g-----gg--kk#-----
XXXXXXXXXXXXXXXXXXXXXXXXXXXXXXXXXXXXXXXXXXXXXXXXXXXXXXXXXXXXXXXXXXXXXXXXXXXXXXXXXXXXXX--XXXX--XXXXXXXXX-XXXXXXXXXXXXXXXXXXXXXXXXXXXXXXXXXXXXX-TTX------XXX----XXXXXXXXXXXXXXXXXXXXXXXXXXXXXXXXXXXXXXXX
XXXXXXXXXXXXXXXXXXXXXXXXXXXXXXXXXXXXXXXXXXXXXXXXXXXXXXXXXXXXXXXXXXXXXXXXXXXXXXXXXXXXXX-XXXXX--XXXXXXXXXXXXXXXXXXXXXXXXXXXXXXXXXXXXXXXXXXXXXXX--X--------XX----XXXXXXXXXXXXXXXXXXXXXXXXXXXXXXXXXXXXXXXX