------------------------------------------------------------------------------------------------------------------------------------------------------
------------------------------------------------------------------------------------------------------------------------------------------------------
------------------------------------------------------------------------------------------------------------------------------------------------------
------------------------------------------------------------------------------------------------------------------------------------------------------
---------------------------------------g--------------------------------------------------------------------------------------------------------------
------------ooo---oo--------------%%%%%%%--------------------------------o------oo----------------------oo--------------------------------------------
-----------------------------%%%%---||||------SS--------------------%%%%%%%%%---------------------SSSSS--------------------------%%%------------------
---Moo------------------------||----||||---------------------------%%%||||||%-------------oo--o----------------------------------|||%%%-----------oo--
---%%%%%----------------------|---||||||----------------------------|||||||||------------%%%%-%%%%-------------------------------|||||-%%%%%-----%%%--
----|||-----------------------||----||||--%-------------------------||||||||--------------||--||--------------oo-----------------|||||--|||-------|---
----|||---%-%%%%%----------SSSSS----||||--%%%%%--%%%%%%%%--%%%%%----||||||||--------------||--||------------------------------%--|||||--|||-------|---
----|||----|||||--------------||----||||--||||----||--||----||||----||||||||--------------||--||------------------oo-------%%|--||||||--|||-------|---
----||||---|-|||---------------|----||||--||||----||--||----||||----||||||||---------%%%%-||--||------%-%-------------------||--||||||--||----%---|%--
----||||---|-|||-------------%%%%---||||--||||----||-|||----||||----||||||||----------||--||--||-------|------oo------------||--|||||||-||--------||--
---|||||---|%-||--------------||----||||--||||----||-|||----||||----||||||||------XXX-||--||--||-------|------%%--------%%--||--||||||||||--------||--
---|||||--||--||--------------||----||-|---|||----||--||----||||----||||||||------XX--||--||--||-------|------|-------------||--|||||||-||-----|--||--