------------------------------------------------------------------------------------------------------------------------------------------------------------------------------------------------------------------------------
------------------------------------------------------------------------------------------------------------------------------------------------------------------------------------------------------------------------------
--------------------------------------------------------------------------------------------------------------------------------------------------------------Q---------------------------------------------------------------
------------------------------------------------------------oo----------------------------------------------------------------------------------------------------------------------------------------------------------------
------------------------------------------------------------------------------------------------------------------------------------------------------------------------------------------------------------------------------
------------------------------------------------------------------------------------------------------------------------------------------------------------------------------------------------------------------------------
---------------------------------------------------------------------------------------------Q-Q-------------------------------------------------------------SSQQQ-----------------Q------------------------------------------
--------------------oooo----------------------------------------------------oo------------------------------------------------------------------------------------------------------------------------------------------------
----------------------------------------------------------------------------------------------------------------------Q-------------------------------------------------------------#-----------Q----------------#------------
-------------------------------------------------------------------------------------------------------------------------------------------oo-------------------------------------###--------------------------#-#------------
------------QQ-Q--TT-----------------------------------Q-----------------------------------Q-Q-----------------------------------------------------------Q----Q-QQ----------------#-------------TT---------------#------------
------TT-----------T--------------------------------------------------------#-----------------------------------------------------T----------------------------------------------##-------------TT---------------#------------
------TT----------TT--------------------------------------------------------#---#----------------------------T--------------------TT--------------------------------------------###-------------TT----------#---##------------
-M-y--TT-------y--TT-------------y------------------------------------------#---#----y---------y---------y---T--------------------TT------#-----------------------------------###-##------------TT----------#----#------------
XXXXXXXXXXXXXXXXXXXXXXXXXXXXXXXXXX--XX--XXX-XXXXXXXXXXXXXXXXXXXXXXXXXXXXXXXXXXXXX--XXXXXXXXXXXXXXXXXXXXXXXXXXXXXXXXX--XX--XX--XXXXXXXXXXXXXXXXXXXXXXXXXXXXXXXXXXXXXXXXXXXXXXXXXXXXXXXXXXXXXXXXXXXXXXXXXXXXXXXXXXXXXXXXXXXXXXXX
XXXXXXXXXXXXXXXXXXXXXXXXXXXXXXXXXX--XX--XXX-XXXXXXXXXXXXXXXXXXXXXXXXXXXXXXXXXXXXXX-XXXXXXXXXXXXXXXXXXXXXXXXXXXXXXXXX--XX--XX--XXXXXXXXXXXXXXXXXXXXXXXXXXXXXXXXXXXXXXXXXXXXXXXXXXXXXXXXXXXXXXXXXXXXXXXXXXXXXXXXXXXXXXXXXXXXXXXX