------------------------------------------------------------------------------------------------------------------------------------------------------
------------------------------------------------------------------------------------------------------------------------------------------------------
------------------------------------------------------------------------------------------------------------------------------------------------------
------------------------------------------------------------------------------------------------------------------------------------------------------
-------------------------------------------------------------------------------------------------------------g----------------------------------------
--------------------------------------------------------oo--oo---o--------------ooor---------%%%%%-----------%----------------------------------------
------------------------SSS-----------------------------------------------%%%%%%%%%%%---------|||---------SSSS----------%%%%%%%%%---------------------
-------------SSS-----------------------------------------------------------|||-|||||-----------||-----------------------||--||||----------------------
---------------------------------------------------------------------------|||-|||||-----------||-----------|-----------||--||||----------------------
-------------------------o---------o%%--------------------------------------||||||||----oo--o--||-----------------------||--||||-----------%%%%--%-%--
----------------------%%%%%%%%%%-----|--------------------S%%%%%%%%%%----%%-||||||||-----%%%---||----####--SSSSS---%%%%-||--||||------------||----||--
-----------------------|||--||||%---------------------------||--||||--------||||-|||-----------|-----####-----------|---||||||||------------||----||--
------------------------||--||||----------------------------||--|||---------|-||--||-----------|----#####-----------|----|||||||---------%%-||----||--
-M----------------------||--||||---------------%%%----------||--||-|------|-|-||--||----------------#####-----------|----|||||||----------||||----||--
XXXXXXX---------%%%%%%%-||--||||-------%--------|---------%-||--||-|----%||||-||--||--%%%%--XXXXXXXXXXXXXX-XX%%%%%%%%%--||||||||-%%%%%----||||----||--
XXXXXXX----------|%%%|%-||--||||------|---------|-----------||--||-|----||X|X-||--||----|---XXXXXXXXXXXXX---X|---|-|||---|||||||--%||-----||||----||--