----------------------------------------------------------------------------------------------------------------------------------------------------------------------------------------------------
----------------------------------------------------------------------------------------------------------------------------------------------------------------------------------------------------
----------------------------------------------------------------------------------------------------------------------------------------------------------------------------------------------------
----------------------------------------------------------------------------------------------------------------------------------------------------------------------------------------------------
----------------------------------------------------------------------------------------------------------------------------------------------------------------------------------------------------
----------------------------------------------k---------------------------------------------------------------------------------------------------------------------------------------------k-------
--------------------SSSS----------------------#------------SSS----SS-----------SS-----------------------SQ-SSS-----------S----------S-------------SS------------------S------------------SCSSS------
----------------------------------------------#-------------------------------------------------------------------------#------------------------------------------------------------------K--------
-----------------Q--------##--------------#####-------------------------------------------------------------------------#-----------------#--------------------------------------SQS----------------
-------------------------###------------#######-------------#------------------------gg#------------------------------###-----------------#---------------------------------------------------------
-----#--------S------S-#####------TT----#######----SSS-----##-----SSCS--------SSCS-#####--------TT------SSSSS--------####---------TT---#-##------SSSSSSSSSSSSSS---S---S-----------------------------
-----#-----------------#####------TT---########------------##--------------------K----##--------TT------------------#####---T-----TT--##--#---------------------------------------------------------
-----#---------------#######------TT--#########-------------#--------------------------#--------TT----##-----------####-----TT----TT--##--#---------------------------------------------------------
----M#--------------#######-------TT--#########---K-----#---#------------------K------------k---TT----##----------#-----#---TT----TT--##--#-----------------K-----g---g-----k----g---------------#--
----XXXXXXXXXXXXXXXXXXXXXXXXXXXXXXXXXXXXXXXXXXX-XXXXXXXXXXXXXXXXXXXXXXXXXXXXXXXX----------XXXXXXXXXXXXXXXX-----XXX----XXXXXXXXXXXXXXXXXXXXXXXXXXXXXXXXXXXXXXXXXXXXXXXXXXXXXXXXXXXXXXX----XXXXXXXXXXX
----XXXXXXXXXXXXXXXXXXXXXXXXXXXXXXXXXXXXXXXXXXX-XXXXXXXXXXXXXXXXXXXXXXXXXXXXXXXX--X-------XXXXXXXXXXXXXXXX-----X------XXXXXXXXXXXXXXXXXXXXXXXXXXXXXXXXXXXXXXXXXXXXXXXXXXXXXXXXXXXXXXX----XXXXXXXXXXX