-----------------------------------------------------------------------------------------------------------------------------------------------------
-----------------------------------------------------------------------------------------------------------------------------------------------------
-----------------------------------------------------------------------------------------------------------------------------------------------------
------o----------------------------------------------------------------------------------------------------oo------SS--------------------------------
----------------------------------------------------------------------------------------------------------%%%----------------------------------------
-----------------------------------------------------------------------------------------------------------|-----------------------------------------
-----------o-----------------------------------------------------------------------------------------------|-----------------------------------------
-------------SSS------SSSS-----------------S---o--SSSS-----------------SSS------------SSS------------o-----|-----SS----------SSo----------SSS--------
----------%%----------------------------------%%%-------------------------------%%%--o-----------o------%%%%|%-|-------------------------------------
-------%%%|------------------------------------|-----------------------------S---|---o-----SS--------|---|-||--|-----SS------------------------------
--------|||------------------------------------|---------------------------------|---|-------------------||||--|-------------------------------------
---------||-----------------------------||-----|-------------%%%%%%%%%%%-----%%%-|---|------%%%%%%%%%%%%%||||--|---o---------------------------------
------%%%%%%%---------------------------||-%%%%%%%------------|||||%|||--------|-|---|-------|||||||||||||%%%%%%%------------%%%%%%%-----------------
-M-----|||||----------------------------||-||||||%%%%%---------||||-|||----o---|-|---|-------||||||||||||||||||||%%%%%%%%%----||-||------------------
XX-----|||||--------------XXXXXXX---%%%%%%%%|-|||||||-XXXXXXXXX||||-|||--------||||-%%%%%%---||||||||||||||||||||--||||||-----||-||------------------
XX-----|||||--------------XXXXXXX---|||-|||||-|||||||-XXXXXXXXX||||-|||--------||||-|||||-|--||||||||||||||||||||--|||||-------|-||------------------