----------------------------------------------------------------------------------------------------------------------------------------------------------------------------------------------------
----------------------------------------------------------------------------------------------------------------------------------------------------------------------------------------------------
----------------------------------------------------------------------------------------------------------------------------------------------------------------------------------------------------
----------------------------------------------------------------------------------------------------------------------------------------------------------------------------------------------------
----------------------------------------------------------------------------------------------------------------------------------------------------------------------------------------------------
------------------------------------------------------------------------------------------------------------------------------------------------------k-------------k-------------------------------
---------##-----------------##SUSS----------------------------------------------------------------------S----------------------SQS-----Q---------------------------###------------------------------
--------##--------------------------------------------------------------------------------------------------------------------------------------------------------###-------------------------------
--------##---------S------#-------------SQS------------Q---------------------------------------------------------------------------------------------------------#####-----------------SSSS---------
-------###----------------#-------------------------------------------------------------------#-----------------------------------------------------------------######------------------------------
------#-##---------------###----#---------------------------------------SQS-------------------###----S--SS--------------S-SS--SSSS----S---------#--------------######--------SS---------------------
--------#T--------------###---------------------------------------------------------k-------##--------------------TT----------------------------#-------------#######----------K---T----------------
--------TT---------------###-------------------TT-------------------#---------------TT-----#----------------------TT----------------------------TT-----------########-------------TT----------------
--kM----TT----k---------####---------------gg--TT---------gg------g-----ggggg-------TT---------T#----ggg----------TT------K-----------K---ggg---TT----------#########------------gTT-------------#--
--XXXXXXXXXXXXXXXXXXXXXXXXXX------XXXXXXXXXXXXXXXXXXXXXXXXXXXXXXXXXXXXXXXXXXXXXXXXXXXXXXXXXXXXXXXXXXXXXXXXXXXXXXXXXXXXXXXXXXXXXXXXXXXXXXXXXXXXXXXXXXXXXXXXXXXXXXXXXXXXXXXXXXXXXXXXXXXXXXXXXXXXXXXXXX
--XXXXXXXXXXXXXXXXXXXXXXXXXX-----XXXXXXXXXXXXXXXXXXXXXXXXXXXXXXXXXXXXXXXXXXXXXXXXXXXXXXXXXXXXXXXXXXXXXXXXXXXXXXXXXXXXXXXXXXXXXXXXXXXXXXXXXXXXXXXXXXXXXXXXXXXXXXXXXXXXXXXXXXXXXXXXXXXXXXXXXXXXXXXXXXX