-----------------------------------------------------------------------------------------------------------------------------------------------------
-----------------------------------------------------------------------------------------------------------------------------------------------------
-----------------------------------------------------------------------------------------------------------------------------------------------------
-----------------------------------------------------------------------------------------------------------------------o%----------------------------
----------------------------------------------------------------------------------------------------------------------%%%----------------------------
-----------------------------------------------o---o-----o------------------SS-----------------------------------------|-----------------------------
----------------------------------------------%%%-%%%---%-%----------------------------------------------------------S-|-----------------------------
--------------S-----------------------%%%--o---|---|--------------SSS----------------o-----------------SS--------------|-----------------------------
------------%%%%%-o-------------%%%%---|--%%%--|---|------------------------%%%------o------------------------o--------|-----------------------------
--------oo---||---SS-------------||----|---|---|--||--------------------SSS--||--o---|-----S------SSSo--------SSS------SS------o---------------------
-------%%%%--||-o------oo--------||----|---|---||-||-------------------------||-%%%%-|----------------------------------------%%%--------------------
--------||---||-------%%%%%%%%%%%|-----|---|---||-||---o-----|----------------|--||--|-----------------------------------------|----%%%%%%%%%%%%-----
--------|%%%%%%%%%%---|||||-||||||-----|---|---||-||----%----%%%%%--------|---|--||--|--------%%%%%-------------------------%%%%%%%--||||||||||------
-M------||||||||||----|||||-|||||||----|-------||-||---------||||---------|----|-||--|---------|||---------------------------|||||---||||||||||----o-
XX-X%%%%||||||||||---||||||-|||||||------------||-||---------||||%XXXXXX--|%%%%%%||%%%%--------|||-------%%%%%%---------%%%%-||||||--||||||||||-%%%%%
XX-X||||||||||||||---||||||-|||||||------------||-||---------|||||XXXXXX-||||-||||||||---------|||--------||||-----------|||-||||||---|||||||||--|||-