----------------------------------------------------------------------------------------------------------------------------------------------------------------------------------------------------------
----------------------------------------------------------------------------------------------------------------------------------------------------------------------------------------------------------
----------------------------------------------------------------------------------------------------------------------------------------------------------------------------------------------------------
----------------------------------------------------------------------------------------------------------------------------------------------------------------------------------------------------------
----------------------------------------------------------------------------------------------------------------------------------------------------------------------------------------------------------
----------------------------------------------------------------------------------------------------------------------------------------------------------------------------------------------------------
---------------------------S!S------------------------------------------------------!-S-------S-S------------------------------SSS--SSS----------------------------------------------------##-------------
------------------------------------------------------------------------------------------------------------------------------------------------------------------------------------------####------------
------------------------------------------------------------------------------------------------------------------------------------------------------------------------------------------####------------
----------------------------------------------------#------#-----------------------------------------------------------------------------------------------------------------------------#####------------
------S---S---------------S@S----#--------------S#---------#----------------tt--------tt-----------------##--#---------------#--SSSS--------------------S-------------!---------SS!S----######------------
--------------------------------##---------------#---------------------------t--------tt----------------#####---------------##-----------------t---------------------------------------#######------------
-------------------------------###----------------------------------------------------tt---------------#######------tt-----###----------------tt--------------------------------------########----tt------
-M-----g------------------g-g--###--------------------------------------#--------g-g--tt-----g--------########------tt----####----------g-g---tt-----g----------------g-g-------------########---g-t------
XXXXXXXXXXXXXXXXXX---XXXXXXXXXXXXXXXXXXXXXXXXXXXXXXXXXXXXXXXXXXXXXXXXXXXXXXXXXXXXXXXXXXXXXXXXX--XXXXXXXXXXXXXXXXXXXXXXXXXXXXXXXXXXXX-----XXXXXXXXXXXXXXXXXXXXXXXXXXXXXXXXXXXXXXXXXXXXXXXXXXXXXXXXXXXXXXXX-
XXXXXXXXXXXXXXXXXX---XXXXXXXXXXXXXXXXXXXXXXXXXXXXXXXXXXXXXXXXXXXXXXXXXXXXXXXXXXXXXXXXXXXXXXXXX--XXXXXXXXXXXXXXXXXXXXXXXXXXXXXXXXXXXX-----XXXXXXXXXXXXXXXXXXXXXXXXXXXXXXXXXXXXXXXXXXXXXXXXXXXXXXXXXXXXXXXX-