----------------------------------------------------------------------------------------------------------------------------------------------------------------------------------------
----------------------------------------------------------------------------------------------------------------------------------------------------------------------------------------
----------------------------------------------------------------------------------------------------------------------------------------------------------------------------------------
----------------------------------------------------------------------------------------------------------------------------------------------------------------------------------------
----------------------------------------------------------------------------------------------------------------------------------------------------------------------------------------
----------------------------------------------------------------------------------------------------------------------##--SS------------------------------------------------------------
-----oo------------------------------------------------------------------------------------------------------------#####--------------------y-------------------------------------------
-----------------------------------------------------------------------------------------------------------------------#------------------#SS------------#SS----------------------------
-------------------------------------------------------------------------#--------------------------------y------------------------------##-------------##------------------------------
-------------------#-S-o------------------------------------------------##------------------------------##SS-----------------------------##1------------###-----------------------------
-----------------###-----------SS-----SC----------oo-------###---SSC---###-----------------------------###-------------#---SSC----------###-------------##------QQQ---------------------
---------------y###--------------------------------------y###---------####----------------------------####-------------#----------------####---------y-####-----------------------------
---------------###---------------------------------------####------SSS-###---------------------------#####-----------#------------------####--------##-####-----------------------------
-M--SS-----y--###-------SS------------------------------#####----------###-----y-----y-#------------######--SSSSSS--------------------#-####----SS-###-####--------------y--#-----------
XX---XXXXXXXXXXXXXXXX-X-----XX--XX--XXXX--XXXXXXXXXXXXXXXXXXX----XXXXXXXXXXXXXXXXXXXXXXX---XXXXXX-------XX-------X-XXX--XXXXXX--XXXXXXXXXXXX------XXXXXXXXXXXXXXXXXXX-XXXXXXXXXX--------
XX---XXXXXXXXXXXXXXXX-XX----XX--XX--XXXX--XXXXXXXXXXXXXXXXXXX----XXXXXXXXXXXXXXXXXXXXXXX---XXXXX--------XX-------XXXXX--XXXXXX--XXXXXXXXXXXX------XXXXXXXXXXXXXXXXXXX-XXXXXXXXXX--------