-------------------------------------------------------------------------------------------------------------------------------------------------------------------------------------------
-------------------------------------------------------------------------------------------------------------------------------------------------------------------------------------------
-------------------------------------------------------------------------------------------------------------------------------------------------------------------------------------------
S--SSSSSSSSSSSSSSSSSSSS-SSSSSSSSSSSSSSSSSSSSSSSSSSSSSSSSSSSSSSSSSSSSS--S--SSS--SSSSSSSSSSSSSSSSSSSSSSSSSSSSSSSSSSSSSSSSSSSSSSSSSSSSSSSSSSSSSSSSSSSSSSSSSSSSSSSSSSSSSSSSSSSSSSSSSSSSSSSSSSSS
S------------------------------------------------SSSSSSSSSSSSSSSSSSSSSSSSSSSS------------SSSSSSS-----------------------------SSSSSSSSSSSSSSSSSSSSSSSSS-------------SSSSSSSSSSS-------------
S-------------------------------------------------SSSSSSSSSSSSSSSSSSSSSSSSSSS------------SSSSSSS-----------------------------SSSSSSSSSSSSSSSSSSSSSSSSS-------------SSSSSSSSSSSS------------
S----------------------------------------------SS-SSSSSSSSSSSSSSSSSSSSSSSSSSS---------------S---------------------------------SSSSSSSSSSSSSSSSSSSSSSSS-------------SSSSSSSSSSS-------------
S-----------------------------------------------------------------------------------------------------------------------------------------------------------------------------------------S
S--------------------------------------------S---------------------------------------------------------T---------------------------------------------------------------------------------SS
S-----------------------------------------------------SSS----g---ooooooooooooo-------------------------T-----------------------------oooo-----oooooooo-----------------------------------SS
S---------SS-----T--TT----T------------------------SSSSSSSSSSSSSSSSSSSSSSSSSSS--------------SSSSSS-----T----------TT--------TT-SSS-SSSSSSSSSSSSSSSSSSSSSSSSS----------TTS-------QQQ------SS
S---------------TT--TT----T-----------------------SSSSSSSSSSSSSSSSS------------------------SSSSSSS-----T----------TT---TT---TT------------------------SS-S------------TT---TT--------------
S----------------T--TT----SS--------------------SSSSSSSSSSSSSSSSSSS-SSS-------------------SSSSSSSS-----T-----T----TT---T----TT------------------------S--S-tt---------TT---TT--------------
SM---------------T--TT--S-S---------------------S-SSSSSSSSSSSSSSSSSSS------k--------------SSSSSSSS----TT---k-T---kTT--------TT------------SS---kk----#S-----t----kS---TT--kTT------k-------
XXXXXXX---XXXXXXXXXXXX-XXXXXXXXXXX-X-----X---XXXXXXXXXXXX-XXXXXXXXXXXXXXXXXXXXXXXX--XXXXXXXXXXXXXXXXXXXXXXXXXXXXXXXXXXXXXXXXXX-XXXXXXXXXXXXXXXXXXXXXXXXXXXXXXXXXXXXXXXXXXXXXXXXXXXXXXXX----
XXXXXXX---XXXXXXXXXXXXXXXXXXXXXXXX-X-----X---XXXXXXXXXXX---XXXXXXXXXXXXXXXXXXXXXXX--XXXXXXXXXXXXXXXXXXXXXXXXXXXXXXXXXXXXXXXXXX-XXXXXXXXXXXXXXXXXXXXXXXXXXXXXXXXXXXXXXXXXXXXXXXXXXXXXXXX----