------------------------------------------------------------------------------------------------------------------------------------------------------
------------------------------------------------------------------------------------------------------------------------------------------------------
------------------------------------------------------------------------------------------------------------------------------------------------------
------------------------------------------------------------------------------------------------------------------------------------------------------
------------------------------------------------------------------------------------------------------------------------------------------------------
--------------------oo--------oo--------oo-------------------------------------------ooo--------------------------------------------------oo----------
-----------------------------------------------------------------------------SSSS------------------SSSS-----------------------------------------------
------oo--------------------o-------------------oooo--------------------------------------------------------------------------------------------------
-----------------------------------------------%%%%%%-----------%%%%----------------------------------------------------------------------------------
---M------------%%%%%---------------------------||||------------|||-------------------oo-----------------------------o--------------------------------
---SS------%%%---|||-----------%%%%------%%%%---||||------------||------------------%%%%%--------------%%%%--------------SSSS-------------------------
------------|---||||------------||--------||----||||------------||-----------%%%%----|||----------------||--------------------------------------------
------------|---||||------------||--------||----||||---%%%%-----||------------||-----|||-------%%%%%%---||------------------------------------%%%%%---
------oo----|---||||------------||--------||----||||-----|------||------------||-----|||-%%%%---||||----||-----------r-------------------------|||----
-----%%%%%%%%%--||||------------|%%-%%----||----||||------------||------XXXXX-||%-%%%-||--||----||||----||--XXXXXXXXXXXXXXX-----XXXXXXXXXXXXX-||||---%
------||--|-|---||||------------||--------||----||||------------||------XXXX--||----|-||--||----||||----||---XXXXXXXXXXXXXX-----XXXXXXXXXXXXX--|||--|-