-----------------------------------------------------------------------------------------------------------------------------------------------------------------------------------------------------
-----------------------------------------------------------------------------------------------------------------------------------------------------------------------------------------------------
-----------------------------------------------------------------------------------------------------------------------------------------------------------------------------------------------------
-----------------------------------------------------------------------------------------------------------------------------------------------------------------------------------------------------
-----------------------------------------------------------------------------------------------------------------------------------------------------------------------------------------------------
-----------------------------------------------------------------------------------------------------------------------------------------------------------------------------------------------------
------------------#S-------------------S---------------------SSS-------------------------Q-----------------------SS--------------------S-------------#-----------------------------------------------
-----------------------------------------------------------------------------------------------------------------------------------------------------------------------------------------------------
-----------------------------------------------#-----------------------S-------------------------------------------------SS--------------------------------------------------------------------------
-----------------------------------------------#-----------------------------------------------------------------------------------------------------------------------------------------------------
-------------------Q-----------------------C---#-------C-------#---------------#-----SS----##---------TT-----------------------------S---------------T-----T---------------#-----S---------------#---
------------TT---------------------------------#--------------##---------------#-----------#-----------T-------------------TT------------------------TT----TT--#-----------#---------------------#---
------------TT-----------------------##--------#--------------##---------------#-----------##----------T-------------K-----TT------------------------TT----TT--#------------#--------------------#---
-M-g--------TT-----------------------##------------------k----##-----------k---#-----------##----------T--------g----------TT-g----------------------TT----TT--#X----------##----k--g----------------
XXXXXXXXXXXXXXXXXXXXXXXXXXXXXXXXXXXXXXXXXXXX---XXXXXXXXXXXXXXXXXXXXXXX---XXXX--XXXXXXXXXXXXXXXXXXXXXXXXXXXXXXXXXXXXX-----XXXXXXXXXXXXX---XXXX-XXXXXXXXXXXXXXXXXXXXXXXXXXXXXXXXXXXXXXXXXXXXXXXXXXXXXXX
XXXXXXXXXXXXXXXXXXXXXXXXXXXXXXXXXXXXXXXXXXXX---XXXXXXXXXXXXXXXXXXXXXXX---XXXX--XXXXXXXXXXXXXXXXXXXXXXXXXXXXXXXXXXXXX-----XXXXXXXXXXXXX---XXXX-XXXXXXXXXXXXXXXXXXXXXXXXXXXXXXXXXXXXXXXXXXXXXXXXXXXXXXX