------------------------------------------------------------------------------------------------------------------------------------------------------------------------------------------------------------------------------
------------------------------------------------------------------------------------------------------------------------------------------------------------------------------------------------------------------------------
------------------------------------------------------------------------------------------------------------------------------------------------------------------------------------------------------------------------------
------------------------------------------------------------------------------------------------------------------------------------------------------------------------------------------------------------------------------
------------------------------------------------------------------------------------------------------------------------------------------------------------------------------------------------------------------------------
------------------------------------------------------------------------------------------------------------------------------------------------------------------------------------------------------------------------------
--------------------------------------------------------------------------------------Q---------------------------------------------------------------------------------------------------------------------------------------
---------o--------------------------------------------oo----------------------------------------------------------------------------------------------------------------------------------------------------------------------
------------------------------------------------------------------------------------------------------------------------------------Q--------------------#--------------------------------------------------------------------
--------------------------------------##----------------------------------------------------------------------------------------------------------------#---------------------------------------------------------------------
--------------------------------------##-----------T------------TT------------------------------------------Q---------------Q---------------------------##--------------------------TT-------------------------QQQS---TT------
--------------------------------------##-----------T------------TT--------------------------------------TT--------------------------------------------####--------------------------TT--------------------------------TT------
----------------------------------#-#-#-----------TT------------TT------------------#-------------------TT----------------------------#---------------#--#----------------TT---------T--------------------------------TT------
-M---------y---------------T-------#####----------TT------------TT---y----------#---#--------------y-----T-----------------y----------#----------y---#---#-------y---y----TT---------T--------------------------------TT---y--
XXXXXXXXXXXXX---XX--XX--XXXXXXXXXXXXXXXXXXXXXXXXXXXXXXXXXXXXXXXXXXXXXXXXXXXXXXXXXXXXXXXXXXXXXXX---XXXXXXXXXXXXXXXXXXXXXXXXXXXXXXXXXXXXX--XXXXXXXXXXXXXXXXXXXXXXXXXXXXXXXXXXXXXXXXXXXXXXXXXXXXXXXXXXXXXXXXXXXXXXXXXXXXXXXXXXXXX
XXXXXXXXXXXXX---XX--XX--XXXXXXXXXXXXXXXXXXXXXXXXXXXXXXXXXXXXXXXXXXXXXXXXXXXXXXXXXXXXXXXXXXXXXXXX--XXXXXXXXXXXXXXXXXXXXXXXXXXXXXXXXXXXXXX-XXXXXXXXXXXXXXXXXXXXXXXXXXXXXXXXXXXXXXXXXXXXXXXXXXXXXXXXXXXXXXXXXXXXXXXXXXXXXXXXXXXXX