-------------------------------------------------------------------------------------------------------------------------------------------------------------------------------------------------------------------------------------------------------------------------------------------------------------------------------------------------------------------------------------
-------------------------------------------------------------------------------------------------------------------------------------------------------------------------------------------------------------------------------------------------------------------------------------------------------------------------------------------------------------------------------------
-------------------------------------------------------------------------------------------------------------------------------------------------------------------------------------------------------------------------------------------------------------------------------------------------------------------------------------------------------------------------------------
-------------------------------------------------------------------------------------------------------------------------------------------------------------------------------------------------------------------------------------------------------------------------------------------------------------------------------------------------------------------------------------
---------------------------------------------------------------------t---------------------------------------------------------------------------------------------------------------------------------------------------------------------------------------------------------------------------------------------------------------------------------------------------------------
--------------------------------------------------------------------tt---------------------------------------------------------------------------------------------------------------------------------------------------------------------------------------------------------------------------------------------------------------------------------------------------------------
---------------------------------------------------------------------#-------------------------------------------------------------------------------------------------------------------------------------------------------------------o--SSSSSSSo----------------------------------------------------------------------------SSSCSS-----------------------------------------------
-----------------------------------------------------------------------------------------------------------------------------------------------------------------------------------------------------------------------------------------o-------------------------------------------------------------------------------------------------------------------------------------------
------------------------------------------------------------------------------------------------------------------------------------------------------------------------------------------------------------------------------##-----------------------------------------------------------------------------------------------------------------------------------------------------
------------tt---------------------------------------------------------------------------------------------------------------------------T-------------------------------------------------t---------------------------------###-------------------------------------------------------------------o-----o---------------------------------------------------------------------------
------------#t--------------------T--#--oo---o-----------------------------------------------------------T------------------------------TT--------------------------------------------TT---t---------------------------------###---------------2o-----------------------------------------------------------------------------------2--------------------------------TT--------------
--T---------#T--------------------TT-#------------------------------------------------------oo----------TT------------------------------TT-----------------o--------------------------TT--ttt------------------------------#-###-----------------------------------------TT------------------------------------------------------------------------------------------T---------------
--TT--------TT--------------------TT-------------------------------------#-------------------------------TT---------#-#-----------------TT--------------------------------------------TT--ttt------------------------------#-###---------------------------#-------------TT------------------------------------------------------------------------------------------#---------------
-MT---------T-------------k-gg----TT-#--tt-----------ggg------kkk--------g------------ggg-----------ggg--TT---ggg-----#------g----------TT----k-k--k-------------------gggg-k-k-ggg---TT---t-gg-------------------------ggg#-###-------------------------k-#-------------TT---------------k------------------------------g-------------------ggg----------k----------#---------------
XXXXXXXXXXXXXXXXXXXXXXXXXXXXXXXXXXXXXXXXXXX-----XXXXXXXXXXXXXXXXXXXXXXXXXXXXXXXXXXXXXXXXXXXXXXXXXXXXXXXXXXXXXXXXXXX-X-X-XXXXXXXXXXXXXXXXXXXXXXXXXXXXXXXXXXXXX-X-X-X-XXXXXXXXXXXXXXXXXXXXXXXXXXXXX-XXX-XXXXXXXXXXXXXXXXXXXXXX-XXXXXXXXXXXX-X-XXXXXXXXXXXXXXXXXXXXXXXXXXXXXXXXXXXXX-XXXXXXXXXXXXX------------XXXXXXXXXXXXXXXXXXXXXXXXXXXXXXXXXXXXXXXXXXXXXXXXXXXXXXXXXXXXXXXXX-X-----XX
XXXXXXXXXXXXXXXXXXXXXXXXXXXXXXXXXXXXXXXXXXX---X-XXXXXXXXXXXXXXXXXXXXXXXXXXXXXXXXXXXXXXXXXXXXXXXXXXXXXXXXXXXXXXXXXXXXX-XXXXXXXXXXXXXXXXXXXXXXXXXXXXXXXXXXXXXXX-X-X-XXXXXXXXXXXXXXXXXXXXXXXXXXXXXXX-XXX-XXXXXXXXXXXXXXXXXXXXXXXXXXXXXXXXXXXXXXXXXXXXXXXXXXXXXXXXXXXXXXXXXXXXXXXXXXXXXXXXXXXXXXXXX------------XXXXXXXXXXXXXXXXXXXXXXXXXXXXXXXXXXXXXXXXXXXXXXXXXXXXXXXXXXXXXXXXX-------XX