------------------------------------------------------------------------------------------------------------------------------------------------------------------------------------------------------------------------------
------------------------------------------------------------------------------------------------------------------------------------------------------------------------------------------------------------------------------
------------------------------------------------------------------------------------------------------------------------------------------------------------------------------------------------------------------------------
------------------------------------------------------------------------------------------------------------------------------------------------------------------------------------------------------------------------------
------------------------------------------------------------------------------------------------------------------------------------------------------------------------------------------------------------------------------
------------------------------------------------------------------------------------------------------------------------------------------------------------------------------------------------------------------------------
------------------------------------------------------------------------------------------------------------------------------------------------------------------------------------------------------------------------Q-----
--------------------------------------------------------------------------------------------------------------oo--------------------------------------------------------------------------------------------------------------
--------------------------------------Q----------------------------------#----------------------------------------------------------------------------------------------------------------------------------------------------
----------------------------------------------------------------------y##--------------------------------------------------------------------oooo------------------------------o-o-------------------------o------------------
-------------------------Q--------------------------------------------------------------------------------TT------------T---Q-------------T----------------------------------------------------QQ-----------------------Q-----
----------------------------------------------------------------------#---------------------T-------------TT------------T-----------------T-----------------------------------------------------------------------------------
---------------------------------------------------------------------###--------------------TT------------TT-----------TT-----------------T-----------------------------------------------------------------------------------
-M-------------------------y---y------------------------------------###--#------------------TT------------TT-------y---TT----------------TT----------------------------------------------------y------------------------------
XXXXXXXXXXXXXXXXXXXXXXXXXXXXXXXXXXXXXXXXXXXXXXXXXXXXXXXXXXXXXXXXXXXXXXXX-XXXXXXXXXXXXXXXXXXXXXXXX---------XXXXXXXXXXXXXXXXXXXXXXXXXX--XXXXXXXXXXXXXXXXXXXXXXXXXXXXXXXXXXXXXXXXXXXXXXXXXXXXXXXXXXXXXXXXXXXXXXXXXXXXXXX-XXXXXXXX
XXXXXXXXXXXXXXXXXXXXXXXXXXXXXXXXXXXXXXXXXXXXXXXXXXXXXXXXXXXXXXXXXXXXXXXX-XXXXXXXXXXXXXXXXXXXXXXXX---------XXXXXXXXXXXXXXXXXXXXXXXXXX--XXXXXXXXXXXXXXXXXXXXXXXXXXXXXXXXXXXXXXXXXXXXXXXXXXXXXXXXXXXXXXXXXXXXXXXXXXXXXXX-XXXXXXXX