------------------------------------------------------------------------------------------------------------------------------------------------------
------------------------------------------------------------------------------------------------------------------------------------------------------
------------------------------------------------------------------------------------------------------------------------------------------------------
-------------------------o----------------------------------------------------------------------------------------------------------------------------
-----------------------------g-----------------------------------------------------------------------------g------------------------------------------
-----------------oo--------%%%%%%-------oo------------------------------------oo----------------------%%%%%%%%%----------------------%oo--------------
----------------------------||||-%------%%%--------------------------------------SSS-----------------|-||||||------------------------%%%%|------------
-----------------------R----|||||%%%-----|--------------------------------------S--------------------||||||||-------------------------||||------------
----------------------------|||||||------------%%%%%%---------oo--------oo--------------SSS----------||||||||-------So----------------||||------------
--------------oo--------%%%-||||||||-----------%||||-------------------------------------------------||||||||-------------------------||||------------
-------------------------|--||||||||--%%%%%%%%%-||||------------------------SS%-------------SS--------|||||||------------%%%%%%%%%--|-||||----SS------
---------------S---------|-|||||||||-----|||||--||||------------%%------------------------------------|||||||----------####---|||---||||||------------
------------------------|%||||||||||-----|||||--||||------------||-----------%-------------------------|||||----------###-----||||--||||||------------
-M----------------------||||-||||||||-----||||--||||------------||-----%%%%------%---------------%%%%--|||||-----------####---||||--||||||---------#--
XXXXXXXXX-------------%-||||-|||||||||--|-||||--||||---%%%%%----||------||--%%%-||---XXXXXX-X-----||---|||||---XXXXXXXXXXXXXX-||||--||||||----XXXXXXXX
XXXXXXXXX-------------|-||||-|||||||||--|-||||--||||----||%-----||------||---|--||---XXXXXX-X-----||----||||---XXXXXXXXXXXXXX-||||--||||||---XXXXXXXXX