----------------------------------------------------------------------------------------------------------------------------------------------------------------------------------------------------
----------------------------------------------------------------------------------------------------------------------------------------------------------------------------------------------------
----------------------------------------------------------------------------------------------------------------------------------------------------------------------------------------------------
----------------------------------------------------------------------------------------------------------------------------------------------------------------------------------------------------
----------------------------------------------------------------------------------------------------------------------------------------------------------------------------------------------------
----------------------------------------------------------------------------k-----------------------------------------------------------------------------------------------------------------------
----------------SSQS----------------------------------------#-------------##------------------------------------------------------------------------------------------------------------------------
------#-----------------------------------------------------#-------------###-----------------------------------------------------------------------------------------------------------------------
------#--------------------------------------------#---------------------####-----SSS---------------------------------------------------------------------------------------------------------------
-----##-------------------------------------------##---------------------####-----------------------------------------------#-------------gg--------------------------ggg---------------------------
----##---------####----------T------------------####------------TT------#####-----------S-----TT----------------------------#----#S-------#-------------TT--------########--------------------------
----##--------#####---------TT----#------------#####------------TT-------####-----------------TT---------------------------###--------------------------TT------------------------------------------
----##-------#####----------TT----#-----------######------------TT------#####-----------------TT---------TT---------------####--------------------------TT--------------------------------TT--------
-M--##------######----gg----TT----#-----------######------------TT----K--##-#-----------K---ggTT---------TT-----TT-------#####--------------------------#-------------------g-------------TT-----#--
XXXXXX--XXXXXXXXXXX---XXXXXXXXXXXXXXX----XXXXXXXXXXXXXXXXXXXXXXXXXXXXXXXXXXXXXXXXXXXXXXXXXXXXXXXXXXXXXXXXXXXXXXXXXXXXXXXXXXXXXXXXXXXXXXXXXXXXXXXXXXXXXXXX---XXXX-------------XXXXXXXXXXXXXXXXXXXXXXX
XXXXXX--XXXXXXXXXX----XXXXXXXXXXXXXXX----XXXXXXXXXXXXXXXXXXXXXXXXXXXXXXXXXXXXXXXXXXXXXXXXXXXXXXXXXXXXXXXXXXXXXXXXXXXXXXXXXXXXXXXXXXXXXXXXXXXXXXXXXXXXXXXX---XXXX-------------XXXXXXXXXXXXXXXXXXXXXXX