----------------------------------------------------------------------------------------------------------------------------------------------------------------------------------------------------
----------------------------------------------------------------------------------------------------------------------------------------------------------------------------------------------------
----------------------------------------------------------------------------------------------------------------------------------------------------------------------------------------------------
----------------------------------------------------------------------------------------------------------------------------------------------------------------------------------------------------
----------------------------------------------------------------------------------------------------------------------------------------------------------------------------------------------------
--------------------------------------------------------------------------------------------------------------------------------------------------------------------------------k-----------k-------
-----Q----------------------------SS-------------------------------------------------------------------------------------------------------------------------------------------------------SSSS-----
----------------------------------------------------------------------g-----------------#-----------------------------------------------------------------------------------------------------------
-------------------------SS---S--------SS----------------------------------------------##-----------------------SSSS-S------------------------------------------------------------------------------
---------------------------------------------------------------------------------------##-------------------------------------------------------------#-----------------------S---------------------
-----------T-------------#--------S--------------------T-----------###----------#---#---#---------SS-------------------------------------SSS---------##-----------------------#-----------SSS-------
----------TT-----------###----------------------------TT------------------------#-------#---------------------------------------------------------##--#-----------------------#-------TT------------
----------TT-----------###------------------------TT--#T--------###-------------#-------#-----------------------------------T---------------------##--#-----------------------##------TT------------
-----M-gggTT---------######-----------------------TT--#T----k---###---------#---#-------#-----------------------------------T------------gg---k---##--#-----------------------##--ggggTT---------#--
-----XXXXXXXXXXXXXXXXXXXXXXXXXXXXXXXX-----XXXXXXXXXXXXXXXXXXXXXXXXXX-------XX---X-----XXX--XXXXXXXXXXXXXXXXXXXX----XXXXXXXXXXXXXXXXXXXXXXXXXXXXXXXXXXXXXXXXXXXXXXXXXXXXXXXXXXXXXXXXXXXXXXXXXXXXXXXXX
-----XXXXXXXXXXXXXXXXXXXXXXXX-XXXXXXX----XXXXXXXXXXXXXXXXXXXXXXXXXXX-------XX---X-----XXXXXXXXXXXXXXXXXXXXXXXXX----XXXXXXXXXXXXXXXXXXXXXXXXXXXXXXXXXXXXXXXXXXXXXXXXXXXXXXXXXXXXXXXXXXXXXXXXXXXXXXXXX