--------------------------------------------------------------------------------------------------------------------------------------------------------------
--------------------------------------------------------------------------------------------------------------------------------------------------------------
M-------------------------------------------------------------------------------------------------------------------------------------------------------------
S--SSSSSSSSS------SSSSSSSSSSSSSSSSSSSSSSSSSSSSSSSSSS---------SSSSSSSSSSSSSSSSSSSSSS----------SSSSSSSSSSSSSSSSSSSSSSSSSSSSSSSSSSSSSSSSSSSSSSSSSSSSSSSSSSS-S----
S-----SSSSSS---------------------SSSSSS-----------------------------SS--------------------------------S-------------------------------------------------------
S-----SSS-SS---------------------SSSSSS-----------------------------SS--------------------------------SS------------------------------------------------------
S---------------------------SS--SS----------------------------------SS----------SSSS----------------SSSS------------------------------oooo----SS--SSS---------
S--------------------------SSSS--S----------------------------------SS-------------------------------SSS------------------------------------------SSS---------
S---------------------------SSSSSS---S------------------------SSSS--SS-----------------------S--------SS----------------------------SSSSSSS-------S-----------
S-----SS------------------og----SS---Sog------------------------SS--SS-----------------------Soo------SS--SS----SoSS-----S--------SSSS--SSS-------SS----------
S-----SS---------#-----S-SSS----SS---SSSSSQQ--------------------SS--SS----S------------------SSSS----SSS--SS----SSSS--------------SSS-----SS------SS----------
S--------------#-#--------------SS-------------#------------------------------SS------------------------------------------------------------------SS----------
S--------------#-#--------------SS-------------#-#----------------------------SSSSS----------------------------------#----------------------------SS----------
S------------#-#-#---------------------------#-#-#-#-----T---g-----------------------------S-----------------------#-#---------------g-g----------------------
S---XXXXXXXXXXXXXXXXXXXXXXXXXXXXXXXXXXXXXXXXXXXXXXXXXXXXXXXXXXXXXXXXXXXXXXXXX----------X--XX--XXXXXXXXXX--XXXXXXXXXXXXXXXXXXXXXXXXXXXXXXXX-XXX---XXXXXXXXX--XX
S--XXXXXXXXXXXXXXXXXXXXXXXXXXXXXXXXXXXXXXXXXXXXXXXXXXXXXXXXXXXXXXXXXXXXXXXXXX----------X--XX--XXXXXXXXXXXXXXXXXXXXXXXXXXXXXXXXXXXXXXXXXXXX-XXX---XXXXXXXXX--XX