----------------------------------------------------------------------------------------------------------------------------------------------------------------------------------------
----------------------------------------------------------------------------------------------------------------------------------------------------------------------------------------
----------------------------------------------------------------------------------------------------------------------------------------------------------------------------------------
----------------------------------------------------------------------------------------------------------------------------------------------------------------------------------------
----------------------------------------------------------------------------------------------------------------------------------------------------------------------------------------
----------------------------------------------------------------------------------------------------------------------------------------------------------------------------------------
-------------------#-y---------------------------#SS----------------#S------------------------------------------------------------------------------------------------------------------
------------------------------------------------##-------------------------------------------------------------------------------------------------------------------------#------------
------------------------------------------------##----------------------------y-------------------------------------------------------------------------------------------##------------
------------------------------------------------##--SS------#S--------------#SSS---------------------------------------------------------------------------------------y--##------------
---------------#--##----QQ----------oQ---------###---------##-----2---------#----------------------ooo------------------------oo-------------------------ooo----------##--##------------
-----######---##-----------------------------y####--------###--------------y##-----------------------------------------------o---------------------------------------###--##---S--------
----###--------------------------------------#####-------####-------------####-------------------------------------------TT-----------------------------------------####--##------------
-M----#-------------------------------------######----SSS####---SS-------####---SSSS-------------y---------------y-------TT----------------------------y---y-------T------##------------
XXXXXXX--X-X-XXXXXXXXXXXXXX--XXXXXXXXXX--XXXXXXXXX------XXXXX----XXXXXXXXXXX----------XXXXXXXXXXXXXXXXXXXXXXXXXXXXXXXXXXXXXXXXXXXXXXXXXXXXXXXXXXXXXXXXXXXXXXXX--XXXXXXXXXXXXXX---XXXXXXX
XXXXXXX-XX-XXXXXXXXXXXXXXXXXXXXXXXXXXXX--XXXXXXXXX------XXXXX----XXXXXXXXXXX----------XXXXXXXXXXXXXXXXXXXXXXXXXXXXXXXXXXXXXXXXXXXXXXXXXXXXXXXXXXXXXXXXXXXXXXXX--XXXXXXXXXXXXXX---XXXXXXX