------------------------------------------------------------------------------------------------------------------------------------------------------------------------------------------------------------------------------
------------------------------------------------------------------------------------------------------------------------------------------------------------------------------------------------------------------------------
------------------------------------------------------------------------------------------------------------------------------------------------------------------------------------------------------------------------------
------------------------------------------------------------------------------------------------------------------------------------------------------------------------------------------------------------------------------
--------------------------------------------------------------------------------------------------------------------------QQQ-------------------------------------------------------------------------------------------------
----------------------------------------------------------------------------------------------------------------------------#-------------------------------------------------------------------------------------------------
----------------------------------Q-----------------------------------------------------------##----------------------------##---------------------------------------------------------------------------------------Q--------
--------------------------------------------------------------------------------------------y#-#--------------------------#--#--------------------------------------------ooo---------------------------oo--------------------
-------------------------------------------------------QQQ----------------------------------##-#-------------------------#####-----------------------------------------------o------------------------------------------------
-------------------------------------------------------------------------------------------#####------------------------######---------------------------------------------------------------------------------------y--------
-----------------------------------Q------------------------------------------------------######------------------------######-------T----------------------------------------------------------------------------Q?SSSQQQ----
------------------------------------------------------o----------------------------------#######-----------------------#######------TT----------------------------------------------------------------------------------------
----------------------------------------------TT-----------------------------------------#-####-----------------------########------TT---------------------------------------------------------------T------------------------
-M---------------y----------------------------TT----------------------------------------#-#####----------y-----------#########------TT---------------------------------------------------y--y----y--TT------------------------
XXXXX---XX----XXXXXXXXXXXXXXXXXXXXXXXXXX--XXXXXXXXXXXXXXXXXXXXXXXXXXXXXXXXXXXXXXXXXXXXXXXXXXXXXXXXXXXXXXXXXXXX--XXXXXXXXXXXXXXXXXXXXXXXXXXXXXX--XXXXXXXXXXXXXXXXXXXXXXXXXXXXXXXXXXXXXXXX--XXXXXXXXXXXXXXXXXX---XXXXXXXXXXXXXXX
XXXXX---XX----XXXXXXXXXXXXXXXXXXXXXXXXXX--XXXXXXXXXXXXXXXXXXXXXXXXXXXXXXXXXXXXXXXXXXXXXXXXXXXXXXXXXXXXXXXXXXXX--XXXXXXXXXXXXXXXXXXXXXXXXXXXXXX--XXXXXXXXXXXXXXXXXXXXXXXXXXXXXXXXXXXXXXXX--XXXXXXXXXXXXXXXXXX---XXXXXXXXXXXXXXX