--------------------------------------------------------------------------------------------------------------------------------------------------------------------------------
--------------------------------------------------------------------------------------------------------------------------------------------------------------------------------
--------------------------------------------------------------------------------------------------------------------------------------------------------------------------------
--------------------------------------------------------------------------------------------------------------------------------------------------------------------------------
-------------#------------------------------------------------------------------------------------------------------------------------------------------------------------------
------------##------------------------------------------------------------------------------------------------------------------------------------------------------------------
-----------###--------------------------------------------------SS------SSS---------------------SSSSSSSS-----------------------SSSSS--------------------------------------------
----------####-----------------------------------------------------------------------------------------------------------------------------K---*--------------------------------
---------#####-----------------------------*-----------------*--------------------SSSS------------------------------------------------------------------------------------------
--------######-----------------------------*-----------------*------------------------------------------------------------------------------------------------------------------
-------#######----QQ---------------------SS#CS------------SSS#CS-------SSS--------------------SSSS-SSS--------------------S-SS------S-----SS------------------------------------
------########---------*-------------T---------*-----------------------------*-------------------------------------TT--------------K-----------K--------TT-----TT------K---*----
-----#########---------*------------T----------*-------*---------*-----------*---------------------*--------TT-----TT------------------*-----------*----TT-----TT----------*----
-M---#########---------B-----------T-----------*-------*---------*-----------B-------*-------------B--------TT-----TT------------------B-----------*----TT-----T----------------
XXXXXXXXXXXXXXXXXXXXXXXXXXXXXXXXXXXXXXXXXXXXXXXXXXXXXXXXXXXXXXXXXXXXXXXXXXXXXXXXXXXXXXXXXXXXXXXXXXXXXXXXXXXXXXXXXXXXXXXXXXXXXXXXXXXXXXXXXXXXXXXXXXXXXX-XXXXXXXXXXXXXXXXXXXXXXXXX
XXXXXXXXXXXXXXXXXXXXXXXXXXXXXXXXXXXXXXXXXXXXXXXXXXXXXXXXXXXXXXXXXXXXXXXXXXXXXXXXXXXXXXXXXXXXXXXXXXXXXXXXXXXXXXXXXXXXXXXXXXXXXXXXXXXXXXXXXXXXXXXXXXXXXX-XXXXXXXXXXXXXXXXXXXXXXXXX