----------------------------------------------------------------------------------------------------------------------------------------------------------------------------------------------------------------------
----------------------------------------------------------------------------------------------------------------------------------------------------------------------------------------------------------------------
----------------------------------------------------------------------------------------------------------------------------------------------------------------------------------------------------------------------
----------------------------------------------------------------------------------------------------------------------------------------------------------------------------------------------------------------------
----------------------------------------------------------------------------------------------------------------------------------------------------------------------------------------------------------------------
----------------------------------------------------------------------------------------------------------------------------------------------------------------------------------------------------------------------
---------------------------------------------------------------------------------------------------------------------------------------------------------------------------------SSS----------------------------------
--------------------------------------T-------------------------------------------------------------------------------------------------------------------------------------------------------------------------------
--------------------------SS--SS------------------------------------------------------------S-------------------------------------------------------------------------------------------SS--------------S-------------
--------------------TT------------------------------------------------------------------------------------------------------------------------------------------------------------------------------------------------
-------SSSSS--------TT-------------------T------TT--------------------SS----TT----TT----------TT---S----TT------SX----TT------TT-------T----------------SSS-------T--------T----------------TT------T-----t----------t
--------------------TT------------------TT------TT------TT------------------TT----TT----------TT--------TT------------TT-----TTT------TT--------------------------TT------TT----------------TT----TTT-----t---TT----tt
----------------TT--TT----------------#-TT----T-TT------TT----#-------------TT----TT------tt--TT--------TT------------TT-----TTT----T-TT-----t----TT--TT----------TT------TT----------------TT----TTT---------TT----tt
-M--------------TT--TT---------------#--TT----T-TT-------T---##-------------TT----TT------tt--TT--------TT----------T-TT-----TTT----T-TT-----t----TT--TT----------TT------TT----------------TT--k-TTT---------TT----tt
XXXXXXXXXXXXXXXXXXXXXXXXXXXXXXXXXXXXXXXXXXXXXXXXXXXXXXXXXXXXXXXXXXXXXXXXXXXXXXXXXXXXXXXXXXXXXXXXXXXXXXXXXXXXXXXXXXXXXXXXXXXXXXXXXXXXXXXXXXXXXXXXXXXXXXXXXXXXXXXXXXXXXXXXXXXXXXXXXXXXXXXX--XXXXXXXXXXXXXXXXXXXXXXXXXX--
XXXXXXXXXXXXXXXXXXXXXXXXXXXXXXXXXXXXXXXXXXXXXXXXXXXXXXXXXXXXXXXXXXXXXXXXXXXXXXXXXXXXXXXXXXXXXXXXXXXXXXXXXXXXXXXXXXXXXXXXXXXXXXXXXXXXXXXXXXXXXXXXXXXXXXXXXXXXXXXXXXXXXXXXXXXXXXXXXXXXXXXX--XXXXXXXXXXXXXXXXXXXXXXXXXX-X