------------------------------------------------------------------------------------------------------------------------------------------------------
------------------------------------------------------------------------------------------------------------------------------------------------------
------------------------------------------------------------------------------------------------------------------------------------------------------
---------------------------------------------------------------------------------------------------------------------R--------------------------------
------------------------------------------------------------------------------------------------------------------------------------------------------
------------oo----------------o-------oo------------------------------------------------------oo------------------------------------------------------
-----------------g---------%%%----------------------###%%----------------SS---------------------------------------------------------------------------
---------------%%%%%%-------||----oo----------------###-------oo--------------##----------------------------------------------------------------------
----------------||||--------||-------------%%%%----####--------------------####------------------------SSS-----%%%--------------------%%%%%-----------
----------------||||----oo--||--------------||---#######-----------------######----------%%%--oo----------------||----------------------||%%%---------
---------%%%%%%-||||---%%%%%%%%%------SS----||---######--------------##########%%%%%-%%%%||------------------#--#--------%%%-%%%%%%-----||||----------
----------||||--||||----||--||--------------||---#####---------------##########-|||---|||||-----------------###-#---------|---||||------||||----------
----------||||--||||----||--||-----%%%%-%%%-||--######---------------##########-||----||||-----------------#####----------|---||||------||||----------
-M--------||||--||||----||--||------||---|--||---#####---------o-----##########-||----||||------------------####----------|---||||------||||-------#--
XXXXX-----||||--||||-|--||--||------||--||--||--XXXXXX---%----%%%%X-XXXXXXXXXXX-||----||||------XXXXXXXXXXXXXXXXXXXXXXXXX%%%%-||||-----|||||--XXXXXXXX
XXXXo-----||||--||||----||--||------||--||--||---XXXX----------||---XXXXXXXXXXX-||----|||||-----XXXXXXXXXXXXXXXXXXXXXXXXX-||--||||-----|||||---XXXXXXX