-------------------------------------------------------------------------------------------------------------------------------------------------------------------------------------------------------------------------------------------------------------------------------------------------------------------------------------------------------------------------------------
-------------------------------------------------------------------------------------------------------------------------------------------------------------------------------------------------------------------------------------------------------------------------------------------------------------------------------------------------------------------------------------
-------------------------------------------------------------------------------------------------------------------------------------------------------------------------------------------------------------------------------------------------------------------------------------------------------------------------------------------------------------------------------------
-------------------------------------------------------------------------------------------------------------------------------------------------------------------------------------------------------------------------------------------------------------------------------------------------------------------------------------------------------------------------------------
-----------------------------------------------------------------------------------------------------------------------------------------------o-------------------------------------------------------------------------------------------------------------------------------------------------------------------------------------------------------------------------------------
-------------------------------------------------------------------------------------------------------------------------------------------------------------------------------------------------------------------------o-----------------------------------------------------------------------------------------------------------------------------------------------------------
----------##-----------------------------------------------------------------------------------------------------------o---------------------------------------------------------------------------------------------------------------------------------------------------------------------o---------------------------------------------------------------------------------------
--------###--------------------------------------------------------------------------------------------------------------------------------------------------------------------------------t---------------------------------------------------------------------------o-------------------#-----------------------------------------------------------------------------------------
------#-#-#------------------------------------------------------------------------------------------------------------------------SSSSS-------------------------------------------------------------------------------------------T-------------------------------------------------------#-----------------------------------------------------------------------------------------
------#-#-##-----------------------------------------------------------------------------------------------------------------------------------------------------------------------------------------------------------o-----------T-----------------------o-----------------------------###---o-----------------------------------o-------------------------------o-----------------
------#-#-##----------TT--------------------------------------oo---o--------------------------------------------------------------------------------------------------------------------------------------------------------------TT-----------------------------------------TT--t-----#-####----------TT----------------------------------------------------------------TT----------
----#-#----#----------TT-------------------------------o---o-------------------------------------------------------------------------------------------------------------------------------------T---------------------------------T-------TT--------------------------------TT--tt----###-##----------TT----------------------------------------------------------------TT----------
----#-#----#----------TT-----------------TT-------------------------------------------------------------------------------TT-------------------------------------#-------------------------------T-----------------------------------------TT--------------------------------TT------#-#-#-##----------TT----------------------------------------------------------------TT----------
XXM-#-#-#-#t----------TT-----------------TT------g----------ggg---------------k---k-k-----k-gg----kk--k-k-----------------TT--------------------------ggg------k-#-k----------------------ggg----T----------------k-k-------ggg---T------k-TT---------------------k------k---TT--k---#-#-#-##----------TT--------------kk----k-----------------------k-ggg------k--------TT------k---
XXXXX-XXXXXXXXXXXXXX--XXXXXXXXXXXXXXXX--XXXXXXXXXXXXXXXXXXXXXXXXXXXXXXXXXXXXXXXXXXXXXXXXXXXXXXXXXXXXXXXXXXXXXXXXXXXXXXXXXXXXX--X--X-XXXX--X-XXXXXXXXXXXXXXXXXXXXXXXXXXXXXXXXXXXXX-XXXXXXXXXXXXXXXXXXXXX-XXXXXXXXXXXXXXXXXXXXXXXXXXXXXXXXXXXXXXXXXXXXXXXX---------XXXXXXXXXXXXXX-XXXXXX-X-X-XXXX--XXXXXXXXXXXXXX--XXXXXXXXXXXXXX---------X--XXXXXXXXXXXXXXXXXXXXXXXX--XXXXXXXXXXXXXXXX
XXXXXXXXXXXXXXXXXXXX--XXXXXXXXXXXXXXXX-XXXXXXXXXXXXXXXXXXXXXXXXXXXXXXXXXXXXXXXXXXXXXXXXXXXXXXXXXXXXXXXXXXXXXXXXXXXXXXXXXXXXXX--X--X-XXXX--XXXXXXXXXXXXXXXXXXXXXXXXXXXXXXXXXXXXXXX-XXXXXXXXXXXXXXXXXXXXXXXXXXXXXXXXXXXXXXXXXXXXXXXXXXXXXXXXXXXXXXXXXXXXXX---------XXXXXXXXXXXXXXXXXXXXXXXXXXXXXX--XXXXXXXXXXXXXX--XXXXXXXXXXXXXX---------X--XXXXXXXXXXXXXXXXXXXXXXXX--XXXXXXXXXXXXXXXX