---------------------------------------------------------------------------------------------------------------------------------------------------------------------
---------------------------------------------------------------------------------------------------------------------------------------------------------------------
--------------------------------------------------------------------------------------------------------oo-----------------------------------------------------------
-------------------------------------------------------------------------------------------------------SSS-------------------------------------o---------------------
-------------------------------------------------------------------------------------------------------------S-------------------------------------------------------
------oooo---------ooo-----------------------------------------------------------------------------------------------------------------------------------------------
------S------------------------------------------ooo--%%%%-----------S----------------------------------SSS--------------SSS-----------------SSSS---------SSS--------
----------------------------------------------oooSS----||----------SSS------------------------------------------oo---------------------------------------------------
---------S---------SSS---------------------SSSS--------||-------------------o---------------------------------SS-----------------o-----------------------------------
-------------------------------------------------------||------------------------------------------------------------------------------------------------------------
--------%%-------------S----------%%%%%-----------SS---||-%%%-%%%%%-----SS--%%%%%%------------------SSS-----------------------SSS---%%%%%%---------------------------
--------||----%%%%%----------------|||-------------SS--||--||--|||-----------||||----------------------------------------------------||||----------------------------
--------||-----|||-----------------|||-----------------||--||--|||-----------||||%%%%|------------------------------%%%%-------------||||----------------------------
-M------||-----|||-----------------|||-----------------||--||---||-----------|||||||-|---------------------|---------||--------------||||--------------------------X-
XXXXX%%%%%%%%%-|||---------%%%%%%%-|||-%%%%%-----------%%%%%%%%%||-----------|||||||-|-XXXXXXXX%%%%--------|---------||%%%-----------||||%%---%%%%-----%%%%%%XXXXXXXX
XXX--||-|||||--|||----------|||||--|||--|||------------|||-||---||-----------|||||||||XXXXXXXX-%||---------|---------||-|------------||||------||------|--||---XXXXXX