------------------------------------------------------------------------------------------------------------------------------------------------------------------------------------------------------------------------------
------------------------------------------------------------------------------------------------------------------------------------------------------------------------------------------------------------------------------
------------------------------------------------------------------------------------------------------------------------------------------------------------------------------------------------------------------------------
------------------------------------------------------------------------------------------------------------------------------------------------------------------------------------------------------------------------------
------------------------------------------------------------------------------------------------------------------------------------------------------------------------------------------------------------------------------
------------------------------------------------------------------------------------------------------------------------------------------------------------------------------------------------------------------------------
--------------------------------------------------------------Q-------------------------------------------------------------------------------------------------------------------------------------Q-------------------------
------------------------------o------------------------------------ooo-------------ooo--------------------------------------------------------------------------------------------oo------------------------------------------
------------------------------------------------Q-----------------------------------------------------------------------------------------QQQQ--------------------------------------------------------------------------------
----------ooo---------------#-------------------------------------------------------------------------------------------------------------------------------------------------------------------------------------------------
----------------------------#------------------------------?SS------------Q-----TT---------------------------------------------Q-------------------------------------------------------------------QQQ------------------------
----------------------------#-----------------------------------TT--------------TT--------------------------------------------------------------------------------------------------------------------------------------------
----------------------------#-----------------------------------TT--------------TT-----------------------------------------------------------y--------------------------------------------------------------------------------
-M------T----y----------#---#----y---y---y---------y------------TT---y----------TT-----------------------------------------------------------------------------------------------------------------y---y--y-------------y-----
XXXXXXXXXXXXXXXXXXXXXXXXXXXXX--XXXXXXXXXXXXXXXXXXXXXXXXXXXXXXXXXXXXXXXXXXXXXXXXXXXXXXXX-----XX--XXXXXXXX---XXX-XXXXXXXXXXXXXXXXXXXXXXXXXXXXXXXXXXXXXXXXXXXXXXXXXXXXXXXXXXXXXXXXXXXXXXXXXXXXXXXXXXXXXXXXXXXXXXXXXXXXXXXXXXXXXXX
XXXXXXXXXXXXXXXXXXXXXXXXXXXXXX-XXXXXXXXXXXXXXXXXXXXXXXXXXXXXXXXXXXXXXXXXXXXXXXXXXXXXXXX-----XX--XXXXXXXX----XX--XXXXXXXXXXXXXXXXXXXXXXXXXXXXXXXXXXXXXXXXXXXXXXXXXXXXXXXXXXXXXXXXXXXXXXXXXXXXXXXXXXXXXXXXXXXXXXXXXXXXXXXXXXXXXX