-----------------------------------------------------------------------------------------------------------------------------------------------------
-----------------------------------------------------------------------------------------------------------------------------------------------------
-----------------------------------------------------------------------------------------------------------------------------------------------------
------------o----------------------------------------------------------------------------------------------------o-----------------------------------
-----------------o----------------------------------oo----------------------------------------------------------%%%----------------------------------
--------oo------%%%--o-----------------o---------o--%%%----------o---o--------------------------------------%%%--|-------------oo--------------------
-------%%%-------|--%%%-%%%--------%%%%%%-------%%%--|----------%%%------------------------------------------|---|------------%%%%-------------------
----------------||---|--------------||||----S----|---|--SSS------|---SSSSS----------SSS----o---S----oo-------|---|-----o-------||------------SSSS----
------%%|%------||---|-%%%----------||||---------|---|-----------|----------------------%%%%%-----%%%%%%%|-o%|---|----%%%------||--------------------
-------||-------||---|--||----------||||------SS-|---|-------g--||--------------SS-------|-|-------|||-----|-|---|-SS|-|--------|--o-----------------
-------||-------||---|--||----%%%%%%||-|-------------|-----------|-----------------------|-|-------|||%%%%%%%----------|-------||--------------------
-------|--------||-r-|--||-----||||-||---------------|---%%%%%%%-|-----------------------|-||--|---|||-|||||--------------------|--------------------
-------|--------%%%%%%%%%%%%%%%|||||||--------------------|||||--------------------------||||--|---|---|||||--------------------|-----%%%%%%---------
-----M-|-----|--|||||||||||-||||||||||--------------------||||||-----------o-------------||||--|-r-||--|||-|--------------------|----|-||||%%------o-
-----%%%%%%%%%%-|||||||||||-||||||||||%%%%-----XXXXXXXXXX-||||||-----%%---------%%%------||||%%%%%%%%%%%%%%%%%--------XX-------%%%%%%%-|||||------%%%
------|||||-|||-|||||||||||-|||||||||||||------XXXXXXXXXX|||||||-----%-----------|X------||||-|||||||||||||||--------X----------||||||||||||-------|-