----------------------------------------------------------------------------------------------------------------------------------------------------------------------------------------------------------------------
----------------------------------------------------------------------------------------------------------------------------------------------------------------------------------------------------------------------
----------------------------------------------------------------------------------------------------------------------------------------------------------------------------------------------------------------------
----------------------------------------------------------------------------------------------------------------------------------------------------------------------------------------------------------------------
-----------------------------------------------------------------------------------------------------------------------------------------------------------------------------------------------------S----------------
------------------------------------------------------------------------------##--------------------------------------------------------------------------------------------------------------------------------------
-----------#----------------------------------------------------TT------SSS---------------------------------TTT-----------------------------------------------------------------------SS---S-----#--------------------
----------#-----------------------------------------------------T-------------------------------------------TT----------------------------------------------------------------------------------##--------------------
---------##------------------SSSSSS-------------------------------------------S---------------------------SXXX------SS------------------------------------------SS--------------------------------#-------TT----------
--------###---------------------------------------------------------------------------------------------------------------------------------------------------------------------------------------##------TT----------
-------#----------------------------tt------------------------TT------tt------------------------------------------------S-----------T--------T--TT------TT------------2S-------------T------------##---SS-XX----------
----------------------TT--TT--------tt------------------------TT------tt------------------------TT---------------------------------TTT-------T--TT------TT------------------TT------------------TT##------------------
---T---#------TT------TT--TT--------tt-T----------------------TT------t--T--------------TT------TT--------------------TT-----------TTT-------T--TT------TT--------TT--------TT--------------TT-#TT##----------TT------
-MTT--#----k--TT------TT--TT--------tt-T------------TT--------TT------t-TT--------------TT------TT----tt-------k---T--TT---------k-TTT----T--T--TT------TT--------TT--------TT--------------TT-#TT##----------TT------
XXXXXXXXXXXXXXXXXXXXXXXXXXXXXXXXXXXXXXXXXXXXXXXXXXXXXXXXXXXXXXXXXXXXXXXXXXXXXXXXXXXXXXXXXXXXXXXXXXXXXXXXXXXXXXXXXXXXXXXXXXXXXXXXXXXXXXXXXXXXXXXXXXXXXXXXXXXXXXXXXXXXXXXXXXXXXXXXXXXXXXXXXXXXXXXXXXXXXXXXXXXXXXXXXXXX--
XXXXXXXXXXXXXXXXXXXXXXXXXXXXXXXXXXXXXXXXXXXXXXXXXXXXXXXXXXXXXXXXXXXXXXXXXXXXXXXXXXXXXXXXXXXXXXXXXXXXXXXXXXXXXXXXXXXXXXXXXXXXXXXXXXXXXXXXXXXXXXXXXXXXXXXXXXXXXXXXXXXXXXXXXXXXXXXXXXX-XXXXXXXXXXXXXXXXXXXXXXXXXXXXXXXX--