----------------------------------------------------------------------------------------------------------------------------------------------------------------------------------------------------------------------
----------------------------------------------------------------------------------------------------------------------------------------------------------------------------------------------------------------------
----------------------------------------------------------------------------------------------------------------------------------------------------------------------------------------------------------------------
----------------------------------------------------------------------------------------------------------------------------------------------------------------------------------------------------------------------
----------------------------------------------------------------------------------------------------------------------------------------------------------------------------------------------------------------------
------------------------------------------------------------------------------------------------------------k---------------------------------------------------------------------------------------------------------
--------------------------TT----SS-----------------------------------------SSS--SS---------------------------SSS---------------------------------SSSSSS--------------------##---##------------------------------------
--------------------------TT---------------------------------------------------------------------------------------------------------------------------------------------------###------------------------------------
--------------------------TT--------------------------------------------------------------------------------------------------T-----T---SSS---------------------------S-------####------------------------------------
--------------------------TT---------------------------------------------------------------------------------------------------T----------------------------------------TT---#####----------------TT------------------
---------S--------tt------XX---------------t----t-----S-------------------------------------T--------------SSS---------S----------------------------------------XS--SS-SSX--TT####---S--------SS--TT----SSSSSSS-------
------------------tt-T------------TT------------t-----------------------------------------TT------------------------------TT----T------------------------------------------#TT####----------------TT------------------
------------TT----ttTT------------TT--------------TT--------------------T-------TT--------TT------TT----------------------TT----T-T--------------T------------TT-----------#TT####------TT--------TT------------------
-M----------TT----ttTT------------TT--------------TT------------------#-T---T---TT------k-TT------TT----------------------TT----T-TT-----------k-T------------TT----------##TT####----k-TT--------TT------------------
XXXXXXX---XXXXXXXXXXXXXXXXXXXXX-XXXXXXXXXXXXXXXXXXXXX---------------XXXXXXXXXXXXXXXXXXXXXXXXXXXXXXXXXXXXXXXXXXXXXXXXXXXXXXXXXXXXXXXXXXXXXXXXXXXXXXXXXXXX------XXXXXXXXXXXXXXXXXXXXXXXXXXXXXXXXXXXXXXXXXXXXXXXXXXXXXXXX
XXXXXXX---XXXXXXXXXXXXXXXXXXXX--XXXXXXXXXXXXXXXXXXXXXX--------------XXXXXXXXXXXXXXXXXXXXXXXXXXXXXXXXXXXXXXXXXXXXXXXXXXXXXXXXXXXXXXXXXXXXXXXXXXXXXXXXXXXX------XXXXXXXXXXXXXXXXXXXXXXXXXXXXXXXXXXXXXXXXXXXXXXXXXXXXXXXX