----------------------------------------------------------------------------------------------------------------------------------------------------------------------------------------------------------
----------------------------------------------------------------------------------------------------------------------------------------------------------------------------------------------------------
----------------------------------------------------------------------------------------------------------------------------------------------------------------------------------------------------------
----------------------------------------------------------------------------------------------------------------------------------------------------------------------------------------------------------
----------------------------------------------------------------------------------------------------------------------------------------------------------------------------------------------------------
----------------------------------------------------------------------------------------------------------------------------------------------------------------------------------------------------------
------------S-----------------------SS--------------------------------------------------------------------------------------------------------------------------------------------------------------------
----------------------------------------------------------------------------------------------------------------------------------------------------------------------------------------------------------
------------------------------------------------!-------------------------------------------------##--------------------------------------------------SS!S--------------------#---------------------------
--------------------------------------------------------------------------------------------------##--------------------------------------------------------------------------##--------##----------------
----------S@S----S!------##-##-------#------------------------------!-----SS!S----S----------##---###-----tt----S-SS!S--------!---S--------------t-----------------------##----##--------#----##----------
------------------------######--#---##------------------------------------------------------###--#####----tt------------------------------------tt----------------------###----###----#-###---#-----------
-----------------------#######-----###-----------------------tt------t-----------------#---###########----tt------------------------------------tt---------------------####-##-###--#######---#-----------
--M-------------------########---#-###----------g----g-------t------tt---------g----------#####---####----tt-----g--------------------------g---tt-------g------------#####-##--##--########--##-----g----
--XXXXXXXXXXXXXXXXXXXXXXXXXXXX--XXXXXXXXXXXXXXXXXXXXXXXXXXXXXXXXXXXXXXXXXXXXXXXXXXXXXXXXXXXXXXXX-XXXXXXXXXXXXXXXXXXXXXXXXXXXXXXXXXXXXXXXXXXXXXXXXXXXXXXXXXXXXXXXXXXXXXXXXXXXXX--XXX-XXXXXXXXXXXXXXXXXXXXXX
-XXXXXXXXXXXXXXXXXXXXXXXXXXXXX-XXXXXXXXXXXXXXXXXXXXXXXXXXXXXXXXXXXXXXXXXXXXXXXXXXXXXXXXXXXXXXXXXXXXXXXXXXXXXXXXXXXXXXXXXXXXXXXXXXXXXXXXXXXXXXXXXXXXXXXXXXXXXXXXXXXXXXXXXXXXXXX-XXXX-XXXXXXXXXXXXXXXXXXXXXX