-------------------------------------------------------------------------------------------------------------------------------------------------------------------------------------------
-------------------------------------------------------------------------------------------------------------------------------------------------------------------------------------------
-------------------------------------------------------------------------------------------------------------------------------------------------------------------------------------------
S----SSSSSSSSSSSSSSSSSSSSSSSSSSSSSSSSSSSSSSSSSSSSSSSSSSSSSSSSSSSSSSSSSSSSSSSSSSSSSSSSSSSSSSSSSSSSSSSSSSSSSSSSSSSSSSSSSSSSSSSSSSSSSSSSSSSSSSSSSSSSSSSSSSSSSSSS--SSSSSSSSSSSSSSSSSSSSSSSSSSSS
S--------SSSSSSSSSSSSSSSS---SSSSSSSSSS-------------------SSSSSSSSSSSSSSSSSSSSSSSSSSSSSSSSSSSSSSS-------------------------------------------------------------------------------------------
S--------SSSSSSSSSSSSSSSS---SSSSSSSSS--------------------SSSSSSSSSSSSSSSSSSSSSSSSSSSSSSSSSSSSSSS-------------------------------------------------------------------------------------------
S--------SSSSSSSSSSSSSSS----SSSSSS------------------------SSSSSSSSSSSSSSSSSSSSSSSSSSSSSSSSSSS----------------S-----------------------------------------------------------------------------
S-----------------------------------------------------TT-----------------------------------------------------------------------------------------------------------------------------------
S---------------------------------------------------------------------------------------------SS-------------------------------------------------------------------------------------------
S-----TT-------So---ooS--------------------------------------------------------------------------------------------------------T---SoS-----------------------------------------------------
S-SS--TT---SSSSSSSSSSSS---------SS---------------------S-----SSSSSSSSSSSSSSSSSSSSSSSSS-S--QQS---------------SSS--SSS------SSSS-TT-SSSS---TT-------------------------TT---TT---SSSS-------SS
S-----TT----SSSSSSS-----------#------#-----------------S-----SSSSSSSSSSSSSSSSSSSSSSSSSSS-----------------------------T---------T---------TT-------------------------TT---TT--SSSSSS----SSSS
S-----TT----SS-SSSS----------##-----T#----------------------SSSSSSSSSSSSSSSSSSSSSSSSSSSSS----------------------------T---------T---------TT--#----------TT----------TT---TT--SSSSSS---SS-SS
SM---kTT----SS-SS#S---------##-----k-#----------------------SSSSSSSSSSSSSSSSSSSSSSSSS-------------------------------TT---k----TT---k-----TT--#----------------------TT---TT--SSSS-----SS-SS
XXXXXXXX--XXXXX-XXXXXXXXXXXXXXX-XXXXXX---XXXXX--XXXXXXXXXXXXXXXXXXXXXXXXXXXXXXXXXXXXX----XXX----XXXXXXXXXXXXXXXXXXXXXXXXXXXXXXXXXXXXXXX--XX-XX---XXXXXXXXXXXXXXXXXXXXXXXXXXXXXXXXXXXXXXX-XX
XXXXXXXX--XXXXXXXXXXXXXXXXXXXX--XXXXXX---XXX-X---XXXXXXXXXXXXXXXXXXXXXXXXXXXXXXXXXXXX----XXX-----XXXXXXXXXXXXXXXXXXXXXXXXXXXXXXXXXXXXXX--XX-XX---XXXXXXXXXXXXXXXXXXXXXXXXXXXXXXXXXXXXXXXXXX