-------------------------------------------------------------------------------------------------------------------------------------------------------------------------------------------
-------------------------------------------------------------------------------------------------------------------------------------------------------------------------------------------
M------------------------------------------------------------------------------------------------------------------------------------------------------------------------------------------
S--SSS----SSSSSSSSSSSSSSSSSSSSSSSSSSSSSSSSSSSSSSSSSSSSSSSSSSSSSSSSSSSSSSSSSSSSSSSSSSSSSSSSSSSSSSSSSSSSSSSSSS---SSSS--------------SSSSSSSSSS-------SSSSSSSSSSSSSSSSSSSSSSSSSSSSSSSSSSSSSSSSS
S---------SSSSSSSSSSSSSSSSSSS-------------------SSSSSSSSSSSSSSSSSSSSSSSSSSSSSSSSSSSSSSSSS------------------------------------------------------------------SSS-----SSSSSS------------------
S-----------SSSSSSSSSSSSSSSSS-------------------SSSSSSSSSSSSSSSSSSSSSSSSSSSSSSSSSSSSSSSSS-------------------------------------------------------------------S-------SSS-SS-----------------
S------------S---SSSSSSSSSSSS-------------------S-------S-SSSSSSSSSSSSSSSSSSSSSSSSSSSSSS---------------------------------------Q-------------------SSSS------SSSSSSSSSSSSS-----------------
S-------------------------------------------TT---------------------------------------------------------------------------------------------------------------------------------------------
S-------SSSSSSSSSSSSSSS---------------------TT--T--------------------------------------------------------------------SSSSSSSS--------------------S-----------------SS--------------------SS
S--------------SSSSSSSS-ooo-----------------TT--TT------------------------oooo-------------------------------------------------------------------------------------------------------------
S----------------SSSSSSSSSS--SSSSS--QQ--QQS-TT--TT----SSSSSSSSSSSS-----SSSSSSSS-SSSSSSS------------------------SQQ--------SS-----------------SSS---SSS--SSSSSSSSS---------------QQQQQQQ----
S---------------SSSSSSSS-----SS-SS----------TT--TT---SSSSSSSSSSSSSSSS-SSS--------SSS--TT---TT--S--------------------------------------------------------SSSSSSSSS--------------------------
S---------------SSSSSSSS----##S-------------TT--T---SSSSSSSSSSSSSSSSSSSSS-----SSS-S---TT---T---S--SSSSStt------t-----------------tt--------------t-----#SSSSSSSSSSSSSSS--------------------
S--------------------SS-----##S------------kTT--Tt--SSSSSSSSSSSSSS-------------------kTT--kT-----------tt----k-t-----------k-----tt----kk-------------##SSSSSSSS---------------------------
S------X----XXXX---XXXXXXXXXXXXXXXXXXX--XXXXXXXXXXXXXXXXXXXXXXXXXXXX---XXXXXX----XXXXXXXXXXXX-XXX--XXXXXXXX--XXXXX-X-----XXXXXXXXXXXXXXXXXXXXXXXX--XXXXXXX-XX--XXXX---XXXXXXXXXXXXXXXXX----
SS-----X----XXXX---XXXXXXXXXXXXXXXXXXX--XXXXXXXXXXXXXXXXXXXXXXXXXXXX---XXXXXX---XXXXXXXXXXXXX--XX--XXXXXXXX--XXXXX-------XXXXXXXXXXXXXXXXXXXXXXXX--XXXXXX-XXX--XXXX---XXXXXXXXXXXXXXXXX----