-------------------------------------------------------------------------------------------------------------------------------------------------------------------------------------------------------------------------------------------------------------------------------------------------------------------------------------------------------------------------------------
-------------------------------------------------------------------------------------------------------------------------------------------------------------------------------------------------------------------------------------------------------------------------------------------------------------------------------------------------------------------------------------
--------------------SSSCS------------------------------------------------------------------------------------------------------------------------------------------------------------------------------------------------------------------------------------------------------------------------------------------------------------------------------------------------------------
-------------------------------------------------------------------------------------------------------------------------------------------------------------------------------------------------------------------------------------------------------------------------------------------------------------------------------------------------------------------------------------
-------------------------------------------------------------------------------------------------------------------------------------------------------------------------------------------------------------------------------------------------------------------------------------------------------------------------------------------------------------------------------------
-------------------------------------------------------------------------------------------------------------------------------------------------------------------------------------------------------------------------------------------------------------------------------------------------------------------------------------------------------------------------------------
--------------SS-CSSSSSCSo----------------------------------------------------------------------------------------------------------------------------------SSS-S------------------------o-----------------o-------------------------------------------------------------------------------------------------------------------------------------------------------------------------
-------------------------------------------------------------------------------------------------------------------------------o-------------------------------------------------------------------o-------o-------------------------------------------------------------------------------------------tt----------------------------------------------------------------------------
-------------------------------------------------------------------------------------------------------------------------------------------------------------------------------------------------------------------------------------------------------------------------------------------------------------------------------------------------------------------------------------
---------------------------------------------------------------------------------------------------o---------------------------------------------------------------------------------------------------------------------------------------------------o-------------------------##--------o-----------------------------------------------------------------------------------------
-----------------2-----o---------------------------------------------------------------------------------------------------------------------------------------2---------T-----------------------------------------------------------------------T-------------------------------##------------------------------------------------------------oo--------------------------------oo--
-------------------K-------------------------------T---------------------------------------------------------------------------------------------------------------------TT--t-------------------------------------------------------------------TT----------------------------#-##--------------TT----------------------------------------------------------------------------------
-----------------------------------#--------------TT--------------------------------------------------------------------------------#----------------------T-----------------t---------#---------------------------------------------------------TT----------------------------#-##---------------T-----------------------------------------------------------------o--o-------------
-M---------gg-------------g-------#---------TT--k-TT----k---------------------ggg-------gk----------------k-k-------------ggg-------#-----k-k--------------T-----------g-----t----k-k--#--------g-g--ggkk-------ggg---------ggg---k-ggg--kkk-----TT-------------ggg---kk-------#-##------------------------gg-----k--------kgg-----kkk-----kk--#-------------------------------------
XXXXXXXXXXXXXXXXXXXXXXXXXXXXXXXXXXXXXX--X---XXXXXXXXXXXXXXXXXXXX-X--X-X-XXXXXXXXXXXXXXXXXXXXXXXXXXXXXXXXXXXXXX----XXXXXXXXXXXXXXX-X-X-XXXXXXXXXXXXXX--X-X-XXXXXXXXXXXXXXXXXXXXXXXXXXXXXXXXXXXXXXX-XXXXXXXXXXXXXXXXXXXXX-XXXXXXXXXXXXXXXXXXXXXXXX-XX------XXXXXXXXXXXXXXXXXXXXXXX-XXXXXX-XXXXXXX-XXXXXXXXXXXXXXXXXXXXXXXXXXXXXXXXXXXXXXXXXXXXXX-XXXXXXXXXXXXXXXXXXXXXXXXXXXXXXXXXXXXXX
XXXXXXXXXXXXXXXXXXXXXXXXXXXXXXXXXXXXXX--X---XXXXXXXXXXXXXXXXXXXXXX--X-X-XXXXXXXXXXXXXXXXXXXXXXXXXXXXXXXXXXXXXX----XXXXXXXXXXXXXXXXXXXXXXXXXXXXXXXXXX--X-X-XXXXXXXXXXXXXXXXXXXXXXXXXXXXXXXXXXXXXXXXXXXXXXXXXXXXXXXXXXXXXXXXXXXXXXXXXXXXXXXXXXXXXXXXX------XXXXXXXXXXXXXXXXXXXXXXXXXXXXXX-XXXXXXX-XXXXXXXXXXXXXXXXXXXXXXXXXXXXXXXXXXXXXXXXXXXXXXXXXXXXXXXXXXXXXXXXXXXXXXXXXXXXXXXXXXXXX