----------------------------------------------------------------------------------------------------------------------------------------------------------------------------------------------------------------------
----------------------------------------------------------------------------------------------------------------------------------------------------------------------------------------------------------------------
----------------------------------------------------------------------------------------------------------------------------------------------------------------------------------------------------------------------
----------------------------------------------------------------------------------------------------------------------------------------------------------------------------------------------------------------------
----------------------------------------------------------------------------------------------------------------------------------------------------------------------------------------------------------------------
----------------------------------------------------------------------------------------------k-----------------------------------------------------------------------------------------------------------------------
-------------#----------SSSSSSS-----------------------------------------------------------#------SS---SS--SS--SS-------------------SSSSS------TT----------------SSSSSSSSSS------------SSSSSS-----------#--------------
-----------------------------------------------------------------------------------------##---------------------------------------------------TT----------------------------------------------------------------------
----SSS------S------------------------------SSS-------------------------------------------#---------------------------------------------------#X---------------------------------------------------------------SS-----
-----------------------------------------------------------------------------------------###----------------------------------------------------------------------------------------------------------#---------------
-----------------------------------------------------------------S-----T-----TTT---St---###-----tt----TT--------TT------t-------TT-----S-------------S--TT----S--------S------tt------------SSSS----TT##--------------
--------------------TT----------TT--------------------TT--------------TT----TTTT-------####-----tt-T--TT--------TT------t-------TT---------------T------TT-----------------------------------------#TT##--------------
---------T--T-------TT----------TT----TT--------------TTTT---T--------TT--#-TT------#T-####-----tT-T--TT--------TT----TT--------TT-----------##-TT----TTTT----------------------------------------T#TT-#------TT------
-M----------T-----k-TT-------k--TT----TT--------------TTTT------------TT-##-TTT-----TT-####-----T--T--TT---k----TT----TT--------TT----------###-TT----T-TT----------------------------------------TTTT-#------TT------
XXXXXXXXXXXXXXXXXXXXXXXXXXXXXXXXXXXXXXXXXXXXXXXXXXXXXXXXXXXXXXXXXXXXXXXXXXX-XXXXXXXXXXXXXXXXXXXXXXXXXXXXXXXXXXXXXXXXXXXXXXXXXXXXXXX-----XXXXXXX-XXXXXXXXXXXXXXXXXXX-XXXXXXXXXXXXXXXXX-------XXXXXXXXXXXXXXXXXXXXXXXX--
XXXXXXXXXXXXXXXXXXXXXXXXXXXXXXXXXXXXXXXXXXXXXXXXXXXXXXXXXXXXXXXXXXXXXXXXXXX-XXXXXXXXXXXXXXXXXXXXXXXXXXXXXXXXXXXXXXXXXXXXXXXXXXXXXXX-----XXXXXXXXXXXXXXXXXXXXXXXXXX--XXXXXXXXXXXXXXXXX-------XXXXXXXXXXXXXXXXXXXXXXXX-X