-------------------------------------------------------------------------------------------------------------------------------------------------------------------------------------------
-------------------------------------------------------------------------------------------------------------------------------------------------------------------------------------------
-------------------------------------------------------------------------------------------------------------------------------------------------------------------------------------------
S--S--------SSSSSSSSSSSSSSSSSSSSSSSSSSSSSSSSSSSSSSSSSSSSSSSSSSSSSSSSSSSSSSSSSSSSSSSSSSSSSSSSSSSSSSS--S---SSSSSSSSSSSS--------------SS-SSSSSSSSSSSSSSSSSSSS-------SSSSSSSSSSSSSSSSSSS--SSSSS
S----------------------------------------------------------------SSSSSSSSSSSSSS----SSSSSSSSSSSSSSSS-----------SSS----------------------------SSSSSSSS--------------------------------------
S----------------------------------------------------------------SSSSSSSSSSSSSS-----SSSSSSSSSSSSSSS-----------SSS----------------------------SSSSSSSS--------------------------------------
S---------------------------------------SSSSSSSSS----------------SSSSSSSSSSSSS----SSSSSS-SSSSSS----------SSSSSS------SSSS----SSSS--------SSSSSSSSSSSS-----------S-S--S------------------SSS
S--------------------------------------------------------------------------------------------------------------------------------------------------------------------T---------------------
S---------------------------------------------------TT---------------------------S-SS------S-----------------------------S-----------------------------------------------------------S-----
S-------------------------TT--------T---------------TT-------------------------------------------------------------------------------------------------------------------------------------
S-------------------------TT--------TTSSS-----------TT-------------SSSSSSSS---TT---------S--SSS-SSS-SSS---------TT-SSSSS-------------------------SSS---T---TT--SSSSSSS--------------------S
S-----TT---##-------------TT----t---TT--------------TT-----#---------SSSSSS---TT----------------TS--SS----------TT-------------------------------------T#---T--SSSSSS------------T-------SS
S-----TT--##--------------TT----t---TT----SSSSS--#--T-----##---------SSSSSS---TT--------------------------------TT------------S--------------S---------##---TT-SSSSSSS-----------T---SS-SSS
SM----TT--##--------kS----TT---kt---TT---k------##-----k--##---------SSSSSS--kTT---------------k---------------kTT---k-------##--T-------------------k--#---TT--SS--------##-----T-------SS
XXXXXXXX--XX----XXXXXXXXXXXX-XXXXXXXXXXXX------XXXXXXXXXXXXX-----XXXXXXXXXXXXXXX---XXXXXXXXXXXXXXXXXXXXXXXXXXXXXXXXXXXXXXXXXXXX--XX--XXXX--------XXXXXXXXXXXXX-XXXXXXXXXXXXX-----XXXXX---XS
XXXXXXXX--XX----XXXXXXXXXXXX-XXXXXXXXXXXXX-----XXXXXXXXXXXXXXX---XXXXXXXXXXXXXXX---XXXXXXXXXXXXXXXXXXXXXXXXXXXXXXXXXXXXXXXXXXXX--XX--X-XX--------XXXXXXXXXXXXXXXXXXXXXXXXXXX-----XXXXXX--XS