------------------------------------------------------------------------------------------------------------------------------------------------------
------------------------------------------------------------------------------------------------------------------------------------------------------
------------------------------------------------------------------------------------------------------------------------------------------------------
------------------------------------------------------------------------------------------------------------------------------------------------------
------------------------------------------------------------------------------------------------------------------------------------------------------
------------oo------------------o---------------------------oo---oo---oo-------------o--o-------------------------------------------------------------
---------%%%%%%----------------------------------------------------------------------------------------------------------SSS--------------------------
----------||||----------------------------------------------------------------------------------------------------------------------------------------
----------||||------------------------SSSSSS-----------------------------------------------g-g---------------#-----####------------%%%%%%-------------
----------||-|-------------------------------%%%%-------------------------------------%%%%%%%%---------------#-----####-------------||||--------------
--------%-||-|--------------------------------||----||-----------------------------%%%-||||||---SSS--%%%%--############-------------||||-------%%%%---
----------||----------------------------------||----|-------------------------------|-|||||||---------||---############---oo--------||||--------||----
---------|||---------S------------------------||----|-------------------------------|-||||||||--------||---##########-#-------------||||--------||----
-M------||||---%%------------------------r----||-----|--------------------------------||||||-|--------||---|########X-#-------------||||--------||----
XXXXXXX-||||--||------------XXXXXXXXXXXXXXXXXX||-----|--------%%%---------%%%---------||||||-|--%%%%%-||-||||XXXXXXXXXXXXXX--%%%----|-||------%-||----
XXXXXX--||||--||------------XXXXXXX-XXXXXXXXXX||---------------||----------|----------||||||-|--||%|--||||||--XXXXXXXXXXXXX---||------||--------||----