-------------------------------------------------------------------------------------------------------------------------------------------------------------------------------------------------------------------------------------------------------------------------------------------------------------------------------------------------------------------------------------
-------------------------------------------------------------------------------------------------------------------------------------------------------------------------------------------------------------------------------------------------------------------------------------------------------------------------------------------------------------------------------------
-------------------------------------------------------------------------------------------------------------------------------------------------------------------------------------------------------------------------------------------------------------------------------------------------------------------------------------------------------------------------------------
-------------------------------------------------------------------------------------------------------------------------------------------------------------------------------------------------------------------------------------------------------------------------------------------------------------------------------------------------------------------------------------
---------------------------------------------------------------------------------------------------------------------------------------------------------------------------o---------------------------------------------------------------------------------------------------------------------------------------------------------------------------------------------------------
---------------------------------------------------------------------------------------------------------------------------------------------------------------------------o-----------------------------------------------------------------------------------------##--------------------------------------------------------------------------------------------------------------
-------------------------------------------------S-------------------SSSSSSSSSSCSS----------------------------------------------------------------S------------------------------------------------------------------------------------------------------------------##--------------------------------------------------------------------------------------------------------------
-----------------------------------------------------------------------------------------------------------------------------------------------------------------------------------------------------------------------------------------------------------o-------#-##--------------------------------------------------------------------------------------------------------------
-------------------------------------------------------------------------------------------------------------------------------------------------------------------------------------------------------------------------------------------------------------------#-##--------------------------SSUSSSUSS-----------------------------------------SSSSSSSSSSSSCSS-------------------
---------------------------------------------------------------------------------------------------------------------------------------------------------------------------------o---------------------------------------------------------------------------------#-#---------------------------------------------------------------------------------------------------------------
--------------------------------#---##-----------------------------------o--------------------------------------------------TT-----T-----------------------------------------------------------#---#---------------------------------------------------------------#-#-----T-----#oo----------------------------------------------------------------------------------------T--------
------------TT------------oo----#---##-------------------------------------------K------------------------------------------T-----TT---------------o-------------------------------------------#-------------------------------------------------------------o-------------TT----#---------------------------------TT-------------------------------------------------------TT-------
------------TT----------------#-#---##-------------------------#-----------TT------------#----------------------------------------TT--------TT-------------------------------------------#-----#------------#----T---------------------------------------------------------TT--#-#---------------------------------TT--------------------------------------------------#----TT-------
--M------gg-TT----------ggg---#-#---##--------ggg-------------#---k--------T-----------kk#----------------k-k---ggg-----ggg-----gkTT--------TT--------kkk--------#-gg-----k------------kk#---k-#-k---k------#----T---gg----------------------g----------------------------TT---#-##--------------------------------TT-----T-----------k------#-------------------------#----TT-------
--XXX-XXXXXXXXXXXXXXXXXXXXXXX-X-XXX-XX--XXXXXXXXXXXXXXXXXXXXXXXXX-X-XXXXXXXXXXXXXXXXXXXXXXXXXXX-XXXXXXXXXXXXXXXXXXXXXXXXXXXXX-XXXXXXXXXXXXXXXXX--XXXXXXXXXXXXXXXXXXXXXXXX-XXXXX---X-XXXXXXXXXXXXXXXXXXXXX-X-X-XXXXXXXXXXXX-X--XXXXXXXXXXXXX-XXXXXXXXXXXXXXXXXXX-XXXXX-XXXXXXXXXX-XXXXXXXXXXXX-----XXXXX-XXXXXXXXXXXXXXXXXXXXX-XX-XXXXXXXXXXXXXXXXXX---------X----XX-X--X-XXXXXXXXXXXX
--XXX-XXXXXXXXXXXXXXXXXXXXXXXXXXXXXXXX--XXXXXXXXXXXXXXXXXXXXXXXXX-XXXXXXXXXXXXXXXXXXXXXXXXXXXX--XXXXXXXXXXXXXXXXXXXXXXXXXXXXX-XXXXXXXXXXXXXXXX----XXXXXXXXXXXXXXXXXXXXXXXXXXXXX---XXXXXXXXXXXXXXXXXXXXXXXXX-XXXXXXXXXXXXXX-X--XXXXXXXXXXXXXXXXXXXXXXXXXXXXXXXXX-XXXXX-XXXXXXXXXXXXXXXXXXXXXXX-----XXXXX-XXXXXXXXXXXXXXXXXXXXXXXXXXXXXXXXXXXXXXXXXXX---------X----XXXXXXXXXXXXXXXXXXXX