------------------------------------------------------------------------------------------------------------------------------------------------------
------------------------------------------------------------------------------------------------------------------------------------------------------
------------------------------------------------------------------------------------------------------------------------------------------------------
------------------------------------------------------------------------------------------------------------------------------------------------------
----------------------------------------------------------------------------------------S-------------------------------------------------------------
-----------------------------------------------------------%%%oo--------------------------------oo----------------ooo---------------------------------
-------------------##-----------------SS--------------------|--------------------------------------------------%-%%-%------%%%%%----------------------
--------------------#---------------------------------------------%%%%%-----------------------oo--------SS------||----------||||%%%-------------------
--------------------##----------------------------------------------||-------------%%%%%%%%---------------------##----------||||||--------------------
-----------M--------##------------------------So-------------------|||--------------||--||---------------------###----------||||||----SS--------------
-----------%%%%%%%---#----------------------------%-SS--------------||-----%--|-----||--||--------------------#####---------||||||--------------------
------------||||----------------------------------------------------||--------||----||--||-------%%----------%####----------||||||--------------------
------------||||-------------------------------------------%%%%-----||-----|--||-----|--||--------||%%%------####-----------||||||--------------------
------------%|-|--------%%-------%-%------------------------||------||--%%%%%|||-----|--||--------||||-----%--####--------o-||||||-----------------#--
-------------|||-|-%%%%-----------|-------------------------||------||----||||||--XXXXXXXXXXXXXX%-||||-----|--------%%%---%-||||||------------XXXXXXXX
-------------|||----XX--------------------------------------||------||----||||||--XXXXXXXXXXXXXX--||||----||--------||------||||||------------XXXXXXXX