----------------------------------------------------------------------------------------------------------------------------------------------------------------------------------------------------------------------
----------------------------------------------------------------------------------------------------------------------------------------------------------------------------------------------------------------------
----------------------------------------------------------------------------------------------------------------------------------------------------------------------------------------------------------------------
----------------------------------------------------------------------------------------------------------------------------------------------------------------------------------------------------------------------
----------------------------------------------------------------------------------------------------------------------------------------------------------------------------------------------------------------------
----------------------------------------------------------------------------------------------------------------------------------------------------------------------------------------------------------------------
--------------------TT----------------------TT----------------------------SSSS-----SSSS--------S---------------------------------#--------------S---SS--------------------------TT-SSS----------SSSSS-----------------
--------------------TT----------------------TT------------------------------------------------------------T---------------------------------------------------------------------TT------------------------------------
--------------------XX------S--------------SXX----------------------------------SS----------------------------------------------------------------------------------------------X-------------------------S-----------
----------------------------------------------------------------TT-----------------------------------------------------------#----------------------------------------TT--------#-------------------------------------
--------SS--------------------TT-----T------------TT------------TT-------------------------------------#-------------S-S-----#---SSS---S------------------------------TT---t----#---SS------TT------------------------
------------------------------TT-----T------------TT------t-----TT----------------------------------TT-#---------------------#--------------------------------------T-TT---t----#-----------TT------------------------
------------------------TT----TT----TT------------TT------t-TT--TT------TT------------TT-------#--#-TT-#------------------TT-#--------T---TT----------------TT------TTTT-------##---------T-TT------tt----------------
-M-----T-------#--------TT----TT----TT---------k--TT------t--T--TT------TT------------TT-------#-##-TT-------------------#TT-#--------TT#-TT----------------TT------TT-T-----####---------T-TT------tt-------------#--
XXXXXXXXXXXXX-XXXXXXXXXXXXXXXXXXXXXXXXXXXXXXXXXXXXXXXXXXXXXXXXXXXXXXXXXXXXX---------XXXXXXXXXXXXXXX-XXXXXXXXXXXXXXXXXXXXXXXXXXXXXXXXXXXXXXXXXXXXXXXXXXXXXXXXXXXXXXXXXXXXXXXXXXXXXXXXXXXXXXXXXXXXXXXXXXXXXXXXXXXXXXXXXX
XXXXXXXXXXXX--XXXXXXXXXXXXXXXXXXXXXXXXXXXXXXXXXXXXXXXXXXXXXXXXXXXXXXXXXXXXX---------XXXXXXXXXXXXXXX-XXXXXXXXXXXXXXXXXXXXXXXXXXXXXXXXXXXXXXXXXXXXXXXXXXXXXXXXXXXXXXXXXXXXXXXXXXXXXXXXXXXXXXXXXXXXXXXXXXXXXXXXXXXXXXXXXX