----------------------------------------------------------------------------------------------------------------------------------------------------------------------------------------------------------------------
----------------------------------------------------------------------------------------------------------------------------------------------------------------------------------------------------------------------
----------------------------------------------------------------------------------------------------------------------------------------------------------------------------------------------------------------------
----------------------------------------------------------------------------------------------------------------------------------------------------------------------------------------------------------------------
--------------------TT------------------------------------------------------------------------------------------------------------------------------------------------------------------------------------------------
--------------------TT--------------k---------------------------------------------------------------------------------------------------------------------------------------------------------------------------------
----------------SS--XT--------------SSSS-------------------------------------K---##---------------------------------S----------------------------------------------------------SSSSSSSSSSSS---------------------------
-------------------------------------------#------------------------------------####------------------------------------------------------------------T------------------------------------------------T--------------
--------------------------SS--------------##---------------------------------#-#####--SS-----------------------SS-------------------------------------TT--------------------------------------S-------TT--------------
------------------------------------------##-------------------------------#########------------------------------------------------------------------------------------------------------------------XT--------------
----------------------SS-----------------#-#---------------T----------T---##########-----------TT-------------------SSS------T----------TT-------------X----TT------------TT------TT---------------------------SSS----
----------------------------------------####-------T------TT----------TT-###########---T------TTT---------------------------TT----------TT------TT----------TT------------TT------TT----------------------------------
---------------------------------------T-###TT----TT------TT----------TT-###########--TT------TT--------tt----------------TTTT----TT----TT------TT------TT--TT---------T--TT------TT------TT-------TT-----------------
-M-------------------------------------#####TT----TT------TT-------k--TT-###########--TT---k--TTT-------tt----------------TTTT----TT----TT------TT------TT--TT---------T--TT---##-TT------TT-------TT-----------------
XXXXXXXXXXXXXXXX----------XXXXXXXXXXXXXXXXXXXXXXXXXXXXXXXXXXXXXXXXXXXXXXXXXXXXXXXXXXXXXXXXXXXXXXXXXXXXXXXXXXXXXX------XXXXXXXXXXXXXXXXXXXXXXXXXXXXXXXXXXXXXXXXXXXXXXXXXXXXXXXXXXXXXXXXXXXXXXXXXXXXXXXXXXXXXXXXXXXXXXX-
XXXXXXXXXXXXXXXX----------XXXXXXXXXXXXXXXXXXXXXXXXXXXXXXXXXXXXXXXXXXXXXXXXXXXXXXXXXXXXXXXXXXXXXXXXXXXXXXXXXXXXXX------XXXXXXXXXXXXXXXXXXXXXXXXXXXXXXXXXXXXXXXXXXXXXXXXXXXXXXXXXXXXXXXXXXXXXXXXXXXXXXXXXXXXXXXXXXXXXX--