-------------------------------------------------------------------------------------------------------------------------------------------------------------------------------------------------------------------------------------------------------------------------------------------------------------------------------------------------------------------------------------
-------------------------------------------------------------------------------------------------------------------------------------------------------------------------------------------------------------------------------------------------------------------------------------------------------------------------------------------------------------------------------------
-------------------------------------------------------------------------------------------------------------------------------------------------------------------------------------------------------------------------------------------------------------------------------------------------------------------------------------------------------------------------------------
-------------------------------------------------------------------------------------------------------------------------------------------------------------------------------------------------------------------------------------------------------------------------------------------------------------------------------------------------------------------------------------
-------------------------------------------------------------------------------------------------------------------------------------------------------------------------------------------------------------------------------------------------------------------------------------------------------------------------------------------------------------------------------------
-------------------------------------------------------------------------------------------------------------------------------------------------------------------------------------------------------------------------------------------------------------------------------------------------------------------------------------------------------------------------------------
----------------------------------------------------------------------------------------------------------------ooo----------------------------------------------------o---------------------------------------------------------------------------------------------------------------SSSSSS----------------------------------------------------------------------------------------
-----------------------------------------------------------------------------------------------------o-------------------------------------------------#---------------o-----------------------------------------o-------------------------------------------------------------------------------------------------------------------------------------------------------------------
----------------------------------------------------------------------------------------------------------------------------------------------------------SSSCSSS--------------------------------------------------------------------------------------------------------------------------------------------------------------------------#-----------------------------------------
--------------------------------------------------------oo---------------------------------------------------------------------------------------------------------------------------------------------------------------------------------------------------------------------------#-----------------------------------------------------##--------------------o-------------------
------------TT------------TT-------T--T-----TT---t-----------------------o-----------------------------------------------------T------------------------------------------------------------------------------T--------------------------------------------------------------T-----###---oo--------TT------------------------------------#-#-----------------------------------------
------------TT------------TT--TT--TT--TT----TT--tt------------------------------------------------------------TT---------------T------------------------------------------------------------------------------TT-----------------------------------------T-------------------T-------#-------------TT--------------------TT--------TT----#-##--------------------------TT------------
--------#---TT------------TT--TT--TT--TT----TT--tt-------------------------------------------------------------#-------------------------------------#-------o-------------------------------------T---------TTT-----------------------------------------TT------------------#T----#-#-------------TT--------------------TT--------TT----#-##--------------------------TT---T--------
-M----------TT--gg----k-k-TT---T---T--TT----TT--tt----------------------------------------------------------k----------------------------------k--#----------------------gg---k-k-------k----------TT--------TT---------------gg-------------ggg---------TT------------------#T----#-#-------gg----TT--------------------TT--------TT----#-##-----------ggg------------TT---T------k-
XXXX-XX-X-XXXXXXXXXXXXXXXXXXXXXXXXXXXXXXXXXXXX--XXXXXXX---X---X---X-XXXXXXXXXXXXXXXXXXXXXXXXXXXXXXXXXXXXXXXXXXXXXXXXXXXXXXXXXXXXXXXXXXXXXXXXXXXXXXXXXXXXXX-------XXXXXXXXXXXXXXXXXXXXXXXXXXXXXXXXXXXXXXXXXXXXXXXXXXXXXXXXXXXXXXXXXXXXXXXXXXXXXXXXXXXXXXXXXXXXXXXX-XXXXXXXXXXXX-XXXXX-XXXXXXXXXXXXXXXXXXX-XX-------XXXXXXXXXXXXXXXXXXXXXX-X-XXXX--XXXXXXXXXXXXXX------XX--XXXXXXXXXXXX
XXXXXXXXXXXXXXXXXXXXXXXXXXXXXXXXXXXXXXXXXXXXXX--XXXXXXX---X---XX--XXXXXXXXXXXXXXXXXXXXXXXXXXXXXXXXXXXXXXXXXXXXXXXXXXXXXXXXXXXXXXXXXXXXXXXXXXXXXXXXXXXXXXXX------XXXXXXXXXXXXXXXXXXXXXXXXXXXXXXXXXXXXXXXXXXXXXXXXXXXXXXXXXXXXXXXXXXXXXXXXXXXXXXXXXXXXXXXXXXXXXXXXXXXXXXXXXXXXXXXXXXXXXXXXXXXXXXXXXXXXXXXXXXX-------XXXXXXXXXXXXXXXXXXXXXXXXXXXXX--XXXXXXXXXXXXXX------XXX-XXXXXXXXXXXX