---------------------------------------------------------------------------------------------------------------------------------------------------------------------
---------------------------------------------------------------------------------------------------------------------------------------------------------------------
---------------------------------------------------------------------------------------------------------------------------------------------------------------------
-----------------------------------------------------------ooo-------------------------------------------------------------------------------------------------------
---------------------------------------------------------------------o---------------------------------------------------------------------------oo------------------
-------------------------------------------------------------------oS--------------ooo-------o-----------------------------------------------------%oooo-------------
-----------------SSooo----------------------------SS------------------%%%-------SS--%%-----------------|---------------S------------%%%%-------SSS-------------------
-----------------------------------------------------------------------|-------------------------------|-----------------------------||------------------------------
------------------------------------------------------------------SS---|-----------SSS-----------------|------------------Sooo%------||---------------SSS-%%%%-------
-------------------------%%%%------------------------------------------|-------------------------------|-----------------------------||------------SSS-----||--------
----%%%%%----------S----%-||-------SS-%%%%----------------------------%%%%%%--------------%%%%--%%%----|--------%%%%%%---------------||-%%%%%%%------------||--------
-----|||-----------------|||-----------||------------------------------|||||---------------||----|-----|---------||||------SS--------||--|||||-------------||--------
-----||------------------|||-----------||------------------------------||||----------------||----|-----|%%%------||||----------------||--|||||-------------||--------
-M---||------------------|||-----------||------------------------------|||||---------------||----|-----|-|-------||||----------------||--|||||-------------||------X-
XXXXXX||-XXXX-%%%%-------|||-----------||---%%%XXXXXXXXXXXXXXXXXXXX----||||----------------||%%%%|-----%%|-------|||%%%%---------%%%%%%%-|||||--XXXXXXXX---||-XXXXXXX
XXXXXX|-XXXXX--||--------|||-----------|||---|XXXXXXXXXXXXXXXXXXXXX----||||----------------||-||-|-----|-|-------|||-||-----------|||-|--|||||-XXXXXXXX----||XXXXXXXX