-------------------------------------------------------------------------------------------------------------------------------------------------------------------------------------------
-------------------------------------------------------------------------------------------------------------------------------------------------------------------------------------------
-------------------------------------------------------------------------------------------------------------------------------------------------------------------------------------------
S--SSS---SSSSSSSSSSSSSSSSSSSSSSSSSSSSSSSSSSSSSSSSSSSSSSSSSSSSSSSSSSSSSSSSSSSSSSSSSSSSSSSSSSSSSSSSSS-----SSSSSSSSSSSSSSSSSSSSSSSS---SSSSSSSSSSSSSSSSSSSSSSSSSSS-----SSSSSSSSSSSSSSSSSSSSSSSS
S-------SSSSSSSSSSS-------------SS------------------SSSSSSSSSSSSSS-------------------------SSSSS-------------------------S---------SSSSSS------SSSSSSSSSSSSS-------------------------------
S-------SSSSSSSSSSS-------------SS------------------SSSSSSS----SS--------------------------SSSSS-----------------------------------SSSSSS-------SSSSSSSSSSSSS------------------------------
S--------SSSSSSSSSS----------------------------------SSSSS-------------------------S-------SSSSSS-----------SSSSSS---S-------------SSSSSS--------SSSSSSSSSSSS---------------------SSSS---SS
S------------------------------------------------------------o---------------------------------------------------------------------------------------------------------------------------SS
S-------SS-------------------------------------------------SSSSS--S-----------------------SS-------------SS--------------------------------------------------------------------------------
S--------S--Sooooo----------------------------------------SSSS---------------------------------------------------------------------------------------oo-----------------------------------S
S-----S-----SSSSSSSS----------------QQ----------------SSSSSSSSSSS-----------------------------SSSSS-SSS----------------------------------SSSSSSSS---SSSSSSSSSSSSSS----------------------SSS
S-------------------------T-------------------------SSSSSSSSSSSS-----------------------------SSSSSS-------------TT----TT-------------------------------SSSSSSSSSSS-TT--------------------SS
S-------------------------T--------------------t----SSSSSSSSSSSS-----------------------T--SSSSSSSSS-------------TT----TT-------------------------------SSSSSSSSSSS-TT--------------------SS
SM-----------------------kT-------------------St----SSS--------------------------------T-----SSSSSS------------kTT---kTT-------------------------k-----SSSSSSSSSSS-T---------------------SS
XXXXXX-----X--XXXXXXXXXXXXXXXXXXXXXXXX-----XXXXXXXXXXXXXXXXXXXXXXXX--XX----X-----X---XXX-----XXXXXXXXXX----XXXXXXXXXXXXXXXXXXX---------XXXXXXXXXXXXXXXXXXXXXXXXXXXXXXXXXXXXXX--XXXXXXXX--X-
XXXXXX-----X--XXXXXXXXXXXXXXXXXXXXXXXX-----XXXXXXXXXXXXXXXXXXXXXXXX--XX----------X---XXX-----XXXXXXXXXX----XXXXXXXXXXXXXXXXX-X---------XXXXXXXXXXXXXXXXXXXXXXXXXXXXXXXXXXXXXX--XXXXXXXX--X-