---------------------------------------------------------------------------------------------------------------------------------------------------------------------
---------------------------------------------------------------------------------------------------------------------------------------------------------------------
---------------------------------------------------------------------------------------------------------------------------------------------------------------------
-----------------------------------------------------------------------------------------------------------------------------o---------------------------------------
---------------------------------------------o--o------------------------------------------oo------------------------------------------------------------------------
----------------------------------------------------------------------------------------o--o------ooo--------------------------------------oo------------------------
----SSS-------------------SSSS---SSS---------S--SS--------%%%%%------SS--------------SSSS-----SS------------SSS----S-------SSSS--------------------------SSSS--------
-------------------------------------------------------o---|||-----------------------------------------------------------------------------------oo------------------
-----------S-----|---------------------------------SS------|||-------------------------S-----S-----SSS-------------------------------------SSS-----------------------
-----------------|----------------SS-----------------------|||-----o-----------------------------------------------------------%%%------------------ooooo------------
------S-------%%%%%%%-----%%%---------%%%%%%%%--------S----|||--%%%%------%%%%%%%--------SSS-----S----%%%%%--------------------|||-------SS------SSS---------%%%%----
---------------|-|||-------|-----------||||-|--------------|||---||--------||||%%%---------------------|||---------------------|||----------------------------|||----
---------------|-|||-------|-----------||||-|--------------|||---||--------|||||||---------------------|||----------%%%--------||----------------------SSS---||||----
-M-------------|||||-------|-----------||||-|--------------|||---||--------|||||||---------------------|||-----------||--------||----------------------------||||--X-
XXX--%%%%%%----|||||%%%%%%%|----%%%----||||%%%-------------|||%%%%|%%%%----|||||||---------------------|||-----------||-%-%%%%-||%%%XXX----------------------||||-XXX
XXX---||||-----|||||-||-||||-----|-----||||-||-------------|||-||||--||----|||||||---------------------|||-----------||----|||-||-||--XX----------------------||--XXX