------------------------------------------------------------------------------------------------------------------------------------------------------
------------------------------------------------------------------------------------------------------------------------------------------------------
------------------------------------------------------------------------------------------------------------------------------------------------------
------------------------------------------------------------------------------------------------------------------------------------------------------
------------------------------------------------------------------------------------------------------------------------------------------------------
--------oooooo------------%%%%%%%---------------oooo--------------------------------o-----------------------------------------------------------------
--------%%%%-------g%-----||||||----------------%%%%%--------------------------S------------------------------------------SSSSS-----------------------
---------||------%%%%-----||||||------------------||---------------------------S------------o---------------------------------------------------------
---------||-------||------||||||---------------%%|||----%%%------------------------------%%%%%--------------------------------------------------------
---M-----||-------||------||||||----------------||||-----|-----------------------%%%%-----||----------------------------------------------------------
---SSS----|-------||---SS-||||||----------------||||-----|--------------------SS--||------||----------S-------------SS-----%%%%%%%%%%%%------%%%%-----
------------------||------||||||----------------||||-----|-------o--------o-------||------||%%%%%---oo----------------------||--|||||---------||------
------------------||------|||||----------%%%%---||||----||------------------------||-|-%%-||---|----------------------------||--||||----------||------
-----------o------||------|||||-----------||----||||---%%%%%%%%-------------------||-|--||||--||-------------------%%%%-----||--||||----oo--o-||------
--------X%%%%%----||||----||||||------%%%-||----||||----||--|-------%%--%%-----%%-||-|--||-|||||----------%%%%%%%%--||------||--||||---%%%--%-||---XXX
--------|-|||-----||||----||||||-------|--||----||||----||--|-------|-------------||-|--||-|||||-----------|%|--|---||------||--|-||----|-----||---XXX