------------------------------------------------------------------------------------------------------------------------------------------------------------------------------------------------------------------------------
------------------------------------------------------------------------------------------------------------------------------------------------------------------------------------------------------------------------------
------------------------------------------------------------------------------------------------------------------------------------------------------------------------------------------------------------------------------
------------------------------y-----------------------------------------------------------------------------------------------------------------------------------------------------------------------------------------------
------------------------------------------------------------------------------------------------------------------------------------------------------------------------------------------------------------------------------
------------------------------------------------------------------------------------------------------------------------------------------------------------------------------------------------------------------------------
--------------------------Q-------------------------------------------------------------------------------------------------------------------------------------------------------------Q-Q--------------Q-Q------------------
---ooo-------------------------------oooo-----------------------------------------oo--------------------------ooo---------------------------------------#-----------oo--------------------------------------------------------
------------------------------------------------------------------QQQ---------------------------------------------------------------------------------------------------------------------------------------------------------
---------------------------------------------------------------------------------------------------------------------------------------------------------------------------------------------------o---------------o----------
--------------------------QQQQ----------------------------------------------------------------------------ooo------------------------------------Q---------------T----------------------Q---------------#---------------------
--------------------------------------------------------------------#---------------------------------------------------------------------#-------------------------------------------------------------#---------------------
----------------------TT----------TT--------------------------------#-----------------------TT--------------------------------------------#-----------------------T-------------------------------------#---#-----------------
-M--------------------TT----------TT-----y-----------------------y--#-----------------------TT-----y-----------------------y--------------#----y------------------T---------------------------------#---#---#-----------------
XXXXXXXXXXXXX-XXXXXXXXXXXXXXXXXXXXXXXXXXXXXXXXXXXXX-XXXXXXXXXXXXXXXXXXXXXXXXXXXXXXXXXXXXXXXXXXXXXXXXXXXXXXXXXXXXXXXXXXXXXXXXXXX-------XXXXX--XXXXXXXXXXXXXXXXXXXXXXXXXXXXXX---XX--XXXXXXXXXXXXXXXXXXXXXXXXXXXXXXXXXXXXXXXXX---
XXXXXXXXXXXXX-XXXXXXXXXXXXXXXXXXXXXXXXXXXXXXXXXXXXX-XXXXXXXXXXXXXXXXXXXXXXXXXXXXXXXXXXXXXXXXXXXXXXXXXXXXXXXXXXXXXXXXXXXXXXXXXXX---oo--XXXXX--XXXXXXXXXXXXXXXXXXXXXXXXXXXXXX---XX--XXXXXXXXXXXXXXXXXXXXXXXXXXXXXXXXXXXXXXXXX---