---------------------------------------------------------------------------------------------------------------------------------------------------------------------
---------------------------------------------------------------------------------------------------------------------------------------------------------------------
---------------------------------------------------------------------------------------------------------------------------------------------------------------------
---------------------------------------------------------------------------------------------------------------------------------------------------------------------
-------------oo------------------------------------------------------------------------------------------------------------------------------------------------------
-----------------------------------------------------------------------------------------oooo------------------------------------------------------------------------
----------SSS%%%%-----SSS-----------------------------------------%%%%------------------SS----------SSSSo----S-----------S------------oo-----------------------------
--------------||---------------------------------------------------||-----------------------------------------------------------------%------------------------------
--------------||---------------------------------------------------||----------------------SSS---------------------S------------%%%----------------------------------
--------------||---------------------------------------------------||------------------------------------------------------------|---------||------------------------
--------------||---------%------SSS-%%%%%%--------------%%%----SSS-||-%%%--%%%------%%%%%----------%%%------%%%%%---%%%----S---%||---------||%%----------%%%%--------
--------------||---------------------|||%---------------||---------||-||----|--------|||-----------||--------|||-----|---------|||---------|||------------||---------
---------------|-----%%%%------------|||----------------||---------||-||-------------|||------%%%%%||--------|||-----|---------|||---------|||------------||---------
-M-------------|------|||------------|||----------------||---------|||||-------------|-|-------||||||--------|||-----|---------||||--------|||------------||-------X-
XXXXXXXX--------%%%%--|||--------%%%%|||-%%%X---XX-%%%%%%|%%%------|-|||-XXXXX--%%%%%%%%%%%%%%-||||||--------|||-----|--%%%----||||%%------|||-----%%%%%%%%%%%XXXXXXX
XXXXXXXX---------||---|||---------|--|||--|----X----|||-||-|---------|||-XXXXX---||--||||||||--||||||--------|||-----|---|-----||||--------|||------|||--|||--XXXXXXX