----------------------------------------------------------------------------------------------------------------------------------------------------------------------------------------------------------
----------------------------------------------------------------------------------------------------------------------------------------------------------------------------------------------------------
----------------------------------------------------------------------------------------------------------------------------------------------------------------------------------------------------------
----------------------------------------------------------------------------------------------------------------------------------------------------------------------------------------------------------
-------------------------------------------------------------------------------------------------------------@--------------------------------------------------------------------------------------------
----------------------------------------------------------------------------------------------------------------------------------------------------------------------------------------------------------
-------S-S--------------------------------!-------------------------------------------------------------------------------------------------------------------------------------------------------##S-----
--------------------------------------------------------------------------------------------------------------------------------------------------------------------------------------------------##------
-----------------------------------------------------------------#-------------------------------------------SSS----------------------SS-------------------#-------------------------------------###------
----------------------------------------------------------------##-----------------------------------------------------------------------------------------#------------------------------------####------
------S---------tt---------##----------------------------------###-----------t------!-----------#---S-###------------------------tS-----------S@S----------#--S-----------------S--------------#####------
----------------tt--------###---------------------------------####-----------t------------------##----###------------------------------------------------#-#----------------------------------######------
---------t------tt-------#####-------------------------------#####----------------------tt-----###---####----------------t-------------------------------#-#-------tt-----------------------########------
--M-g----t------tt------######-------------------XXX-------g-######-##---g--------------tt-----###----####-------------g-t--------------------------t-----g#g------tt---------g-g----------#########------
--XXXXXXXXXXXXXXXXXXXXXXXXXXXXXXXXXXXXXXX--XXXXXXXXXXXXXXXXXXXXXXXXXXXXXXXXXXXXXXXXXXXXXXXXXXXXXXXX--XXXXXXXXXXXXXXXXXXXXXXXXXXXXXXXXXXXXXXXXXXXXXXXXXXXXXXXXXXXXXXXXXXXXXXXXXXXXXXXXXXXXXXXXXXXXXXXXXX---
-XXXXXXXXXXXXXXXXXXXXXXXXXXXXXXXXXXXXXXXX--XXXXXXXXXXXXXXXXXXXXXXXXXXXXXXXXXXXXXXXXXXXXXXXXXXXXXXXX--XXXXXXXXXXXXXXXXXXXXXXXXXXXXXXXXXXXXXXXXXXXXXXXXXXXXXXXXXXXXXXXXXXXXXXXXXXXXXXXXXXXXXXXXXXXXXXXXXX---