-------------------------------------------------------------------------------------------------------------------------------------------------------------------------------------------------------------------------------------------------------------------------------------------------------------------------------------------------------------------------------------
-------------------------------------------------------------------------------------------------------------------------------------------------------------------------------------------------------------------------------------------------------------------------------------------------------------------------------------------------------------------------------------
-------------------------------------------------------------------------------------------------------------------------------------------------------------------------------------------------------------------------------------------------------------------------------------------------------------------------------------------------------------------------------------
-------------------------------------------------------------------------------------------------------------------------------------------------------------------------------------------------------------------------------------------------------------------------------------------------------------------------------------------------------------------------------------
-------------------------------------------------------------------------------------------------------------------------------------------------------------------------------------------------------------------------------------------------------------------------------------------------------------------------------------------------------------------------------------
-------------------------------------------------------------------------------------------------------------------------------------------------------------------------------------------------------------------------------------------------------------------------------------------------------------------------------------------------------------------------------------
-----------------------------------------------------------------------------------------------------------------t---------------------------------------------------------------------#---------------------------------------------------------------------------------------------------------------------------------------------------------------------------------------------
----------------------------------------------------------------------------------------------------o-----------tt---#-------------------------o-----o---------------------------------#---------------------------------------------------------------------------------------------------------------------------------------------------------------------------------------------
----------------------------------------------------------------------------------------------------------------tt---#-------------------------------------------------------------SSSSCSSSo-----------------------------------------------------------------------------------------------------------------------------------------------------------------------------------------
----------------------------------------------------------------------------------------------------------------tt---#-----------------------------------------------------------------------------------------------------------------------------------------------------------------tt--------o---------------tt------------------------------------------------------------------
-----------------TT-----TT------------------------------------------------------------------T----------o--------tt---#---------------------------o---2---------------------------------------------------------------T-----------------------------------------------------------------------------------oo------tt-------o----------------------------------------------------TT----
-----------------TT-----TT-----------------------------------------------------------------TT--------------------t---#-----------------------#---------K-------------------------------------------------------------T---------------------TT----------------------------------------TT--------------------------tt------------------------------------------------------------TT----
-----------------TT-----TT-------------------------------------------------------------#---TT---------------#-#--#---#-------T---------------#-----------------------------------------o----------------------------#-#------T-------------TT----------------------------------------TT----------------------#---tt------------------------------------------------------------TT----
-M-----------k---TT-----TT------kk----gggg-----------------------------gg---------kgg--#---TT-------gg------#-#--#----------TT-----------ggk-#-----------------------------------------------------g-----------ggg--#-#------T----k------k-T------------ggg-----k--------------g-----TT----------------------#---t---------------------------t---------------------kk----ggg---TT----
XXXXXXXXXXXXXXXXXXXXXXXXXXX-XXXXXXXXXXXXXXXXXXXXXXXXXXXXXXXXXXXXXXXXXXXXXXXXXXXXXXXXXXXXXXXXXXXXXXXXXXX-XXX-X-X-XXXXXXXXXXXXXXXXXXXXXXXXXXXXXXXXXXXXXXXXXXXXXXXXXXXXXXXXXXXXXX----X-X---XX-XXXXXXXXXXXXXXXXXXXXXXXX-X-X-XXXXXXX-X-XXXXXXXXXXXXXXXXXXXXXXXXXXXXXXXXXXXXXXX-X-XXXXXXXXXXXXXXX---X----XXXXXXXXXXXXXXXXXXXXXXXXXXXXXX--XX--X-XX--XXXXXXXXXXXXXXXX--XXXXXXXXXXXXXXXXXXXXXX
XXXXXXXXXXXXXXXXXXXXXXXXXX--XXXXXXXXXXXXXXXXXXXXXXXXXXXXXXXXXXXXXXXXXXXXXXXXXXXXXXXXXXXXXXXXXXXXXXXXXXXXXXXXX-X-XXXXXXXXXXXXXXXXXXXXXXXXXXXXXXXXXXXXXXXXXXXXXXXXXXXXXXXXXXXXXX----X-X-X-XXXXXXXXXXXXXXXXXXXXXXXXXXX-X-X-XXXXXXX-X-XXXXXXXXXXXXXXXXXXXXXXXXXXXXXXXXXXXXXXXXXXXXXXXXXXXXXXXXX---X----XXXXXXXXXXXXXXXXXXXXXXXXXXXXXX--XX--XXXX--XXXXXXXXXXXXXXXX--XXXXXXXXXXXXXXXXXXXXXX