-----------------------------------------------------------------------------------------------------------------------------------------------------------------------------------------------------
-----------------------------------------------------------------------------------------------------------------------------------------------------------------------------------------------------
-----------------------------------------------------------------------------------------------------------------------------------------------------------------------------------------------------
-----------------------------------------------------------------------------------------------------------------------------------------------------------------------------------------------------
-----------------------------------------------------------------------------------------------------------------------------------------------------------------------------------------------------
---------------------------------------------------------------------------------------------------------------------------------------------------------------------##------------------------------
----------S------------------------------------USS----------US----SS-------------------------------------------------S---------------------------------S-------------##--------SSSSS-----------------
---------------------------------------------------------------------------------------------------------------------------------------------------------------------##------------------------------
---------------------------S-------QQ--------------------------------------------------------------------------------------------------#----------------------------###----------------USSS----------
---------------------------------------------------------------------------------------------------------------------------------------##--------------------------####------------------------------
----------T----QQQQQQ----------T-------------------TT----QQQQ------------------------------TT--------S-------TT-------------Q---------##---------------------------###-----TT----QQ------------------
----------TT-------------------T-------------------TT--------------------------------------TT----------------TT----------------------###----------TT---------------##------TT--------------TT--------
----------TT---------------------------------------TT--------------------------------------TT----------------TT----------------------###----------TT---------------##------TT---------------T--------
-M--------TT--------------gg-----------------------TT------k---g---------------g-----------T-----g----k------TT--------------k---##-####-----------T-------gg------##------TT---------gg-------------
XXXXXXXXXXXXXXXXXXXXXXXXXXXXXXXXXXXXXXXXXXXXXXXXXXXXXXXXXXXXXXXXXX-------XXXXXXXXXXXXXXXXXXXXXXXXXXXXXXX---XXXXXXXXXXXXXXXXXXXXXXXXXXXXXXXXXXXXXXX-----XXXXXXXXXXXXXXXXXXXXXXXXXXXXXXXXXX----XXXXXXXX
XXXXXXXXXXXXXXXXXXXXXXXXXXXXXXXXXXXXXXXXXXXXXXXXXXXXXXXXXXXXXXXXXX-------XXXXXXXXXXXXXXXXXXXXXXXXXXXXXXX---XXXXXXXXXXXXXXXXXXXXXXXXXXXXXXXXXXXXXXX-----XXXXXXXXXXXXXXXXXXXXXXXXXXXXXXXXXX----XXXXXXXX