------------------------------------------------------------------------------------------------------------------------------------------------------------------------------------------------------------------------------
------------------------------------------------------------------------------------------------------------------------------------------------------------------------------------------------------------------------------
---------------------------------------------------------------------------------------------------------------------##-------------------------------------------------------------------------------------------------------
--------------------------------------------------------------------------------------------------------------------###-------------------------------------------------------------------------------------------------------
-------------------------------------------------------------------------------------------------------------------####-------------------------------------------------------------------------------------------------------
------------------------------------------------------------------------------------------------------------------######------------------------------------------------------------------------------------------------------
-----------------------------------------------------------------------------------------------------------------######------------------------------------------------Q-Q----------------------------------------------------
----------------------------------------------------------------------------------------------------------------########----------------------------------oo----------------------------------------------------o-------------
---------------------------------------------------------------------------------------------------------------########---------------------------------------------------------Q---------------------------------------------
--------------------------------------------------------------------------------------------------------------########-----------------------------------------------y-----------------------------------------------oo-------
----------------QQ-------------------------------------------------------------------------------------------#########-----------------------------------------?SQQ?SSQQQ---------------------------QQQ-----------------------
----------------------------------------------------------------------------------------------------------#--########---------------------------------------------------------------------#-----------------------------------
-------------------------------------------------------------------------------------------------------------#######----------------------------------------------------------------------#-----------------------------------
-M-----------------y---y-----------------y-----------------y-------------------T----------------------------######---------y-------------------------------------------y------------------#-----------------------------------
XXXXXXXXXXXXXXXXXXXXXXXXXXXXXXXXXXX---XXXXXXXXXXXXXXXXXXXXXXXXXXXXXX--X---XX--XXX---XX--XXXXXXXXXXXXXXXXXXXXXXXXXX-XXXXXXXXXXXXXXXXXXXXXXXXXXXX---XX--XXXXXXXXXXXXXXXXXXXXXX--XXXXXXXXXXXXXXXXXXXXXXXXXXXXXXXXXXXXXXXXXXXXXXXX
XXXXXXXXXXXXXXXXXXXXXXXXXXXXXXXXXXX---XXXXXXXXXXXXXXXXXXXXXXXXXXXXXX--X---XX--XXX---XX--XXXXXXXXXXXXXXXXXXXXXXXXXX-XXXXXXXXXXXXXXXXXXXXXXXXXXXX---XX--XXXXXXXXXXXXXXXXXXXXXX--XXXXXXXXXXXXXXXXXXXXXXXXXXXXXXXXXXXXXXXXXXXXXXXX