-----------------------------------------------------------------------------------------------------------------------------------------------------------------------------------------------------
-----------------------------------------------------------------------------------------------------------------------------------------------------------------------------------------------------
-----------------------------------------------------------------------------------------------------------------------------------------------------------------------------------------------------
-----------------------------------------------------------------------------------------------------------------------------------------------------------------------------------------------------
-----------------------------------------------------------------------------------------------------------------------------------------------------------------------------------------------------
-----------------------------------------------------------------------------------------------------------------------------------------------------------------------------------------------------
--------------SS-----------------------------------------------------------------#--------------------QQ-------------SSS-------------S---------SSS---------------------------------------------------
---------------------------------------------------------------------------------#-------------------------------------------------------------------------------------------------------------------
----------------------------------------SS---------------------------------------------------------------------------------------g-------------------------------------SSSS--------------------------
-------------------#---------------------------------------------------------------------------------------------------------------------------------------------------------------------------------
------?QQQ--------##------------------------TT---Q------------------TT--------------------TT-----------Q-------------------------TT------TT-------TT----QQQ----------------------------TT------------
-------------------#---------#--------------TT--------TT------------TT-----------T--------TT-----------------TT-----------g------TT------TT-------T------------------------TT----------TT------------
-------------------#--------##--------------TT--------TT---------t--TT-----------T--------TT------------------------------TT-----TT------TT--------------------------------TT----------TT------------
----M---------k----#--g------#--------------TT-----k---T---------t--TT-------k---TT-g-----TT-----k-----------TTg----------TT-gg--TT------TT----k---T-----------------gg----TT----------TT------------
----XXXXXXXXXXXX---XXXXX--XXXXXXXXXXXXXXXXXXXXXXXXXXXXXXXXXXXXXXXXXXXXX--XXXXXXXXXXXXXXXXXXXXXXXXXXXXXXXXXXXXXXXXX---XXXXXXXXXXXXXXXXXXXXXXXXXXXXXXXXXXXXXXXXXXXXXXXXXXXXXXXXXXXXXXXXXXXXXXXXXXXXXX--
----XXXXXXXXXXXX---XXXXX---XXXXXXXXXXXXXXXXXXXXXXXXXXXXXXXXXXXXXXXXXXXX--XXXXXXXXXXXXXXXXXXXXXXXXXXXXXXXXXXXXXXXXX---XXXXXXXXXXXXXXXXXXXXXXXXXXXXXXXXXXXXXXXXXXXXXXXXXXXXXXXXXXXXXXXXXXXXXXXXXXXXXX--