------------------------------------------------------------------------------------------------------------------------------------------------------------------------------------------------------------------------------
------------------------------------------------------------------------------------------------------------------------------------------------------------------------------------------------------------------------------
------------------------------------------------------------------------------------------------------------------------------------------------------------------------------------------------------------------------------
------------------------------------------------------------------------------------------------------------------------------------------------------------------------------------------------------------------------------
------------------------------------------------------------------------------------------------------------------------------------------------------------------------------------------------------------------------------
-------------------------------------------------------------------y----------------------------------#-----------------------------------------------------------------------------------------------------------------------
----------------------------------------------------------------Q?SQQQQ-------------------------------o-----------------------------------------------------------------------------------------------------------------------
-------oo-------------------------------------------------------o---------------------------------oooooo----------------------------------------------------------------------------------------------------------------------
------o-----------------------------------------------------------------------------------------------------------------------------------------------------------------------------------------------------------------------
-------------------------------------------------------------------y----------------------------------------------------------------------------------------------------------------------------------------------------------
-------------------Q-Q--------SS------------------------------TQQ?SSQQQQ-----------------------TT-----------------------------------------------------------------------------------------------------------------------------
--------------------------------------------------------------T--------------------------------TT-----------------------------------------------------------------------------------------------------------------------------
---TT---------------------------------------------------------TT-------------------------------TT-----------------------------#-----------------------------------------------------------------------------------------------
-M-TT------------------------------y---------y----------------TT-------y-----------------------TT--------y-------y------------#----y---------------------------------------------------------------y-----------y--------------
XXXXXXXXXXXXXXX--XXXXXXXXXXX-XXXXXXXXXXXXXXXXXX---XX--XX--XXXXXXXXXXXXXXXXXXXXXXXXXXXXXXXXXXXXXXXXXXXXXXXXXXXXXXXXXXXXXXXXXXXXX-XXXXXXXXXXXXXXXXXXXXXXXXXXXXXXXXXXXXXXXXXXXXXXXXXXXXXXXXXXXXXXXXXXXXXXXXXXXXXXXXXXXXXXXXXXXXXX
XXXXXXXXXXXXXXX--XXXXXXXXXXXXXXXXXXXXXXXXXXXXXX---XX--XX--XXXXXXXXXXXXXXXXXXXXXXXXXXXXXXXXXXXXXXXXXXXXXXXXXXXXXXXXXXXXXXXXXXXXXXXXXXXXXXXXXXXXXXXXXXXXXXX-XXXXXXXXXXXXXXXXXXXXXXXXXXXXXXXXXXXXXXXXXXXXXXXXXXXXXXXXXXXXXXXXXXXX