-----------------------------------------------------------------------------------------------------------------------------------------------------------------------------------------------------
-----------------------------------------------------------------------------------------------------------------------------------------------------------------------------------------------------
-----------------------------------------------------------------------------------------------------------------------------------------------------------------------------------------------------
-----------------------------------------------------------------------------------------------------------------------------------------------------------------------------------------------------
------------------------------------------US---------------------------------------------------------------------------------------------------------------------------------------------------------
-----------------------------------------------------------------------------------------------------------------------------------------------------------------------------------------------------
-------SS-----------------------------------------------------------------------------------------------------USSS--------USCS-------------------------------------------SSS-------------------------
-----------------------------------------------------------------------------------------------------------------------------------------------------------------------------------------------------
------------------------USS-------------SS------------------------SS---------S---------------------------------------------------------SQQQ----g------------SS---------------------------------------
-------------------#---------------------------------------------------------------------------------------------------------------------------#-----------------------------------------------------
------------------##-------------------------------T-------------------------------SS--------------------------------------Q----TT-------------#--------------QQQ-------------------SQ---------------
------------------##--------g---------------------TT----------------------------------------------------------------------------TT-----------###------------------------------T----------------------
------------------##--------TT-----T---------------T------------------------------------T------TT---------------------#---------TT-----------###------------------------------T----------------------
--M----k----gg----##ttg-----TT-----T---------------T-----------------------gTT---gg----TT------TT----------k-g---#---##---------TT----------####-----------------k---g--------T------k---gg----------
--XXXXXXXXXXXXXXXXXXXXXXXXXX-----XXXXXXXXX---XXXXXTT-XXXXXXXXXXXXXXXXXXXXXXXXXXXXXXXXXXXXXXXXXXXXXXXXXXXXXXXXXXXXXXXXXXXXXXXXXXXXXXXXXXXXXXXXXXXXXXXXXXXXXXXXXXXXXXXXXXXXXXXXXXXXXXXXXXXXXXXXXXXXXXXX
--XXXXXXXXXXXXXXXXXXXXXXXXXX-----XXXXXXXXX---XXXX-TT-XXXXXXXXXXXXXXXXXXXXXXXXXXXXXXXXXXXXXXXXXXXXXXXXXXXXXXXXXXXXXXXXXXXXXXXXXXXXXXXXXXXXXXXXXXX-XXXXXXXXXXXXXXXXXXXXXXXXXXXX-XXXXXXXXXXXXXXXXXXXXXXX