---------------------------------------------------------------------------------------------------------------------------------------------------------------------
---------------------------------------------------------------------------------------------------------------------------------------------------------------------
---------------------------------------------------------------------------------------------------------------------------------------------------------------------
--------------------------------------------------------------------oo-----------------------------------------------------------------------------------------------
------------------------------------------%%%%-----------------------------------------S-----------------------------------------------------------------------------
-------------------------------------------||----------------oo---------------------------------------------------------------------oooo-----------------------------
-----------------------SSS--------Soo------||-----------SS----------SSS------------SSS--------------SSS---------------SSS--------------------------------------------
------------------------------oo---S-------||------------------------------------------------------------------------------------------------------------------------
---------------------------S---------------||---------------SSSS----------------------------------------%%%%%---------------------%%%------SSSooo-------SSS----------
-------------------------------------------||------------------------------------------------------------|||-----------------------|---------------------------------
--------|%---------------------------SSS-----SSS--%%%%%---------------------------------%%%%%%%---SS-----|||-----------------S-----|%%%-----------%%%%%----SS---%%%--
--------||---------------------------SS------------|||-----------------------------------|||||-----------|||-----------------------|||-------------|||-----------|---
--------||-----------------------------------------|||-----------------------------------||-||-----------|||---------------------|||||-------------|||-----------|---
-M------|||----------------------------------------|||-----------------------------------||-||-----------|||---------------------|||||-------------|||-----------|---
XXXXX%%%|||-XXXXXXXXXXXXXXXXX-----------%%%--------|||--------------%%%XXXXX%%%%%%%------||-||%%%------|-|||-XXXXXX--%%---%%-----|||||--%%%--------|||-----------|---
XXXXX-|-||||XXXXXXXXXXXXXXXXX------------|---------|||---------------||XXXXX-|||||%------||-||---------|-|||-XXXXXX---|---|------|||||---||--------|||-----------|---