-------------------------------------------------------------------------------------------------------------------------------------------------------------------------------------------------------------------------------------------------------------------------------------------------------------------------------------------------------------------------------------
-------------------------------------------------------------------------------------------------------------------------------------------------------------------------------------------------------------------------------------------------------------------------------------------------------------------------------------------------------------------------------------
-------------------------------------------------------------------------------------------------------------------------------------------------------------------------------------------------------------------------------------------------------------------------------------------------------------------------------------------------------------------------------------
-------------------------------------------------------------------------------------------------------------------------------------------------------------------------------------------------------------------------------------------------------------------------------------------------------------------------------------------------------------------------------------
-------------------------------------------------------------------------------------------------------------------------------------------------------------------------------------------------------------------------------------------------------------------------------------------------------------------------------------------------------------------------------------
-------------------------------------------------------------------------------------------------------------------------------------------------------------------------------------------------------------------------------------------------------------------------------------------------------------------------------------------------------------------------------------
-------------------------------------------------------------------------------------------------------###-------------------------------------------------------------#----------------------------------------------------S--#-------------------------------------------------------------------------------------------SSSSSSSS--------------------------------------------------
-------------------------------------------------------------------------------------------------------##------------------------------------o-------------------------#------------o------------------------------------------#-----------------------------------------------------------------------------------------------------------------------------------------------------
-----###-----------------------------------------------------------------------------------------S-----##------------------------------------------------------------#-#-----------------------------------------------------#-------------------------------------------------------------------------------------------------------------------------------------------------------
----###------------------------------------------------------------------------------------------------#--------------------------------tt---------------------------#-#-----------------------------------------------------###-----------------------------------------------------------------------------------------------------------------------------------------------------
----####----------------------------TT-----------------------------------------------------------------#---------------------------TT---tt---------------------------#-#-------------o-------------------------------------#-###---------------TT------------------------------------------------------------------------##----------------------------------------------------------
----####----------------------------TT-----------o---------------------------------------------------------------------------------TTT--tt-----------------------------#-----------------------------------------------------###----------TT---TT------------------------------------------------------------------------#---------------------------------------TT------------------
----###-----------------------------TT--tt--------------------------T--------------------------------------------------------------TTT---t-T-----------------------T-#-#---o-----------------#-------------------------------#-#-----------T---TT--------------------TT------------TT--TT--------------------------------###-------------------TT----------------TT------------------
-M--###-------------ggg------k------TT--tt-k----gg-----------------TT---k------------------ggg#------------------------------------TT----t-T----------k------------TT#-#------------------kkk#--ggg-k------------------kk----#-#-----------TT--TT--------------------TT----------------TT----ggg--------ggg------------#--##---------------gg--TT--kkk-----------TT-----------ggg----
XXX-XXXXXXXXXXXXXXXXXXXXXXXXXXXXXXXXXXXXXXXXXXXXXXXXXXXXXXXXXXXXXXXXXXXXXXXXXXXXXXXXXXXXXXXXXXXXX------XXXXXXXXX--X-XXXXXXXXXXXXXXXXXXX-XXXXX-X-X-XXXXXXX-X-XXXXXXXXXXXXXXXXXXXXXXXXXXXXXXXXXXXXXXXXXXXXXXXXXXXXXXXXXXXXXXXXXXXXXXXXXXXXXXXXXXXXXXXXXXXXXXX-X-X---XXXXXXXXXXXXXX-------XXXXXXXXXXXXXXXXXXXXXXXXXXXXXXXXXXXXXXXXXXXX--XXXXXXXXXXXXXXXXXXXXXXXXXXXXXXXXXXXXXXXXXXXXXXXX
XXXXXXXXXXXXXXXXXXXXXXXXXXXXXXXXXXXXXXXXXXXXXXXXXXXXXXXXXXXXXXXXXXXXXXXXXXXXXXXXXXXXXXXXXXXXXXXXXXX----XXXXXXXXX--X-XXXXXXXXXXXXXXXXXXX-XXXXX-X-XXXXXXXXX-X-XXXXXXXXXXXXXXXXXXXXXXXXXXXXXXXXXXXXXXXXXXXXXXXXXXXXXXXXXXXXXXXXXXXXXXXXXXXXXXXXXXXXXXXXXXXXXXX-X-X--XXXXXXXXXXXXXXXX------XXXXXXXXXXXXXXXXXXXXXXXXXXXXXXXXXXXXXXXXXXXX--XXXXXXXXXXXXXXXXXXXXXXXXXXXXXXXXXXXXXXXXXXXXXXXX