--------------------------------------------------------------------------------------------------------------------------------------------------------------
--------------------------------------------------------------------------------------------------------------------------------------------------------------
--------------------------------------------------------------------------------------------------------------------------------------------------------------
S---SSSSSSSSSS-SSSSSSSSSSSSSSS---SSSSSSSSSSSSSSSSSSSSSSSSSSSSSSSSSSSSSSSSSSSSSSSSSSSSSSSSSSSSSS--------------SSSSSSSSSSSSSSSSSSSSSSSSSSSSSSSSSSSSSSSSSS-------
S-----SS----SS-S-SS---------------------------------------SSSSS----------------S-SSS------------------------------------SSSS----------------------------------
S-----SS----SS-SoS----------------------------------------SSSSS---------------SS-SSS------------------------------------SSSS----------------------------------
S----------SSS-SSS--------------------------------------------SS--------------So--SS-----------------------------SS--SooS--S----------------------------------
S------------------------------------------------------------S----------------S----S----------------------SS-----SSS-------S----------------------------------
S------------------------------------------------------------S----------------SSSSSS-------------------SSSSS--S---SS--SS--SS--SSSS----------------------------
S-------------------oo------------------------------------ooSS--------------------SS--SS---------SoS---S--S---SS--SS--SSSoSS----SS----------------------------
S-----@QQQQ--------SSSS-----------------------------------SSSS------SS------------SS-SSS---------SSSS--SSSS---SSSSSS--SS-SSS--------------------@QQQQQ--------
S----------------------------------#-###-#---#-#-#----------------------------------------------------------------SS---------------------#--------------------
S------------g-#SS-#-------------g-#-##--#---#-#-#-#----------------------T#--------------------------------------SS---------------------#--------------------
SM-----#---#-#-#S#-#---g---g-----#-#-###-#---#-#-#-#----S---kk---------g---#---k--------------------kk------------SS-------------------#-#-------------g------
XXXXXXXXXXXXXXXXXXXXXXXXXXXXXXXXXXXXXXXXXXXXXXXXXXXXXXXX--XXXXXXXXXXXXXXXXXXXXXXXXXXXXXX--XXXXXXXXXXXXXXXXXXXXXX--XX--XXXXXXXXXXXXXXXXXXXXXXXX-XXXXXXXXXXXXXXX
XXXXXXXXXXXXXXXXXXXXXXXXXXXXXXXXXXXXXXXXXXXXXXXXXXXXXXXX--XXXXXXXXXXXXXXXXXXXXXXXXXXXXXX--XXXXXXXXXXXXXXXXXXXXXX--XX--XXXXXXXXXXXXXXXXXXXXXXXX-XXXXXXXXXXXXXXX