------------------------------------------------------------------------------------------------------------------------------------------------------
------------------------------------------------------------------------------------------------------------------------------------------------------
------------------------------------------------------------------------------------------------------------------------------------------------------
-------------------------------------------------------------------------------------------------------------------------------------------R----------
-------------------------g----------------------------------------------------------------------------------------------------------------------------
-----------------------%%%%%-------------------------%%%%-----------%%%%%%%%------oo-------------R--------oo--------oo---------------R----------------
------------------------|||---------------------------||-------------|||||--------------------------------------------------------------S-----SS------
------------------------||----------------oo----------||---------o--||||||----------------------------------------------------------------------------
---------------------%%-||-----------------------o----||-------%%%%%||||||-----------%-------------%%%%%%---------------------------S-----------------
----------------------||||---%%%----------SS----------||--------||||||||||--%%%%%--%|--------------%|||-----------------------------------------------
-----------%%%%%%-----||||----|---------------------%-||-%------||||||||||--||||----|---------------|||-----SSS---------------SSS-----------oo--------
------------||||------||||----|---------------------%-|||-------||||||||||-|||||----|---------%-----|||-----------------------------------------------
------------||||------||||--|-|-----------------------|||-------||||||||--||||||--%%%%%-------|-----||------------------------------------------------
-M----------||||----|-||||--|||-----------------%----||||-------||||||||--||||||--||||--------|-----||-------------------------------%-------------#--
XXXX-----%%-||||----||||||--|||---%%----------%%%---|||||-|-----||||||||--||||||--||||---%%%%-||----||------------XXXXXXXXXXXX---XXXXXXXXXXXXXXXXXXXXX
XXXXX-------||||----||||||--||-----------------||---|||||-|-----|||||||---||||||--||||----||--||----||------------XXXXXXXXXXX------XXXXXXXXXXXXXXXXXXX