-----------------------------------------------------------------------------------------------------------------------------------------------------
-----------------------------------------------------------------------------------------------------------------------------------------------------
------------------------------------------------%%%--------------------------------------------------------------------------------------------------
---------------------------------------------o---|---------------------------------------------------------------------------------------------------
---------------------------------------------%---|---------------------------------------------------------------------------------------------------
--------%%%----------oo----------------------|---|-------------------------------------------o---------o---------------------------------------------
---------|---------%%%%----------------------|---|----------------------------------------%%%%-----%--%%%--%--------------------------------%%%------
-------M-|----------||-----------------------|---|---o---o---o---o------SSS---------------------SS--|--|-----------------SSS---oo------------||------
-------%%%%%%%%%%-%-||-----------------------|---|--%%%-%%%-----%%%%-----------------S-----|%%%----||--|------%%%%---------------------------||------
--------||||||||----||-SSS---------------SS--|---|---|---|-------||------------------S-----|-|-----||--|-------||----SS--------SSSS----------||------
--------||||||||-o|-||--------------%%%%-----|-------|---|-------||--------------oo--------|-|-----|%%---------||----------------------%%%%%%%%------
--------||||||||-r|-||------------%--||----------%%%%%%%-|-------||-----------------%%%%%%%%%|---r-|||%----%%%%||-----------------------|||||||------
--------||%%%%%%%%%%%%%----------||%-|||-----------||||%||----|--||------------------||-||||%%%%%%-||||-----|-|||-----------------------|||||||------
--------||||||||||||||-----------||-||||-----------||||-||----|--|-------------------||-|||||||||--||||-----|-|||-----------------------|||||||----o-
--------||||||||||||||----------|||-||||-----------||||-||----%%%%%%%%%-XXXXXXX-%%%%%%%%|||||||||--||||---%%|-|||-----------------------||||-||----X%
---------|||||||||||||-----------||-||||-----------||||-||-----||||||---XXXXXXXX-|-||||-|||||||||--||||----||||||------------------------||||||----X-