---------------------------------------------------------------------------------------------------------------------------------------------------------------------
---------------------------------------------------------------------------------------------------------------------------------------------------------------------
---------------------------------------------------------------------------------------------------------------------------------------------------------------------
--------------------------------------------------------------ooooooooo----------------------------------------------------------------------------------------------
---------------------------------------------------------------------------------------------------------------------------------------------------%%----------------
-------------------------------------------------------------------------------------------------------------------o-------------------------------||----------------
--------------------------SS-------------------------S--------SSSSSS-----------------------------SS---------------------SSS--------------------S---||----------------
------M----------------------------------------------------------------------------------------SS--------------------------------------------------||----------------
------%%%%-----------------------------o--ooo---------------------------------------SS-----------------------------SSS-----------------------------||------oo--------
-------||-------------------------------%%---------------------------------------------------------------oS-----------------------------------SSS--||----------------
-------||-%%--------------------------SS----%%%%%%---------|------------%%%%%-----------%%%%%-----%%%%%%-----%%%--------%%%%%%%%%------------------||%%-SSS--%%%%%---
-------||-|----------------------------------||||----------|-------------|||-------------|||-------||||%-----|-------SSS-||-||||-------------------|||--------|||----
-------||||----------%%%%--------------------||||----------|-------------|||-------------||--------||||------|-----------||-||||-------------------|||--------|||----
-------||||-----------||---------------------||||----------|-------------|||-------------||--------||||------|-----------||-||||-------------------|||--------|||--X-
-------||||XXXXXXXXXXX||------%%%------------||||%%%%%----%|%%%----------|||----------%%%||%%%%%---||||%%%%%%%%%%%-------||-||%|%%%%%--------------|||--%--%%||||XXXX
-------|||XXXXXXXXXXXX||-------|-------------||||-|||------|||-----------|||-----------|-||-|||----||-||-||--||||--------||-||-|||||----------------||-------|||-XXX|