------------------------------------------------------------------------------------------------------------------------------------------------------
------------------------------------------------------------------------------------------------------------------------------------------------------
------------------------------------------------------------------------------------------------------------------------------------------------------
------------------------------------------------------------------------------------------------------------------------------------------------------
------------------------------------------------------------------------------------------------------------------------------------------------------
-----o--M---oooo----------oo-------------------------------------------o--oo--------------------------------------%---------%%%%%---------oooo--------
--------%%%%%%%%%--%----------------------------------------%%%%%---%%--------------------------------------------------------||---------%%%%-%%%%----
---------|||||||----|%%%%-------------oo--------------------|-||------------------------------------------------oo------------||----------||--||------
----------||||||----||||-------------------------------%%%%-||||----##---------------------------------SSS--------------------||||--------||--||||----
----------||||||----||||----oo------------------oo------||--||||----##--------------------------------------------------------||||--------||--||||----
----------||||||----||||--%%%%--SS-------------%%%%%%%%-||--||||--####------------o%%%%%%-----o--------------%%%--------------||||---%%%%%||--||||----
----------||||||----||||---||--------------------|--||--||--||-|-##-#---------------||||----------------------|---------------||||----||||||--|||-----
----------||||||----||||--||---------------------|--||--||--||----#-----------------||||----------------------|---------------||||----||||||--|||-----
----------||||||----||||--||-----------o------------||--||--||--####----------------||||----------------------|---------------||||----||||||--|||--#--
----------||||||----||||--||----%---------%%%-------||--||XXXXXXXXXXXXXXX--%%%--%%%-||||----------XXX-XXXX----%%---------%%%--||||----||||||--|||XXXXX
----------||||||----||||--||---------------%--------||---|XXXXXXXXXXXXXXX--||----||-||||----------XXXXXXXXXX--||----------|---||||----||||||--|||XXXXX