-----------------------------------------------------------------------------------------------------------------------------------------------------------------------------------------------------
-----------------------------------------------------------------------------------------------------------------------------------------------------------------------------------------------------
-----------------------------------------------------------------------------------------------------------------------------------------------------------------------------------------------------
-----------------------------------------------------------------------------------------------------------------------------------------------------------------------------------------------------
-----------------------------------------------------------------------------------------------------------------------------------------------------------------------------------------------------
-----------------------------------------------------------------------------------------------------------------------------------------------------------------------------------------------------
------------------------S---------------------SS----------------------S----------SS---------------SSC----USS--------------SS-------SS--------------------------LSSSSS--SSS-------------##------------
---------------------------------------------------------------------------------------------------------------------------------------------------------------------------------------#-------------
-------------------------------------------------------g------------------------------------------------------SSC------------------------------S-----------------------------------------------------
-------------------------------------------------------#---------T-----------------------------------------------------------------------------------------------------------------------------------
------------------##------------------##--------------##--------TT-------TT------------------Q-------T---------------------------------------------------TT----QQ---------------TT-------------------
------------------##------------------##-----------#--##--------TT--tt---TT----------------------t--TT---t-------------------------T---------------------TT---------------------TT-------------------
----------------####---2-------------###-----------#---#--------TT--ttt--TT--------TT-----------tt---T---t-------------------------T---------------------TT---------------------TT-------------------
-M-------------#####---gg--------k--####-----gg----#------------TT--ttt--TT---------------------tt---T--gt----T----------------tt--T-----g---------------TT---------------------TT-----gg------------
XXXXXXXXXXXXXXXXXXXXXXXXXX---XXXXXXXXXXXXXXXXXXXXXXXXXXXXXXXXXXXXXXXXXXXXXXXXXXXXXXXXXXXXXXXXXXXXXXXXXXXXXX--XX----XXX---XXXXXXXXXXXXXXXXXXXXXXXXXXXXXXXXXXXXXXXXXXXXX-----XXXXXXXXXXXXXXXXXXXXXXXXXX
XXXXXXXXXXXXXXXXXXXXXXXXXX---XXXXXXXXXXXXXXXXXXXX-XXXXXXXXXXXXXXXXXXXXXXXXXXXXXXXXXXXXXXXXXXXXXXXXXXXXXXXXX--XXX---XXX---XXXXXXXXXXXXXXXXXXXXXXXXXXXXXXXXXXXXXXXXXXXXX-----XXXXXXXXXXXXXXXXXXXXXXXXXX