--------------------------------------------------------------------------------------------------------------------------------------------------------------
--------------------------------------------------------------------------------------------------------------------------------------------------------------
--------------------------------------------------------------------------------------------------------------------------------------------------------------
S-SSSSSSSSSSSSSSSSSSSSSSSSSSSSSSSSSSSSSSSSSSSSSSSSSSSSSSSSSSSSSSSSSSSSSSSSSSSSSSSSSSSSSSSSSSSSSS----SSSSSSSSS------------SSSSSSSSSSSSSSSSSSSSSSSSSSSSSS-------
S---------------------------------------------------------------------------------------------SSS-------------------------------SSSSSSSS--SSSS----------------
S---------------------------------------------------------------------------------------------SSS-------------------------------SSSSSSSS--SSSS----------------
S--------oooooo-ooo------------------ooo--SSS-------------------------------------------------------S---------------------------------------------------------
S---------------------------------------------------------------------------------------------------SS--------------------------------------------------------
S-------SSSSSSSSSSSS----------------SSSS------------------------------------------------------------SS--------------------SS--S-------------------------------
S-------SSSSSSSSSS--------------------------------------------------------------------------------------------------------SS--Sooo----------------------------
S-----------SSSSSS---------g-#------------SS---------------------------------------------###-----------------------T------SS--SSSSSS---SSSS-------------------
S-----------SS-------------#-#-#-#------------------------------------------------------####----------------------TT------SS----------------------------------
S-----------SS-----------g-#-#-#-#------------------------TT----------T------------g-#--##-#-#-#------------------TT---------------------------------T--------
SM-----------------------#-#-#-#-#--------------------g---TT-----g-g--T--------g---#-#--#-##-#-#-------g-g-g---g--TT------------kS-g---------#-#-g-g-T-g------
XXXXXX--XXXXXXXXXXXXXXXXXXXXXXXX----XX--XXXX--XXXXXXXXXXXXXXXX-XXXXXXXXXXXXXXXXXXXXXXXXXXXXXXXXXXX--XXXXXXXXXXXXXXXXXXXXXXXXXXXXXXXXXXXXXXXXXXXXXXXXXXXX--XXXX
XXXXXX-XXXXXXXXXXXXXXXXXXXXXXXXX----XX--XXXX--XXXXXXXXXXXXXXXXXXXXXXXXXXXXXXXXXXXXXXXXXXXXXXXXXXXX--XXXXXXXXXXXXXXXXXXXXXXXXXXXXXXXXXXXXXXXXXXXXXXXXXXXX--XXXX