--------------------------------------------------------------------------------------------------------------------------------------------------------------
--------------------------------------------------------------------------------------------------------------------------------------------------------------
--------------------------------------------------------------------------------------------------------------------------------------------------------------
S--SSSSSSS----SSSSSSSSSSSSSSSSSSSSSSSSSSSSSSSSSSSSSSSSSSSSSSSSSSSSSSSSSSSSSSSSSSSSSSSSSSSSSSSSSSSSSSSSSSSSSSSSSSSSSSSSSSSSSSSSSSSSSSSSSSSSSSSSSSSSSSSSSS------
S--------------------S--SSSSS------------S---------------------------------SSS--------------------------------SS---SSSSSSSS--------------SSS----------SS------
S-----------------------SSSSS----------------------------------------------SSS--------------------------------SS------S-SSS--------------SSS----------SS------
S----------------------SS-SS------------------------------------------------------------------------SS--------SS--------------------------SS---S------SS------
S----------------------S--SS------------------------------------------------------------------------SS--------SS--------------------------S----S------SS------
S----------------------S--SS--S---------------------------------------------SSSS-SSS----------------SS--SS----S-------------------------------SSSS------------
S-------------------------SS--SS----------SS--------------------------------SSSS---S----------------SS--SS-S--Soog------------Sg------------------------------
S------#-#--------------------SS----------SS-------------#----SSSSSS-----S-----------------SSSSS----SS--SSSS--SSSSSSQS--------Sg-#--------SS------------------
S------#-#---#-#-----------------------#-----------------#-#-----------------------------------S----SS-------------------------#-#-#-#-------------#-#--------
S----#-#-#--S#-----------------------g-#-#---------------#-#----------------------------------------SS---------------------------#-#-#-------------#-#-###----
SM---#-#-#--S#-----------------------#-#-#--------------##-#-------------------g--------------------SS---------------------------#-#-#-----------#-#-#-#-#-X--
XXXXXXXXXX---X---XXXXXXXXXXXXXXXXXXXXXXXXXXXXXXXXXXXXXXXXXXXXXXXXXXXXXXXXXXXXXXXXXXXXXXXXXXXX------XX----------XXXXXXXXXXXXXXXXXXXXXXXXXXXXXXXXXXXXXXXXXXXXXXX
XXXXXXXXXX--XX---XXXXXXXXXXXXXXXXXXXXXXXXXXXXXXXXXXXXXXXXXXXXXXXXXXXXXXXXXXXXXXXXXXXXXXXXXXXXX-----XXX---------XXXXXXXXXXXXXXXXXXXXXXXXXXXXXXXXXXXXXXXXXXXXXXX