--------------------------------------------------------------------------------------------------------------------------------------------------------------
--------------------------------------------------------------------------------------------------------------------------------------------------------------
--------------------------------------------------------------------------------------------------------------------------------------------------------------
S--------SSSSSSSSSSSSSSSSSSSSSSSSSSSSSSSSSSSSSSSSSSSSSSSSSSSSSSSSSSSSSSSSSSSSSSSSSSSS-SSSSSSSSSSSSSSSSSSSSSSSSSSSSSSSSSSSSSSSSSSSSSSSSSSSSSSSSSSSSSSSSSS------
S----------------------------------------------------------------------SSS--SSS-------------------SS----------------------------------------------------------
S---------------S-------------------------------------------------------SS--SS--------------------SS----------------------------------------------------------
S---------------SS---SSS-ooo----------------------------SS-------------------------------S-----------------------------S--------------------------------------
S---------------SS-S-S----------------------------------SS-------------------------------S-----------------------------S--------------------------------------
S---------------SS-SSSSS-SSS----------------------------SS-------------------------------S-----------------------------S-S--SS------------SS------------------
S---------------SS---SS---SS-------------------------------------------------------------------------------------------S-SSSSS-S-S--------SS------------------
S---------------SS--------SS-----------gS----------S------------SSSS-------------------SSSSS---------------------------S-SSS--------------SS------------------
S-----------------------------------------------------------------------------------------SS-----------#-#---T---#-#------------------------------------------
S-----ST----------------------------------------------------------------T-----TT-#-#------SS-----------#-#-#-#-###-#------------------------------------------
SM---gTT-------------------------------------g-g---------g--------------TT----T#-#-#-----------------#-#-#-#-#-###-#-#-------g---g--T------------g-----g------
XXXXXXXX---------XXXXXXXXXXXXXXXXXXX----XXXXXXXXXXXX--XXXXXXXXXXXXXXXXXXXXXXXXXXXXXXXXXX---XXXXXXXXXXXXXXXXXXXXXXXXXXXXXXXXXXXXXXXXXXXXXXXXXXXXXXXXXXXXXXX---X
XXXXXXXX--------XXXXXXXXXXXXXXXXXXXX---XXXXXXXXXXXXX--XXXXXXXXXXXXXXXXXXXXXXXXXXXXXXXXXX---XXXXXXXXXXXXXXXXXXXXXXXXXXXXXXXXXXXXXXXXXXXXXXXXXXXXXXXXXXXXXXX--XX