------------------------------------------------------------------------------------------------------------------------------------------------------------------------------------------------------
------------------------------------------------------------------------------------------------------------------------------------------------------------------------------------------------------
------------------------------------------------------------------------------------------------------------------------------------------------------------------------------------------------------
------------------------------------------------------------------------------------------------------------------------------------------------------------------------------------------------------
------------------------------------------------------------------------------------------------------------------------------------------------------------------------------------------------------
------------------------------------------------------------------------------------------------------------------------------------------------------------------------------------------------------
------------------------------------------------------------------------------------------------------------##----------------------------------------------------------------------------------------
------------------------------------------------------------------------------------------------------------##----------------------------------------------------------------------------------------
------------------------------------------------------------------------------------------------------------##----------------------------------------------------------------------------------------
-------------------------------------------------------T----------------------------------------------------##-----------------------#----------------------------------------------------------------
----------------------------------------------------------------------#LSS-------------------------------#####----------------------##--------------------------------------------##----------##S#----
--------------K-------TT----------------------------------------------#----------------------------------#--##-----------------------#--------------------------------------------------------#-------
----------------------TT----------------------------------------------#---------------------------------##--#------------------------------------------------------------------------*--------#-------
-Mgg--------k---------TT----gg---------g----------------------------kk#----------------------ggg---------#------------gg---------K--------g--------ggg-------------ggg-------K-------*------kk#-------
XXXXXXXXXXXXXXXXXX----XXXXXXXXXXXXXXXXXXXXXXXXXXXXXXXX--XXX---XXXXXXXXXXXXXXXXXXXXXXXXXXXXXXXXXXXXXXXXXXXXXXXXXXXXXXXXXXXXXXXXXXXXXXXXXXXXXXXXXXXXXXXXXXXXXXXXXXXXXXXXXXXXXXXXXXXXXXXXXXXXXXXXXXXX----
XXXXXXXXXXXXXXXXXX----XXXXXXXXXXXXXXXXXXXXXXXXXXXXXXXX--XXX---XXXXXXXXXXXXXXXXXXXXXXXXXXXXXXXXXXXXXXXXXXXXXXXXXXXXXXXXXXXXXXXXXXXXXXXXXXXXXXXXXXXXXXXXXXXXXXXXXXXXXXXXXXXXXXXXXXXXXXXXXXXXXXXXXXXX----