-------------------------------------------------------------------------------------------------------------------------------------------------------------------------------------------
S------------------------------------------------------------------------------------------------------------------------------------------------------------------------------------------
-------------------------------------------------------------------------------------------------------------------------------------------------------------------------------------------
S----SSSSSSSSSSSSSSSSSSSSSSSSSSSSSSSSSSSSSSSSSSSSSSSSSSSSSSSSSSSSSS-----SSSSSSSSSSSSSSSSSS-SSSSSSSSSSSSSSSSSSSSSSSSSS--------SSSSSSSSSSSSSSSSSSSSSSSSSSS------SSSSSSSSSSSSSS-----SSSSSSSSSS
S----------------------SSSSSS----------------------SSSSSSSSSSSS----------SSSSS---SSSSSSSS---------------SSSSSSSSSSS--------------------------------------------------------------SSSSSSSSSS
S----------------------SSSSSS----------------------SSSSSSSSSSS--------------SS----SSSSSSS---------------SSSSSSSSSSS-------------------------------------------------------------SSSSSSSSSS-
S----------------------SSSSSSSSSS--S---------------SSSSSSSSSSSSSSS-------------SSSSSSSSSS----------------SSSSSSSSSS--------T----------------------------------------------------SSSSSSSSSS-
S-------------------------------------------------------------------------ooS----------------------------------------------T----TT---------------------------------------------------------
S----------------------------------------------------------------------SSSSSS--------------S--------------------------22---T----TT---------------------------------------TT----------------
S--------------------------------------------------------------------------------S-oSSoooooS---------------------------2--TT----TT-----------------------------T---------TT----------------
S-----------------------------------SS----SSS-----SSSSSSS-SSSSSS----------------SSSSSSSSSSSS-------------SSSSSS-SS-----SS-TTSSS-TT-SS--------------------------TTS---TT--TTSS--SSSSSSSSSSSS
S-----------------------------------------SS---#--SSSSSSSSSS-----------------------------------t-----#S-------------------TT----TT------------------#----------T-----T---TT------SSSS----SS
S-----------------------------------------SS--##--SSSSSSSSSSS----------------------------------t-----##-------------------TT----TT-----------------##----------TT----T---TT-----SSSS-------
SM--------------------------------------------##S---SSSSSSSSS--------------------------------------k-##--k-----------k----TT---kTT----------------###----------TT--S-T---T----k-S#---k---SS
XXXXXXXXXXXXXXXXXX---XXXXX------XXXXXXXXXXXXXXXXX-XXXXXXXXXXXXXXXXXXXXXXXXXX-X---XXXX--XXXXXXXXXXXX-XXXXXXXXXXX------XXXXXXXXXXXXXXXXXXXXXX---XXXXX----XX--XXXXXXXXXXXXXXXXXXXXXXXXXXXXXXXX
XXXXXXXXXXXXXXXXXX---XXXXX--------XXXXXXXXXXXXXXX-XXXXXXXXXXXXXXXXXXXXXXXXXX-----XXXX--XXXXXXXXXXXX-XXX-XXXXXXX------XXXXXXXXXXXXXXXXXXX-XX---XXXXX----XX--XXXXXXXXXXXXXXXXXXXXXXXXXXXXX-XX