------------------------------------------------------------------------------------------------------------------------------------------------------
------------------------------------------------------------------------------------------------------------------------------------------------------
------------------------------------------------------------------------------------------------------------------------------------------------------
------------------------------------------------------------------------------------------------------------------------------------------------------
-----------g-----------------------------------------------------------------g------------------------------------------------------------------------
-----------g--------oooo--------------------oo----------o-------oo-------%%%%%%---oo------------------oo------------oo------------ooo-----------------
-------%%%%%%-----------SSSSSS---------------------------------%%%--------||||-------------------------------------------S----------------------------
--------||||----------------------------------------------------|---------||||----------------------------------------------oo-----------------|------
--------||||---------------------------------------------------||---------||||---------%%%%%%%--%%-------------------------%%%%%---------%%%%%%%------
-----M--||||----------------------%%%%%%%%%---------------------|SSS------||||----------||--|-------------------------------|||-----------||||||------
-----%%%%|||-%%----%%%%%%%%%%%%%%-||||||||---%%%%--------%%%%-------------||||----------||--||-----------------%%%---%%%%%--||||%%%-------||||||------
------||-|||--------||---|||||||--||||||||----||----------||--------------||||----------||--||------------------------|||---||||||--------||||||------
------||-|||||------||---|||||||--||||||||----||-----%%%%-||--------------||||---SSS----||%%%%------------------------||----||||||--------||||-|---#--
------||--||||------||----||||||--||||||||----||------||%-||--------------||||----------||||||------------------------|||---||||||--%%%%%-||||-|---#X-
------||--||||------||----||||||--||||||||----||------||--||------%%--%%--||||----------||||||---------XXXXXXXXXX%----||----||||||---|||--||||||XXXXXX
-------|--||||------||----||||||--||||||||----||------||--||-------|--|---||||----------||||||---------XXXXXXXXX||----||----||||||---|-|--||||XXXXXXXX