--------------------------------------------------------------------------------------------------------------------------------------------------------------
--------------------------------------------------------------------------------------------------------------------------------------------------------------
--------------------------------------------------------------------------------------------------------------------------------------------------------------
S------------SSSSSSSSSSSSSSSSSSSSSSSSSSSSSSSSSSSSSSSSSSSSSSSSSSSSSSSSSSSSSSSSSSSSSSSSSSSSSSSSSSSSSS--SSSSSSSSSSSSSSSSSSSSSSSSSSSSSSSSSSSSSSSSSSSSSSSSSSS------
S-------------------------------------------------------------------------SS-------------------------------------------------------------------S--------------
S-------------------------------------------------------------------------SS-------------------------------------------------------------------S--------------
S------------------------------------ooo----------------------------------SSS------------------------------------------------------------------S--------------
S---------------------------------------------------------------------------------------------------------------------------------------------SS--------------
S------------------------------------SSS------------------------------------------------------------------------------------------SSS---------SS--------------
S---------------------------------------------------------------------------------------------------------------------------------S--oSS----------------------
S-------------------TT-------g-#--#-----------SS----------------------------------------------------------------------------------SSSSSS----------------------
S----------#-----------------#-#-#-#----------S----------------------------TT--------------------------#-#-------#--TT------TT---------------------#----------
S----------#-#-##----#-------#-#--------TT----SS---------------------------TT-------------TT---------S-#-#-#---#-#--TT------TT---------------------#T---------
SM-------#-#-#########-----#-#-##--#-----T------------------T-------g-g-----T-------------TT-------g-#-#---#---#-#--TT------T-----------------g-g---T---------
XXXXXXXXXXXXXXXXXXXXXXXXXXXXXXXXXXXXXXXXXXXXXXXXXXXXXXXXXXXXXXXXXXXXXXXXXXXXXXXXXXXXXXXXXXXXXXXXXXXXXXXXXXXXXXXXXXXXXXXXXXXX--XXXXXXXXXXXXXXXXXXXXXXXXXXXXXXXX
XXXXXXXXXXXXXXXXXXXXXXXXXXXXXXXXXXXXXXXXXXXXXXXXXXXXXXXXXXXXXXXXXXXXXXXXXXXXXXXXXXXXXXXXXXXXXXXXXXXXXXXXXXXXXXXXXXXXXXXXXXXX--XXXXXXXXXXXXXXXXXXXXXXXXXXXXXXXX