------------------------------------------------------------------------------------------------------------------------------------------------------
------------------------------------------------------------------------------------------------------------------------------------------------------
------------------------------------------------------------------------------------------------------------------------------------------------------
------------------------------------------------------------------------------------------------------------------------------------------------------
-----------------------------------------------------------------------------------------------------g------------------------------------------------
--------------------------------------------------o---------------ooo-----oo----------ooo------R--------------------------oo--------------------------
-------------------------#-----------%%%%%%%-----%-------------%%%-------------------------------%%%%%%%--------------------------------------oo------
-------------------------#------------|||||%%----%|%%%%--------|----------------------------------||||||------------%%%%%%%---------------------------
---------------------%%%%#------------||||||------||||---------#|----------------%%%%%------------||||||-----S-------|||||----------------------------
----------------------||||------------||||||------||||--------##------------------||||------------||||||------------||||||----------------------------
----------------------||||----S-------||||||---%%-||||--------##------------------||||------------||||||-|-----%%%%-||||||----------------------------
---------------------|||||-------%%%%-||||||----||||||-----#--##------------------||||------------||||||-|------||--||||||----------------------------
---------------------|||||--------||--||||||----||||||-----#--##------------------||||------------||||||||------||--||||||----------------------------
-M--------------%%---|||||--------||--||||||----|||||------#--##----------%%%%----||||------------||||||||--oo--||--||||||-------------------------#--
XXXXXXXXXXXXXX-------|||||--------||--||||||----|||||--XXXXXXXXXXX---------||-----||||----%%%%--%-||||||||--%%--||--||||||--%%--------%%----------XXXX
XXXXXXXXXXXXXX-------|||||--------||--||||||----||||---XXXXXXXXXXX--------|-|-----||||------|-----||||||||---X--||--||||||--|---------%-----------XXXX