----------------------------------------------------------------------------------------------------------------------------------------------------------------------------------------------------
----------------------------------------------------------------------------------------------------------------------------------------------------------------------------------------------------
----------------------------------------------------------------------------------------------------------------------------------------------------------------------------------------------------
----------------------------------------------------------------------------------------------------------------------------------------------------------------------------------------------------
----------------------------------------------------------------------------------------------------------------------------------------------------------------------------------------------------
----------------------------------------------------------------------------------------------------------------------------------------------------------------------------------------------------
--------SSQS-----------------------------------------------------SSSSSSS-----S------SQSS-----SSS----SS------------SSSS-------S---------------SS---------------------------SSSS------------S---------
--------------------------K-------------------------------------------------------------------K-----------------------------------------------------------------------------------------------------
--------------------------SSSS-S--------------------------------------------------------------------------S--Sk-------------------------------------------------------------------------------------
----------k---------------------------#-----------------------------------------------------------------------------------------------------------------------------------------------k-------------
-------###SS--SQ-----T---------------##-----------T-----T----------SSS--SSSSSSS-------SSSSSSS----###S--------------SSSSSSSSSS---------------------------------------------SSSSS------##S-SSS--------
------M-#------------T--------------###-----------TT----T-----------------------------------------------------S-------------------------------------##--------------TT--------------#-#-------------
------####-----------TT------------######---------TT----------------TT------------------------------------------------------------------------------##--------------TT----------------#-------------
------#-##----K------TT-----------####------------TT----TT------k---TT------K---------K-------------g---------------------K-----ggggg--------------###------T-----ggTT----gg----------#----------#--
------XXXXXXXXXXXXXXXXXXXXXXXXXXXXXXXX--XXXXXXXXXXXXXXXXXXXXXXXXXXXXXXXXXXXXXXXXXXXXXXXXXXXXXXXXXXXXXXXXXXXXXXXXXXXXXXXXXXXXXXXXXXXXXXXXXXXXXXXXXXXXXXXXXXXXXXXXXXXXXXXXXXXXXXXXXXXXXXXXXXXXXXXXXXXX
------XXXXXXXXXXXXXXXXXXXXXXXXXXXXXXXX--XXXXXXXXXXXXXXXXXXXXXXXXXXXXXXXXXXXXXXXXXXXXXXXXXXXXXXXXXXXXXXXXXXXXXXXXXXXXXXXXXXXXXXXXXXXXXXXXXXXXXXXXXXXXXXXXXXXXXXXXXXXXXXXXXXXXXXXXXXXXXXXXXXXXXXXXXXXX