---------------------------------------------------------------------------------------------------------------------------------------------------------------------
---------------------------------------------------------------------------------------------------------------------------------------------------------------------
------------------------------------------SS-------------------------------------------------------------------------------------------------------------------------
-----------------------------------------------------------------------------------------------------------------------------------------------oo--------------------
----------------------------------------------------------------------------------------------------%%%------------------------------------S-------------------------
-----------------------------------------------------------------------------------------------o-----|---------------------------------------------------------------
----------------------------------------SSSS-----SSSSo--------oooo------SS---------------------------|-----------------SSS---------------------SSSS------------------
------------------------------------------------------------o%-----------------------ooo-------------|---------------------------------------------------------------
-------------------------------ooo-------------------------------------------------------------------|-------------------------------------------------SS------------
-----------------------------------------------------------------------------------------------------|---------------------------------------------------------------
-----%%%%------------S---SSSS------------%%%----------SS-----SSS%%%%%%%------%%%%%--------%%%%%%---------------------SS-----------%%%%---------|%--------------------
------||--------------SSS-------%%%%%%%%%|||---------------------||-||--------|||----------||||--------------------------|---------||----------||-%%%%%%-------------
------|||------------------------||||-||||||---------------------||-||--------|||----------||||--------------------------|%%%%%----||----------||--%|||--------------
-M----|||------------------------||||-||||||---------------------|||||--------|||----------||||--------------------------|-|||-----||----------||--||||--------------
XXXXXXX||-XXXXXXX%%%---------%%%-||||-|||||----------------------|-|||--%%%%%%|||----------||||--XXXXXXXXXXXXXXXXX----%%%%%|||-----||---%%%%%%%%%--||||----%%%%XXXXX-
XXXXX-X||-XXXXXXX||-----------|--||||-|||||------------------------|||---|||-|-||----------||||--XXXXXXXXXXXXXXXXX-----|||-|||-----||----|||-||||--||||-----||--XXXXX