------------------------------------------------------------------------------------------------------------------------------------------------------
------------------------------------------------------------------------------------------------------------------------------------------------------
------------------------------------------------------------------------------------------------------------------------------------------------------
------------------------------------------------------------------------------------------------------------------------------------------------------
-------------------------------------------------------------------------------------------------------------------------------------g----------------
-------------o-------------oo%-----------%%%%----%%%%%%------------------------------------------------------------%%%%%---------%%%%%----------------
-----------------------%%---|--------%%%%%||------||||---%%%%--------------------------SS----------SSS---------------|------------||--------SS--------
-----------SS-------------------------||||||------||||----||---------------------------#------------------------------------------||------------------
-----------------------|-g--|---------||||||------||||----||--------------------------##----------------------------|------------%%%%%----------------
--------------%%%%-%%%%%%%--||--------||||||------||||----|||%%%%-------------oo-----###-------------------------%%%%-----oor-----||------------------
--------------||----|||||---%%--------|||||%%--%%%||||----||||||--------------------####--------------------%%----||-----%%%%--%%-||------------------
--------------||-|--|||||----|--------||||||----||||||----||||||--%%%---------------####----o----------------|----||------||--||--||-------SSS--------
-----#--------||----||||-----|--------|||||-|---||||||----||||||--||-----------------##X---------------------|----||------||--||--|%%%----------------
-M------------||----||||--------------|||||-||--||||||----||||||--||-----------------#-X--------------------||--%-||------||--||--||------------------
XXXXXXXXXXXXX-||----||||-----%%%%%----|||||-||--||||||----||||||--||----------XXXXXXXXXXXXX----%%%-XXXXXXX--||----||----%-||--||--|||-------------%%--
XXXXXXXXXXXXXX||----||||-----|-||-----||-||-||--||||||----||-|||--||----------XXXXXXXXXXXX------||--%XXXX---||----||------||--||--||------------------