----------------------------------------------------------------------------------------------------------------------------------------------------------------------------------------------------------------------
----------------------------------------------------------------------------------------------------------------------------------------------------------------------------------------------------------------------
----------------------------------------------------------------------------------------------------------------------------------------------------------------------------------------------------------------------
----------------------------------------------------------------------------------------------------------------------------------------------------------------------------------------------------------------------
---------------------------------------------------------------------------------------#------------------------------------------------------------------------------------------------------------------------------
--------------------------------------------------------------------------------------##------------------------------------------------------------------------------------------------------------------------------
------------------------------TS----S-----------------------------------------SS----####-------------------SSSSS-------------------------------------------SSSS-----SS-------T----------------------------------------
--------------------------------------------------------------------------------------##------------------------------------------------------------------------------------------------------------------------------
-----------SS------------------------------------------------------------------------------SSSS-----------------------SS------------------------------------------------------------------------------------SSX-------
--------------------------------------------------------------##--------------------------------------------------------------------------------------------------TT--------------------------------------------------
--------SS----------------SSSSSS------------TT-----tt--------#-#----------TT------T-#------------S------tt--SS----------------TT---tt---------TT------------------TT----------------------------TT--------------------
---------------T--------------------TT------TT-----tt-------------------#-TT------T---------------TT----tt--------------------TT--------------TT-----t-------------T--------TT------------TT----TT------TT------------
---------------T--------------------TT----T-TT-----tt--T-----------T-T--#-TT------T---------------TT----tt-----------------T--TT----TT--------TT-----tt---------------------TT----t-TT----TT--T-TT------TT----TT------
--M----------k-TT-------------------TT----T-TT-----tt-TT---##------T-T-##-TT------T---------------TT----tt-----------------T--TT----TT--------TT------t----------k--T-------TT----t-TT----TT--TTTT------TT----TT---#--
--XXXXXXXXXXXXXXXXXXXXXXXXXXX-XXXXXXXXXXXXXXXXXXXXXXXXXXXXXXXXXXXXXXXXXXX-XXXXXXXXXXXXXXXXXXXXXXXXXXXXXXXXXXXX------XXXXXXXXXXXXXXXXXXXXXXXXXXXXXXXXXXXXXXXXXXXXXXXXXXXXXXXXXXXXXXXXXXXXXXXXXXXXXXXXXXXXXXXXXXXXXXXXXX
--XXXXXXXXXXXXXXXXXXXXXXXXXX--XXXXXXXXXXXXXXXXXXXXXXXXXXXXXXXXXXXXXXXXXXX-XXXXXXXXXXXXXXXXXXXXXXXXXXXXXXXXXXXX------XXXXXXXXXXXXXXXXXXXXXXXXXXXXXXXXXXXXXXXXXXXXXXXXXXXXXXXXXXXXXXXXXXXXXXXXXXXXXXXXXXXXXXXXXXXXXXXXXX