-------------------------------------------------------------------------------------------------------------------------------------------------------------------------------------------
-------------------------------------------------------------------------------------------------------------------------------------------------------------------------------------------
-------------------------------------------------------------------------------------------------------------------------------------------------------------------------------------------
S--SSSSSSSSS--SSSSSSSSSSSSSSSSSSSSSSSSSSSSSSSSSSSSSSSS------------SSSSSSSSSSSSSSSSSSS-SSSSSSSSSSSSSS---------SSSSSSSSSSSSSSSSSSS---SS-SSSSSSSSSSSSSSSSSSSSSSSSSSSSSSSSSSSSSSSSSSSSSSSSSSSSS
S-----------------------------------------------------------------------SSSSSSSSSSS-------SSSS------------------SSSSSSSSSSSSSSS---------------------------------------SSSSSSSSSSSSSSS------
S-----------------------------------------------------------------------SSSSSSSSSSS---------SS------------------SSSSSSSSSSSSSSS----------------------------------------SSSSSSSSSSSSS-------
S-----------------------------------------------------------------------SSSSSSSSSSSS----------------------------SSSSSSSSSSSSS------------------------------------------SSSSSSSSSSS---------
S-------------------------TT-----------------------------------------------------------T---------------------------------------------------------------------------------------------------
S-------------------------TT--------------------------------------------------------------------------------------------------------------------------------------------------------------S
S-------------------------TT---------------------------------------------------ooooo----------------------------------S--S--------------------------T------------------------------------SS
S-----------------------S-TT----------------------------------------TT----SSSSSSSSQS---------------------------SSSSSSSSSSSSSSS---------------S------T-------QQQ--------------SSSSSSSSSSSSSS
S-------------------TT----TT---------------------------------T----T-TT----SSSSS--------------------T---tt---------SSSSSSSSSSSS---tt--------T---T-----------------------------SSSSSSSSSSSSSS
S--------------------T----TT------TT-------------------------T------TT----SSSSSS-------------------T---tt---------SSSSSSSSSSSS----t--------T---T----------------------------SSSSSSSSSSSSSSS
SM---------------SS------kTT--T---TT------------------------T---S---TT----SSSSSSSk-----------------T--kt----------SSSSSSSSSSSS------------kT-------------k--------------------SSSSSSSSSS-SS
XXXXXX-----XXXXXXXXXXXXXXXXXXXXXXXXXXXXXXXXXX--XXXXXXXXXXXXXXXXXXXXXXX--XXXXXXXXXXXXX--XXXXXXXXXXXXXXXXXXXXXXXXXXXX-----XXXXXX---XX----XXXXXXXXXX-XXXXXXXXXXXXX--------XXXXXXXXXXXXXXXXX-XX
XXXXXX----XXXXXXXXXXXXXXXXXXXXXXXXXXXXXXXXXX---XXXXXXXXXXXXXXXXXXXXXXX--XXXXXXXXXXXXX--XXXXXXXXXXXXXXXXXXXXXXXXXXXX------XXXXX---XX----XXXXXXXXXX-XXXXXXXXXXXXX--------XXXXXXXXXXXXXXXXX-XX