------------------------------------------------------------------------------------------------------------------------------------------------------
------------------------------------------------------------------------------------------------------------------------------------------------------
------------------------------------------------------------------------------------------------------------------------------------------------------
------------------------------------------------------------------------------------------------------------------------------------------------------
-----------------------g------------------------------------------------------------------------------------------------------------------------------
---------------------------R--------ooo--oXXo---------------------------------------------------------------------------------------------------------
------------------------------------------SS------------------------------------------------------%----------------------%%%%----------------------g--
--------------------------------------------------------oo-----------------------o-------------%%%%-----------------------||--------------------------
-------------------------------------------|----------------------------------------------------||--------%%%-------------||%%%-----------------------
---------#-----------------------------------------------------------------------%%%%-----------||------%%||--------------||||------------------------
---------#------S-------------%%%--SSS-----%%---SS---------%%%--------------------||---%%%%-%%%%||---%%%%-||--------%%%%%-||||------------SS-----|----
---------#---------------------|----------------------------||%%%%%---------------||----||----||||----||--|--------%%|--||||||-------------------|----
-------##----------------------|----------------------------||||||----------------||-----|----||||----||--|---------||--||||||-----------------%%%----
-M-----##-----------------------------oo--oooo--------------||||||--------------%|||-----|----||||||--||||||--------||--||||||---%--------------||----
-XXXXXXXXXXXXXXXXXXXXX---%%%%%%%----%%%%%%%%%%%%------------||||||--XXXXXXXXXXX-||||----%%%---||||||--||||||XXX---%-||--||||||-------%----------||----
-XXXXXXXXXXXXXXXXXXXXX----|%|||------|||-----%|-------------||||||--XXXXXXXXXX--||||----||----||||||--||-|||XXXX----||--||||||--|---------------||----