--------------------------------------------------------------------------------------------------------------------------------------------------------------
--------------------------------------------------------------------------------------------------------------------------------------------------------------
--------------------------------------------------------------------------------------------------------------------------------------------------------------
S---SSSSSSSSSSSSSSSSSSSSSSSSSSSSSSSSSSSSSSSSSSSSSSSSSSSSSSSSSSSSSSSSSSSSSSSSSSSSSSSSSSSSSSSSSSSSSSSSSSSSSSSSSSSSSSSSSSSSSSSSSSSSSSSSSSSSSSSSSSSSSSSSSSSSSSSS--
S----------------------------S----------------------SSSS--S---------------------------------------------------------------------------------------------------
S----------------------------S----------------------SSSS--S---------------------------------------------------------------------------------------------------
S--------------------SSSS-SSoS----------------------------SS--------------------------------------------------------------------------SS-------------S-------X
S---------------------------------------------------------SS----------------------------------------------------------------------------------------SS-------X
S--------------------------S-SSS---------------------------S--------------------------------------------------------SS------------------------------SS--------
S---------------------------SSSS-S----------------------------------------------------------------------------o-------SS--------------------------------------
S-------------------SSS-----SSSSSSS-----------------SS-------------#---------T------T----------------#-#---SSSSS-SSSSSSS-------------------#------------------
S----------------------------------------------#-----------------#-#--------TT-----TTT-----T-------S-#-#-----------------------------------#-#----------------
S--------------#-------SSS-------------------#S#-----------#-#---#-#--------TT------TT----TT-------#-#-#----------------------T-----T----#-#-#------SS--------
SM-------------#-#-g----SS-------------g-###---#---------g-#-#---#-#--------TT---------------------#-#-#----kk-----------g-g--TT----T--g-#-#-#-------S--------
XXXXXXXXXXXXXXXXXXXXXXXXXX------XXXXXXXXXXXX---XXX-XXX--XXXXXXXXXXXXXXXXXXXXXXXXXXXXXXXXXXXXXXXXXXXXXXXXXXXXXXXXXXXXXXXXXXXXXXXXXXXXXXXXXXXXXXXXXXXXX----X---X
XXXXXXXXXXXXXXXXXXXXXXXXXX-----XXXXXXXXXXXXX---XXXXXXX--XXXXXXXXXXXXXXXXXXXXXXXXXXXXXXXXXXXXXXXXXXXXXXXXXXXXXXXXXXXXXXXXXXXXXXXXXXXXXXXXXXXXXXXXXXXXX----X--XX