-------------------------------------------------------------------------------------------------------------------------------------------------------------------------------------------
-------------------------------------------------------------------------------------------------------------------------------------------------------------------------------------------
S------------------------------------------------------------------------------------------------------------------------------------------------------------------------------------------
S-SSSSSSSS----SSSSSSSSS----SSSSSSSSSSSSSSSSSSSSSSSSSSSSS--SSSSSSSSSSSSSSSSSSSSSSSSSSSSSSSSSSSSSS---SSSSSSSSSSSSSSSSS----SSSSSSSSSSSSSSSSSSSSSSSSSSSSSSSSSSSSSSSSSSSSSSSSSSSSSSS--SSSSSSSSSS
S--------------------------------------------------------------------SSSSSSSSS---------------------S------------------SSSSSSSSSSSSSSSSSSSSSSSSSSSSSSSSSSSSS----------------S------SSSSS----
---------------------------------------------------------------------SSSSSSSSSS--------------------S-------------------SSSSSSSSSSSSSSSSSSSSSSSSSSSSSSSSSSSSS----------------S------SSSS----
-------------------------------------------------------------------SSSSSSSSSSSS--------------------------------------SSSSSSSSSSSSSSSSSSSSSSSSSSSSSSSSSSSSSSS-------TT----------------S-----
-------------------------------------------------------------------------------------------------------------------------------------------------------------------TT----------------------
S--------------------------S------------------------------------------------------------------------------------------------------------------------------------------------------------SSS
S------------------------------------------------------------------Sooooooo--oo---------------TT---------------------------------------------SSSSSSSSS-------------T--------------------SSS
S--------------------------SSSSS--QQ-------------------------S--SSSSSSSSSSSSSSSS--------------TT---TT-------------SSSSSSSSSSSSSSSSSSSSSSSSSSSSSSSSSSSSSSSSSSS--SSSS-SSS--S---S----SSSSSS---
S-----TT----TT-----------------------------------------------------------SSSSSS---------TT----TT---TT----------------S-SSSSSSSSSSSSSSSSSSSSSSS----SSSSSSSSS--------S-----S----#---SSSSSS---
S-----------TT-------------------------------------------#--------------SSSSSSS------t--TT----TT---TT---------------TT-SSSSSSSSSSSSSSSSSSSSSSS-----S-SSSSSS--------T-----S----#----SSSSSSSS
S-M---------TT---------------------------------k---------#---------------SSSSS-------t--TT---kTT---TT----k---------kTT-SSSSSSSSSSSSSSSSSSS----o------------------------------##------S---SS
S-XXXXXXXX--XX----XXXXXX-------XXXXXXXXX---XXXXXXX---XX-XXXXXXXXXXX----XXXXXXXXXXXXXXXXXXXXXXXXXX--XXXXXXXXXXXXXXXXXXXXXXXXXXXXXXXXXXXXXXXXXXX-XX----XXXXXXXXXXXXXX--XX-XXXXXXX----XX----X-
--XXXXXXXX--XX----XXXXXX-------XXXXXXX-X---XXXXXXX---XX-XXXXXXXXXXX----XXXXXXXXXXXXXXXXXXXXXXXXXX--XXXX-XXXXXXXXXXXXXXXXXXXXXXXXXXXXXXXXXXXXXX-XX----XXXXXXXXXXXXXX--XX-XXXXXXXX---XX----X-