-----------------------------------------------------------------------------------------------------------------------------------------------------
-----------------------------------------------------------------------------------------------------------------------------------------------------
-----------------------------------------------------------------------------------------------------------------------------------------------------
---------------------------------------------------------------------------o-------------------------------------------------------------------------
--------------------------------------------------------------------------%%%------------------------------------------------------------------------
-----------------o---o---------------o-----------------------o-------o-----|----------------------------------------------------oo---|-----o---------
----------------%%%-%%Soooooo------%%%%---------------------%%%%----%%%----|---------------------S%---o--SSSS-------------%%%-----%--------%%--------
-----------------|---|--------------||---SSSSS-----o----o----||------|-----|-------------------SS--o---------o-----SSSS----|----S|S--|---------------
-----------------|---|--------------|||------------------%-%-||-%%---|-----|-----------------------------------------------|---------|---%||---------
-----------------|---|-SSSS---------|||----------S--------|--||-||---|SSS--|---------SSS-----------SS-%------SS------------|---------|----|||--------
----------------||---|--------------|||----------------%|%%%-||-||---------|%%%%%---------%%%------|--------------------------------------|||--------
--------%%%%%%%%||---|--------------|||----------------||-|--||-|--------------|-----------|----------------------------------------------|||--------
---------|||||||||---|---------%%%%-|||----------------||||-|||%%%-------------|-----------|----------------------------%%%---------------|||--------
-M-------|||||||||---|----oo----|||-||------------%%%%%||||-|||||--------------|----------------------------------------||----------------|||--------
XXXXXXXXX|||||||||----%%%%%%----|||-||-|---%%------||-|||||-|||||----------%%%%%%-------XXXXX|%%%---%%%%%%%%%XXXXXXXX---||-------%--------|||--------
XXXXXXXXX|||||||||-----||-|-----||||||||----------|||-|||||-|||||-----------||||--------XX-XXXX|-----|-||-||XXXXXXXX---|||----------------|||--------