------------------------------------------------------------------------------------------------------------------------------------------------------------------------------------------------------------------------------
------------------------------------------------------------------------------------------------------------------------------------------------------------------------------------------------------------------------------
------------------------------------------------------------------------------------------------------------------------------------------------------------------------------------------------------------------------------
------------------------------------------------------------------------------------------------------------------------------------------------------------------------------------------------------------------------------
------------------------------------------------------------------------------------------------------------------------------------------------------------------------------------------------------------------------------
----ooo-----------------------------------------------------------------------------------------------------------------------------------------------------------------------------------------------------------------------
-------QQ---------------------------------------------------------------------------------------------------------------------------------------------------------------------------------------------------------------------
-------------------------------------------------------------------------------------------------------------------------------------------------------------------------------------------------------o----------------------
----------------------------------------------------------------------------------------------------------Q-------------------------------------------------------------------------------------------------------------------
------------------------------------------------------------------------------------------------------------------------------------------------------------------------------------------------------------------------------
------------------------------------------------------------------Q---------------------------------------------------------------------------------------------------------------------------------T-------------------------
---------------------------------------------------------------------------------------------------------------------------------------------------------------------------------------------------TT-------------------------
--------------------------------------------------------------------------------------------------------------------------------------------------------TT-----------------------------------------TT-------------------------
-M-----------------y-------y-------------------------------------------------------------------------------------------y--------------------------------TT------------------#---#------------------TT--------------------y----
XXXXXXXXXXXXXXXXXXXXXXXXXXXXXXXXX-XXXX--XX--XXXXXXXXXXXXXXXXXXXXXXXXXXXXXXXXXXXXXXXXXXXXXXXXXXXXXXXXX----XXXXXXXXXXXXXXXXXXXXXXXXX--------XXXXXXXXXXXXXXXXXXXXXXXX--XXXXXXXXXXXXX--XXXX-----------XXXXXXXXXXXXXXXXXXXXXXXXXXXX
XXXXXXXXXXXXXXXXXXXXXXXXXXXXXXXXX-XXXX--XX--XXXXXXXXXXXXXXXXXXXXXXXXXXXXXXXXXXXXXXXXXXXXXXXXXXXXXXXXX----XXXXXXXXXXXXXXXXXXXXXXXXX--------XXXXXXXXXXXXXXXXXXXXXXXX--XXXXXXXXXXXXXX-XXXX------------XXXXXXXXXXXXXXXXXXXXXXXXXXX