------------------------------------------------------------------------------------------------------------------------------------------------------------------------------------------------------
------------------------------------------------------------------------------------------------------------------------------------------------------------------------------------------------------
------------------------------------------------------------------------------------------------------------------------------------------------------------------------------------------------------
------------------------------------------------------------------------------------------------------------------------------------------------------------------------------------------------------
------------------------------------------------------------------------------------------------------------------------------------------------------------------------------------------------------
------------------------------------------------------------------------------------------------------------------------------------------------------------------------------------------------------
------------------------------------------------------------------------------------------------------------------------------------------------------------------------------------------------------
--------------------------------------------------------------------------------------------------------------------------------#---------------------------------------------------------------------
-----------------------------------------------------------------------------------------------------------#--##----------------##--------------------------------------------------------------------
----------------------------------------------------------------------------------------------------------##---#----------------##--------------------------------------------------------------------
--------------------------------------------------------------------------------------##------------------##--##------------##--##-----##-------------------------------------------------------------
-------------------------T------------#--------------------------------------------#---#------------------------------------##--##--------------------------------------------------------------------
---------*----------------------------#-----TT-------------------------------*----------------------#-----------------------##-----------------------------------------------*-----*------------------
-M---------------gg-----k-*-----------#-----TT-------------gg-----------ggg--*-----#----------------#--------------ggg----K-##---------------------ggg-----------ggg----gg---*-----*----ggg-----------
XXXXXXXXXXXX-XXXXXXXXXXXXXXXXXXXXXXXXXXXXXXXXXXXXXXXXXXXXXXXXXXXXXXXXXXXXXXXXXXXXXXXXXXXXXXXXXXXXXXXXXXXXXXXXXX-XXXXXXXXXXXXXXXXXXXXXXXXXXXXXXXXXXXXXXXXXXXXXXXXXXXXXXXXXXXXXXXXXXXXXXXXXXXXXXXXXXXXXX
XXXXXXXXXXXXXXXXXXXXXXXXXXXXXXXXXXXXXXXXXXXXXXXXXXXXXXXXXXXXXXXXXXXXXXXXXXXXXXXXXXXXXXXXXXXXXXXXXXXXXXXXXXXXXXXXXXXXXXXXXXXXXXXXXXXXXXXXXXXXXXXXXXXXXXXXXXXXXXXXXXXXXXXXXXXXXXXXXXXXXXXXXXXXXXXXXXXXXX