----------------------------------------------------------------------------------------------------------------------------------------------------------------------------------------------------------
----------------------------------------------------------------------------------------------------------------------------------------------------------------------------------------------------------
----------------------------------------------------------------------------------------------------------------------------------------------------------------------------------------------------------
----------------------------------------------------------------------------------------------------------------------------------------------------------------------------------------------------------
----------------------------------------------------------------------------------------------------------------------------------------------------------------------------------------------------------
----------------------------------------------------------------------------------------------------------------------------------------------------------------------------------------------------------
-------------------------------SSSS-------------------------------------------S----------------------SSS!SS--------------------------------------------------------------------------#--------------------
--------------------------------------------------------------------------------------------------------------##--------------------------------------------------------------------##--------------------
--------------------------------------------------------------------------------------------SS---------------###------------------------------------------------SSSS---------------###--------------------
------------------------------------------------------------------------------------------------------------######-----------------------------------------------------------------###--------------------
--------S@-------------------SSS!S--S----------##---------------!----------------------------------------#--######------tt--------#-------------------------##-----------------t--####----------S-SS------
----------------------------------------------###--------------------------------------------------------#--######------tt--##----##----------#----------#-###-------------------######-------------------
---------------------------------------------#####--#----------------------------------------------------##-######------tt--##----###-----tt--##--------######-----------------########-------------------
---M-------------g------------------------#-######--##-------------------------------------------------####-######------tt--###---####----tt--###-------######-----------g----###########-----------------
---XXXXXXXXXXXXXXXXXXXXXXXXXXXXXXXXXXXXXXXXXXXXXXX-XXXXXXXXXXXXXXXXXXXXXXXXXXXXXXXXXXXXXXXXXXXXXXXXXXXXXXXXXXXXXXX-XXXXXXXXXXXXX-XXXXXXXXXXXXXXXXXXXXXXXXXXXXXXXXXXXXXXXXXXXXXXXXXXXXXXXXXXXXXXXXXXXXX----
--XXXXXXXXXXXXXXXXXXXXXXXXXXXXXXXXXXXXXXXXXXXXXXXX-XXXXXXXXXXXXXXXXXXXXXXXXXXXXXXXXXXXXXXXXXXXXXXXXXXXXXXXXXXXXXXX-XXXXXXXXXXXXX-XXXXXXXXXXXXXXXXXXXXXXXXXXXXXXXXXXXXXXXXXXXXXXXXXXXXXXXXXXXXXXXXXXXXX----