-------------------------------------------------------------------------------------------------------------------------------------------------------------------------------------------------------------------------------------------------------------------------------------------------------------------------------------------------------------------------------------
-------------------------------------------------------------------------------------------------------------------------------------------------------------------------------------------------------------------------------------------------------------------------------------------------------------------------------------------------------------------------------------
-------------------------------------------------------------------------------------------------------------------------------------------------------------------------------------------------------------------------------------------------------------------------------------------------------------------------------------------------------------------------------------
-------------------------------------------------------------------------------------------------------------------------------------------------------------------------------------------------------------------------------------------------------------------------------------------------------------------------------------------------------------------------------------
-----------------------------------------------------------------------------------------------t-------------------------------------------------------------------------------------------------------------------------------------------------------------------------------------------------------------------------------------------------------------------------------------
----------------------------------------------------------------------------------------------tt-------------------------------------------------------------------------------------------------------------------------------------------------------------------------------------------------------------------------------------------------------------------------------------
------------------------##---------------------------------------------SooSSSSS-S-------------tt-------------------------------------------------------------------------------------------------------------------------------------------------------------------------------------------------------------------------------------------------------------------------------------
------------------------#---------------------------------------------------------------------tt-------------------------###---------------------------------------------------------------------------------------------------------------------------o-----------------o-----------------------------------------------------------------------------------------------------------
----------------------#-#------------------------------------------------------------------#----------------------------####---------------SSCSS-------------------------------------------------------------------------------------------------------------------------------------------------------------------------------------------------------------------------------------
----------------------#-------------------------------------------------------------------##----------------------------####---------------------o-----------------------------------------------------------------------------------------------------------------------------------------------------------------------------------------------------------------------------------
--------------------#-#----------------------------------------------------2--------------##---------------------------#####---------------------------#---------------------------------t---------------------------------TT----------------------#-o-----------------------------------------------------------------TT------------------------------------------------------------
--------------------#-##-----------------------------------------------#------------------##-----------------T--------#-####-------------#------------##---T-----------------------------t---------------------------------TT--------------------------------------#---------------------------------------------------TT------------------------------------------------#-----------
----------------#---#-##-----------------------------------------------#----------------#-##----------------TT-----------#-#-------------#-----------###--TT---------------------T-----------------------#---#-------------TT--------------------------T-------#-#-#---------------------------------------------------TT------------------------------------------------#-----------
--M-------------#---#-##------------ggg-----k-----------------------ggg#------ggg---------##----------------TT-k-------#-#-------------#-#--------ggg###---T------k-k-------k-----------------ggg----k-k-#---#--------k---kTT--------kk--k-------------TT------#-gg#-----kkk----------------------k----------------ggg-TT---------k-----------k--------------------k-k-#-#-----------
--XXXXXXXXXX-XXXX-X-X-XXXXXXXXXXXXXXXXXXXXXXXXXXXXXXXXXXXXXXXXXXXXXXXXXXXXXXXXXXXXXXXXXXXXXXXXXXXXXXXXXX--XXXXXXXXXXX-XX-XXXXXXX--X-XXXX-XXXXXXXXXXXXXXXX-XXXXXXXXXXXXXXXXXXXXXXX-XXXXXXXXXXXXXXXXXXXXXXXXXXXXXXXXXXXXXXXXXXXXXXXXXXXXXXXXXXXXXXXXXXXXXXXXXXXXXXXXXXXXXXXXXXXXXXXXX--XX-X-XXXXXXXXXXXXXXXXXXXXXXXXXXXXXXXXXXXXXXXXXXXXXXXXXXXXXXXXXXXXXXXXXXXXXXXXXXXXXXXXXXXXXXXXXXX
--XXXXXXXXXXXXXXXXXXXXXXXXXXXXXXXXXXXXXXXXXXXXXXXXXXXXXXXXXXXXXXXXXXXXXXXXXXXXXXXXXXXXXXXXXXXXXXXXXXXXXX--XXXXXXXXXXXXXXXXXXXXXX--X-XXXXXXXXXXXXXXXXXXXXX-XXXXXXXXXXXXXXXXXXXXXXX-XXXXXXXXXXXXXXXXXXXXXXXXXXXXXXXXXXXXXXXXXXXXXXXXXXXXXXXXXXXXXXXXXXXXXXXXXXXXXXXXXXXXXXXXXXXXXXXXX--XXXX-XXXXXXXXXXXXXXXXXXXXXXXXXXXXXXXXXXXXXXXXXXXXXXXXXXXXXXXXXXXXXXXXXXXXXXXXXXXXXXXXXXXXXXXXXXX