--------------------------------------------------------------------------------------------------------------------------------------------------------------
--------------------------------------------------------------------------------------------------------------------------------------------------------------
--------------------------------------------------------------------------------------------------------------------------------------------------------------
SS-SSSSSSSSSSSSSSSSSSS------------SS-S-----SSS-------------SSSSSSSSSSSSSSSSSSSSSSSSSSSSS----------------SSSSSSSSSSSSSSSSSSS------SSSSSSSSSSSSSSSSSSSSS--------
S---------------------------------------------------------------------------SS----------------------------------------S---------------------------------------
S---------------------------------------------------------------------------SS----------------------------------------SS--------------------------------------
S---------------------------------------------------------------------------SS----------------------------------------SS--------------------------------------
S----------------------------------------------------------------------------------------------------------------------S--------------------------------------
S---------------------------------------------------------------------Soo----------------------------------------------S--------------------------------------
S----------------------------------------------------------------------------o----------------------------------------Sg--------------------------------------
S---------------------------------QQ-----#--SSQQQ#---#-#-SSSS-SSSS-SSSSSSS--SSSSSSSSS---------------------------------SSS--------------------SS---------------
S---------TT-----#-#-------------------#-#-------------#------------SS-------------------------------T---------------------------------------------TT---------
S----#----TT---#-#-#-S--SS---------------#---------#---#------------SS-------------------TT---TT----TTS-----TT----------------------SSS-----------------TT----
SM---#----TT-#-#-#-##S--SS-----------g--TT---------#-#-#-------------S-------------------TT---Tg-g---TS--g-S---------------------------------------S----T-----
XXXXXXXXXXXXXXXXXXXXXX--XX--XXXXXXXXXXXXXXXXXXXXXXXXXXXXXXXXXXXXXX--XXXXXXXXXXXXXXXXXXXXXXXXXXXXXXXX--XX--XXXXXXXXXXXXXXXXXXXX--XXXXXXXXXXXXXXXX--XXXXXXXXXXXX
XXXXXXXXXXXXXXXXXXXXXX--XX--XXXXXXXXXXXXXXXXXXXXXXXXXXXXXXXXXXXXXX--XXXXXXXXXXXXXXXXXXXXXXXXXXXXXXXX--XX--XXXXXXXXXXXXXXXXXXXX--XXXXXXXXXXXXXXXX--XXXXXXXXXXXX