------------------------------------------------------------------------------------------------------------------------------------------------------------------------------------------------------
------------------------------------------------------------------------------------------------------------------------------------------------------------------------------------------------------
------------------------------------------------------------------------------------------------------------------------------------------------------------------------------------------------------
------------------------------------------------------------------------------------------------------------------------------------------------------------------------------------------------------
------------------------------------------------------------------------------------------------------------------------------------------------------------------------------------------------------
------------------------------------------------------------------------------------------------------------------------------------------------------------------------------------------------------
-----------------------------------------T--##--------------TT------------------#---------------------------------------------------------------------------------------------------------------------
----------------------------------------TT--##--------------TT----------------------------------------------------------------------------------------------------------------------------------------
--------------##------------------------##--##--------------##----------------------------------------------------------------------------------------------------------------------------------------
--------------##------------------------##--##------------------------------------------------------T-------------------------------------------------------------------------------------------------
--------------##------------------------##--##---------#-------------------######------------------TT---------------------------------------------------------------------------##--------------------
--------------##---------------------#--##--##---------#------------------###---------------K------T------TT----KK------------------------------------------------------------------------------------
---------------*---------------------#------------*----#---------*--------####--------------------TT------TT--------------TT-----------------------------------------------------------*--------------
-M-------------*-------ggg-----------#------------*----#---------*------k#####------------------kkTT-----kTT--------------TT---gg-----k---k-----gg-----ggg------ggg----ggg-------------*-------gg-----
XXXXXXXXXXXXXXXXXXXXXXXXXXXXXXXXXXXXXXXXXXXXXXXXXXXXX--XXXXXXXXXXXXXXXXXXXXXXXXX--XXXXXXXXXXXXXXXXXXXXXXXXXXXXXXXXXXXXXXXXXXXXXXXXXXXXXXXXXXXXXXXXXXXXXXXXXXXXXXXXXXXXXXXXXXXXXXXXXXXXXXXXXXXXXXXXXXXX
XXXXXXXXXXXXXXXXXXXXXXXXXXXXXXXXXXXXXXXXXXXXXXXXXXXXX--XXXXXXXXXXXXXXXXXXXXXXXXX--XXXXXXXXXXXXXXXXXXXXXXXXXXXXXXXXXXXXXXXXXXXXXXXXXXXXXXXXXXXXXXXXXXXXXXXXXXXXXXXXXXXXXXXXXXXXXXXXXXXXXXXXXXXXXXXXXXXX