--------------------------------------------------------------------------------------------------------------------------------------------------------------
--------------------------------------------------------------------------------------------------------------------------------------------------------------
--------------------------------------------------------------------------------------------------------------------------------------------------------------
S----SSSSS-------------S--SSSSSSSSSSSSSSSSSSSSSSSSSSSSSSSSSSSSSSS-------SSSSSSSSSSSSSSSSSSSSSSSSSSSSSSSSSSSSSSSSSSSSSSSSSSSSSSSSSSSSSS-------SSSSSSSSSSS------
S-------------------------SS--SSSS--------------------------------------------------------------------------------------SSSSSSS-------------------------------
S-------------------------SS--SSSS--------------------------------------------------------------------------------------SSSSSS--------------------------------
S-------------------------SS-----S-------oo-------------------------------------------------------------------------------------------------------------------
S-------------------------SS---S-S------------------SS--------------------------------------------------------------------------------------------------------
--------------------------SS--SSSS-S-S--SS--S-------SS-------------------------------------------S-S----------------------------------------------------------
--------------------------SS--SSS--SoS--SooSS-------SS---------------------------------------------S------------------------So-g------------------SS----------
-S-#-##--##-###---------------SSS--SSS--SSSS--SS----SSSS---@QQQ----#-------------------@QQQQ-------------------#----g##-----SSSS-----------SSS----SS----------
-S-#--#####-####---------------------------------------------------#-#-----------------------------------------#-##-####--------------------------SS----------
-S-#-######-####-----#---------------------------------------------#-#-----------------------#--#-------TT-----#-#--##-------------#--------------SS----------
-SM#-####-#-#--#-#---#----------------------kk---------------------#-#-g---------------------#----------TT-----#-##--#-----------S-#--------------------------
XXXXXXXXXXXXXXXXXXXXXXXX--XXXXXXXXXXXXXXXXXXXXXXXXXXXXXXXXXXXXXXXXXXXXXXXX------XX--XXXXXXXXXXXXXXXXXXXXXXXXXXXXXXXXXXXXXXXXXXXX--XXXXXXXXXXXXXXXXXXXXXXXXXX--
XXXXXXXXXXXXXXXXXXXXXXXX--XXXXXXXXXXXXXXXXXXXXXXXXXXXXXXXXXXXXXXXXXXXXXXXX------XX--XXXXXXXXXXXXXXXXXXXXXXXXXXXXXXXXXXXXXXXXXXXX--XXXXXXXXXXXXXXXXXXXXXXXXXX--