-----------------------------------------------------------------------------------------------------------------------------------------------------------------------------------------------------
-----------------------------------------------------------------------------------------------------------------------------------------------------------------------------------------------------
-----------------------------------------------------------------------------------------------------------------------------------------------------------------------------------------------------
-----------------------------------------------------------------------------------------------------------------------------------------------------------------------------------------------------
-----------------------------------------------------------------------------------------------------------------------------------------------------------------------------------------------------
-----------------------------------------------------------------------------------------------------------------------------------------------------------------------------------------------------
--------------------------------------------------SS-------------------S---SSSSSS--------------------------S-----------------------------------------------------QQQQQQQ-------------------SSSS------
-----------------------------------------------------------------------------------------------------------------------------------------------------------------------------------------------------
-----------------------------------------------------------------------------------------------------------------------------------SUS-----------S---------------------------------------------------
-----------------------------------------------------------------------------------------------------------------------------------------------------------------------------------------------------
--------------------------------TT----QQ---#--------TT-------TT------------SSS---------------Q------------T--------------------#---------g-------------gg--------S---QQQ---------------------TT------
--------------------------------TT---------#--------TT-------T--------------------------------------------TT-------------------#-----------------------#-------------------------------------TT------
--------------------------------TT---------#--------TT-------T--------------------------------------------TT-------------------##----------------------#-------------------------------------TT------
---M--------kk-----------ggg----TT-----k---#--------TT-------T---------------------k---------------ggg----TT---------------k---##--gg------------------#------------------ggg----------------TT------
---XXXXXXXXXXXXX---XXXXXXXXXXXXXXXXXXXXXXXXXXXXXXXXXXXXXXXXXXXXXXXXXXXXXXXXXXXXXXXXXXXXXXXXX---XXXXXXXXXXXXXXXXXXXXXX-XXXXXXXXXXXXXXXXXXXXXXXXXX--XXXXXXXXXXXXXXXXXXXXXXXXXXXXX--XX------XXXXXXXXXXXX
---XXXXXXXXXXXXX---XXXXXXXXXXXXXXXXXXXXXXXXXXXXXXXXXXXXXXXXXXXXXXXXXXXXXXXXXXXXXXXXXXXXXXXXX---XXXXXXXXXXXXXXXXXXXXXX-XXXXXXXXXXXXXXXXXXXXXXXXXX--XXXXXXXXXXXXXXXXXXXXXXXXXXXXX--XX------XXXXXXXXXXXX