----------------------------------------------------------------------------------------------------------------------------------------------------------------------------------------------------------------------
----------------------------------------------------------------------------------------------------------------------------------------------------------------------------------------------------------------------
----------------------------------------------------------------------------------------------------------------------------------------------------------------------------------------------------------------------
----------------------------------------------------------------------------------------------------------------------------------------------------------------------------------------------------------------------
----------------------------------------------------------------------------------------------------------------------------------------------------------------------------------------------------------------------
----------------------------------------------------------------------------------------------------------------------------------------------------------------------------------------------------------------------
------TT--------------------------------S---------SS--------------------TT----------------------S--------------------------------------------------------------------SS-------------------------ST--S-----------------
------TT----------------------------------------------------------------T---------------------------------------------------------------------------------------------------------------------------------------------
--------------------##----------------------SX-----------SS------------------------------TTT----------------TT-----------SSSS----------------------SSS-------------------SSSX-----------------------------------------
-------------------###----#-------T------------------------------------------------------TTT----------------TTT-------------------------------------------------------------------------------------------------------
------------TT---#####---##---SSSSSS-------------------------S--------XSS-----------------TT----------TT----XXXS----SS------------------TT----------------SSS----SS----------------S---T------------------------------
------------TT--######------------------------------------------------------TT------------TT----------TT--------------------------TT----TT---------------------------------------------TT-----------------------------
----TT-T----TT-#######--##--------------TT----------------------TT----------TT----TTTT----TT--------T-TT--------------------------TT----TT------------TT-------------------------------TT----TT-----------------------
-M--TT-T----TT########-###--------------TT----------------------T-----------TT----TT------TT--------TTTT---------k----------------TT----TT---k--------TT----------------------------k--TT-----TT-------------------#--
XXXXXXXXXXXXXXXXXXXXXXXXXXXXXXXXXXXXXXXXXXXXXXXXXXXXXXXXXXXXXXXXXXXXXXXXXXXXXX----XXXXXXXXXXXXXXXXXXXXXXXXXXXXXXXXXXXXXXXXXXXXXXXXXXXXXXXXXXXXXXXXXXXXXXXXXXXXXXXXXXXXXXXXXXXXXXXXXXXXXXXXXXXXXX-------XXXXXXXXXXXXXXX
XXXXXXXXXXXXXXXXXXXXXXXXXXXXXXXXXXXXXXXXXXXXXXXXXXXXXXXXXXXXXXXXXXXXXXXXXXXXXX----XXXXXXXXXXXXXXXXXXXXXXXXXXXXXXXXXXXXXXXXXXXXXXXXXXXXXXXXXXXXXXXXXXXXXXXXXXXXXXXXXXXXXXXXXXXXXXXXXXXXXXXXXXXXXX-------XXXXXXXXXXXXXXX