----------------------------------------------------------------------------------------------------------------------------------------------------------------------------------------------------
----------------------------------------------------------------------------------------------------------------------------------------------------------------------------------------------------
----------------------------------------------------------------------------------------------------------------------------------------------------------------------------------------------------
----------------------------------------------------------------------------------------------------------------------------------------------------------------------------------------------------
------------------------------------------------------------------------------------------------------------------------------k---------------------------------------------------------------------
-----------------------------------------------------------------------------------------------------------------------------gk---------------------------------------------------------------------
------SSS?SSQS-----------------------------------------------S-------------SSSS--------------SS-------------------------------##--------------------------------------------------------------------
------------------------------------------------------------------------------------------------------------k-----------------##------------k-------------------------------------------------------
-----------------SC-------------------------------------------------------------------------------------------#---------------##-----------SQS--------------SS--------------------------------------
-------------------K--------------------------------------------------------------------------------------g#-##---------------##------#-------------------------------------------------------------
-------SSSSSSS-------SSSS----SQS----------------#---------------------TT--SSS-S-----------SQ--TT---------######------------#####----####---------------------------SS-------------------------------
-----------------K-----------------T--------#---#---------------------TT----------------------TT--------#######---------------#-----####----------------------------------------------------TT------
-----------------------------------T-------##---#---------------------------------------------TT--------#######-----TT------------######-----------TT---------------------------------------TT------
-M---------------#----------k-T---TT------###---#-----------K---------TT------------gg----k---TT-------######-#-----TT------------######-----------T--------------k---------------------k---TT---#--
XXXXXXXXXXXXXXXXXXXXXXXXXXXXXXXXXXXXXXXXXXXXXXXXXXXXXXXXXXXXXXXXXXXXXXXXXXXXXXX----XXXXXXXXXXXXXXXXXXXXXXXXXXXXXXXXXXXXXXXX-------XXXXXXX----XXXXXXXXX--XXXXXXXXXXXXXXXXXXXXXXXXXXXXXXXXXXXXXXXXXXXX
XXXXXXXXXXXXXXXXXXXXXXXXXXXXXXXXXXXXXXXXXXXXXXXXXXXXXXXXXXXXXXXXXXXXXXXXXXXXXXX----XXXXXXXXXXXXXXXXXXXXXXXXXXXXXXXXXXXXXXXX-------XXXXXXX----XXXXXXXXX--XXXXXXXXXXXXXXXXXXXXXXXXXXXXXXXXXXXXXXXXXXXX