----------------------------------------------------------------------------------------------------------------------------------------------------------------------------------------------------------
----------------------------------------------------------------------------------------------------------------------------------------------------------------------------------------------------------
----------------------------------------------------------------------------------------------------------------------------------------------------------------------------------------------------------
----------------------------------------------------------------------------------------------------------------------------------------------------------------------------------------------------------
----------------------------------------------------------------------------------------------SS----------------------------------------------------------------------------------------------------------
----------------------------------------------------------------------------------------------------------------------------------------------------------------------------------------------------------
----------------------------------------SS--------------------------------------------------------------------------------!-------------------------------------------------------------------------------
-----------------------------------------------------#--------------------------------------------------------------------------------------------------------------g-------------------------------------
------SS---------------------------------------------#-----------------------------------------------------------------------------------------------------------SSSSS!S----------------------------------
----------------------------------------------------##---------------------------------------------------#--------------------------------------------------------------S---------------------------------
-------------------------------t-------------------###--##------t----S!----#--##--#--------------------####--------------#--------------------------------S------------@------------------------SS!S------
------------------------------tt---------#--------####--##------tt---------#--##--##------------------######------------#---------------------------------------------------------------------------------
------------------------------tt--------##----tt--####--##------tt---------#--##--##-------------t#--#######-----t-------#----------tt--------------------------------------------------------------------
---M-------g-g-----------g----tt-------###----tt-#####--##------tt------tt-#--##--##-#-----------##--#######-----t------###---------tt--------------------------------g-g---------------------------------
---X---XXXXXXXXXXXXXXXXXXXXXXXXXXXXXXXXXXXXXXXXXXXXXXXXXXXXXXXXXXXXXXXXXXXXXXXXX--XXXXXXXXXXXXXXXXXX--XXXXXXXXXXXXXXXXXXXXXXXXXXXXXXXXXXXXXXXXXXXXXXXXXXXXXXXXX-XXXXXXXXXXXXXXXXXXXXXXXXXXXXXXXXXXXXXXXXXX
---X---XXXXXXXXXXXXXXXXXXXXXXXXXXXXXXXXXXXXXXXXXXXXXXXXXXXXXXXXXXXXXXXXXXXXXXXXX--XXXXXXXXXXXXXXXXXXXXXXXXXXXXXXXXXXXXXXXXXXXXXXXXXXXXXXXXXXXXXXXXXXXXXXXXXXXXX-XXXXXXXXXXXXXXXXXXXXXXXXXXXXXXXXXXXXXXXXXX