-------------------------------------------------------------------------------------------------------------------------------------------------------------------------------------------------------------------------------------------------------------------------------------------------------------------------------------------------------------------------------------
-------------------------------------------------------------------------------------------------------------------------------------------------------------------------------------------------------------------------------------------------------------------------------------------------------------------------------------------------------------------------------------
-------------------------------------------------------------------------------------------------------------------------------------------------------------------------------------------------------------------------------------------------------------------------------------------------------------------------------------------------------------------------------------
-------------------------------------------------------------------------------------------------------------------------------------------------------------------------------------------------------------------------------------------------------------------------------------------------------------------------------------------------------------------------------------
-------------------------------------------------------------------------------------------------------------------------------------------------------------------------------------------------------------------------------------------------------------------------------------------------------------------------------------------------------------------------------------
-------------------------------------------------------------------------------------------------------------------------------------------------------------------------------------------------------------------------------------------------------------------------------------------------------------------------------------------------------------------------------------
-------------------------------------------------------------------------------------------------------------------------------------------------------------------------------------------------------------o---------------------------------------------SS----------------------SSSSSSSS------------------------------------------------------------------------------------------
-------------------------------------------------------------------------------------------------------------------------------------------------------------------------------------------------------------------------------------------------------------------------------------------------------------------------------------------------------------------------------------
-------------------------------------------------------------------------SSSSSSSS--------------------------------------------------------------o-------------------------------------o-------------------------------------------------------------------------------------------#-------------------------------------SSCSSSS-------------------------------------------------------
--------------------------------------oo----------------------------SS-S-----------------------------------------------------------------------o---------------------------------------K-------------------------------------------------#---------o-----------------------------#---------------------------------------------------------------------------------------------------
------TT----------------------------------------------------TT---------------------------------------------------------------------T-----------------------------------------------------------------o-------------------t---o---------oo#--------------------T----------------#-----------------------------------------------------------------------------------------------------
------TT----------------------------------------------------TT---------------------------------------------------------------------T---------T-------------------#---------------------------------#---------------------t-----T-------###-------------------TT----------------#-#---------------------------------------------------------TT--TT------------------------------------
-------T------------------------------------TT--------#-#---TT-------------SSS-----------------------------------------------------#--------TT-----------------------------------------------------#------------------#--t-----T-----#-#-----------------#---TT--------------#-#-----------------------------------------------------------TT--TT------------------------------------
-Mgg---TT-----kk------kk----kkk-------------TT----------#---TT--------------------------gggg----gg--------ggg-----kk---------gggg-k#-k------TT-----------------gg#----k-k---------------kkk--------#-#--ggg----ggg----#--#----TT---k-#-#---------------kk#-k--T------k--gg---#----------------------------k--------------------------------TT--TT--------------------------k-k-------
XXXXXXXXXXXXXXXXXXXXXXXXXXXXXXXXXXXXXX--X-XXXXX-X-XX-XX-X-XXXXXXXXXXXXXXXXXXXX--XXXXXXXXXXXXXXXXXXXXXXXXXXXXXXXXXXXXXXXXXXXXXXXXXXXXXXXXX-X-XXXXXXXXXXXXXXXXXXXXXXXXXXXXXXXXXXXXXXX-XXXXXXXXXXXXXXXXXXXXXXXXXXXXXXX-X-X-XXXXXXXXXXXXXXXXXXXXXXXXX---XXXXXXXXXXXXXXXXXXXXXXXX-X-XX--XXXXXXXX-XXX----XXXXXXXXXXXXXXXXXXXXXX---X-X-X--XXXXXXXXXXXXXXXXXXXXXXXXXXXXXXXXXXXXXXXXXXXXXXXXXX
XXXXXXXXXXXXXXXXXXXXXXXXXXXXXXXXXXXXXX--XXXXXXXXX-XXXXX-X-XXXXXXXXXXXXXXXXXXXXXXXXXXXXXXXXXXXXXXXXXXXXXXXXXXXXXXXXXXXXXXXXXXXXXXXXXXXXXXXXX-XXX-XXXXXXXXXXXXXXXXXXXXXXXXXXXXXXXXXXX-XXXXXXXXXXXXXXXXXXXXXXXXXXXXXXXXX-XXXXXXXXXXXXXXXXXXXXXXXXXXX---XXXXXXXXXXXXXXXXXXXXXXXXXX-XX--XXXXXXXXXXXX----XXXXXXXXXXXXXXXXXXXXXX---X-X-X--XXXXXXXXXXXXXXXXXXXXXXXXXXXXXXXXXXXXXXXXXXXXXXXXXX