----------------------------------------------------------------------------------------------------------------------------------------------------------------------------------------------------
----------------------------------------------------------------------------------------------------------------------------------------------------------------------------------------------------
----------------------------------------------------------------------------------------------------------------------------------------------------------------------------------------------------
----------------------------------------------------------------------------------------------------------------------------------------------------------------------------------------------------
----------------------------------------------------------------------------------------------------------------------------------------------------------------------------------------------------
------------------------------------------------------------------#---------------------------------------------------------------------------------------------------------------------------------
--------SS--------SS----------------------------------SSSSS----g###----------------------------------SQSSSSS------------------------------------------S---------------------------------------------
--------------------------------------------------------------g####---------------------------------------------------------------------------------------------------------------------------------
--------------------------------------------------------------####---------------------------SS-----------------------------------------------------------------------SS----------------------------
----------------#--------------------------------------------#####------------------------------------------------------------------------------------g-------------------------------#-------------
-------##------##---------------##-------------------S----########--------------------------------------S---TT------------------S-------#-----SSCS----#-----TT----------------------###-------------
-------##-----###--------------#-#-----------------------#########--------------TT------TT----#-------------TT-------------------------##--------K----#----------------------------####-------------
------###----#--#-------------#--##-----------TT--------##########--------------TT------TT---##-------------TT--------------------------#-------------##----------K-----------#---#####-------------
-M---####-------#-------k----#----#-------k---TT-------###########----k-------gg-T------TT---##------------gTT--------------------------#------K----####--------------------gg#---#####---------k---
XX--XXXXX-----------XXXXXXXXXXXX--X----XXXXXXXXXXXXXXXXXXXXXXXXXXX--XXXXXXXXXXXXXXXXXXXXXXXXXXX------XXXXXXXXXXXXXXXXXXXXXXXXXXXXXXXXXXXXXXXXXXXXXXXXXXXXXXXXXXXXXXXXXXXXXXXXXX---XXXXX-XXXXXXXXXX--
XX--XXXXX----------XXXXXXXXXXXXX--X---XXXXXXXXXXXXXXXXXXXXXXXXXXX---XXXXXXXXXXXXXXXXXXXXXXXXXXXX-----XXXXXXXXXXXXXXXXXXXXXXXXXXXXXXXXXXXXXXXXXXXXXXXXXXXXXXXXXXXXXXXXXXXXXXXXXX---XXXXXXXXXXXXXXXX--