-------------------------------------------------------------------------------------------------------------------------------------------------------------------------------------------------------------------------------------------------------------------------------------------------------------------------------------------------------------------------------------
-------------------------------------------------------------------------------------------------------------------------------------------------------------------------------------------------------------------------------------------------------------------------------------------------------------------------------------------------------------------------------------
-------------------------------------------------------------------------------------------------------------------------------------------------------------------------------------------------------------------------------------------------------------------------------------------------------------------------------------------------------------------------------------
-------------------------------------------------------------------------------------------------------------------------------------------------------------------------------------------------------------------------------------------------------------------------------------------------------------------------------------------------------------------------------------
---------------------------------------------------------------------------------------------------------------------------------------------------------------------------------------------------------------------------------------------------#---------------------------------------------------------------------------------------------------------------------------------
-------------------------------------------------------------------------------------------------------------------------------------------------------------------------------------------------------------------------------------------------------------------------------------------------------------------------------------------------------------------------------------
------------------oo-------------------------------------------------------------------------------------------------------------------------------------------SSSSSSSSSS----------------------------------------------------------------------SS#-SS--------------------------------------------------------------------------------------##----------------------oooo--------------
----------------------------------------------------------------o----------------t---------------------------------------------------------------------------------------------------------------------------------------------------------------------------------------------------------------------------------------------------------##----------------------------------------
-------------------------------------------------------------------------------------------------------------------------------------------------------------------------------------------------------------------------------------------------------------------------------------------------------------------------------------------##-SSSSSSS--------------------------------
-------------------------------------------------------------------------------------------------------------------------o---------------------------------------------------------o-----------------------------------------------------------------------------------------o-----------------#-----------------------------------------#-##----------------------------------------
-------------------o------------------------------------------TT-------------------------------------------------------------------------------------------------o-------------T------------------------------------------------T----------------o---oo----------------------------------------#--------------------TT---TT------#-------#-##----------------------------------------
--------------------------------------------------------------TT-----------------------------------------------------------------------------------------------------------K--TT-------T---------------------------------------TT--------------------------------------------------------------##------------------------TT------#-----#-#-##----------------------------------------
--------------------------------------------------------------TT--K--------------------------------------#--------------------------------------------------------#-----------TT-------T---------------------------------------TT------------------------------------------------------------#-T#------------------------TT----#-#-----#-####----------------------TT----------------
-M----------ggg-------------------------ggg-----gggg------ggg-TT------k-ggg-----ggg-------------------kkk--g------k-k---------------kkk---------------------------#-----------TT-------T------k---kkk-----k-k-ggg-----k-k------TT-----------------------------------gg----k------kk----k-gg----TT--------k---------------TT----#-#-----#-#-##------------k-k-------TT--ggg-----------
XXXXXXXXXXXXXXXXXXXXXXXXXX-X--XX-XX-X-XXXXXXXXXXXXXXXXXXXXXXXXXXXXX-X-XXXXXXXXXXXXXXXXXXXXXX-------XXXXXXXXXXXXXXXXXX-XX----XXXXXXXXXXXXX-XXXXXXXXXXXXX-XXX-XXX-X-X--XXXXXXXXX-XX--XXXXXXXXXX-XXXXXXXXXXXXXXXXXXXXXXXXXXXXXXXXXXXXXXXXXXXXXXXXXXXXXXXXXXXXXXXXXXXXXXXXXXXXXXX-XXXXXXXXXXXXXXXXXXXXXXXXXXXXXXXXXXX-X-XX-XXXXXXXXXXXXXXXXXXXXXXXXXX-XXXXXXXX-XX--XXXXXXXXXXXXXXXXXXXXXX
XXXXXXXXXXXXXXXXXXXXXXXXXXXX--XXXXXXXXXXXXXXXXXXXXXXXXXXXXXXXXXXXXXXXXXXXXXXXXXXXXXXXXXXXXXX-------XXXXXXXXXXXXXXXXXXXXX----XXXXXXXXXXXXXXXXXXXXXXXXXXX-XXX-XXX-X-X-XXXXXXXXXX-XX--XXXXXXXXXXXXXXXXXXXXXXXXXXXXXXXXXXXXXXXXXXXXXXXXXXXXXXXXXXXXXXXXXXXXXXXXXXXXXXXXXXXXXXXXXX-XXXXXXXXXXXXXXXXXXXXXXXXXXXXXXXXXXX-XXXXXXXXXXXXXXXXXXXXXXXXXXXXXXXXXXXXXXXXXXX--XXXXXXXXXXXXXXXXXXXXXX