----------------------------------------------------------------------------------------------------------------------------------------------------------------------------------------------------------
----------------------------------------------------------------------------------------------------------------------------------------------------------------------------------------------------------
----------------------------------------------------------------------------------------------------------------------------------------------------------------------------------------------------------
----------------------------------------------------------------------------------------------------------------------------------------------------------------------------------------------------------
----------------------------------------------------------------------------------------------------------------------------------------------------------------------------------------------------------
----------------------------------------------------------------------------------------------------------------------------------------------------------------------------------------------------------
--------------------------------------------------------------SSSSS---------------------------------------------------S@S--------------------------------------------------------SSS----!-----------------
----------------------------------------------------------------------------------------------------------------------------------------------------------------------------------------------------------
---------------------------------------------------------------------------------------------------------------------------------------------------------------SS-----------------------------------------
----------------------------------------------------------------------------------------------------------------------------------------------------------------------------------------------------------
----------#----S!---------------------S-SS!S----tt----------------##--!-----#-------------------S@----------------------------SU!---!-------------------------------------#--------------##---------------
----------##------------##----------------------tt-------------#--#--------#--#-------------------------------------------------------------------------------------------##------------####--------------
-------t-####----------#-##---------------------tt-------------#-###----t-##--##----------------------------##----------------------------------------tt-----t----------####---------#-#####------tt------
-M----tt######g-g-----#--#-#-----------g--------tt----g----#---#####----t###--###---------------------------####-----g-----g--------------------------tt----tt-g-------#####--------##########----tt--#---
XXXXXXXXXXXXXXXXXXXXXXXXXXXXXXXXXXXXXXXXXXXXXXXXXXXXXXXXXXXXXXXXXXXXXXXXXXXXX-XXXXXXXXXXXXXXXXXXXXXXXXXXXXXXXXXXXXXXXXXXXXXXXXXXXXXXXXXXXXXXXXXXXXXXXXXXXXXXXXXXXXXXXXXXXXXXXXXXXXXXXXXXXXXXXXXXXXXXXXXXXX
XXXXXXXXXXXXXXXXXXXXXXXXXXXXXXXXXXXXXXXXXXXXXXXXXXXXXXXXXXXXXXXXXXXXXXXXXXXXX-XXXXXXXXXXXXXXXXXXXXXXXXXXXXXXXXXXXXXXXXXXXXXXXXXXXXXXXXXXXXXXXXXXXXXXXXXXXXXXXXXXXXXXXXXXXXXXXXXXXXXXXXXXXXXXXXXXXXXXXXXXXX