-------------------------------------------------------------------------------------------------------------------------------------------------------------------------------------------------------------------------------------------------------------------------------------------------------------------------------------------------------------------------------------
-------------------------------------------------------------------------------------------------------------------------------------------------------------------------------------------------------------------------------------------------------------------------------------------------------------------------------------------------------------------------------------
-------------------------------------------------------------------------------------------------------------------------------------------------------------------------------------------------------------------------------------------------------------------------------------------------------------------------------------------------------------------------------------
-------------------------------------------------------------------------------------------------------------------------------------------------------------------------------------------------------------------------------------------------------------------------------------------------------------------------------------------------------------------------------------
-------------------------------------------------------------------------------------------------------------------------------------------------------------------------------------------------------------------------------------------------------------------------------------------------------------------------------------------------------------------------------------
-------------------------------------------------------------------------------------------------------------------------------------------------------------------------------------------------------------------------------------------------------------------------------------------------------------------------------------------------------------------------------------
------------------------------------------------------------------------------------------------------------------------------------------------------------------------------------------------oo---------------------------------SSUSS---------------------------oo----------------------------------------------------------------------------------------------------------------
------------------------------------------------------tt---------------------------------o-------------------------------------t---------------------------------------------------------------------------------------------------------------------------------------------------o---------------------------------tt--------------------------------------------------------------
------------------------------------------------------------------------------------------------------------------------------tt-------------------------------------------------------------------------------------------------------------------------------------------------------------------------------------tt--------------------------------------------------------------
------------------------------------------------------------------------------------------------------------------------------tt----------------------------------------------------------------------------------oo-----------------------------------------------------------t-------------------------------------tt--------------------------------------------------------------
-----------------------------------------T----------T----------------------------------------------------------------------T--tt-------------------------TT----------------------------------------------------------------------------o---------------------------##----------tt------------------o-------------TT--tt------TT--------------T---t-----------------------------------
----------------------------T------------------------T--------------------------------TT----------------------------------TT---t-T------------------------T--------------------------------------------------------------------------------------------------------#-----------tt--------TT----------------------TT--tt------TT-------------TT---tt--------------------TT------------
----------------------------T-----------------------TT--------------------------------TT--tt------------------------------TT----TT--------------TT--------T-----------------------------------#-#--------------------------------------------TT-----------------o--#-----------tt--------TT----#-----------------TT--tt------TT-------------TT---------------T---------TT-----------X
-M----kk------ggg---------------ggg-----------------TT----k-----k-----k-------ggg-----TT--tt----kkkk---k------------------TT----TT--------------TT--------T-----------k----kk----------g--------#--------------------------------------------TT------ggg---gggS##--#---#-------t---------TT----#-----------------TT--t--gg---TT------ggg----TT-------------------gg----TT----k-k---XX
XXXXXXXXXXXXXXXXXXXXXXXXXXXXXXXXXXXXXXXXXXXXXXXXXXXXXXXXXXXXXXXXXXXXXXXXX-XXXXXXXXXXXXXXXXXXXXXXXXXXXXXXX-XXXXXXXXXXXXXXXXXXXXXXXXXXXXX-X-XXXXXXXXX-X-XXXXXXXXX-X-XXXXXXXXXXXXXXXXXXXXXXXXXXX-X-X-XXXXXXXXXXXXXX-XX-X-X-XXXXXXXXXXXXXXXXXXXX-XX-X-X-XXXXXXXXXXXXXX-XXXXXXX-XX-----X--XXXXXXXXXXXXXX-XX-XXXXXXXXXXXXXXXXXXXXXXXXXXXXXXXXXXXXXXXXXXXXXXXXXXXXXXXX--XXXXXXXXXXXXXXXXXXXX
XXXXXXXXXXXXXXXXXXXXXXXXXXXXXXXXXXXXXXXXXXXXXXXXXXXXXXXXXXXXXXXXXXXXXXXXXXXXXXXXXXXXXXXXXXXXXXXXXXXXXXXXXXXXXXXXXXXXXXXXXXXXXXXXXXXXXXX-XXXXXXXXXXXXX-XXXXXXXXX-XXXXXXXXXXXXXXXXXXXXXXXXXXXXXXX-XXXXXXXXXXXXXXXXXXX-X-X-XXXXXXXXXXXXXXXXXXXXXXX-X-X-X-XXXXXXXXXXXXXXXXXXXX-XX-----X--XXXXXXXXXXXXXXXXXXXXXXXXXXXXXXXXXXXXXXXXXXXXXXXXXXXXXXXXXXXXXXXXXXXXXXXXXX--XXXXXXXXXXXXXXXXXXXX