-------------------------------------------------------------------------------------------------------------------------------------------------------------------------------------------------------------------------------------------------------------------------------------------------------------------------------------------------------------------------------------
-------------------------------------------------------------------------------------------------------------------------------------------------------------------------------------------------------------------------------------------------------------------------------------------------------------------------------------------------------------------------------------
-------------------------------------------------------------------------------------------------------------------------------------------------------------------------------------------------------------------------------------------------------------------------------------------------------------------------------------------------------------------------------------
-------------------------------------------------------------------------------------------------------------------------------------------------------------------------------------------------------------------------------------------------------------------------------------------------------------------------------------------------------------------------------------
-------------------------------------------------------------------------------------------------------------------------------------------------------------------------------t-------------------------------------------------------------------------##--------------------------------------------------------------------------------------------------------------------------
-------------------------------------------------------------------------------------------------------------------------------------------------------------------------------t-------------------------------------------------------------------------##--------------------------------------------------------------------------------------------------------------------------
-------------------------------------------------------------------------------------------------------------------------------------------------------------------------------t-----------------SSSSCS------------------------------------------------#-##--------------------------------------------------------------------------------------------------------------------------
-------------------------#------------------------------------------------------------tt-----------------------------------------o---------------------------------------------t-----------------------------------------------------------------------#-##--------------------------------------------------------------------------------------------------------------------------
-----------------------###----------------SS-#----------------------------------------tt---------------------------------------------------------------------------------------t---------------------------------------------------------------SSSS----#-#---------------------------------------------------------------------------------------------------------------------------
----------------------###------------------------------------------------------------------------------------------------------------------------------------------------------t-----------------------------------------------------------------------------------------------------------------------------------------------------------------------------------------------------
-----------------T----####--------TT---------#--------------------------------TT---------------------------------------------------------------TT--------------------#-----------------#---------------------------------------TT----------------------------------------------o----------------------------------------T------------------------------------------------------------
----------------------####--------TT--------##--------------------------------TT--tt-----------------------------------------------------------TT-------------------##-t---------------#---------#---------TT------------------TT----------------------------------------------------------------T---------------------TT----------------------------------------o---#---TT----------
----------------------####--------TT------#-##--------------------------------TT--tt---------------------------------------#-------------------TT------------------###-t---------#-----#---------------TT--TT------------------TT----------------------------------#-----------------------------T---------------------TT--------------------------------------------#---TT----------
-M----------gg----#--#-###--------TT------#-##----------------------T-----ggg-TT--tt------------kk------------------------------------k----g---TT-----ggg-----------##-T--------k#---#-#------------k--TT--TT------------------TT---kk-------------------#-------kk#---------------------------kkT---------kk---gg-----TT------gg#-------g-----------------gg----k---#---k-----gg----
XX-X--X-XXXXXXXXXXX-XXXXXXXXXXXXXXXXXXXXXX--XXXXXXXXX-XXXXXX--XXXXXXXXXXXXXXXXXXX-XXX-XX-XXXXXXXXXXXXXXXXXXXXXXXXX--X-XXXXXXXXXXXXXXXXXXXXXXXXXXXXXXXXXXXXXXXXXXXX--X-XXXXX-XXXXXXXXXX-XXXXXXXXXXXXXXXXXXXXXXXXXX---X-XXXXXXXXXXXXXXXXXXXXXXXXX-X-X----XXXXXXXXXXXXXXX-XXXXXXXXXXXXXXXXXXXXXXXXXXXXXXXXXXXXXXXXXXXXXX-XXXXXXXXXXXXXXXXXXXXXX-XXXXXXXXXXXXXXXXXXXXXXXXXXXXXXXXXXXXXXXX
XXXXXXX-XXXXXXXXXXXXXXXXXXXXXXXXXXXXXXXXXX--XXXXXXXXXXXXXXXX--XXXXXXXXXXXXXXXXXXX-XX--XXXXXXXXXXXXXXXXXXXXXXXXXXXX--X-XXXXXXXXXXXXXXXXXXXXXXXXXXXXXXXXXXXXXXXXXXXXXXX-XXXXX-XXXXXXXXXXXXXXXXXXXXXXXXXXXXXXXXXXXXX-X-XXXXXXXXXXXXXXXXXXXXXXXXXXX-X-X----XXXXXXXXXXXXXXXXXXXXXXXXXXXXXXXXXXXXXXXXXXXXXXXXXXXXXXXXXXXXXX-XXXXXXXXXXXXXXXXXXXXXXXXXXXXXXXXXXXXXXXXXXXXXXXXXXXXXXXXXXXXXXX