-----------------------------------------------------------------------------------------------------------------------------------------------------
-----------------------------------------------------------------------------------------------------------------------------------------------------
-----------------------------------------------------------------------------------------------------------------------------------------------------
---------------------------------------------------o-------------------------------------------------------------------------------------------------
---------------------------------------------------o-------------------------------------------------------------------------------------------------
--------------------------------------------------%%--------------------------------------------------------------------------%%%%---oo--------------
---------------------------------------------------|--------------------------------------------------------%%%%%-%%%%---------||-%%%%%--------------
-------M-o------------------------------SSS--------|-SS------------SS------SSSS-------------SSS-----SSS------||----||---SSSSS--||--||----------------
-------%%%%-----%%%%-------------------------------|---------------------------------------------------------||----||----------||-%||----------------
--------||--%%%-||-------------------S-------------|------SS----------SS----------SSSSS----------------------||----||----------||--||--SS------------
--------||--||--||---------------o-----------------|-------------%%%%-----------------------------o----------||-%%%||----------||%-||----------------
----o---||--||--||------------------------%%%%%----|---------------|------------------------%%%%%--------rr%-||-||-||----------|||-||----------------
--------||--||--||----------%%%%-|---------|||-----%%%%%%%%%------||--------------------------|||%%%%%%%%%%%%||-|||||-------%%%||||||----------------
--------||--||--||-----------|||||---------|||------||---||--%----||--------------------------|||||||||||||||||||||||--------||||||||--------------#-
--------||%%%%%-||-----------|||||---------|||------||---|||------||------X-XXXXX-----XXXXXXX-|||||||||||||||||||||%%%------|||||||||----%%%---XXXXXX
--------||--|||-||-----------|||||---------|||------||---|||------||-------|XXX-X-----XXXXXXX-|||||||||||||||||||||-|--------||||||||-----|----XXXXXX