--------------------------------------------------------------------------------------------------------------------------------------------------------------
--------------------------------------------------------------------------------------------------------------------------------------------------------------
--------------------------------------------------------------------------------------------------------------------------------------------------------------
SSSSSSSSSSSSSSSSSSSSSSSSSSSSSSSSSSSSSSSSSSSSSSSSSSSSSSSSSSSSSSSSSSSSSSSSSSSSSSSSSSSSSSSSSSSSSSSSSSSSSSSSSSSSSSSSSSSSSSSSSSSSSSSSSSSS----------SSSSSS----------
S-----------------------SS----SSS-------------SSS-------------------------------------------------------------------------SS--SS------------------------------
S-----------------------SS----SSS-------------SSS-------------------------------------------------------------------------SS--SS------------------------------
------------------------S-----SS------------------SS-------------------------------------------------------SSS----oooo-----S--SS-------------------S----------
------------------------S-----SS-------------------------------------------------------------------------------------------S--SS-------------------S----------
S-----------------------SS----S--------------------S--S-----------------------------------------------------------SSSS-----------------------------S----------
S-----------------------SS----Sg-------------------SoSS-----------------------------------------------------S----SSSSS------ooSS-----------------SoS----------
S-----------------------SSS---SS----------SS--SSSSSSSSS---------ST--------------------------TT----TT----TT--SSSS--SSSS------SSSSS---------T------SSS----------
S-------------------#--------------#-#-#--SS---------------------T-----------TT------------#-T----TT----TT----SS--S-SS--------------------TT------------------
S----T-----------#--S#-------------#-#-#--SS---------------------S-----------TT----TT----g-#-#---#-#----##----------SS--------------------TT------------------
SM--TT-----g-----#--S#-----------#-#-#-#--SS-----------g-g-------------TT----T---g-TT----#-#-#---#-#-#-###-#---------S---------k---g-S----TT------------------
XXXXXXXXXXXXXXXXXX--XX---XXXXXXXXXXXXXXX--XX--XXXXXXXXXXXXXXXXXXXXXXXXXXXXXXXXXXXXXXXXXXXXXXXXXXXXXXXXXXXXXX-------------X--XXXXXXXXXXXXXXXXXXXXXXXX--XXXXXXXX
XXXXXXXXXXXXXXXXXX--XX--XXXXXXXXXXXXXXXX--XX--XXXXXXXXXXXXXXXXXXXXXXXXXXXXXXXXXXXXXXXXXXXXXXXXXXXXXXXXXXXXXX-------------X--XXXXXXXXXXXXXXXXXXXXXXXX--XXXXXXXX