-----------------------------------------------------------------------------------------------------------------------------------------------------
-----------------------------------------------------------------------------------------------------------------------------------------------------
-----------------------------------------------------------------------------------------------------------------------------------------------------
---------------o-------------------------------------------------------------------------------------------------------------------------------------
--------------%%%------------------------------------------------------------------------------------------------------------------------------------
---------------|----------------------------------------------------------------%%%--------------------------------------------------o---------------
------%%%%%----|----------------------------------------------------%o%----------|------%%%%--------%%%----------------oooo--------%%%%--------------
--------||-----|----oo--------------------SS---------S----SSSS------%|%------o---|-SS----||--o---RS--||---------------------SSS-----||--------SSS----
--------||-----|--%%%%%-----------%%S%-------------------------------|---%--%%%%-|---o---||----------||----------------||%----------||---------------
--------||-----|---|-----------------|--------SSS----o---------------|---||--|---|-------||--SSS-----|-----------S---o-|||----------||---------------
--------||-----|---|-|---------%-----|--------------%%%-----o--------|---||--||--|--%%%--|---------%%%%%%--------------|||-----%%%-|||--%%-----------
-----M--||---------|-|--------%%%%%--|------------%|||---%%%%%%%%--r-|-r-||-|||--|---|-r-|-----------|||-------------|--||-----|||-|||--|------------
-----%%%||-%%-|----|%%%%%%%%%--|||--%%%-----------||||---||||-|||%%%%%%%%||-|||-%%---||%-|-----------|||------------%%%%%%%%%%-|||||||%%|------------
------||||--|-|----|-|-|||||---|||---|------------||||---||-|-|||--|||||-||-|||-|--r-||--|-----------|||-------------||-||||||-|||||||-||-%%%%-------
-------|||--%%-----|-|--||||---|||---|-----|------||||---||-|-|||--|||||-||-|||%%%%%-||--|-------%%%-|||-------%%%%%-||--|||||-|||||||-||--||--------
-------||||-||-----|-|--||||---|||---|-----|------||||---||-|-|||--|||||-||-||||||||-||--|--------|--||-------%-%|||-||--|||||-|||||||-||--||--------