--------------------------------------------------------------------------------------------------------------------------------------------------------------------------------
--------------------------------------------------------------------------------------------------------------------------------------------------------------------------------
--------------------------------------------------------------------------------------------------------------------------------------------------------------------------------
--------------------------------------------------------------------------------------------------------------------------------------------------------------------------------
--------------------------------------------------------------------------------------------------------------------------------------------------------------------------------
----------------------------------------U---------------K-----------------------------------------------------------------------------------------------------------------------
------------------------------------------------------S-SS-S---------------------------------------##--------------------------------------------------------------SSSSS--------
--------------------------------------------------------------------------------------------------###---------------------------------------------------------------------------
-------------------*----------------------------------------------------------------------------#####-------##------------------------------------------------------------------
-------------------*--------------------------------------------------------------------------#######-----####---------------------*-------------------------------K------------
------------------S#CS----------------------------------------------------------------QQ-----########-----####------------SS-----SS#CS----------------------------SSSSSS--------
----------#-------------------------TT------------TT----------------------------------------#########-----####-------*----------------------------------------T-----------------
-----------#-------------*----------TT-------*----T------------------------------*---------##########---######-------*-----------------*-----------*----------T--------------*--
-M---------#-------------*----------TT-------*----T---TT-------------------------*-------###########----######-------*-----------------*-----------*----------T--------------*--
XX---XXXXXXXXXXXXXXXXXXXXXXXXXXXXXXXXXXXXXXXXXXXXXXXXXXXXXXXXXXXXXXXXXXXXXXXXXXXXXXXXXXXXXXXXXXXXXXXXXXXXXXXXXXXXXXXXXXXXXXXXXXXXXXXXXXXXXXXXXXXXXXXX-XX--XXXXXXXXXXXXXXXXXXXX--
-X---XXXXXXXXXXXXXXXXXXXXXXXXXXXXXXXXXXXXXXXXXXXXX--XXXXXXXXXXXXXXXXXXXXXXXXXXXXXXXXXXXXXXXXXXXXXXXXXXXXXXXXXXXXXXXXXXXXXXXXXXXXXXXXXXXXXXXXXXXXXXXX---X--XXXXXXXXXXXXXXXXXXXX--