------------------------------------------------------------------------------------------------------------------------------------------------------------------------------------------------------------------------------
------------------------------------------------------------------------------------------------------------------------------------------------------------------------------------------------------------------------------
------------------------------------------------------------------------------------------------------------------------------------------------------------------------------------------------------------------------------
------------------------------------------------------------------------------------------------------------------------------------------------------------------------------------------------------------------------------
------------------------------------------------------------------------------------------------------------------------------------------------------------------------------------------------------------------------------
------------------------------------------------------------------------------------------------------------------------------------------------------------------------------------------------------------------------------
-----------------------------------Q-Q--------------------------------------------------11------------------------------------------------------------------------------------------------------------------------------------
------------------------------------------------------------------------------------------------------------------------------------------------------------------------------------------------------------------------------
--------------------------------------------------------------Q-Q---Q---------------------------------------------------------------------------------------------------------------------------------------------------------
--oo----------------------------------------------------y--------------------------------------------------------------y------------------o-----------------------------------------------------------------------------------
--------QQQQ----------------------------------------------------------------------------QQ------------------------QQQ?SSQQQ-------------o--o--------------------------------------------------------------------------Q-------
--------------------------------------------------------#-------------------------------------------------#-------------------------------------------------------------------------------------------------------------------
----------------------------------------------------------------------------------------------------------#-------------------------TT----------------------------------------------------------------------------------------
-M-------------------y---y--------------------------------------------------------------y-------------------#--------------------y--TT---------------------------------------------------------y---------------------y--------
XXXXXXXXXXXXXXXXXXXXXXXXXXXX---XXXXXXXXXXXXXXXX---XX--XXXXXXXXXXXXXXXXXXXXXXXXXXXX-XXXXXXXXXXXXXXXXXXXXXXXXXXXXX-XXXXXXX--XXX-XXXXXXXXXXXXXX--XX---XXXXXXXXXXXXXXXXXXXXXXXXXXXXX--XX----XXXXXXXXXXXXXXXXXXXXXXXXXXXXXXX---XX--
XXXXXXXXXXXXXXXXXXXXXXXXXXXX---XXXXXXXXXXXXXXXX---XX--XXXXXXXXXXXXXXXXXXXXXXXXXXXX-XXXXXXXXXXXXXXXXXXXXXXXXXXXXX-XXXXXXX--XX--XXXXXXXXXXXXXX--XX---XXXXXXXXXXXXXXXXXXXXXXXXXXXXX--XX----XXXXXXXXXXXXXXXXXXXXXXXXXXXXXXXX--XX--