------------------------------------------------------------------------------------------------------------------------------------------------------
------------------------------------------------------------------------------------------------------------------------------------------------------
------------------------------------------------------------------------------------------------------------------------------------------------------
------------------------------------------------------------------------------------------------------------------------------------------------------
----M------------------------------------------------------------------------------g------------------------------------------------------------------
----%%%o------------------------------------------------------------------------%%%%%-----------oo------------------------------------oo--------------
----||------------------------------------------------------------------------------------------------------------------------%%%------%%%%%-----%#---
----|------------------------------------------------------o-------------------------------------------------------------------|--------||||--|%--#---
-----|-------------------------------------------------------------------%---------------------%%%%%---------------------------|--------||||--||--#---
----------o-------------------------------%%%o-%%%%%%---------------------%%%%%%----------------|||---------------oo------%%%%%%%-------||||--||||#---
----------%%%%%-------%%-----------##------||%--||||-----------SS%%%------||||------------------|||------------S-SSSS------|||||--------||||--||||----
----SoS---||||--------|------------###------||--||||--------------|-------||||------------------|||-----------------------||||||--------||||--||||----
-----------|||--------||----------####------||--||||------------|||----%%-||||------------------||-|----------------------||||||--------||||--||||----
----------||||--------||-----------###------||--||||--oo--oo----|%%%%---||||||----oo-----%%%%---||-|----------------------||||||--------||||--||||-#--
----------%|||---%%%--||--------XXXXXXXXXXX-||--||||----%%%%----||||----||||||----%%------||----||-|------%%%%%%----------||||||--------||||--||||-XXX
--oo------||||----|---||---------XXXXXXXXXX|||--||||-----||-----||||----||||-|----|-------||----||--------||--|-----------||||||--------||||--||||-XXX