------------------------------------------------------------------------------------------------------------------------------------------------------------------------------------------------------------------------------
------------------------------------------------------------------------------------------------------------------------------------------------------------------------------------------------------------------------------
------------------------------------------------------------------------------------------------------------------------------------------------------------------------------------------------------------------------------
------------------------------------------------------------------------------------------------------------------------------------------------------------------------------------------------------------------------------
------------------------------------------------------------------------------------------------------------------------------------------------------------------------------------------------------------------------------
-------------------------------------------------------------------------------------------------------------------------------------------------------------------------------------------------------------------------y----
---------------------------------------------Q------------------------------------------------QQQQQQ----------------------------------------------------------Q------------------------------------------Q------------Q?SSQ---
-------------------o------------------------------------------------------------------------o-----------------------------------------------#---------------------oo----------------------------------------------------------
-----------------1-------------------------------------------------------------------------------------------------------------------------Q--------------------------------------------------------------------##---------#--
---------------------------------------------------------------------------------------------------------------------------------o-------------------------------------------------------------------------#-##-#-------y-##--
----------------------------------Q------------XQQ-------ooo----QQQQQ-------------Q---------Q----QQQ------------------Q-------------------------------------QQQQ---------------------Q----------Q-------Q-#--#--#--------###--
------------------------------------------------------------------------------------------------------------------------------------------------------------------------------------------------------------##--#-------####--
--------------#-----------------------------#-------------------------------------------TT--------------------------------------------TT----------------------------------------------------------------#---##--#------#####--
-M------------#-----------------------------#----y----------------yy-----y--------------TT--------yy-------------------------------y--TT--------------------yy--y----------------------------------y-----##-##--#-----######--
XXXXXXXXXXXXXXXXXXXXXX--XX--XXXXXXXXXXXXXXXXX--XXXXXXXXXXXXXXXXXXXXXXXXXXXXXXXXXXXXXXXXXXXXXXXXXXXXXXXXXXXXXXXXXXXXXXXXXXXXXXXXXXXXXXXXXXXXXXXXX----XXX-XXXXXXXXXXXXXXXXXXXXXXXXXXXXXXXXXXXX--XXXXXXXXXXXXXXXXXXXXXXXXXXXXXXXX
XXXXXXXXXXXXXXXXXXXXXX---X--XXXXXXXXXXXXXXXXX--XXXXXXXXXXXXXXXXXXXXXXXXXXXXXXXXXXXXXXXXXXXXXXXXXXXXXXXXXXXXXXXXXXXXXXXXXXXXXXXXXXXXXXXXXXXXXXXXX----XXX-XXXXXXXXXXXXXXXXXXXXXXXXXXXXXXXXXXXX--XXXXXXXXXXXXXXXXXXXXXXXXXXXXXXXX