----------------------------------------------------------------------------------------------------------------------------------------------------------------------------------------------------
----------------------------------------------------------------------------------------------------------------------------------------------------------------------------------------------------
----------------------------------------------------------------------------------------------------------------------------------------------------------------------------------------------------
----------------------------------------------------------------------------------------------------------------------------------------------------------------------------------------------------
----------------------------------------------------------------------------------------------------------------------------------------------------------------------------------------------------
--------------------------------------------------------------------------------------------------------------------------------------------------------------k-------------------------------------
------------SQSSCS--------------------------S------------SS---------------------------SSSSSSSSCSS-------------------------------------S--------------------------------------------------g#---------
-----------------K------------------------------------------#----------------------------------K-------------------SS------gk-------------------------------gg---------------------------##---------
-------------------------S---------------------------------##------------------------------------------S-------------------g##----------------------------S---------#-------------------###---------
---------------K------------------------------------------###--------------------------------K-----------------------------###------------------------------------gg#-----------g------####---------
------TT----S-SS------------------------SSCSSS---------######-------------------------SSSSSSSSSSSS--------------SSS-------####----S---SSSSSS-------S------------#####----S------#------####---------
------TT-----------------------------------K-------------####-------------#-----------------------------------------------####-------------------------------##-#####-----------------#####---------
------TT--------------------------------------------------###-------------##---------------------------#-----------------#####------------------------------#########-----------------#####---------
-M--ggTT------------------------K--------K-----------------##-------------##----------------K----------#--------gg-------#####--------k-----------K---------#########-----------------#####------#--
XXXXXXXXXXXXXXXXXXXXXXXXXXXXXXXXXXXXXXXXXXXXXXXXXXX-------XXX---XXXXXXX---XXXXXXXXXXXXXXXXXXXXXXXXXXXXXXXXXXXXXXXXXXXXXXXXXXXXX----XXXXXXXXXXXXXXXXXXXXXXXXXXXXXXXXXX---XXXXXXXXXXXXXXXXXXXX-XXXXXXX
XXXXXXXXXXXXXXXXXXXXXXXXXXXXXXXXXXXXXXXXXXXXXXXXXXX-------XX-----XXXXXX---XXXXXXXXXXXXXXXXXXXXXXXXXXXXXXXXXXXXXXXXXXXXXXXXXXXX-----XXXXXXXXXXXXXXXXXXXXXXXXXXXXXXXXXX---XXXXXXXXXXXXXXXXXXXX-XXXXXXX