---------------------------------------------------------------------------------------------------------------------------------------------------------------------
---------------------------------------------------------------------------------------------------------------------------------------------------------------------
---------------------------------------------------------------------------------------------------------------------------------------------------------------------
---------------------------------------------------ooo-------------ooooo-------------------------ooo-----------------------------------------------------------------
-----------------------------------------------------------------------------------o----------------------%%%--------------------------------------------------------
-----------------------------------------------------------------------------------------------------------|---------------------------------------------------------
--------------------SSS---------SSS---------------SSS----S---------SSSS----S---S-----------------SSS-------|-------SS----------S------------------------SSSoo--------
-------------------------------------------------------------------S--------SSS---%%%%%--------------------|-------------------------------------------------o-------
-------------SSSo--o-----------------------------------------------------S----------||-----S---------------||----------------------------%%%%-------SS---------------
----------------------------------------------------------------------------------|-||---------------------||-----------------------------||---------S---------------
-----------------S------SS----%%%%%%%%%--------SSS---%%%%%-----------------------||-||-------S--%%%%%------||-----------------------------||%%%%--------------SS-----
-------%%%---------|-----------|||%%%|----------------|||------------------------||-||-----SSS---|||-------||-----------------------------||-||----------------------
-------|||---------|-----------||||-||----------------|||------------------------||-||-----------|||-----|-||-----------------------------|||||----------------------
XM-----|||---------|-----------||||-||----------------|||------------------------||-||-----------|||-----||||-----------------------------|||||--------------------X-
XXXXXXXX||---------|||---------||||-||--------%%%%%%%%%||-XXXXXXX%%%%%%%%%%%-----||-||-%%%%----%-|||-%%%%||||%%%%%%-XXXXXXXXXXX-%%%%-------||||-XXXXX--%%%%-------XX-
XXXXXXXX||---------|||---------||||-||---------|||||--|||-XXXXXXX-|-||---||------||--|--||-------|||--||-|-||-||||---XXXXXXXXXX--||--------||||-XXXXX---||----------X