------------------------------------------------------------------------------------------------------------------------------------------------------
------------------------------------------------------------------------------------------------------------------------------------------------------
------------------------------------------------------------------------------------------------------------------------------------------------------
------------------------------------------------------------------------------------------------------------------------------------------------------
------------------------------------------------------------------------------------------------------------------------------------------------------
-----------------------------------------%%%%%%--o--oo------oo--o--------------------------------------------------------------oo---------------------
--------------------SS--------------------||||---------------%%%%--SSSSS-------------------SSS-----------------------------%%%%%%----------%%%%-------
-----------ooS----------------------------||||----------------||------------------------------------------------------------||||-----------|||--------
------------------------S-----------------||||-----%%%%%%%----||-----------|-------------------%-------------------------%%-||||-------%%%%|||--------
------oo------------%---------------------||||------||||||%---||-----------|-----------------------------------------%%%%-|-||||-------%||||||--------
---------------%%%%%%---------------------||||--%%--||||||----||-------%%%%%%------------------#----------------------|||-|-||||--------||||||--------
----------------||||----------------------||||--||--||||||----||--------||||------------------##----------------------||--|-||||--------||||||--------
----------------||||----------------------||||--||--||||||----||--------||||------------------#-----------------------|||-||-|||--------||-|||--------
-M--------------||||----------------------||||--||--||||||----||--------||||------------------#-------------------oo--||--||-|||------%-||-|||--------
XXXXXXXXX-------||||----------XXXXXXXXXX--||||-%%%--||||||----||--%-----||||----%%%----------XXXXXXXXXXX%%%%%%%%%%%%%-||-|||-|||-XXXX-||||--||--------
XXXXXXXXX-------||||----------XXXXXXXXXX--||||--|---||||||----||--------||||-----||-----------XXXXXXXXX-%%|%--||-|||--||-|||--||--XXX-||||--||--------