-------------------------------------------------------------------------------------------------------------------------------------------------------------------------------------------
-------------------------------------------------------------------------------------------------------------------------------------------------------------------------------------------
-------------------------------------------------------------------------------------------------------------------------------------------------------------------------------------------
S--SSSSSSSSSSSS----------SSSSSSSSSSSSSSSSSSSSSSSSSSSSSSSSSSSSSSSS-SSSSSSSSSSSSSSSSSSSSSSSSSSSSSSSSSSSSSSSSSSSSSSSS------SSSSSSSS------SSSSSSSSSSSSSSSSSSSSSSSSSSSSSSSSSSSSSSSSSSSSSSSSSSSSS
S--------------------------------------------------------SSSSSSSSS---------------------------------SSSSSSSS-----------------------------------------------SSSSSSSSS------------------------
S--------------------------------------------------------SSSSSSSSS---------------------------------SSSSSSSS-----------------------------------------------SSSSSSSSSS-----------------------
S-------------------------------------------------------SSSSSSSSSS----------------------------------SSSSSSS----------------------------Q------------------SSSSSSSSSS-----------------------
S------------------------------------------------------------------------------------------------------------------------------------------T---------------------------------------------SS
S-----------------------------------------SS-----------------------------------------------------------------------------------SSSSS-----------------------------------------------------SS
S------------------------------------------S-----------------oo------------------------------------------------------------------------------------------------------o-------------------SS
S-------------------------------S------SSS--SS------------SSSSSSSS---------T---------------------S-----SSSS-S----------------SS--------------------TT---#--SSSSSSSSSSSS------------------S-
S-------#---SS----------#-----------TT------------TT----------------------TT-------------S------------------S--------------------------------------T---##--SSSSS-------------------------SS
S------##SSSSS-------###------------TT------------TT---t------------------TT----TT--TT------------#--------SSS-----------------------------------------##----SSS-------------------------SS
SM----###---SS------###------------kTT------------TT---t------------------TT----TT--T------------##-------S--------------------------------------------##--------------------------------SS
XXXXXXXXX---XXXXXXXXXXX-----XXXXXXXXXXXXXXXXXXXXXXXX---XX--XXXXXXXXX---XXXXXXXXXXXXXXX-XX----XX--XX----XXXXXXXXXXXXXX----------------XXXX--XXXXXXXXXX--------XXXXXXXXXX------XX---XXXXXX-XX
XXXXXXXXX---XXXXXXXXXXX-----XXXXXXXXXXXXXXXXXXXXXXXX---XX--XXXXXXXXX---XXXXXXXXXXXXXXXXXX----XX--XX----XXXXXXXXXXXXXX----------------XXXX--XXXXXXXXXX--------XXXXXXXXXX------XX---XXXXX--XX