----------------------------------------------------------------------------------------------------------------------------------------------------------------------------------------------------
----------------------------------------------------------------------------------------------------------------------------------------------------------------------------------------------------
----------------------------------------------------------------------------------------------------------------------------------------------------------------------------------------------------
------------------------------------------------------------------------------------------------------------------------------------------------------------------------------------k---------------
------------------------------------------------------------------------------------------------------------------------------------------------------------------------------------k---------------
------------------------------------------------------------------------------------------------------------------------------------------------------------------------------------k---------------
---------------------------------SSS------------------------------------------------------------------------SS-SSS---------------------------------------------------------SCS-S---#----------------
----------------------------------------------------k--------------------------------#---------------------------------------------------------------------------------------K----------------------
----------------------------------------------------#S------------------------------##----------------------------------------------------------------------------------SQ--------------------------
---------------------------------------------------###-----------------------------###----------------------------------#--------------------------------------------------K------------------------
------S---SQSS------TT-----------SQSSS--SSSSSSCS--####-------------T------TT-----#####---------S-SSS--TT--TSSSSSSSS----##----------------#####------SQSSSSSSQSSSS-----------S-----------------------
--------------------TT-------------------------K-######-------T-----------TT----#####-----------------TT---T----------####--------------------------------------------------------------------------
--------------------TT---------------------------######-------TT----------TT---######-----------------TT-------------#####-------------T------------------------------------------------------------
--M---------K-ggg---TT--K--------------------K---######---ggggTT------T---T---#######---------gg------TT---T--------#####-----gg------TT-------------------------------------------------g-------#--
--X---XXXXXXXXXXXXXXXXXXXXXXXXXXXXXXXXXXXXXXXXXXXXXXXXXXXXXXXXXXXXXXXXXXXXXXXXXXXXXXXXXXX-XXXXXXXXXXXXXXXXXXXXXXXXXXXXXXXXX----XXXXXXXXXX----------XXXXXXXXXXXXXXXXXXXXXXXXXXXXXXXXXXXXXXXXXXXXXXXXX
--X---XXXXXXXXXXXXXXXXXXXXXXXXXXXXXXXXXXXXXXXXXXXXXXXXXXXXXXXXXXXXXXXXXXXXXXXXXXXXXXXXXX--XXXXXXXXXXXXXXXXXXXXXXXXXXXXXXX-X----XXXXXXXXXX---------XXXXXXXXXXXXXXXXXXXXXXXXXXXXXXXXXXXXXXXXXXXXXXXXXX