--------------------------------------------------------------------------------------------------------------------------------------------------------------
--------------------------------------------------------------------------------------------------------------------------------------------------------------
--------------------------------------------------------------------------------------------------------------------------------------------------------------
S--SSSSSSSSSSSSSSSSSSSSSSSSSSSSSSSSSSSSSSSSSSSSSSSSSSSSSSSSSSSSSSSSSSSSSSSSSSSSSSSSSSSSSSSSSSSSSSSSSSSSSSSSSSSSSSSSSSSSSSSSSSSSSSSSSSSSSSSSSSSSSSSSSSSSS------
S-------------------------------------S-------------------------------------------------------------------------------------------------------SS--------------
S-------------------------------------S-------------------------------------------------------------------------------------------------------SS--------------
S-----------------------------------------------ooo-----------------------------------o-----ooooooo------------------------------------------------S----------
S---------------------------------------------------------------------------------S----------------------------------------------------------------SoS--------
S-------SSS-------------------------SS----------SSSS------------------------------SSSSSS--S--S-SSSSS-----------------------------------------------SSS--------
S-------SSSS------------------------SS----SS----------------------------------SS--SSSS----SS-SSSSSSS-------------------------------------------S--------------
S-------SSSS---g-#------S#----------SS----SS---------------------------------SSSSSSSSS----SSSSS---SS---------#--------SSSS---S----------------SS--------------
S-------S------#-#------##--------------------------------T#-#--ST------------------SS----SS-----------------#-#----------------------------------------------
S-------S------#-#---g##------T---------------------------T#-#--SS-----------#------SS----SS--------------S###-#-#-----------------------#-#------SS----------
SM-----------#-#-#-#-#-#-#----TT-------------------g-----#-#-#--S------g-----#-------S-------------------#####-#-g---------------------#-#-#--SS--SS----------
SXXXXX--XXXXXXXXXXXXXXXXXXXXXXXXXXXXXXXXXXXXXXXXXXXXXXXXXXXXXX--XX--XXXXXXXXXXXXXX--XX--X--------XXXXXXXXXXXXXXXXXXXXXXXXXXXXXXXXXXXXXXXXXXXXXXX--XXXXXXXXXXXX
XXXXXX--XXXXXXXXXXXXXXXXXXXXXXXXXXXXXXXXXXXXXXXXXXXXXXXXXXXXXX--XX--XXXXXXXXXXXXXX--XX---X-------XXXXXXXXXXXXXXXXXXXXXXXXXXXXXXXXXXXXXXXXXXXXXXX--XXXXXXXXXXXX