------------------------------------------------------------------------------------------------------------------------------------------------------
------------------------------------------------------------------------------------------------------------------------------------------------------
------------------------------------------------------------------------------------------------------------------------------------------------------
------------------------------------------o-----------------------------------------------------------------------------------------------------------
---------------------------------------------X---------------------------------------------------------------------------------------g----------------
------------------------oo---------------------%%%%---oo----------------------------------------------------------------ooor-----%%%%%%-oo------------
------------------------------------------------||%%%%%%%--------------------------------------------------------------%%%%%%-----||||----------------
----oo------------------------------------------||||--||-----------------%%%%-----------oo------------------------------||||------||||--------oo%%%---
----------------------------------%%%---------%|||||--||------------------||------------%%%%%---------------------------||||||%%%-||||-----%%%%%------
-----------------------------%%%%%%-----------|||||||-||------------------||-------------|||----------------------------||||||||--||||---%%|||||------
----%%%%%--------------%%%%---|||||-----------||||||||||------------SS----||------%%%----|||-------------------------%%%%|||||||--||||----|||||-------
------||----------------||----|||||-----------||||||||||------------------||------||-----|||--------------------------||||||||||--||||----||||--------
------||----------------||----||||------------||||||||||------------------||------||-----|||-------------------|------||||||||||--||||----||||---#----
-M----||------%%%%oo----||----||||------------||||||||||----------------|-||------||----||||-----------------%%%%-oo--||||||||||--||||----||||---#-#--
XXXXXX||------|||-%%%%%-||----||||-----%%%----||||||||||----XXXXXXXXXX--||||---%%%||----||||------X-XXXXXXX---||---%%-||||||||||--||||----||||-%XXXXXX
XXXXX-||-------|-|---||-||----||||------||----||||||||||----XXXXXXXXXX--||||----|-||----||||------X-XXXX-X----||---|--||||||||||--||||----||||--XXXXXX