------------------------------------------------------------------------------------------------------------------------------------------------------------------------------------------------------
------------------------------------------------------------------------------------------------------------------------------------------------------------------------------------------------------
------------------------------------------------------------------------------------------------------------------------------------------------------------------------------------------------------
------------------------------------------------------------------------------------------------------------------------------------------------------------------------------------------------------
------------------------------------------------------------------------------------------------------------------------------------------------------------------------------------------------------
---------------------------------------------#--------------------------------------------------------------------------------------------------------------------------------------------------------
--------------------------------------------##--------------------------------------------------------------------------------------##----------------------------------------------------------------
--------------------------------------------##--------------------------------------------------------------------------------------##----------------------------------------------------------------
--------------------------------------------##--##------------------------------------------------TT-------------------------------###----------------------------------------------------------------
---------------------------------------------#--##------------------------------------------------TT------------------------------####----------------------------------------------------------------
--------------------####---------------------#--##------------------------------------------------##------#LSS-------------------##-##---------------##-------#LS-------------------------------------
---------T---------##------------------------#--##--------------------------------------------------------#-----------------------------------------#---------#-----TT--------------------------------
--------TT----TT--###----*--------------*----#--------------------------------------------------T---------#-------TT-----------------*-------------K#---------#-----TT--------------------------------
-M----kkTT----TT--###----*-------ggg----*----#---------ggg----#---g----------ggg------gggg----k-TT------kk#---*---TT-----------------*------gg------#-------kk#----kTT-------ggg----------ggg---------
XXXXXXXXXXXXXXXXXXXXXXXXXXXXXXXXXXXXXXXXXXX--XXXXXXXXXXXXXXXXXXXXXXXXXXXXXXXXXXXXXXXXXXXXXXXXXXXXXXXXXXXXXXXXXXX--XXXXXXXXXXXXXXXX--XXXXXXXXXXXXXXXXXXXXXXXXXXXXXXXXXXXXXXXXXXXXXXXXXXXXXXXXXXXXXXXXXX
XXXXXXXXXXXXXXXXXXXXXXXXXXXXXXXXXXXXXXXXXXX--XXXXXXXXXXXXXXXXXXXXXXXXXXXXXXXXXXXXXXXXXXXXXXXXXXXXXXXXXXXXXXXXXXX--XXXXXXXXXXXXXXXX--XXXXXXXXXXXXXXXXXXXXXXXXXXXXXXXXXXXXXXXXXXXXXXXXXXXXXXXXXXXXXXXXXX