----------------------------------------------------------------------------------------------------------------------------------------------------------------------------------------
----------------------------------------------------------------------------------------------------------------------------------------------------------------------------------------
----------------------------------------------------------------------------------------------------------------------------------------------------------------------------------------
----------------------------------------------------------------------------------------------------------------------------------------------------------------------------------------
------------------------------------------------------------------------------------------------------------------------------------oo--------------------------------------------------
----------------------------------------------------------------------------------------------------------------------------------------------------------------------------------------
--------------------------------------------------y---------------------------------------------------------------------S---------------------------------------------------------------
------------------------------------------------#SSS-----------------------------------------------------------------##SSS--------------------------------------------------------------
-------------------ooo-------------------------##--------#--y----oo------------y-------------------------------------#------------y-----------------------------------------------------
----------------##----------------------------###-------##-SS----------------##SS---------------------##------------##------------##----------------------------------------------------
---------------###-------------SSC-----------###-------###----SC------------###----------------------##----------y--###----------##--------oo-------------------------------------------
--------------####---------#----------------####-------###-----------------y###----------------------###----------#-###---------###-----------------------------------------------------
-------------#####-------###-----S----------####-----#-###-----SSS---------####--------------------#####---------#--###--------#####----------------------------------------------------
-M-----y----######---S--####-----------#---#####-----#####---------S-y----#####--SSS--------------######------------###-------#####------------------------y-y-------y----------y--y----
XXXXXXXXXXXXXXXXXX--XXXXXXXX--XX--XXXXXXXXXXXXXXXXXXXXXXXX---------XXXXXXXXXXXX----XXXXXXXXXXXXXXXXXXXXX---------XXXXXX----XXXXXXXXXXXXXXXXXXXXX-XXXXXXXXXXXXXXXXXXXXXXXXXXX--XX--XXXXXX
XXXXXXXXXXXXXXXXXX---XXXXXXX--XX--XXXXXXXXXXXXXXXXXXXXXXXX---------XXXXXXXXXXXX----XXXXXXXXXXXXXXXXXXXXX---------XXXXXX---XXXXXXXXXXXXXXXXXXXXXX-XXXXXXXXXXXXXXXXXXXXXXXXXXX--XX--XXXXXX