------------------------------------------------------------------------------------------------------------------------------------------------------
------------------------------------------------------------------------------------------------------------------------------------------------------
------------------------------------------------------------------------------------------------------------------------------------------------------
------------------------------------------------------------------------------------------------------------------------------------------------------
------------------------------------------------------------------------------------------------------------------------------------------------------
-------------oo-----oo------oo----------------------------------oo----------------------------------------oo-%%%%-------------------------------------
-----------------------------------------------------------------------------------------------------%%%%%----|||%%-----------------------------------
-----------------------------------------------------------------------------------------SSS----------||||----||||------------------------------------
---------------------------------------------------------%%%------------------------oS----------------||||----||||------------------------------------
---------------------------o------------------------------|----------------------%%%%-----------------||||----||||---------%%%%-----------------------
---------%%%%----------%%%%%%----------------%%%%---------------------------------||-------------%%%%-|%%|--%-||||----------||------------------------
----------||------------||||------------------||-----%%%%-------------------------||--------------||--||||----||||----------||--|%-%%%----------------
----------||------------||||---%%%%-----------||-----------%%%%-%%%--------%%-----||--------------||--||||----||---%%%%-----||--|---|-----------------
-M--------||------------|||-----||----%%%-%---||---------|--||--||------%%%|------||--------------||--||||---|||----||------||--||--|--------------#--
XXXXX---%%%%%%----%%%%%-|||-----||----XXXXXX--||------|--|--||--||--------||------||----XXXXXXXXX-%%%-||||-%%|||----||------||--||--|-----XXXXXXXXXXXX
XXXXX----||||------|||--||------||----X|XXXX--||------||||--||--||-------|||-------|----XXXXXXXXXX||--||||--||||----||------||--|||-|-----XXXXXXXXXXXX