-----------------------------------------------------------------------------------------------------------------------------------------------------------------------------------------------------
-----------------------------------------------------------------------------------------------------------------------------------------------------------------------------------------------------
-----------------------------------------------------------------------------------------------------------------------------------------------------------------------------------------------------
-----------------------------------------------------------------------------------------------------------------------------------------------------------------------------------------------------
-----------------------------------------------------------------------------------------------------------------------------------------------------------------------------------------------------
-----------------------------------------------------------------------------------------------------------------------------------------------------------------------------------------------------
------------------------------------------------------------------Q-------------USSS-------------------------------------------------------SSS----------------------------S--------------------------
-----------------------------------------------------------------------------------------------------------------------------------------------------------------------------------------------------
-----------------------------------------------------------------------#-------------LSSSSSS-------------------------------------------------------SSSSSS-------------------------S----##------------
-----------------------g-----------------------------------------------#---------------------------------------------------------------------------------------------------------------##------------
-----------------------#----TT------TT-------------------#---C--QQQ----#------QQQQQQQ------------S---------------TT--------------------------------------------------------------------##------------
-----------------------#----TT------TT-------------------#-------------#-----------------------------------------TT--------------------------------------------------------------------##------------
----------------------------TT------TT------------------##-------------#-----------------------------------------TT-----------------------------------------------T---------------T-----#------------
-M-----------gg----#---#----TT------TT-------g---------###---------k---#-------------kg-gg-----------t------gg---TT------------k---g------gg---------g-----------TT-g-------------T-----------g--k---
XXXXXXXXXXXXXXXXXXXXXXXXXXXXXXXXXXXXXXXXXXXXXXXXXXXXXXXXXXXXXXXXXXXXXXXXXXXXXXXXXXXXXXXXXXXXXXXXXXXXXXXXXXXXXXX--XX--XXXXXXXXXXXXXXXXXXXXXXXXXXXXXXXXXX------XXXXXXXXXXXXXXXXXXXXXXXXXXXXXXXXXXXXXXXX
XXXXXXXXXXXXXXXXXXXXXXXXXXXXXXXXXXXXXXXXXXXXXXXXXXXXXXXXXXXXXXXXXXXXXXXXXXXXXXXXXXXXXXXXXXXXXXXXXXXXXXXXXXXXXXX--XX--XXXXXXXXXXXXXXXXXXXXXXXXXXXXXXXXXX------XXXXXXXXXXXXXXXXXXXXXXXXXXXXXXXXXXXXXXXX