------------------------------------------------------------------------------------------------------------------------------------------------------
------------------------------------------------------------------------------------------------------------------------------------------------------
------------------------------------------------------------------------------------------------------------------------------------------------------
------------------------------------------------------------------------------------------------------------------------------------------------------
-----------------------------------------------------------------------------------------------------------------------------------------g----S-------
-------------o-------------------%%%%----------------o----------------------------------------------------oo--ooooo-----------------------------------
---------g------------------------||---------------------------------SSS-----SS--SS--##----S-------------------%%%%-----------------------------------
-------%%%--------------oo--------|--------------------------------------------------##----SSS------oo----------||----------oo----------------o-------
--------|-------------------------|------------------|-------------------------------##------------------------|||---------------%%%%--%%%%%%---------
--------|-------------------------|------------------|------------------------------####-----------------------|||----------------||----||||----------
------------#---------------%%%%%%%%----------------%%%------------------%%%--------###-%%----------------%%%%%%%|--------------|-||----||||----------
--------------------oo-------|----------------------||--------oo----------|---------###-||-----------------|||||||--------------||-|----||||----------
--------||#----------------##--------------%%%%------|--------------------|----------##-||-----------------|-|||||--------------||-|----||%%%--S------
M------%%%%---------------------------------||----oo-|------------------%-|%---%%%%---#-||-----------------|-|||||--------------||------||||----------
X-------||-|------%%%%%--%%%%%--|-----------|||------|-------------------|||----||----|-||--%%%%---%%%%%%--|||||||------%%%-----||------||||----------
|-------||-|------%%||----|||---|-----------|||-|----|-------------------|||----||----|-|----%|-----||%---||||||-|-------||-----||------||||----------