--------------------------------------------------------------------------------------------------------------------------------------------------------------
--------------------------------------------------------------------------------------------------------------------------------------------------------------
--------------------------------------------------------------------------------------------------------------------------------------------------------------
SS--SSSSSSSSSSSSSSSSSSSSSSSSSSSSSSSSSSSSSSSSSSSSSSSSSSSSSSSSSSSSSSSSSSSSSSSSSSSSSSSSSSSSSSSSSSSSSSSSSSSSSSSSSSSSSSSSSSSSSSSSSSSSSSSSSSSSSS----SSSSSSSSS-------
S-----------------------SS----------------------SSSSSS--------------------------------S-----------------------------------------------------------------------
S-----------------------SS----------------------SSSSSS--------------------------------SS----------------------------------------------------------------------
S---------------oo---------------------------S-------S-oo-----------------------------SS--S-------------------------------------------------------------------
S---------------S----------------------------S-S---o-S--------------------------------------------------------------------------------------------------------
S---------------SSS--------------------------SSS--SSSS-SSS---------------------------------S------------------------------------------------------------------
S---------------SSS-------------------------------SSSS-SSS--------------------------------oS------------------------------------------------------------------
S---@QQ--------SSS---------g----TT----------------------SSS------------------g##-SS------SSS-------------#-#---SSSS-------------------------------------------
S--------------------------#-#-------#-#----------------------------T------#-###---------------------#-#-#-#---------------T----------------------------------
S----------------------#-#-#-#-##--#-#-#---------------------------TT------#-###-------------------g-#-#-#-#--------S----------#-#-------------#--------------
SM---------------g-g-----#-#-#-##--#-#-#----------------------g----------#-#-#-#------------kk-----#-#-#-#-#-------------------#-#----g-g----#-#--------------
XXXXXXXXXXXXXXXXXXXXXXXXXXXXXXXXXXXXXXXXX-----XX--XXXXXXXXXXXXXXXXXXXXXXXXXXXXX-----XXXXXXXXX-XXXXXXXXXX-XXXXXXXXXXXXXXXXXXXXXXXXXXXXXXXXXXXXXXX---XXXXXXXXXXX
XXXXXXXXXXXXXXXXXXXXXXXXXXXXXXXXXXXXXXXXXX----XX--XXXXXXXXXXXXXXXXXXXXXXXXXXXXX-----XXXXXXXXX-XXXXXXXXXXXXXXXXXXXXXXXXXXXXXXXXXXXXXXXXXXXXXXXXXX---XXXXXXXXXXX