------------------------------------------------------------------------------------------------------------------------------------------------------------------------------------------------------
------------------------------------------------------------------------------------------------------------------------------------------------------------------------------------------------------
------------------------------------------------------------------------------------------------------------------------------------------------------------------------------------------------------
------------------------------------------------------------------------------------------------------------------------------------------------------------------------------------------------------
--------------------------------------------------------------------------------------------------------------------------------------------------------------------US--------------------------------
------------------------------------------------------------------------------------------------------------------------------------------------------------------------------------------------------
--------------------------------------------------------------------------------------SSUS----##--------------------------------##-------------------------------------#------------------------------
----------------------------------------------------------------------------------------------##--------------------------------#-------------------------------------##------------------------------
--------------------------------------------------------TT------------------------------------##-----------------------------SUS--------------------------------------##------------------------------
--------------------------------------------------------TT--------------------------#----##---##---------------------------------------------------------------------###------------------------------
------------------------------#LSS----------#LSS--------##--------------------------##--####--##------#----------------------------------------------------------#-#####------------------------------
------------------------------#-------------#---------------------------------------##-----#--##---#--#-------------TT--------##--------------------------------------##------------------------------
----------T-------------------#-------------#--------#-------------------------T-----#---------#---#--#-------------TT------####-----------T-------------------------------------------------*--------
----M-----TT---------g--------k-T---------kk#--------#------------------------#T--------------##---#--#-----kk--T----T------####-----------TT------ggg---------------------------------------*--------
----XXXXXXXXXXXXXXXXXXXXXXXXXXXXXXXX--XXXXXXXXXXXXXXXXXXXXXXXXXXXXXXXXXXXXXXXXXXXXX-------------XXXXXXXXXX--XXXXXXX---XXXXXXXX--XXXXXXXXXXXXXXXXXXXXXXXXXXXXXXXXXXXXXXXXXXXXXXX---XXXXXXXXXXXXXXXXXXXX
----XXXXXXXXXXXXXXXXXXXXXXXXXXXXXXXX--XXXXXXXXXXXXXXXXXXXXXXXXXXXXXXXXXXXXXXXXXXXXX-------------XXXXXXXXXX--XXXXXXXX--XXXXXXXX---XXXXXXXXXXXXXXXXXXXXXXXXXXXXXXXXXXXXXXXXXXXXXX---XXXXXXXXXXXXXXXXXXXX