----------------------------------------------------------------------------------------------------------------------------------------------------------------------------------------------------------------------
----------------------------------------------------------------------------------------------------------------------------------------------------------------------------------------------------------------------
----------------------------------------------------------------------------------------------------------------------------------------------------------------------------------------------------------------------
----------------------------------------------------------------------------------------------------------------------------------------------------------------------------------------------------------------------
------------------------------------------------------------------------------------------------------------------------------------------------------------------------S---------------------------------------------
------------------------------------------------------------------------------------------------------------------------------------------------k---------------------------------------------------------------------
--------------------------------------------S-------------------------TT--ST----------------------------TT--------TT----------------------------S---SS--------------------------------SS----------TS--S---------------
----------------------------------------------------------------------TT--------------------------------TT--------TT--------------------------------------------------------------------------------------------------
--------------------TT----------------------------------------TT------XX---------------------------#----TT--------TT------------------------------------SSS--------T-------------------T------------------------------
--------------------TT----------------------------------------TT-------------------#---------------#-----------#--TT-----------------------------------------------T------------------TT------------------------------
-----------------#--XX----------------------------------------TT-----SSS-------#---#------------TT-#----XX-----#--X-SS----------S------T---------------------------XX-------------TT--XX--SS--TT----------TT------tt--
------TT------TT-#--------TT----------------------------------TT----------TT-------#------------TT###---------------------------------TT----------------------TT----------TT------T-----------TT------------------tt--
------TT----TTTT##--------TT------tt--TT------------T-----TT--TT-T--------TT---#--##----TT----##TT###----------#--T-------TT----------TT----T------------2----TT----TT----TT------#-----------TT-----T----------------
--M-t-TT----TTTT##--------TT------tt--TT--#-----##--------TT--TTTT--------TT---#--##----TT---###TT###-------T--#--T-------TT----------TT---#T-----------------TT----TT----TT------#---TT------TT-----T----------TT-#--
--XXXXXXXXXXXXXXXXXXXXXXXXXXXXXXXXXXXXXXXXXXXXXXXXXXXXXXXXXXXXXXXXXXXXXXXXXXXXXXXXXXXXXXXXXXXXXXXXXXXXXXXXXXXXXXXXXXXX----XXXXXXXXXXXXXXXXXXXXXXXXXXXXXXXXXXXXXXXXXXXXXXXXXXXXXXXXXXXXXXXXXXXXXXXXXXXXXXXXXXXXXXXXXX--
--XXXXXXXXXXXXXXXXXXXXXXXXXXXXXXXXXXXXXXXXXXXXXXXXXXXXXXXXXXXXXXXXXXXXXXXXXXXXXXXXXXXXXXXXXXXXXXXXXXXXXXXXXXXXXXXXXXXX----XXXXXXXXXXXXXXXXXXXXXXXXXXXXXXXXXXXXXXXXXXXXXXXXXXXXXXXXXXXXXXXXXXXXXXXXXXXXXXXXXXXXXXXXXX-X