------------------------------------------------------------------------------------------------------------------------------------------------------
------------------------------------------------------------------------------------------------------------------------------------------------------
------------------------------------------------------------------------------------------------------------------------------------------------------
------------------------------------------------------------------------------------------------------------------------------------------------------
--------------o--------------g-------------------------------------------------------------------------X----------------------------------------------
----------oo---------------%%%%----------------------------Xoo-----oor----------------------oo------%%%%%------%%%%-------------------oo--------------
---------%%%%%%-------------|------------------------------------%%%%%%-------------------S%---------|||--------||------------------------------------
----------||||--S-----------|--------%%%--%%%%--------------------||||---------------------------------|--------||------------------------------------
----------||||------------------------||---|---------%%%%---------||||----------------------|--------|SS--------||------------------------------------
-----M----||||------------------------||---|-------%%%||----------||||------------------%%%%%%%------SSS--------||------%%----------------------------
-----%%%%-||||---------------------%%%%%---|--------||||-----%%%%%%|||-------------------||||||--------------#--||---------------------%%%%-----%%%---
------||--||||------|%--------------||||---|--------||||------||||||||-------------------||||||--------------#--||----------------------||--|---||||--
------||--||||------||--------------|||-------------||||------||||||||-------------%%%%--||||||-------------##--||----%%%---------------||--|---||||--
------||--||||------|---------------||-----#--------||||-%%---||||||||--------------||---||||||--------------#--||----|-|---------------||--|---||||--
------||--||||----%-|%----%%%-----%-||X--XXXXXXXXXXX||||------||||||||------XXXXXX--||----|||||---XXXXXXXXXXXX--||----||----XXXXXXXXXXX-||--||--||||--
------||--||||------|------|--------|||X--XXXXXXXXXX||||-|----||||||||------XXXXXX--||----||||||--XXXXXXXXXXXX--||----||----XXXXXXXXXXX-||--||--||||--