------------------------------------------------------------------------------------------------------------------------------------------------------------------------------------------------------
------------------------------------------------------------------------------------------------------------------------------------------------------------------------------------------------------
------------------------------------------------------------------------------------------------------------------------------------------------------------------------------------------------------
------------------------------------------------------------------------------------------------------------------------------------------------------------------------------------------------------
------------------------------------------------------------------------------------------------------------------------------------------------------------------------------------------------------
------------------------------------------------------------------------------------------------------------------------------------------------------------------------------------------------------
--------------------------------------------------------------------------------------------------------------------------------------#----------------------------------------------SUS--------------
--------------------------------------------------------------------------------------------------------------------------------------#---------------------------------------------------------------
--------------------------------------------------------------------------------------------------------------------------------------##--------------------------------------------------------------
--------------------------------------------------------------------------------------------------------------------------------------##--------------------------------------------------------------
----------------------###SS-------------------------------------------------------------------------------------##-----------------#####----------------------------------------------###-#-----------
-------------TT------------------------------------------------------------------------T-----------------------------------------------------------------TT--------------------------K--------TT------
-------------TT----------------------------------*-----------------------T-------------T----------------------#------------------------------------------TT-----------------------------------TT------
--M--------kkTT------g#g-----ggg--------gg-------*------ggg------ggg----TT--------k---kT-------------gggg-----#---------------ggg---------------k------kkTT------------ggg--------------------TT------
--XXXXXXXXXXXXXXXXXXXXXXXXXX--XXXXXXXXXXXXXXXXXXXXXXXXXXXXXXXXXXXXXXXXXXXXXXXXXXXXXXXXXXXXXXXXXXXXXXXXXXXXXXXXXXXXXXXXXXXXXXXXXXXXXXXXXXXXXXXXXXXXXXXXXXXXXXXXXXXXXXXXXXXXXXXXXXXXXXXXXXX-----XXXX--XX
--XXXXXXXXXXXXXXXXXXXXXXXXXX--XXXXXXXXXXXXXXXXXXXXXXXXXXXXXXXXXXXXXXXXXXXXXXXXXXXXXXXXXXXXXXXXXXXXXXXXXXXXXXXXXXXXXXXXXXXXXXXXXXXXXXXXXXXXXXXXXXXXXXXXXXXXXXXXXXXXXXXXXXXXXXXXXXXXXXXXXXX-----XXXX--XX