---------------------------------------------------------------------------------------------------------------------------------------------------------------------
---------------------------------------------------------------------------------------------------------------------------------------------------------------------
---------------------------------------------------------------------------------------------------------------------------------------------------------------------
-----------------------------------------------------------------------------------------------------------------------------------------------------oo--------------
--------------------------------------------------------------------%%%------------------------------------------------o---------------------------------------------
---------------------------------------------------------------------||----------------------------------------------------------------------------------------------
-------------------------S%%%---------%%%-----------------------SS---||---------------SS----------------------SSS----SSS------SS---------------------SSSSS-----------
---------------------------|-----------|-----------------------------||----------------------------------------------------------------------------------------------
--------oo-----------------|-----SSS---|--------------------SSS------||--oo--------------SSS-------------------o----%%---------|-------------------------------------
---------------------------|-----------|-----------------------------||--------|--------------------------oooo-o-----||--------|-------------------------------------
----------%%%%%-------------%%%--------|----%%%%%%%---SSS----------S-||--------|%%%---%%%%------------SSSS-----------||%%------|-------------------%%%---------S-----
-----------|||--------------||---------|-----||%%|-------------------|||%------|-|-----||----------------------------|||-------|--------------------|------SSS-------
-----------|||--------------||---------|%----||-||-------------------|||-------|-|-----||------------------------S---|||-------|--------------------|----------------
-M---------|||--------------||---------|-----||-||-------------------|||-------|||-----||----------------------------|||-------|---------XXX-XXX----|--------------X-
XXXXXX-----|||%%----X--%%%%-||%%%%%%%%-|-%---||-||%%%------%%%-------|||----%%%|||-----||%----%%%-%%%%---|-----------|||--%--%%%%XXXXXXXXXXXXXXXX%%%%%%%%%%----XXXXXX
XXXXXX-----|||----------||---|-||||||--||----||-||-|--------|--------|||-------|||-----||------||--||----|-----------|||-------||XXXXXXXXXXXXXXS|--|||-|||-----XXXXXX