----------------------------------------------------------------------------------------------------------------------------------------------------------------------------------------------------
----------------------------------------------------------------------------------------------------------------------------------------------------------------------------------------------------
----------------------------------------------------------------------------------------------------------------------------------------------------------------------------------------------------
----------------------------------------------------------------------------------------------------------------------------------------------------------------------------------------------------
----------------------------------------------------------------------------------------------------------------------------------------------------------------------------------------------------
------------------------------------k---------------------------------------------------------------------------------------------------------------------------------------------------------------
------------------SSSSSS-----SC------------------------------------SSS---------------------------------------------------------SSSS--------------------------------------S--------------------------
----------k--------------------K-----gg---------------------S---------------------------------------------------------------------------------------------------------------------------------------
-------S--------------------S-------------------------------#---------------------------------------------------------------------------------------------------------------------------------------
-----------------------------SS----------------------------##---------------------------------------------------------------------------K-----------------------------------------------------------
---------C----------SSS-------------S-------------------#####-----SSSSS-----------------------------------------------------TT--SQSSSS--TT----TT--------------TT-----TT-----------------------------
-------------------------------------------------------###--#--------------------------------------------T--------------##--TT----------TT----TT---------------T-----TT-----------------------------
-------K----------------------------------------------####--#-----------------------------------------------------------#---TT----------TT----TT---------------------TT-----------TT----------------
--M----K----------------------------K---------gg-----#####--#-------g-K---k---------------K-----g------ggT-------------##---TT----K-----TT----TT----------gg--------gTT---------ggTT----------------
--XXXXXXXXXXXXXXXXXXXXXXXXXXXXXXXXXXXXXXXXXXXXXXXXXXXXXXXXXXXXXXXXXXXXXXXXXXXXXXXXXXXXXXXXXXXXXXXXXXXXXXXXXXXXXXXXXXXXXXXXXXXXXXXXXXXXXXXXXXXXXXXXXXXXXXXXXXXXXXXXXXXXXXXXXXXXXXXXXXXXXXXXXXX-------
--XXXXXXXXXXXXXXXXXXXXXXXXXXXXXXXXXXXXXXXXXXXXXXXXXXXXXXXXXXXXXXXXXXXXXXXXXXXXXXXXXXXXXXXXXXXXXXXXXXXXXXXXXXXXXXXXXXXXXXXXXXXXXXXXXXXXXXXXXXXXXXXXXXXXXXXXXXXXXXXXXXXXXXXXXXXXXXXXXXXXXXXXXXX-------