-------------------------------------------------------------------------------------------------------------------------------------------------------------------------------------------
-------------------------------------------------------------------------------------------------------------------------------------------------------------------------------------------
-------------------------------------------------------------------------------------------------------------------------------------------------------------------------------------------
S-----SSSSSSSSSSSSSSSSSSSSSSSSSSSSSSSSSSSSSSSSSSSSSSSSSSSSSSSSSSSSSSSSSSSSSSSSSSSSSSSSSSSSSSSSSSSSSS---SSSSSSSSSSSSSSSSSSSSSSSSSSSSSSSSSSSSSSSSSSS----SSSSSSSSSSSSSSSSSS----------------SSS
S------------------------------------------------------------------------------------------------------------------------------------------------------------------------------------------
S------------------------------------------------------------------------------------------------------------------------------------------------------------------------------------------
S-----------------------SSS-SSS-------------------SSSS-------------------T-------------------------------------------------------------------------SSSSSS----------------------------------
S-----------------------------------------------------------------------TT-----------------------------------------------------------------------------------------------------------------
S-----------------------------------------TT----------------------------TT--S-----------------------------------------------------------------------------------------------------------SSS
S-----------------------S---ooo-----------TT----------------------------T---S--ooS-------------------------------------------------------------------------------------------------------SS
S---------------------SSTS-SSSSS----------TT---------#------------------T---SSSSSS-S-------#----------#--------------------T---------------------------------------------------------------
S-----------------TT--S-TT----------------TT---T----##---T-------T--T---T---TT----TT---t--##---------##--------tt---TT----TT---#-----T-----------------------TT--------##------------------
S--SSS------------TT----TT----------------TT---T----##---#---#---T------T---TT----TT---T--#S--------###--------tt---TT----TT---tt----TT----------------------TT-------###------------------
SM----------------TT----TT---k------------TT--kT---k-#---#---#--TT--TT--T---TT---k-T---T---T---------##--------tt---TT---kTT--ktt----TT----------------------TT-------##-------------------
XXXXXXXXXXXXXXXXXXXXXXXXXXXXXXXXXXXX----XXXXXXXXXXXXXXXXXXX-XXXXXXX-XXXXXXXXXXXXXXXXX-XXX--X---XXXXXXXXXXX-----XXXXXXXXXXXXXXXXXXXXXXXXXXXXXX--XXXX---XXXXXXXXX--XX--------XX---X----------
XXXXXXXXXXXXXXXXXXXXXXXXXXXXXXXXXXXX-----XXXXXXXXXXXXXXXXXX-XXXXXXX-XXXXXXXXXXXXXXXXX-XXXX-----XXXXXXXXXXX-----XXXXXXXXXXXXXXXXXXXXXXXXXXXXXX--XXXX---XXXXXXXXX--XX---------X--------------