--------------------------------------------------------------------------------------------------------------------------------------------------------------------------------
--------------------------------------------------------------------------------------------------------------------------------------------------------------------------------
--------------------------------------------------------------------------------------------------------------------------------------------------------------------------------
--------------------------------------------------------------------------------------------------------------------------------------------------------------------------------
--------------------------------------------------------------------------------------------------------------------------------------------------------------------------------
--------------------------------------------------------------------------------------------------------------------------------------------------------------------------------
-------------------------#--------------------------------------------------------------------------SSS--------#------SSSS---------------------------------------SSS-#----------
------------------------##------------------------------------------------------------------------------------##-----------------------------------------------------#----------
-----------------------###----------------------#---------------------------SSS-------------------------------##----------------------------------------------------------------
-----------------------###---------------------#-#---------------------------------*--------------------------##---------------------------------------------------#-#----------
----------------------#####----------QQQQ--------#---------------------------------#CS---------SSS-----------###---SSSSSS---------QQQQ------------------------QQ--#SSS----------
-----------K---------######---------------TT-----#--------TT------------------------------------------------####------------TT-----------*-------------T----------##------------
------*--------*----#####--#----TT--------TT-----#--------TT----------TT--------------TT-------------------#####-------------T-----------*------TT-----TT--------#-#------------
-M----*--------*----#####--#----TT--------TT-##--#--------TT--------#-TT--------------TT-----------------#######--------k----TT----------*------TT-----TT-------#--#------------
XXXXXXXXXXXXXXXXXXXXXXXXXXXXXXXXXXXXXXXXXXXXXXXXXXXXXXXXXXXXXXXXXXXXXXXXXXXXXXXXXXXXXXXXXXXXXXXXXXXXXXXXXXXXXXXXXXXXXXXXXX--XXXXXXXXXXXXXXXXXXXXXXXXXXXXXXXXXXXXXXXXXXXXXXXXXXXX
XXXXXXXXXXXXXXXXXXXXXXXXXXXXXXXXXXXXXXXXXXXXXXXXXXXXXXXXXXXXXXXXXXXXXXXXXXXXXXXXXXXXXXXXXXXXXXXXXXXXXXXXXXXXXXXXXXXXXXXXXX--XXXXXXXXXXXXXXXXXXXXXXXXXXXXXXXXXXXXXXXXXXXXXXXXXXXX