----------------------------------------------------------------------------------------------------------------------------------------------------------------------------------------
----------------------------------------------------------------------------------------------------------------------------------------------------------------------------------------
----------------------------------------------------------------------------------------------------------------------------------------------------------------------------------------
----------------------------------------------------------------------------------------------------------------------------------------------------------------------------------------
-----------------------------------------------------------------------------------------###--------------------------------------------------------------------------------------------
----------------------------------------------------------------------------------------##----------------------------------------------------------------------------------------------
-----------------------------------------------------------------------------------------#--y--------SS---------------------------------------------------------------y-----------------
-----------------------------------------------------------------------------------------##--o-------------#--------------------------------------------------------#SSS-oo-------------
-----------------------------------------------------------------------------------------##----------------##-S------------------------------------#S-----------------------------------
---------------------------------------------------------------------------#------------###---------------###-------------------------------------##------------------------------------
---------------------------------------------#---------------------------###------------###---------------###-----------------###----------------###--------o-----####--SSC----------#--
--------------------------------------------##---------TT----------------###----------#####--oo-----------###-----------------##---------------y-###----SS--------####--------------#---
-------------------------------------------###---------TT------------#--####----------####------------#---##------------------##---------------#####------------######-------------##---
-M-----------------y-----y-----y---------#####---------TT----------#-#######----------#-##---------y-------##----------------T#---------------######-----------#--####------------#-#---
XXXXXXXXXXXXXXXXXXXXXXXX--XXXXXXXXXXXXXXXXXXXXXX--XXXXXXXXXXXXXXXXXXXXXXXXXXXXX-XXXXXXXXXXXXXXXXXXXXXXXXXXXXX-XX--XXXXXXXXXXXXXXXXXX--XX--XXXXXXXXXX--XX--XXXXXXXXXXXXXXXX--XXXXXXXXXX--
XXXXXXXXXXXXXXXXXXXXXXX---XXXXXXXXXXXXXXXXXXXXXX--XXXXXXXXXXXXXXXXXXXXXXXXXXXXX-XXXXXXXXXXXXXXXXXXXXXXXXXXXX--XX--XXXXXXXXXXXXXXXXXX--XX--XXXXXXXXXX--XX--XXXXXXXXXXXXXXXX--XXXXXXXXXX--