----------------------------------------------------------------------------------------------------------------------------------------------------------------------------------------------------------------------
----------------------------------------------------------------------------------------------------------------------------------------------------------------------------------------------------------------------
----------------------------------------------------------------------------------------------------------------------------------------------------------------------------------------------------------------------
----------------------------------------------------------------------------------------------------------------------------------------------------------------------------------------------------------------------
----------------------------------------------------------------------------------------------------------------------------------------------------------------------------------------------------------------------
----------------------------------------------------------------------------------------------------------------------------------------------------------------------------------------------------------------------
--------------------TTT-------------------TT----------SS--------------SSSSSSSSSS-----SSSS-----SSS---------------------------S-----TT------------TT-----------------------------------SSS------------------------------
--------------------TTT-------------------TT----------------------------------------------------------------------------------------------------TT--------------------------------------------------##TT--------------
----S---------------XXX-------------TT----XX--------------------------------------------------------SSSS---S--SS--------------------------------XX-----SSSS----------------------------------------T###---------------
----------------------------TT------TT------------------------------------------------------------------------------------------------------------------------------------------------------------T#####--------------
-------------S--SSS---------TT------XX---------------T--TT-------T-------SS-----TT--S-------------------------------TT----SS------TT-----T--------------------------------------------------------T#####---X----------
--------------------------#-TT------------TT---------T--TT----t-TT--------------TT----------------------------------TT-----------TTT----TT--------TT--------------TT------------TT---------------#######--------------
----------TT--------TT-#TT#-TT------------TT------------TT----ttTT------------TTTT------TT--------------------------TT-----------TTT----TT--------TT--------TT----TTT-----TT----TT---------TTT---#######--------------
-M-----k--TT--------TT-#TT#-TT----------#-TT------------TT----tt-T------------TTT-------TT--------------------------TT-----------TTT----TT--------TT--------TT----TTT-----TT----TT--------T-TT--########--------------
XXXXXXXXXXXXXXXXXXXXXXXXXXX-XXXXXXXXXXXXX-XXXXXXXXXXXXXXXXXXXXXXXXXXXXXX------XXXXXXXXXXXXXXXXXXXXXX-----XXXXXXXXXXXXXXXXXXXXXXXXXXXXXXXXXXXXXXXXXXXXXXXXXXXXXXXXXXXXXXXXXXXXXXXXXXXXXXXXXXXXXXXXXXXXXXXXXXXXXXXXXXX--
XXXXXXXXXXXXXXXXXXXXXXXXXXX-XXXXXXXXXXXXX-XXXXXXXXXXXXXXXXXXXXXXXXXXXXXX------XXXXXXXXXXXXXXXXXXXXXX------XXXXXXXXXXXXXXXXXXXXXXXXXXXXXXXXXXXXXXXXXXXXXXXXXXXXXXXXXXXXXXXXXXXXXXXXXXXXXXXXXXXXXXXXXXXXXXXXXXXXXXXXXX-X