-------------------------------------------------------------------------------------------------------------------------------------------------------------------------------------------
-------------------------------------------------------------------------------------------------------------------------------------------------------------------------------------------
-------------------------------------------------------------------------------------------------------------------------------------------------------------------------------------------
S--SSSSSSSSSSSSSSSSSSSSSSSSSSSSSSSSSSSSSSSSSSSSSSSSSSSSSSSSSSSSSSSSSSSSSSSSSSS---SSSSSS--------SSSSS--SSS----SSSSSSSSSSSSSSSSSSSSSSSS----SSSSSSSSSSSSSSSSSSSSSSSSSSSSSSSSSSSSSSSSSSSSSSS---
S--------------------------------------------------------------------------------------------------------------------SSSSS---------------S-S---------------SS------S-----------------------
S--------------------------------------------------------------------------------------------------------------------SSSSS---------------------------------SSS-----------------------------
S--------SSSSSS----------------------------SS------------------------------------S-----------------------T-----------SSSSS--------------SSSSS---------------SS---------------------TT------
S--------------------------------------------------------------------------------------------------------T-------------------------------------------------------------------------TT------
S---------------------------------------------------------------SSSSS------------------------------------T---------------------------S-----------------------------SS--------------TT------
S---------------------------------------------------------Sooooo------------------------------------------T------------------------------------------------------------------------TT------
S-----------------------------------------S--------T------SSSSSS-----------SS-SS--------------TT---TSSS---T----T-----SSS---------------------S-T----S-S-----S--------------------SS--SS----
S------------##---TT-----#-------#---T--SSS-SS----TT----------------------------------TT---##-TT---T------TT--------------------#------#-----------SSSS---------#----------TT------------SS
S------------#----------##------##---TS-SSSSS-----TT----------------------------------TT--###-TT----------TT---TT--------SS----##--------------tt--SSSSSS-------#----------T-------------SS
SM----------##----------##-----S-#--kTS----------kTT-----kk---------------------------TT--###-TT----------TT---T--------------###-------------ktt------SS------##--------kkT---------tS--SS
XXX--X---XXXXXXXXXXXXXXXXX----XXXXXXXXXXXXXXXXXXXXXXXXXXXXXXXX--------XXXXXXXXXXXXXXXXXXXXXXX-XX--XXXXXXX-X---XXX--XXXXXXXXXXXXXX------XXXXXXXXXX-XXXXXXXXXXXXXXX----XXXXXXXXXXXXXXXXXX--XX
XXX--X---XXXXXXXXXXXXXXXXX----XXXXXXXXXXXXXXXXXXXXXXXXXXXXXXXX-------XXXXXXXXXXXXXXXXXXXXXXXX-XX-XXXXXXXX-X---XXX--XXXXXXXXXXXXXX------XXXXXXXXXX-XXXXXXXXXXXXXXX----XXXXXXXXXXXXXXXXXX--XX