----------------------------------------------------------------------------------------------------------------------------------------------------------------------------------------
----------------------------------------------------------------------------------------------------------------------------------------------------------------------------------------
----------------------------------------------------------------------------------------------------------------------------------------------------------------------------------------
----------------------------------------------------------------------------------------------------------------------------------------------------------------------------------------
----------------------------------------------------------------------------------------------------------------------------------------------------------------------------------------
----------------------------------------------------------------------------------------------------------------------------------------------------------------------------------------
----------------------oo----------2------------------------------------------------------------------------------------------#S-------------------2SS-----------------------------------
---------------------------------------------------------------------------------------------------------------------------------------------------------------------------------oooo---
------------------------------------------------------------------oo--------oo----------------------------------------------------------------------------------------------------------
----------------##----------------------------------------------------------------------------------------##------------------------------------------------------------------##--------
--------------y##---------------####----ooo------------------------------#------------SQ-----------------###-------SSC--------Q-------------------o-----------##-------------###-SSC----
--------------##----SSSS-----y-##---------------------------------------##------------------------------####--------------TT---------------------------------###------------####--------
-------------###-------------##-#--------------##----------------------###-----------------------------#####--------------TT------------------------------#--#-#----------######--SSS---
-M--------######------------###-#-#-----------###------------------y--##-#--------y------------------#######--------------TT---y------y--------y---y-----#---###--##-----#######--------
XXXXXXXXXXXXXXXXXX--XX---XXXXXXXXXXXXX--XXXXXXXXXXXXXXXXXXXXXXXXXXXXXXXXXXXXXX--XXXXXXXXXXXXXXXXXXXXXXXXXXXX--XXXXXX--XX--XXXXXXXX-XXXXXXXXXXXXXXXXXXXXXXXXXXXXXXXXXXXXXXXXXXXXX--------
XXXXXXXXXXXXXXXXXX--XX--XXXXXXXXXXXXXX--XXXXXXXXXXXXXXXXXXXXXXXXXXXXXXXXXXXXXX--XXXXXXXXXXXXXXXXXXXXXXXXXXXX--XXXXXX--XX--XXXXXXXXXXXXXXXXXXXXXXXXXXXXXXXXXXXXXXXXXXXXXXXXXX-XXX--------