----------------------------------------------------------------------------------------------------------------------------------------------------------------------------------------------------------------------
----------------------------------------------------------------------------------------------------------------------------------------------------------------------------------------------------------------------
----------------------------------------------------------------------------------------------------------------------------------------------------------------------------------------------------------------------
----------------------------------------------------------------------------------------------------------------------------------------------------------------------------------------------------------------------
----------------------------------------------------------------------------------------------------------------------------------------------------------------------------------------------------------------------
----------------------------------------------------------------------------------------------------------------------------------------------------------------------------------------------------------------------
------------------------------SS--------------------------------------------------SSSSSS------------SSSSSS-------------------------------SSSS-------------------S------SSS--------------------SS----------------------
----------------------------------------------------------------------------------------------------------------------------------------------------------------------------------------------------------------------
-----------------------------------------------------------------------------------------------#--------------------------S----------------------S----------------------------SS------TT--------------------------SS--
--------------------------------------------------------------TT------------------------------##----------------------------------------------##--------TT----TT----------------------TT------------------------------
----------------------------SS--------------S-----------------TT------TT---------------------###-------S--------SS-----------------S-------S--##--------TT----TT------TT--------------XX------------TT--SS------------
------TT-----------------------------------------------T------TT------TT--------------------#-##----------------------------------------------##--------TT----TT------TT----------------------------TT----------------
------TT------TT---t----TT----------------------------TT-T----TT------TT--------TTT--------#####----------------------TT--TT-----------------###-T------TT----TT------TT--------TT------------------TT----------------
-M----TT------TT---t----TT------##--------------------TT-T----TT----#-TT--------TT--------######----------------------TT--TT----------------###--T------TT----TT------TT--------TT------------------TT-----k----------
XXXXXXXXXXXXXXXXXXXXXXXXXXXXXXXXXXXXXXXXXXXXXXXXXXXXXXXXXXXXXXXXXXXXXXXXXXXXXXXXXXXXXXX-XXXXXXXXXXXXXXXXXXXX--XXXXXXXXXXXXXXXXXXXXXXXXXXXXXXXXX-XXXXXXXXXXXXXXXX------XXXXXXXXXXXXXXXXXXXXXXX---XXXXXXXXXXXXXXXXXXX---
XXXXXXXXXXXXXXXXXXXXXXXXXXXXXXXXXXXXXXXXXXXXXXXXXXXXXXXXXXXXXXXXXXXXXXXXXXXXXXXXXXXXXX--XXXXXXXXXXXXXXXXXXXX--XXXXXXXXXXXXXXXXXXXXXXXXXXXXXXXXXXXXXXXXXXXXXXXXXX------XXXXXXXXXXXXXXXXXXXXXXX---XXXXXXXXXXXXXXXXXX----