-------------------------------------------------------------------------------------------------------------------------------------------------------------------------------------------------------------------------------------------------------------------------------------------------------------------------------------------------------------------------------------
-------------------------------------------------------------------------------------------------------------------------------------------------------------------------------------------------------------------------------------------------------------------------------------------------------------------------------------------------------------------------------------
-------------------------------------------------------------------------------------------------------------------------------------------------------------------------------------------------------------------------------------------------------------------------------------------------------------------------------------------------------------------------------------
-------------------------------------------------------------------------------------------------------------------------------------------------------------------------------------------------------------------------------------------------------------------------------------------------------------------------------------------------------------------------------------
-------------------------------------------------------------------------------------------------------------------------------------------------------------------------------------------------oo----------------------------------------------------------------------------------------------------------------------------------------------------------------------------------
-------------------------------------------------------------------------------------------------------------------------------------o-------------------------------------------------o---------------------------------------------------------------------------------------------------------------------------------------------------------------------------------------------
------------------------------------------------------------------------------------------------------------------------------------------------------------------------------------------------------------------------SSSSSS--------------------------------------------------------------------------------------------------SCSS-------------------------------------------------
------------------------------------------------------------------------tt-------------------------------------------------------------------------------------------------------o-----------------------------------------------------------o------------------------------------------------------------------oo-------------------------------------------------------------------
-------------------------------SS----------------------------------------t-------------------------------------------------------------------------------------------------------------------------------------------------------------------------------------------------------------------------------------------------------------------------------------------------##--------
---------------------------------------------------o---------------------t---------------------------------------------------------------------------------------------------------------------------------o-----------------------------------------------------#oo---o-----o-------------------------------------------------------------------------------------------####--------
--------------------------------------------------------------TT----TT--tt--------T--###---------------------------T-------T---------------------------------------------------oo---------------------------------------------------------------------------#---##-------------------------------------------oo--------------------------------------------------------#-####--------
--------------------------------##----------------------------TT----TT--tt-----------###--------------------------TT------TT---------#-------------------------------------------------------------------------TT------#---------------------------------T-#-----------------------------------------------------------TT----------------------------------------------######--------
--TT-------------------------#--##----------------------------TT----TT--tt--------#--###------TT------------------TT------TT-----#---#-------------------t-------------------------------------------#---------TT------#---------------------------#-----#-##--#-------------------------------------------------------TT--------------------------------------------#-######--------
-MTT------T----------------k----##----------kkk---------k------T----TT--tt--ggg------###------TT------------------TT------TT---kk#-k-#-------------------t-kg----ggg---kkk----------------------kk---#---------TT------#------------ggg--ggg-----k-#-k---#-#-#-#-------------------------------------ggg---------------TT----TT----g-------ggg-----------------------#-#-#-##--------
XXXXXXXXX-XXXXXXXXXXXXXXXXXXXXX-XXXXXXXXXXXXXXXXXX--XXXXXXXXX-XXXXXXXXXXXXXXXXXXXXXXX-XXX-XXXX------XXXXXXXXXXX-XX-X--XXXXXXXXXXXXXXXXXXXXXXXXXX--X-XXXXXXXXXXXXXXXXXXXXXXXXXXXXXX------X-XXXXXXXXXXXXXXXXX-X-X----XXXXXXXXXXXXXXXXXXXXXXXXXX-X-XXXXXXXXXX-XXX-XX-----X---------X---XXXXXXXXXXXXXXXXXXXXXXXXXXXXXXXXXXXXX-XX-XXXXXXXXXXXXXXXXXXXXXXXXXXXXXXXXXXXXXXXXX-X-X-XXXXXXXXXX
XXXXXXXXX-XXXXXXXXXXXXXXXXXXXXXXXXXXXXXXXXXXXXXXXX--XXXXXXXXXXXXXXXXXXXXXXXXXXXXXXXXX--XX-XXX-------XXXXXXXXXX--X--X--XXXXXXXXXXXXXXXXXXXXXXXXXX--X-XXXXXXXXXXXXXXXXXXXXXXXXXXXXXX----X-XXXXXXXXXXXXXXXXXXX-X------XXXXXXXXXXXXXXXXXXXXXXXXXXXXXXXXXXXXXXXXXXXXXX---X-X-X-------X---XXXXXXXXXXXXXXXXXXXXXXXXXXXXXXXXXXXXXXXXXXXXXXXXXXXXXXXXXXXXXXXXXXXXXXXXXXXXXXXXXXXX-X-XXXXXXXXXX