----------------------------------------------------------------------------------------------------------------------------------------------------------------------------------------------------
----------------------------------------------------------------------------------------------------------------------------------------------------------------------------------------------------
----------------------------------------------------------------------------------------------------------------------------------------------------------------------------------------------------
----------------------------------------------------------------------------------------------------------------------------------------------------------------------------------------------------
----------------------------------------------------------------------------------------------------------------------------------------------------------------------------------------------------
-----Mk-----------------------------------------------------------------------k---------------------------------------------------------------------------------------------------------------------
-----SQS---------------------------------------------------------------------SQS-------------------------------Q------------------------------------------------------------------------------------
----------------------------------------------------------------------------------------------------------------------------------------------------------------------------------------------------
------------------------------------------------------------------------------------------SSQS----------------------------------S-S-------------------------------SSSSSSSS--------------------------
--------------------------------------------------------------------------------------------------------------------------------------------------------gg------------------------------------------
-------------------SCSSS----#------------SSSSSSSS----------------------------SSSSS-----------------------------SS---------------------TT---TT---------#####-------------------------TT------TT---T--
---------------------K------#--------------K--------------------------TT-----T------------K--------TT--------------T------------------T----TT-----------------------------TT--------TT------TT------
----------------------------#------------------------------------------------T---------------------TT-------------TT--------T--------------TT-----------------------------TT----TT--TT------TT------
------------k-----KK------#-#-----------------------------------------TT----TT----------------K---gTT-------K---ggTT--------T----gg---k---gTT----------------------------gTT----TT--TT--k---TT---#--
------XXXXXXXXXXXXXXXXXXXXXXXXXXXXXXXXXXXXXXXXXXXXXXXXXXXXXXXXXXXXXXXXXXXXXXXXXXXXXXXXXXXXXXXXXXXXXXXXXXXXXXXXXXXXXXXXXXXXXXX---XXXXXXXXXXXXXXXXXXXXXXXXXXX---XXXXXXXXXXXXXXXXXXXXXXXXXXXXXXXXXXXXXX
------XXXXXXXXXXXXXXXXXXXXXXXXXXXXXXXXXXXXXXXXXXXXXXXXXXXXXXXXXXXXXXXXXXXXXXXXXXXXXXXXXXXXXXXXXXXXXXXXXXXXXXXXXXXXXXXXXXXXXXX---XXXXXXXXXXXXXXXXXXXXXXXXXXXX--XXXXXXXXXXXXXXXXXXXXXXXXXXXXXXXXXXXXXX