------------------------------------------------------------------------------------------------------------------------------------------------------------------------------------------------------------------------------
------------------------------------------------------------------------------------------------------------------------------------------------------------------------------------------------------------------------------
------------------------------------------------------------------------------------------------------------------------------------------------------------------------------------------------------------------------------
------------------------------------------------------------------------------------------------------------------------------------------------------------------------------------------------------------------------------
------------------------------------------------------------------------------------------------------------------------------------------------------------------------------------------------------------------------------
------------------------------------------------------------------------------------------------------------------------------------------------------------------------------------------------------------------------------
---------------------------QQ-------------------------------------------------------------------------------------------------------------------------------------------------------------------------------------------------
---------------------------------------------------------------------ooooo------------------------------------------------oooo---------ooo-------------------------------------o----------------------------------------------
-------------------------------------------------------------------------------------------------------------------------------------------o----------------------------------------------------------------------------------
------------------------------------------------------------------------------------------------------------------------------------------------------------------------------------------------------------------------------
----Q-Q------------------TT---Q----------------------------------TT-----------------Q-----------------------------------TT-----------T----------------------------------------------Q-----------------------------------------
-------------------------T---------------------------------------TT-----------------------------------------------------TT-----------TT---------------------------------------------------------------------------------------
----------------#--------T---------------------------------------TT-----------------------------------------------------TT-----------TT---------------------------------------------------------------------------------------
-M--------------#--------TT----y---------y-----------y-------y---TT----------------y-----------------------y------------TT------------T---------------------------------------------------------------------------------------
XXXXXXXXXXXXXXXXXXXXXXXXXXXXXXXXXXX---XXXXXXXXXXXXXXXXXXXXXXXXXXXXXXXXXXXXXXXXXXXXXXXXXXXXXXX---XX---X--XXXXXXXXXX--XXXXXXXXXXXXXXXXXXXXXXXXXXXX--XX----------XXXXXXXXXXXXXXXXXXXXXXXXX-----------XX--XXXXXXXXXXXXXXXXXXXXXX--
XXXXXXXXXXXXXXXXXXXXXXXXXXXXXXXXXXXX--XXXXXXXXXXXXXXXXXXXXXXXXXXXXXXXXXXXXXXXXXXXXXXXXXXXXXXX---XX---X--XXXXXXXXXX--XXXXXXXXXXXXXXXXXXXXXXXXXXXX--XX----------XXXXXXXXXXXXXXXXXXXXXXXXX-----------XX--XXXXXXXXXXXXXXXXXXXXXX--