----------------------------------------------------------------------------------------------------------------------------------------------------------------------------------------------------------
----------------------------------------------------------------------------------------------------------------------------------------------------------------------------------------------------------
----------------------------------------------------------------------------------------------------------------------------------------------------------------------------------------------------------
----------------------------------------------------------------------------------------------------------------------------------------------------------------------------------------------------------
----------------------------------------------------------------------------------------------------------------------------------------------------------------------------------------------------------
-----------------------------------------------------------------------------------------------------------------------------------------------------------------------------------#----------------------
----------------------------------------------SSSSSSSSS-------------------------------------------------------------------S---!SS-------------------------------------------------##--##------------------
----------------------------------------------------------------------------------------------------------------------------------------------------------------------------------######------------------
----------------------------------------------------------------------------------------------------------------------------------------S@S------------@------S!!S---------------#######------------------
---------------------------------------------------------------------------------------------------------------------------------------------------------------------------------#######------------------
--------tt----------##------------S---------St------S--------t------S-S-----tt------##--##------------------SS--S-------tt----S---------------tt-------------------------tt-----########------------S-----
--------tt---------###---------------------------------------t--------------tt-----###--##--#---------------------------tt-----------------------------------------------tt----#########------------------
--------tt--------####----------------tt---------------------t--------------tt----####--##--##------tt------------------tt-----------------------------------------------tt----####-####------------------
-M------tt--------#####----------g----tt-g-----------g--gg-g-t--------------tt-g-#####--##--##--#---tt------------------tt-------g-----gg-g--------------------------g-g-tt---#####-####------gg-g--------
XXXXXXXXXXXXXXXXXXXXXXXXXXXXXXXXXXXXXXXXXXXXXXXXXXXXXXXXXXXXXXXXXXXXXXXXXXXXXXXXXXXXXX--XX-XXXXXXXXXXXXXXXXXXXXXXXXXXXXXXXXXXXXXXXXXXXXXXXXXXXXXXXXXXXXXX-XXXXXXXXXXXXXXXXXXXXXXXXX-XXXXXXXXXXXXXXXXXXXXXX
XXXXXXXXXXXXXXXXXXXXXXXXXXXXXXXXXXXXXXXXXXXXXXXXXXXXXXXXXXXXXXXXXXXXXXXXXXXXXXXXXXXXXXXXXXXXXXXXXXXXXXXXXXXXXXXXXXXXXXXXXXXXXXXXXXXXXXXXXXXXXXXXXXXXXXXXX-XXXXXXXXXXXXXXXXXXXXXXXXXXXXXXXXXXXXXXXXXXXXXXXX