-----------------------------------------------------------------------------------------------------------------------------------------------------------------------------------------------------
-----------------------------------------------------------------------------------------------------------------------------------------------------------------------------------------------------
-----------------------------------------------------------------------------------------------------------------------------------------------------------------------------------------------------
-----------------------------------------------------------------------------------------------------------------------------------------------------------------------------------------------------
-----------------------------------------------------------------------------------------------------------------------------------------------------------------------------------------------------
---------------------------------------------------------------------------------------------------------------------T-------------------------------------------------------------------------------
-----------------------------------------S-------------SSSS-------------SS----------------USSS-------#--------------------------SS-------------------------------------------------------------------
-----------------------------------------------------------------------------------------------------#-------------------------------------------#---------------------------------------------------
-----------------------------------------------------------------------------------------------------##--------------S----------------------g----#-------------------------USSS----SUS---------------
-----------------------------------------------------------------------------------------------------##------------------------------------------##-----------------------------------------#--------
-------------------------------Q--------TT--------TT------QQ-----------------------------------------##----C-------------------T-------Q-----Q---##----------T--------QQ-------------------#---------
----------------------------------------TT--------TT-------------------------------------------g-----##------------------------------------------##----------T---------------------------------------
----------------------------------------TT--------TT-------------------------------------------TT----##-----------------------TT-----------------##----------T---------------------------------------
-M-------------------g-----------k-ggg--TT--------TT----------gg-----k-------------k----ggg----TT----##------------------#----TT-----------------##--ggg-----T------------gg------------T------------
XXXXXXXXXXXXXXXXXXXXXXXX---XXXXXXXXXXXXXXXXXXXXXXXXXXXXXXXXXXXXXXXXXXXXXXXXXXXXXXXXXXXXXXXXXXXXXXXXXXXXXXXXXXXXXXXXXXXXXXXXXXXXXXXXXXXXXXXXXXXXXXXXXXXXXXXXXXXXXXX---XXXXXXXXX----XXXXXXXXXXXXXXXXX--
XXXXXXXXXXXXXXXXXXXXXXXX---XXXXXXXXXXXXXXXXXXXXXXXXXXXXXXXXXXXXXXXXXXXXXXXXXXXXXXXXXXXXXXXXXXXXXXXXXXXXXXXXXXXXXXXXXXXXXXXXXXXXXXXXXXXXXXXXXXXXXXXXXXXXXXXXXXXXXXXX--XXXXXXXXX---XXXXXXXXXXXXXXXXXX--