---------------------------------------------------------------------------------------------------------------------------------------------------------------------
---------------------------------------------------------------------------------------------------------------------------------------------------------------------
---------------------------------------------------------------------------------------------------------------------------------------------------------------------
--------------------------------------------------------------------------------------------------------------------------------------------------oooo---------------
---------------------------------------------------------------------------------------------------------------------------------------------------------------------
-------------------------------------oo---------------------oo------------------------------------------------oooo--------------------------------------oo-----------
----SSS---%%%%--SS-----------SSSS-oo--------SSS--------------------S----------------SSoo---------------------SS--------------------------S-------SSSS----------------
-----------||--------ooo----------------------------------------------------------------o---------------------------oooo---------------------------------------------
---------S-||-------S----------------SSS------------------------SS-----S%%%------------------------------------SS----------oo----------------------------------------
-----------||------------------------------------------------------------|-----ooo-----------------------------------------S-----------------------------------------
-----------|--------------%%%%%%S----------S----%%%%%--------------------||------------SS%%%%%--------%-%-----------SSS------%%------------%%--SSS----------%%%------
-----------%%%------SSS----|||-------------------|||%--------------------|||---------------||----------||--------SS-----------|------------||----------------|-------
------------||-------------||||------------------||||%%%%----------------|||---------------||-------%%-||-----------%%%%%%----|------------||----------------|-------
-M----------||-------------|||-------------------|||||||-----------------|-|---------------||--------||||------------||||----||------------||----------------|-------
XXX---------||%%%----------|||----------XXXXXXX-%|||||||-%-%%%%%%%%------|%%%%%%%%%%-------||%%%%%%%-|||%%%%%--------||||-%%-||-%%%%%%%%%%%||---%%%%%%%%%%%%||-------
XXXX--------||-|-----------|||----------XXXXXXX--|||||||----||||||-------|-|||||-||-|------||-|||||--|||--||---------||||-||-||--||||----||||----|-|||||-||-||-------