----------------------------------------------------------------------------------------------------------------------------------------------------------------------------------------
----------------------------------------------------------------------------------------------------------------------------------------------------------------------------------------
----------------------------------------------------------------------------------------------------------------------------------------------------------------------------------------
----------------------------------------------------------------------------------------------------------------------------------------------------------------------------------------
----------------------------------------------------------------------------------------------------------------------------------------------------------------------------------------
--------------------------------------------------------------------------------------------------------------------------------------##------------------------------------------------
------------------------------------------------------------------------------------------------------------------y------------------###------------------------------------------------
--------------------------------------------------------------------------------------------------SS---------------------------------###------------------------------------------------
------------------------------------------oo-------------------------------------------------------------------#---------------------###------------------------------------------------
-------------------------------------y-------------------------------------------------------#-#--------------##------------------X--###---------------------------------y--------------
----------------------##--------------##----SC-----------------------------------------------###-------------###-oo-------o-------#--###--------Q------------------------#S--------#----
--------------------###--------------###-------------------------T------------------------##-###----SS------####-----------------##--###-----------------------------y##----------#-----
---------------#----##------------#-####--------------------------------------##----------######-----------#####----------------###--###----------------------------####----S----#------
-M---------y--------#----------------###--------------------yy-----------y--###---SSSS---#######----------#-####---------y-----####--###-------------y-------y-----#####----------------
XX--XX--XXXXXXXXXXXXXXXXXXXX-XXXXXXXXXXXXXXXXX--XX--XXXXXXXXXXXXXXXX--XXXXXXXXXX------XXXXXXXXXX--XX---XXXXXXXXXXXXXXXXXXXXXXXXXXXXX-XXX--XX--XXXXX--XXXXXXXXXXXXXXXXX--------XXXXXXXXXX
XX--XX--XXXXXXXXXXXXXXXXXXXX-XXXXXXXXXXXXXXXXX--XX--XXXXXXXXXXXXXXXX--XXXXXXXXXX------XXXXXXXXXX--XX---XXXXXXXXXXXXXXXXXXXXXXXXXXXXXXXXX--XX--XXXXX-XXXXXXXXXXXXXXXXXXX-------XXXXXXXXXX