------------------------------------------------------------------------------------------------------------------------------------------------------
------------------------------------------------------------------------------------------------------------------------------------------------------
------------------------------------------------------------------------------------------------------------------------------------------------------
------------------------------------------------o-----------------------------------------------------------------------------------------------------
-------------------------------------------------g-----------------------------------------------------------------------------g----------------------
-----------------------------------------------%%%%%%------------%%%%%o%--------------------oo------------------------------o%%%%---------------------
---------------%%%%--------------#--------------||||----SSS-------||||%%%-----------------------------------------------------||----------------------
--------%%%%%---||---------------#--------------||||------S-------||||||------------------------------------------------------||----------------------
--------||||----||-%%--%%%%---------------------||||--------------||||||---%%%%%%---------------------S-----------------------||----------SSS---------
----oooM|-||----||||----||----------------------||||------------%-||||||----|||---------------------------------oo------------||----------------------
-----%%%%-||----||||----||----------------------||||--------------||||||%%--|||-----------------------------------------------||---------------%------
------||--||----||||----||----------------------||||--------------||||||----|||------------------------------------------------|----------------------
------||--||----||||%%%-|----%%%%----------%%%%-||||--------------|||||-|---|||---------------------------------%%%-----------------------------------
------|||-||----||||||--|-----||-------------|--||||-------------||||||||---||||--------------------------------||---------------------------------#--
------||--||----||||||--------||------XX-----|--||||---XXXXXXX%%-||||||||---||-|-XXXXXXXXXX-X%%%------%%%%------||------%---XXXXXX-%%%%-----%%%XXXXXXX
------||--||----||||||--------||------XX-----|--||||---XXXXXXX|--|||||||||--||-X-XXXXXXXXXXX-%|--------||-------||-------|--XXXXX---||--------|XXXXXXX