-------------------------------------------------------------------------------------------------------------------------------------------------------------------------------------------
-------------------------------------------------------------------------------------------------------------------------------------------------------------------------------------------
M------------------------------------------------------------------------------------------------------------------------------------------------------------------------------------------
S---SSSSSSSSSS----SSSSSSSS---------SSSSSSSSSSSSSS-SSSSSSSSSSSSSSSSSSSSSSSSSSSSSSSSSSSSSSSSSSSSSSSSSSSSSSSSSSSSSSSSSSSSSSSSSSSSSSSSSSSS-----------SSSSSSSSSSS---S----SSSSSSSSSSSSSSSSSSS--SS
S--------------------------------------------------------------------------------------------------------------------S---------------------------------------------------------------------
S----------------------------------------------------S-------------------------------------------------------------------------------------------------------------------------------------
S-----------S---------------------------------------SS-------------------------------------------------------------------------------------------------------------------------------------
S------------------------------------------------------------------------------------------------------------------------------------------------------------------------------------------
S------------------------------------------------SS------------------------------------------------------------------SS---------------------------------------S----------------TT----------
S------------------------------------------------S------------------------------------------------------------------------------------------------------------S----------------TT----------
S-SSS-------SS-------------------------------------SSSSSSSSSSSSSS---------------------QQ---------S------------------SSS----------------T---S-----------------------------------TT----------
S-SSSSS-----------------------------------------------SSSSSSSSSSS-TT---#---------------------T----t------------------------TT----##---TT---S---------TT------------------------TT----T-----
SSSSSSSSS---------T-----------------------------------SSSSSSSSSSSSST--##--------------------------t------------------------TT----##---TT---S---------TT-----------------S------TT----T-----
SSSSS-------------T-----------------------------------SSSSSSSSSSSSSS-----------------------------k-------------------k----kTT---###--kTT-------------T-----------------SS-----kTT----T---S-
XXXXXXX-XXXXXXXXXXXXXXXXXX---------XX----XXX----XXXXXXXXXXXXXXXXXXXXXXXXXXXX---XX----------XXXXXXXXX-------XXXXXXXXXXXXXXXXXXXXXXXXXXXXXXXXXXXXXXXXXXXXXXXXXX------XX---XXXXXXXXX--XXXX--S-
XXXXXX--XXXXXXXXXXXXXXXXX----------XX----XXX----XXXXXXXXXXXXXXXXXXXXXXXXXXXX---X-----------XXXXXXXXX-------XXXXXXXXXXXXXXXXXXXXXXXXXXXXXXXXXXXXXXXXXXXXXXXXXX-------X---XXXXXXXXX--XXXX--XS