--------------------------------------------------------------------------------------------------------------------------------------------------------------
--------------------------------------------------------------------------------------------------------------------------------------------------------------
--------------------------------------------------------------------------------------------------------------------------------------------------------------
S--SSSSSSS----SSSSSSSSSSSSSSSSSSSSSSSSSSSSSSSSSSSSSSSSSSSSSSSSSSSSSSSSSSSSSSSSSSSSSSSSSSSSSSSSSSSSSSSSSSSSSSSSSSSSSSSSSSSSSSSSSSSSSSS------SSSSSSSSSSSSSS-----
S-----------------------------------------------SSS-------------------SS--SS----------------------------------------------------------------------------------
S--------------------S-------------------S-------SS-------------------SS--SS----------------------------------------------------------------------------------
S--------------------SS--------SSSS-----S---------------------------SSSS--SS-----------------S--------SS--------------------SSSS---------ooooooS--------------
S-------------------S-------------------------------------------------SS--SS----------------------------------------------------------------------------------
S-------------------SS------------------S-----------------------------SS--S---SS--SSSS----------------------------------------------------SSSSSS--------------
S-------------------SS---------------------S------------------------------SSooSS--SSS--------------S-------------------------------------SSSSSS---------------
S-------------@QQQQ-SS-------------#-------SSS--SSSSSS--S-----S#----------SSSS--------------------SSSS-----------#------------------SS--SSS-------------------
S-----------------------------SS---#-#------------SS-----------#--------------------------S-SS-----------------#-#-#------------------------------------------
S-----------------------------SS-#S#-#-#-#-------------------#-#--------------------------SSSS-------------#-#-#-#-#-#---------------------SSS----TT----TT----
S-M------g-g-#-#------------------S#-#-#-#-----------------#-#-#--------------kk----------------------gg---#-#---#-#-------g-g----------SS--S-----TT----TT----
S-XXXXXXXXXXXXXXXXXXXXXXXXXXXXXX--XX--XXXXXXXXXXXXXXXXXXXXXXXXXX-----XXXXXXXXXXXXXXXXXXXXX---XXXXXXXXXXXXXXXXXXXXXXXXXXXXXXXXXXXXXXXXX--SX-----XXXXXXXXXXXXXXX
S-XXXXXXXXXXXXXXXXXXXXXXXXXXXXXX--XX--XXXXXXXXXXXXXXXXXXXXXXXXXX-----XXXXXXXXXXXXXXXXXXXXX---XXXXXXXXXXXXXXXXXXXXXXXXXXXXXXXXXXXXXXXXX---X-----XXXXXXXXXXXXXXX