-----------------------------------------------------------------------------------------------------------------------------------------------------
-----------------------------------------------------------------------------------------------------------------------------------------------------
-----------------------------------------------------------------------------------------------------------------------------------------------------
---------------------------------------------------------------------------------------------o-------------------------------------------o-----------
--------------------------------------------------------------------------------------------%%%---------------------------------%%%%-----------------
---------------------------------------------------------------------------------------------|-----------------------------------||------------------
--------------------------------%%%-o-------------------%%%%---------------------------------|---|-------------------------------||------------------
----------------------------SS---|---S----SSS------------||--------------------SSS-----------|---|----oo----SSSS-----------------||------------------
----------------------%%---------|----------------%%%----||----------------------------------|--%%%------------------------------||------------------
-------------------------o-------|-----------------|---r-||-------SSS------o--------SS---|-o-|---|-------------------------------||--------------S---
------------%-----%%%------------|-----------%%%%%-|--%%-||----------------%%----------%%%%%%----|-------------------------------||--%---------------
---------------------------------|------------|||--|--||%%%%%%%------------|-|---------|||||-----|-------------------------------||--|---------------
---------------------------------|------------|||-||--||||||||-------------|-|---------|||||-----|----------------------%%%%%----||--|---------------
-M-------------------------------|------------|||-|||-||||||||-----------|-|-|---------|||||-----|-----------------------|||-----||--|---------------
XXXXXXXXXXXXXXXXXXXXXX%%%%%%%----%%%%%%--%%%%%|||-|||-||||||||-----------||-%%%%-----%-|||||-----|------------XXXXXXXXXXX|||-----||--|-------------XX
XXXXXXXXXXXXXXXXXXXXXXX||||------|||-%-%%-%-|-|||-|||-||||||||-----------||--||--------|||||-----|------------XXXXXXXXXXX|||-----||--|---------------