--------------------------------------------------------------------------------------------------------------------------------------------------------------------------------
--------------------------------------------------------------------------------------------------------------------------------------------------------------------------------
--------------------------------------------------------------------------------------------------------------------------------------------------------------------------------
------------------------U-------------------------------------------------------------------------------------------------------------------------------------------------------
--------------------------------------------------------------------------------------------------------------------------------------------------------------------------------
--------------------------------------------------------------------------------------------------------------------------------------------------------------------------------
--------------------------SS----------------------------------------------------------------------------------------------------------S-------SSSSSS----------------------------
--------------------------------------------------------------------------------------------------------------------------------------------------------------------------------
-----------------------------------------------------------------------------------------------S---------------#-----------------------#---------------------S------------------
--------------------------------------------------------------------------------------------------------------##----------------------#------K----------------------------------
------------------------------SS-----------------------------------------------------------S-----------------###---------------------##----SSSSSS-------------------------------
-----------*-----------------------------------------------------------*-----------T---------K---K---*------####-----------------*--###----------------------K-------*----------
-----------*---*-----------------*---------------*------TT-----*-------*-----------T-----------------*-----#####-----*-----------*-####T------------TT---------------*----------
-M-------------*-----------------*---#-----------*------TT-----*-------*-----------------------------#----######-----*-----------##-#-#T------------TT---------------*----------
XXXXXXXXXXXXXXXXXXXXXXXXXXXXXXXXXXXXXXXXXXXXXXXXXXXXXXXXXXXXXXXXXXXXXXXXXXXXXXXXXXXXXXXXXXXXXXXXXXXXXXXXXXXXXXXXXXXXXXXXXXXXXXXXXXXXXXXXXXXXXXXXXXXXXXXXXXXXXXXXXXXXXXXXXXXXXXXX
XXXXXXXXXXXXXXXXXXXXXXXXXXXXXXXXXXXXXXXXXXXXXXXXXXXXXXXXXXXXXXXXXXXXXXXXXXXXXXXXXXXXXXXXXXXXXXXXXXXXXXXXXXXXXXXXXXXXXXXXXXXXXXXXXXXXXXXXXXXXXXXXXXXXXXXXXXXXXXXXXXXXXXXXXXXXXXXX