----------------------------------------------------------------------------------------------------------------------------------------------------------------------------------------------------
----------------------------------------------------------------------------------------------------------------------------------------------------------------------------------------------------
----------------------------------------------------------------------------------------------------------------------------------------------------------------------------------------------------
----------------------------------------------------------------------------------------------------------------------------------------------------------------------------------------------------
----------------------------------------------------------------------------------------------------------------------------------------------------------------------------------------------------
--------------------------------------------------------------------------------------------------------------------------------------k-------------------------------------------------------------
--------------------SQSSQS----SSQS------------------------------------------------------------SSSSS----S--------------SS--------------QS---g--SSS-------------------------------------------SS------
--------------------------------------------------------------------------------------------------------------------------------------#-------------------------------------------------------------
---------------------------------------------------------------------##---------------------------------------------------------------#-----------------------S?S---------------------SgS-----------
----------------#--------------------------------------------------####---------------------------------------------------------------#--------------------------------------------K----------------
--------------###---###-------SSQSSSSS-------####---------SSS----#######--------S--------------SSS------SS----S-------SSSS------#----##-----SSSSSS------------------------SS------------------S-----
-------------####----##----------------------#--#---------------########--------------------------------------------------------#-----#-------------------------#----------------------#------------
------------######---#X---------------------##--#--------------#########-------------------------------------------------------##-------------------------------#---------------------##------------
-M----k----#######---T--------K---------K---##--#--g----------##########-----------------T----------------------------------g#--#----#-------------------------##---------K-----------##------K-----
XXXXXXXXXXXXXXXXXXXXXXXXXXXXXXXXXXXXXXXXXXXXXX--XXXXXXXXXXXXXXXXXXXXXXXXXXXXXXXXXXXXXXXXXXXXXXXXXXXXXXXXXXXXXXXXXXXXXXXXXXXXXXXXXXXXXX------XXXXXXXXXXXXXXXXXXXXXXXXXXXXXXXXXXXXXXXXXXXXXXXXXXXXXXXX
XXXXXXXXXXXXXXXXXXXXXXXXXXXXXXXXXXXXXXXXXXXXX---XXXXXXXXXXXXXXXXXXXXXXXXXXXXXXXXXXXXXXXXXXXXXXXXXXXXXXXXXXXXXXXXXXXXXXXXXXXXXXXXXXXXXX------XXXXXXXXXXXXXXXXXXXXXXXXXXXXXXXXXXXXXXXXXXXXXXXXXXXXXXXX