----------------------------------------------------------------------------------------------------------------------------------------------------------------------------------------------------
----------------------------------------------------------------------------------------------------------------------------------------------------------------------------------------------------
----------------------------------------------------------------------------------------------------------------------------------------------------------------------------------------------------
----------------------------------------------------------------------------------------------------------------------------------------------------------------------------------------------------
------------------------------------------------------------------------------------------------#---------------------------------------------------------------------------------------------------
------------------------------------------------------------------------------------------------#-----------------------------------------------------------------------------------------k---------
-----------Q------SQ------------------------------------------------------------#---------------#-----------------------------#-----------------SSSS-------------------------------------#SS-SS-----
-------------------------------------------------------------------------------##---------------#---------#------------------##---------------------------------------------------------##----------
------------------------------------------------------------------------------###----------------Q--------#----------------####----------S-S-----------------------------S-S-------g---###----------
-------------------------------------------------##--------------------------####-------------------------#---------------###-----------------------------------------------------gg######----------
-------TT---SSCS------------TT------SK---------####----------------S-S------#####--------SSSSS-----------##-----SQ-SSS---######----------------SSSSS------------------------------########----SQS---
-------TT------K------------TT------K---------#####------------------------######-----------------------###-------------####----------#T-------------------------------------------######-----------
-------TT-------------------TT---------------######--------------#---------######-----------------------###------------####-------------------------------------------------------------#-----------
-M----gTT----K----g---------TT--------------#######--------------#--------#######-------------K--------####-----------#####---------------------K-----k---------------------------------#--------#--
XXXXXXXXXXXXXXXXXXXXXXXXXXXXXXXXXXXXXXXXXXXXXXXXXXX---XXXXXXXXXXXXXXXXXXXXXXXXXXX---XXXXXXXXXXXXXXXXXXXXXXXXXXXXXXXXXXXXXXXX---XXXXXXXXXXXXXXXXXXXXXXXXXXXXXXXXXXXXXXXX----XXXX----#----X-----XXXXXX
XXXXXXXXXXXXXXXXXXXXXXXXXXXXXXXXXXXXXXXXXXXXXXXXXXX---XXXXXXXXXXXXXXXXXXXXXXXXXXX---XXXXXXXXXXXXXXXXXXXXXXXXXXXXXXXXXXXXXXX---XXXXXXXXXXXXXXXXXXXXXXXXXXXXXXXXXXXXXXXXX----XXX----------#-----XXXXXX