---------------------------------------------------------------------------------------------------------------------------------------------------------------------
---------------------------------------------------------------------------------------------------------------------------------------------------------------------
---------------------------------------------------------------------------------------------------------------------------------------------------------------------
-------------------------------o----------oooo-----------------------------------------------------------------------------------------------------------------------
---------------------------------------------------------------------oo---oo-----------------------------------------------------------------------------------------
------------------oo---------------------------------------------------%ooSS--------------------------------------------------------------------oSooo----------------
------SSoo--SSS-------------%%%%%-SS-------SSSSS-----------------SSSS-S-----------------%%%---------------SS----oo---S-----------------------------------------------
-----------------------------|||---------------------------------------------------------|-----------------------------------------------------------------|---------
------------------SS--o------|||-------------------------------------------SS------------|---------------------SS--------------------------------------SS--|---------
-----------------------------|||---------------------------------------------------------|---------------------------oooo--------oooo----------------------||--------
------SS--------SS-----SS----|||-|------%%%%---------%%%%%%------------------%%----------|-%%%---------------------SS-----------------------%%%%-----------|%%%------
-----------------------------|||-|-------||-----------||||-------------------|-----------|-||------------------------------------------------||------------|||-------
------%%%%%------------------|||||-------||-----------||||------------------||-------------||-----------------------------------%%%%---------||------------|||-------
-M-----|||-------------------|||||-------||----------|||||-------------------|--------------|------------------------------------||----------||------------|||-----X-
XXXXXX||||%%%-%%%%%%%%%----%%%%|||--%%%%%|%%%%%%-----|||||--%%%%%----%%%%%--%|-XXXXXXXXXXXXXXXXXXXXXXXXXXX%%%%%-------%%%---%%%%%||---%%%%%%%||%%%%%%%-----|||-XXXXXX
XXXXXX-|||-|---|||||||-------|||||----||-|-|||||-----|-|||---|||-----%|||----|--XXXXXXXXXXXXXXXXXXXXXXXXX--||----------||----|||-||----||--|-||-|||||-------||-XXXXXX