-------------------------------------------------------------------------------------------------------------------------------------------------------------------------------------------------------------------------------------------------------------------------------------------------------------------------------------------------------------------------------------
-------------------------------------------------------------------------------------------------------------------------------------------------------------------------------------------------------------------------------------------------------------------------------------------------------------------------------------------------------------------------------------
-------------------------------------------------------------------------------------------------------------------------------------------------------------------------------------------------------------------------------------------------------------------------------------------------------------------------------------------------------------------------------------
-------------------------------------------------------------------------------------------------------------------------------------------------------------------------------------------------------------------------------------------------------------------------------------------------------------------------------------------------------------------------------------
-------------------------------------------------------------------------------------------------------------------------------------------------------------------------------------------------------------------------------------------------------------------------------------------------------------------------------------------------------------------------------------
-------------------------------------------------------------------------------------------------------------------------------------------------------------------------------------------------------------------------------------------------------------------------------------------------------------------------------------------------------------------------------------
--------------------------------------------------------------------------------------------------------------------S-SS-------------------------------------------------#--------------oo-------------------------------------------------------------------------------------------------------------------------------------------------------------------------------------------
-------------------------------------------------------------------------------------------------------------------------------------------------------------------------#-------------#--------------------------------------------------------------------------------------oo-----------------------------------------------------------------------------------------------------
-------------------------------------------------------------------------------------------------------------------------------------------------------------------------#-------------#-----------------------------------------------------------------------------------------------------------------------------oo--------------------------------------------------------------
-------------------------------------------------------------------------------------------------------------------------------------------------------------------------#---o---------#----------------------------------------------------------------------------------------------------o----------o---o---------#---------------------------------------------------------------
-------------------------------------------------------------------------------------------------------T-----------------oo--------T-----------------o----------------#--#-------------------------#---------------------------------------------------------------------------------oo----------------------------#-------------------oo----------------------------------TT--------
-------------------------------T-----------------------------------------o----------------------------TT--------------------------TT-----------T-o-------------------#---#----------------------------------------------------------------------------------------------------------------------------------------##-------------t-----------------------------------------TT--------
------------T-----------------------------------------------------------------------------------------TT--------------------------TT----------TT---------------#-----#---#-----------#-----------#-----------------------------------------------#--------#-#----------------------------------------------------###-------------------------------------------------------TT--------
-M-gg-------TT----k-----------kk--------------------------k-k-----------k-----k---------ggg------------T--------------k------------T----ggg---TT----------kk--k--ggk-#---#---------------------------------kk----------------kkk------ggg----#---#----ggg-#-#---#---gg---------ggg-----------------------------kk-##--k------------------------------ggg-----g-T-----ggg---TT--------
XXXXXXXXXXXXXXXXXXXXXXXXXXXXXXXXXXXXXXXXXXXXXXXXXXXXXXXXXXXXXXX-XXX-XXXXXXXXXXXXXXXXXXXXXXXXXXXXXXXXXXXXXXXXXXXXXXXXXXXXXXXXX-X-XXXXXXXXXXXXXXXXXXXXXXX-XXXXXXXXXXXXXXXXXXXX----X-X-X-XXXXXXXXXXXXXXXXXXXXXXXXXXXXXXXXX-XXXXXXXXXXXXXXXXXXXXXXXXXXXXXXXXX-X-X-X-X-XXXXXXXXXXXXXXXXXX-XX------------------------XXXXXXXXXX-XXXXXXXXXXXXXXXXXXXXXXXXXXXXXXXXXXXXXXXXXXXXXXXXXXXXXXX--XX
XXXXXXXXXXXXXXXXXXXXXXXXXXXXXXXXXXXXXXXXXXXXXXXXXXXXXXXXXXXXXXX-XX--XXXXXXXXXXXXXXXXXXXXXXXXXXXXXXXXXXXXXXXXXXXXXXXXXXXXXXXXXXXXXXXXXXXXXXXXXXXXXXXXXXX-XXXXXXXXXXXXXXXXXXXX----X-X-XXXXXXXXXXXXXXXXXXXXXXXXXXXXXXXXXXXXXXXXXXXXXXXXXXXXXXXXXXXXXXXXXXXXX-X-X-X-XXXXXXXXXXXXXXXXXXXXXXX------------------------XXXXXXXXXX-XXXXXXXXXXXXXXXXXXXXXXXXXXXXXXXXXXXXXXXXXXXXXXXXXXXXXXX--XX