----------------------------------------------------------------------------------------------------------------------------------------------------------------------------------------------------------------------
----------------------------------------------------------------------------------------------------------------------------------------------------------------------------------------------------------------------
----------------------------------------------------------------------------------------------------------------------------------------------------------------------------------------------------------------------
----------------------------------------------------------------------------------------------------------------------------------------------------------------------------------------------------------------------
-------------------------------------------------------------------S--------------------------------------------------------------------------------------------------------------------------------------------------
----------------------------------------------------------------------------------------------------------------------------------------------------------------------------------------------------------------k-----
-------------------------------#------------------------------TT----------------S---------SS-------------------SSS--------------------SSS----------------------------------------#------------------------------SS----
--------------------------------------------------------------TT--------------------------------------------------------------TT-------------------------------------------------#------------------------------------
----------------------------------SSS-------------------------X---------S------------SSS--------SS--SS---------------------------------------------------------------------------#------------------SS----------------
--------------------------------------------------------------------------------------------------------------------------------------------------------------------------------##------------------------------------
------SSSS--------TT------TT---------------------------------#---SSS--------SS----------------------------TT--------TT----TT-----------S-------S-------SSSSS------------t-------------S-----SS------------------------
-----------------TT-------TT--------TT--------------------TT-#--------------------TT----------------------TT--------TT----TT--------------TT----------------------------t-----------------T---------------------------
-----------------TT-------TT--------TT-----tttT---TT---##-TT-#--------------------TT-----------------TTT--TT--------TT----TT------TT------TT--------TT--------TT-------tt-----------------TT--------------------------
--M-----------k--TT-------TT--------TT-----t--T---TT--###-TT-#--------------------TT-----------------TTT--TT-----k--TT----TT------TT------TT--------TT--------TT--------t----#------------TT--------------------------
--XXXXXXXXXXXXXXXXXXXXXXXXXXXXXXXXXXXXXXXXXXXXXXXXXXXXXXXXXXXXXXXXXXXXXXXXXXXXXXXXXXXXXXXXXXXXXX----XXXXXXXXXXXXXXXXXXXXXXXXXXXXXXXXXXXXXXXX--XXXXXXXXXXXXXXXXXXXXXXXXXXXXXXXXXXXXXXXXXXXXXXXXX-------XXXXXXXXXXXXXX--
--XXXXXXXXXXXXXXXXXXXXXXXXXXXXXXXXXXXXXXXXXXXXXXXXXXXXXXXXXXXXXXXXXXXXX-XXXXXXXXXXXXXXXXXXXXXXXX----XXXXXXXXXXXXXXXXXXXXXXXXXXXXXXXXXXXXXXX---XXXXXXXXXXXXXXXXXXXXXXXXXXXXXXXXXXXXXXXXXXXXXXXX--------XXXXXXXXXXXXXX-X