--------------------------------------------------------------------------------------------------------------------------------------------------------------------------------
--------------------------------------------------------------------------------------------------------------------------------------------------------------------------------
--------------------------------------------------------------------------------------------------------------------------------------------------------------------------------
--------------------------------------------------------------------------------------------------------------------------------------------------------------------------------
--------------------------------------------------------------------------------------------------------------------------------------------------------------------------------
--------------------------------------------------------------------------------------------K-----------------------------------K-----------------------------------------------
----------------------------SS------##---------------------------------------------------SSSSS------------------------------SSSSSS----------------------------------------------
-----------------------------------###------------------------------------------------------------------------------------------------------------------------------------------
-----------------SSS--------------####----------------------------------------------------------------S---------------------------------------------------------------##--------
---------------------------K-----#####-------------------------------------------------------K----------------------------------##-----------------------------------###--------
--------------------------SSSS--#####--------------SS-----------QQQ-----------------------SSSSSS-----------------#--------S----###-----------------------------S----####--------
-------------*-----------------######------*---------------------------*--------TT------------------------------#---TT--------####---------------------------------#####--------
-----*-------*-------*---------######------*---------------*-----------*---------*-----------------*-----------##----T-------#####------------TT---T-----TT-------######--------
-M---*-------*-------*--------######-------*-----*---------------------*---------*----------------------------###----T------######---#--------TT--TT----TT-------#######--------
XXXXXXXXXXXXXXXXXXXXXXXXXXXXXXXXXXXXXXXXXXXXXXXXXXXXXXXXXXXXXXXXXXXXXXXXXXXXXXXXXXXXXXXXXXXXXXXXXXXXXXXXXXXXXXXXXXXXXXXXXXXXXXXXXXXXXXXXXXXX-XXXXXXXXXXXXXXXXXXXXXXXXXXXXXXXXXXX
XXXXXXXXXXXXXXXXXXXXXXXXXXXXXXXXXXXXXXXXXXXXXXXXXXXXXXXXXXXXXXXXXXXXXXXXXXXXXXXXXXXXXXXXXXXXXXXXXXXXXXXXXXXXXXXXXXXXXXXXXXXXXXXXXXXXXXXXXXXX-XXXXXXXXXXXXXXXXXXXXXXXXXXXXXXXXXXX