----------------------------------------------------------------------------------------------------------------------------------------------------------------------------------------------------
----------------------------------------------------------------------------------------------------------------------------------------------------------------------------------------------------
----------------------------------------------------------------------------------------------------------------------------------------------------------------------------------------------------
----------------------------------------------------------------------------------------------------------------------------------------------------------------------------------------------------
----------------------------------------------------------------------#-----------------------------------------------------------------------------------------------------------------------------
----------------------------k----------------------------------------##---------------------------------------------------------------------k-------------------------------------------------------
---------------------------SSS-----SCS------------------------------###---------S-SS-----------------------------S-----------SSSS---SQSSSSSSSS----------------------------SQSS----------------------
-------------------------------------K-----------------------------####-----------------------------g--------------------------K--------------------------------------------------------------------
-------------------------------------------------------SSSS-------####--------------------------SSS---S---------------------------------------------------SQSSQS------------------------------------
-----------------K-----------------------------------------------#####----------------------------------------------------------------------#---g#--------------------------------------------------
------SSSS---------------SSSSSSSSSS-SSSS-----------S-------------#####---------------------------------------SCS----------TT--SSSSSS?SSSSSg###--##----TT------------------SS?S----------------------
---------------K#-----------------------------------------------#####------------------------------------------K----------TT---------------##---##----TT----------------------------------------#---
---------------------------------------------------------------######-----------------------------------------------------TT--------------####--##----TT------------------------------TT--------#---
-M--------------#-------K--------------------------------------######-----------k---------------------------kS-------gk---TT--gg--K------#####--##----TT----------K-------K-------g---TT--------#---
XXXXXXXXXXXXXXXXXXXXXXXXXXXXXXXXXXXXXXXXXXXXXXXXXXXXXXXXXXXXXXXXXXXXXXXXXXXXXXXXXXXXXXXXXXXXXXXXXXXXXXXXXXXXXXXXXXXXXXXXXXXXXXXXXXXXXXXXXXXXXXXXXXXXXXXXXXXXXXXXXXXXXXXXXXXXXXXXXXXXXXXXXXXXXXXXXX--
XXXXXXXXXXXXXXXXXXXXXXXXXXXXXXXXXXXXXXXXXXXXXXXXXXXXXXXXXXXXXXXXXXXXXXXXXXXXXXXXXXXXXXXXXXXXXXXXXXXXXXXXXXXXXXXXXXXXXXXXXXXXXXXXXXXXXXXXXXXXXXXXXXXXXXXXXXXXXXXXXXXXXXXXXXXXXXXXXXXXXXXXXXXXXXXXXX--