-----------------------------------------------------------------------------------------------------------------------------------------------------
-----------------------------------------------------------------------------------------------------------------------------------------------------
-----------------------------------------------------------------------------------------------------------------------------------------------------
---------------------------------------------------------------------------------------------------------o-------------------------------------------
----------------------------------------------------------------------------------------------%%%-------%%%------------------------------------------
----------------------------------------------------------------------------------------------%%%%oo-----|-----------------%%%%%---------------------
------------------------------------------------------------------%%%%-------------------%%%%--|||%-S----|------------------|-|----------------------
-----------o-S----------------SS------------SS---------------------|----------------------|||%-|||-------o---o--SS---------||||------SS--------------
---------%%%%------------------------------------------------------|----------------------|||%%%%|----------%%%------------||||-----------%%%%-------
----------||------SS----------------------------SSS----------------|---------------------r-|||||||---SSS-----|---------o---||-|------------||SS------
----------||------------------------------------------------------%|--------------------%%%|||||||-----------|-----%%%%%%--||||------------|---------
----------||-----------------------%%%%----------%%----------------|----------------%%%%-|-|||||||-----------|------|||----||||--%%%%%%%%%%||--------
----------||------------------------||-----------|---o-------------|-------------------||||%%%%%%|--------%%%%%%%---|||----|-||---|||||--|-|---------
-M--------||------------------------||-----------|--%%%-%%%--------|-------------------||||-||||-|--%%%%--||||||----|||------||---|||||--|-|-------#-
XXXXXXXX--||----------XXXXXXXXXXXXX-||----%%%%---|---|---|---%%%%%-||------------------||||-||||-----||----|||||----|||%%%%--||---|||||--||||-XXXXXXX
XXXXXXXXX-||----------XXXXXXXXXXXXX-||-----------|---|---|----|||--||------------------||||-||||-----||----|||||----|||-||---||---|||||--||||-XXXXXXX