-------------------------------------------------------------------------------------------------------------------------------------------------------------------------------------------
-------------------------------------------------------------------------------------------------------------------------------------------------------------------------------------------
-------------------------------------------------------------------------------------------------------------------------------------------------------------------------------------------
S--SSSSSSSSSSSSSSSSSSSSSSSSSSSSSSSSSSSSSSSSSSSSSSSSSSSSSSSSSSSSSSSSSSSSSSSSSSSSSSSSSSSSSSSSSSSSSSSSSSSSSSSSSSSSSSSSSSSSSSSSSSSS------SS-SSSSSSSSSSSSSSSSSSSSSSSSSSSSSSSSSSSSSSSSSSSSSSSSSSS
S----------------------------------------------------------SSSSSSSSS----------------------------------------------SSSSSSSSSSSS-----------SSSSSS----------------------------------SSSS------
S----------------------------------------------------------SSSSSSSSS----------------------------------------------SSSSSSSSSS-S------------SSSSS----------------------------------SSSSS-----
S------------------------------------------------------------SSSSSSS---------------------Q--------------------------S--------S------SSSSS----------------------TT----------------SSSSS---SS
S------------------------------------------------------------------------------------------------------------------------------------SS-----o------------------TT------------------------SS
S----------------------------------------------------------------------------------------------------------S----------------------------SSSS---SS--------------T-------------------------S-
S-----------------------------------------------------------------------------------------------------------------------------------SSSSSS-----------------------------------------------S-
S---------TT------S---QQ----------------------SS----------SSSS-----------S-----SSS--TT--SSS------S----------------------------SS----SSSSSS--------------------------------------SSSSSSSS-SS
S-----TT--TT------------------TT----------TT-----------#----------------------------TT--SSS----------------------------------#----------SS----------------#--TT---------------------SSSS-SS
S-----TT--TT----T-------------TT----------TT----T------#S--------t------------------TT---SSSSS------------------------------##----------S----------------##--TT--##-----------------SSS--SS
SM----TT--TT---kT-------------TT----T-----TT---kT----k-#--------kt-----------k------T--------------------k-----------------###--------------------------###--T---##----------------##SS--SS
XXXXXXXXXXXX---XXXXXXXXXXX--XXXXXXXXXXXXX-XXX-XXX-XXXXXXXXXXXXXXXXXXXXXXXXXX---XXXX-----XXXXXXXXXXXX--XXXXX---XXXXXXXXXXXXXXXXX----XXXXXX--XXXX--XX--XXXXXXXXXXXXXX--------XXXXXXXXXXXX--XX
XXXXXXXXXXXX---XXXXXXXXXXX--XXXXXXXXXXXXX-XX--XXX-XXXXXXXXXXXXXXXXXXXXXXXXXX---XXXX-----XXX-XXXXXXXX---XXXX---XXXXXXXXXXXXXXXXX----XXXX-X--XXXX------XXXXXXXXXXXXXX--------XXXXXXXXXXXX--X-