--------------------------------------------------------------------------------------------------------------------------------------------------------------
--------------------------------------------------------------------------------------------------------------------------------------------------------------
--------------------------------------------------------------------------------------------------------------------------------------------------------------
S------SSSSSSSSSSSSSSSSSSSSSSSSSSSSSSSSSSSSSSSSSSSSSSSSSSSSSSSSSSSSSSSS-----------SSSSSSSSSSSSSSSSSSSSSSSSSSSSSSSSSSSSSSSSSSSSSSSSSSSSSSSSSSSSSSSSSSSSS-------
S--------------SSS--------------SS---------------------------------------------------S--SSSS--------------SSS-SSSSSSSSSSSS------------------------------------
S--------------SSS--------------SS--------------------------------------------------SS--SSS---------------SSS-SSSSSSSSSSSS------------------------------------
S-------------------------ooo----------------------------------------------------------------S----SS--SS-------------------------------------ooo----SSSS------
S-------------------------------------------------------------SS-----------------------------------S------------------------------------------------SSSS------
S------------------------SSSSS--------------------------------SS-----------------------------------SSS-SSS-SS------------------------------------SS---SS------
S-----------------------SSSS----------------------------------------------------------------------------SS-S--------------------------------SS-o--S-SSSS------
S----------------------SS---------------TT-----T--------------------------------------------------------SS----------QQQQQQ------------------SSSSSS--SSSS----SX
S-------------------------------TT------T------#-#------------------------------------------------------S-----------------------------------S----------------X
S--------#----------------------TT-------------#-#-#--------------------------------------------#S#-----S----------------------------#-#----S-----------------
SM-------#----------------------TT--------g-g--#-#-#-S---------g-g------------------------------#-#--------k-------------------g-g---#-#----------------------
XXXXXXXXXXXXXXXXXXXXXXXXXXXXXXXXXXXXXXXXXXXXXXXXXXXXXXXXXXXXXXXXXXXX--XXXXXXXXXXXXXXXXXXXXXXXXXXXXXXXXXXXXXXXXXXXXXXXXXXXXXXXXXXXX--XXXXXXXXXXXXXXXXXXXXXXXXXX
XXXXXXXXXXXXXXXXXXXXXXXXXXXXXXXXXXXXXXXXXXXXXXXXXXXXXXXXXXXXXXXXXXXX--XXXXXXXXXXXXXXXXXXXXXXXXXXXXXXXXXXXXXXXXXXXXXXXXXXXXXXXXXXXX-XXXXXXXXXXXXXXXXXXXXXXXXXXX