---------------------------------------------------------------------------------------------------------------------------------------------------------------------
---------------------------------------------------------------------------------------------------------------------------------------------------------------------
---------------------------------------------------------------------------------------------------------------------------------------------------------------------
-----------------------------------------------------------o---------------------------------------------------------------------------------------------------------
-------------------------------------ooo------------------%%----------------------------------------------------------------------%%%--------------------------------
--------------------------------------%%%ooooo-------------------------------------------------------------------------------------|---------------------------------
-------------SS----------SSS-----SSS-----------------------------------S----------SS---------------SSS-----------------SS----------|---------------SSS---------------
----------------------------------------------------------------------------------------ooo----------------------------------------|---------------------------------
---------ooo------------------SS-------------SSS-----------S----%%%%-------|-----------------------------SS-ooo--------------------||-------------------SSS----------
---------------------------------------SSS-----------------SS----||--------|--------------------------------oS---------------------||%%%-----------------------------
--------%%%%%%%-----------%%-------------------------------------||%%%-----|------%%%-----------%%%%-------------%%%--------S------||-|%%%%%------%%%%%--------------
-----------|||-------------|%%--------------------%%%%-----------||||------|-------|-------------||--------------||---%%%----------||-|||||--------|||---------------
-----------|||-------------||----------------------||------------||||------||---%--|-------------||-----------S--||----||----------||-|||||--------|||---------------
-M--------||||-------------||-----------------------|------------||||------||--|---|-------------||--------------||----||----------||||||||--------|||-------|-----X-
XXXX-------|||-----%%%%%%%%||-------%%%%%---%%%-----|-%%%%----%%%||||-%%%%%||--%%|||--XXXXXXXXXXX|%%%%%%%%-------||%%%%%%%---------||||||||-%%%%%%%|||------|||-XXXXX
XXXXX------|||-------||-|--||--------|||-----|------|--||--------||||-||||-||-||-|||--XX-XXXXXX--||-||||||-------||-||-||-----------|||||||--|||||-|||------|||-XXXXX