-----------------------------------------------------------------------------------------------------------------------------------------------------
-----------------------------------------------------------------------------------------------------------------------------------------------------
-----------------------------------------------------------------------------------------------------------------------------------------------------
-----------------------------------------------------------------o-----------------------------------------------------------------------------------
----------------------------------------------------------------%%%----------------------------------------------------------------------------------
-------------------------------o---------------------------------||--------o---------------------SS--------------------------------------%%%%--------
------------------------------%%%------------------S-----o-o-----|--------%%%-------------------------------------------------------------|----------
-------------oo---oo-------o---|---------------SSSS-----%%%%-----|-o-------|------------%|----------SSS-----SSS---------------------------|----------
----------%%%%%%----------%%%-%|%------------------------||------|%%%------|-------------|------------------------------------------------|----------
-----------|--|------------|--||----------SSS--------SS--||------|||-------|---SSS---o---|--S---SSS---------------------------------------|----------
-----------|--|------------|--||-------------------------||------|||----------------%-%%-|-----------------------------------------------------------
-----------|--|------------|--||-------------------------||------|-----------------%%%%%-|--------------%%%%%%%%%----------------|-------------------
-----------|--%%%%%--------|-%||-------------------------|-------|-----------------|||||-|%%%------------||-||-|-----------------|-------------------
-M---------|---|||---------|--||-------------------------|---o---|----------------||||||-|||------------|||--|-|-----------------|-------------------
XXXXXXXXX%%%%--|||---------||-||---------------XXXXXXXXXX%-%%%%%%%%%--------------||||||-|||------------|||-||-%%%%%%------------|---------------XXXX
XXXXXXX%%|||---|||---------||-||---------------XXXXXXXX-%%||-||||||---------------||||||||||------------|||--|-|||||---|---------|---------------XXXX