-----------------------------------------------------------------------------------------------------------------------------------------------------
-----------------------------------------------------------------------------------------------------------------------------------------------------
-----------------------------------------------------------------------------------------------------------------------------------------------------
-----------------------------------------------------------------------------------------------------------------------------------------------------
-----------------------------------------------------------------------------------------------------------------------------------------------------
--------------------------%%%------------------------------------o-------o-------o-----------------o---------------o---------------------------------
---------------------------|----------------------------------------------------%%%---------------%%%-----------%-%%%--------------------------------
--------------------SSSS---|---o---o---o---------------------o---SSS-------------|---o---o---------|---------------|-----oo----------------o---------
---------------------------|--%%%-----%%%--o----------------%%%----------|--%%%--|--%%%-%%%--------|---------------|----%%%%-------------------------
------Mo---|---------------|---|--SS---|---|--o---SSSS%%%----|----------SSS--|---|---|---|S----o---|---------------|-----||--------o--%%%%%%%%-------
------%%%-%%----------%%%--|---|-------|--%|-%-%-------|-----|-----------|---|---|---|---|----%%%--|---------%%%%%-%%----||-------%%%--|||||---------
-------|--||------%%%-||---|---|-------|---||-||-------|---|-|-----------|---|-r-|-r-|---|-----|---||----------||||------||---%%%%-|---||||||--------
-------|--||---%%%|||-||---|%%%|-------|---||-||-------|---|-|%%%-----%%%%%%%%%%%%%%%%%%%%%%%|-|---||%%%------%%%%%%%%%--||----||--|---||||||--------
-------|--||----|-|||-||---|||||-------|---||-||-------|---|-|-|%%%%%%||-||-||||||||-||||||--|-|---||-|--------|||||||||-||----||--|---||||||--------
-----|-|%%%%%---|||||-||---|-|-|------%%%%-||-||-----%%%%%%%%%-|||||-|||-||-|||||||||||||||--|||---||-|---XX|--||||||-||%%%%%%%%|%-|---%|||||%XXXXXXX
-----|||||||----|||||-||-----|---------||--||-||------||||-|||||||||-|||-||-|||||||||||||||--|||---||-||-------||||||-||-|||||||||-||--||||||--XXXXXX