------------------------------------------------------------------------------------------------------------------------------------------------------
------------------------------------------------------------------------------------------------------------------------------------------------------
------------------------------------------------------------------------------------------------------------------------------------------------------
------------------------------------------------------------------------------------------------------------------------------------------------------
-------------------------------------------------------------------------g-----------------g-------------g--------------------------------------------
-------------------------------R--------oo----XX-----------------------S-%------------oo-%%%%%%--------%%%%---------oo--------------------------------
-----%%%%----------------%%%%------%%%%%%%%%%%%%S---------------SSS-----------SS---%%%%---||||----------||--------------------------------------------
---M--||-------------------|--------||||----|||-------------------------------------||----||||----------||-|------------------------------------------
---%%%%%------------------%%%%------||||----|||-------------------------------------||----||||-------%%%||||------------------------------------------
----||||---SS-----------%%|||-------||||----|||------------------##-----------------||----||||--------||||||---------------o--------------oo----------
----||||---------------S||||||----||||||----|||--------%%%--%%%%%-##-----%%%%--%%%%-%%%-%%||||-#------||||||--------------%%%--------------------SS---
----||||----------------||||||----|||||%%%--||||--------|---||||---------%%|----||---|--|-||#####-----||||||---------------|--------------------------
----||||----------------||||||----|||||||---||||--------|---||||--##------||----||---|--||||###-#-----||||||---------------|-------SSS----------------
----||||----------------||||||----||||||||--||-|--------|---||||--###-----||----||---|--||||###-|-----||||||------------------------------------------
----||||-XXXXXXXXXXX----||||||----||||||||--||||--X%%%--||--||||-XXXXXXXX-||----||---|--||||---%|%----||||||-------%%%-------------------%%%%%%-------
----||||-XXXXXXXXXX-----||||||----||||||||--||-|---%|---||--||||--XXXXXXX-||----||---|--||||----||----||||||----||-%|---------------------||%|--------