-----------------------------------------------------------------------------------------------------------------------------------------------------------------------------------------------------
-----------------------------------------------------------------------------------------------------------------------------------------------------------------------------------------------------
-----------------------------------------------------------------------------------------------------------------------------------------------------------------------------------------------------
-----------------------------------------------------------------------------------------------------------------------------------------------------------------------------------------------------
-----------------------------------------------------------------------------------------------------------S-----------------------------------------------------------------------------------------
-----------------------------------------------------------------------------------------------------------------------------------------------------------------------------------------------------
------------------------SSS-SSSS---------------------------------------USS----------------------SS------SS---------SSS-------------------------------QQ-----------------SS---##----------------------
-----------------------------------------------------------------#-----------------------------------------------------------------------------------------------------------#-----------------------
-----------------------------------------------------------------#-----------------------#-----------------------------------------------------------------------------------------------------------
-----------------------------------------------------------------#-----------g-----------#-----------------------------------------------------------------------------------------------------------
----------T-----QQ----QQQQ---------------------------------------#-----------TT----------##-----------------------------------------------------T---------T--------------------------------QQQQQ-----
----------T------------------------------------------------------------------TT----------##---------TT------T-----------------------------------T---------T------------------------g-----------------
----------T-------------------------------------------------------##---------TT----------##---------TT------TT-----------T--------------------------------T------T-----------------TT----------------
--M-------T-------------------k-------gg---------K---------X------##---------TT--g---K---##---------TT-------------------T-----------------------T--------TT-gg---T-g-----g--------TT-----------k----
--XXXXXXXXXXXXXXXXXXXXXXXXXXXXXX---XXXXXXXXXXXXX-XXXXXXXXXXXXXXXXXXXXXXXXXXXXXXXXXXXXXXXXXXXXXXXXXXXXXXX---XXXXXXXXXXXXXXXXXXXXXXXXXXXXXXXXXXXXXXXXXXXXXXXXXXXXXXXXXXXXXXXXXXXXXXXXXX---XXXXXXXXXXXXX
--XXXXXXXXXXXXXXXXXXXXXXXXXXXXXX---XXXXXXXXXXXXX-XXXXXXXXXXXXXXXXXXXXXXXXXXXXXXXXXXXXXXXXXXXXXXXXXXXXXXX---XXXXXXXXXXXXXXXXXXXXXXXXXXXXXXXXXXXXXXXXXXXXXXXXXXXXXXXXXXXXXXXXXXXXXXXXXX---XXXXXXXXXXXXX