------------------------------------------------------------------------------------------------------------------------------------------------------
------------------------------------------------------------------------------------------------------------------------------------------------------
------------------------------------------------------------------------------------------------------------------------------------------------------
------------------------------------------------------------------------------------------------------------------------------------------------------
-------------------------------------------------------------------------g-----g----------------------------------------------------------------------
-------------------------------o---ooo---------------------------------%%%%%%%%%%%---------------------------------oo---------------------oo----------
-----------------------------%%%%---%%%---------SS-------%%%-------SSS--||||--|||---%%%--------------------SSS--------------------------%%%%%---------
------------oo----------------||----||-------------------##-------------||||--||||--||----------------------------------------------------||----------
----------%%%%-----------S---|||----||-%%----------------###------------||----||||--||----------------------------------------------------||----------
---------%-||-----------SS---|||----|||||--------------o####------------||-|--||||--||--------------------------------------------------o-|||---------
--------S-|||---------SS---%%|||----|||||--------------#####----------%-||----||||--||--|-------------------------SS-------------------%%%%%%%%-------
----------||----------------||||----|||||--------------#####----------|-||----||||--||--||----------------------------------------------||||||--------
------M---||----------------||||----||||||-------------#####------%-%---||----||||--||--||----------------------------------------------||||||--------
------%%%-||----------------||||-|--||||||-------------#####------||--||||----||||||||--||---%%%%--%%%%%%-------------------------------||||||--------
----------||-------XXXX-----||||||--||||||------%%XXXXXXXXXXXXXXXXXX--||||--%-||||||||--||----||----||||---%%%%-----%-----%%%%%%%%------||||||--------
----------||--------XXX-----||||||--||||||------%|-XXXXXXXXXXXXXXX||--||||----||||||||--||----||----|||-----||-----|-------%||-%|-------||||||--------