--------------------------------------------------------------------------------------------------------------------------------------------------------------------------------
--------------------------------------------------------------------------------------------------------------------------------------------------------------------------------
--------------------------------------------------------------------------------------------------------------------------------------------------------------------------------
--------------------------------------------------------------------------------------------------------------------------------------------------------------------------------
--------------------------------------------------------------------------------------------------------------------------------------------------------------------------------
----------------------------------------------------------------k---------------------------------------------------------------------------------------------------------------
----------USS-----------------------------S---------------------k---------------------------------------------------------------------SS----------------------------SS----------
-------------------------------------------------##------------##-----------------------------------------------------------K---------------------------------------------------
------SS----------------------------------------###------------##------------------------------------------------------------S-----------------------------------------*--------
-----------------------------------------------####-----------###-------------------------------------------------K----------------------------------------------------*--------
-------------------------#---------------S-----####----------#####----------------------------------S-------------SSSSS----------------------------------------------SS#CS------
-------K----------------##--------------------####----------######----------------TT---------K-------K---*----TT-------------------------------*----TT--------------------------
-----------------------###-------*-----------#####-----*---#######---------*------TT----*-----TT---------*----T------------*-----------*-------*-----T----TT--------TT-----*----
-M--------------------####-------*----------######-----*--########---------*------TT----*-----TT---------*----T------------*-------------------*-----T----TT--------TT-----*----
XXXXXXXXXXXXXXXXXXXXXXXXXXXXXXXXXXXXX----XXXXXXXXXXXXXXXXXXXXXXXXXXXXXXXXXXXXXXXXXXXXXXXXXXXXXXXXXXXXXXXXXXXXXXXXXXXXXXXXXXXXXXXXXXXXXXXXXXXXXXXXX-----XXXXXXXXXXXXXXXXXXXXXXXXX
XXXXXXXXXXXXXXXXXXXXXXXXXXXXXXXXXXXXX#---XXXXXXXXXXXXXXXXXXXXXXXXXXXXXXXXXXXXXXXXXXXXXXXXXXXXXXXXXXXXXXXXXXXXXXXXXXXXXXXXXXXXXXXXXXXXXXXXXXXXXXXXX------XXXXXXXX--XXXXXXXXXXXXXX