-------------------------------------------------------------------------------------------------------------------------------------------------------------------------------------------
S------------------------------------------------------------------------------------------------------------------------------------------------------------------------------------------
-------------------------------------------------------------------------------------------------------------------------------------------------------------------------------------------
S--SS----SSSSSSSSSSSSSSSSSSSSS---SSS--------SSSSSSSSSSSSSSSSSSSSSSSSSSSSSSSSSSSSSSSSSSSSSSSSSSSSSSSSSSSSSSSSSSSSSSSSSSSSSSSSSSSSSSSSSSSSSSSSSSSSSSSSSSS----SSSSSSSSSSSSSSSSSSSSSSSSSSSSS---
S-------------------------------------------------SS---------------------------SSSSSSSSSSSSSSSSSSS---------SSSSSSSSSSSSS-------------------------------------------------------------------
S------------------------------------------------SSS----------------------------SSSSSSSSSSSSSSSSSS---------SSSSSSSSSSSSS-------------------------------------------------------------------
S----------------------------------------------------------------------------------SSSSSSSSSSSSSSSS--------SSSSSSSSSSS---------------------S----SSSS---------------------------------------
S----------------------------------------------------------------------------------------------------S-------------------------------------------------------------------------------------
S----------------------------------------------------------------------SSS---------------------------S-------------------------------------------------------------------------------------
S------------------------------------------------------ooS-----------------------------------ooooo-----------ooooooo-----------------------------------------------------------------------
S-----------Q----------------------------------------SSSS----------S----------SS---SSSSSSSSSSSSSSSSS--------SSSSSSSSS------T--------------SSS-SSS-SSSSS------------------------------------
S----------------------------------------------SSSSS--------------#---------------SSSSSSSSS--------------------------------T-------------------SS-----------#-----------------TT-----------
S----------------T---#------------##----------SSSSSS-------------##---------------SSSSSSSSS--------T-----------------T-----T------------------SSS---------###--#---------------T----t----S-
SM---------------T--##------------##------------SSS----------k--###--------------oSSSSSSSSS-------kT---------k-t---k-T-----TT----------------------------####--#-------------k-----tt----SS
XXXXXXXXXXXXXXXXXX--XX---XXXXXXXX-------XXXXXXXXXXXXXXXXXXXXXXXXXXXX---XXXXXXXXXXXXXXXXXXXXXXXXXXXXX-X----XXXXXXXXXXXXXXXXXXXXXXX----XX--XXXXXXXXXXXXXXXXXXXX-XX----XXX----XXXXXXXXXXX-XXX-
XXXXXXXXXXXXXXXXXX--XX---XXXXXXX--------XXXXXXXXXXXXXXXXXXXXXXXXXXXX---XXXXXXXXXXXXXXXXXXXXXXXXXXXXXX------XXXXXXXXXXXXXXXXXXXXXX----XX--XXXXXXXXXXXXXXXXXXXXXXX----XXX----XXXXXXXXXXX---X-