------------------------------------------------------------------------------------------------------------------------------------------------------
------------------------------------------------------------------------------------------------------------------------------------------------------
------------------------------------------------------------------------------------------------------------------------------------------------------
------------------------------------------------------------------------------------------------------------------------------------------------------
-----------------------g------------------------------------------------------------------------------------------------------------------------------
------------oo-----%%%%%%---------oo---------%%%-----------------g----------------oooo--oo-----------------ooo--------------------oo------------------
--------SS%%%%------||||--------SSSSS---%%%-%%|--------------SS%%%%-SS-----------%%%%------------------S-----SS-------------------------------SSS-----
--------------------||||---------------%%%%-|-------------------||------oo--------|||------------------SSS----------oo--------------------------------
---------%%%%%%%----||||----------------||||||----------|-------||----------------||||----------------------------------------------------------------
----------||||||----||||--%%%%%%%-------|||||%%------%%%%%%-----||------------oo--||||----------------------------------------------------------------
----------||||||----||||---|||||%----%%%%|||||--------||||------%%%%%----------%%-||||-------%%%%---------SSS------SSSS-----SSS------------SS---------
---M------||||||----||||---|||||------||||||||--------||||------||||------------||||||--------||------------------------------------------------------
---%%%%---||||||----||||---|||||------||||||||--------||||-------|||-------------|||||--------||----------------%%------------------------------------
----||----||||||----||||---|||||--o---||||||||--------||||-----o--||-------------|||||--------||----------------|----------------------------------#--
----||-----|||||----||||---|||||--%%--||||||||------%-||||----%%%-||-XXXXX%%%----|||||------%-||--%%------------|----------XXXXXXXXXXXXXXXXXXXXXXXXXXX
----||-----|||||----||||---|||||------||||||||--------||||------|-||-XXXX%-------|||||--------||--X-------------||---------XXXXXXXXXXXX---XXXXXXXXXXXX