-----------------------------------------------------------------------------------------------------------------------------------------------------------------------------------------------------
-----------------------------------------------------------------------------------------------------------------------------------------------------------------------------------------------------
-----------------------------------------------------------------------------------------------------------------------------------------------------------------------------------------------------
-----------------------------------------------------------------------------------------------------------------------------------------------------------------------------------------------------
-----------------------------------------------------------------------------------------------------------------------------------------------------------------------------------------------------
-----------------------------------------------------------------------------------------------------------------------------------------------------------------------------------------------------
----------USSS--------------------------------------------------------------------------------------SS------------------S-----------------------------------------SSS--------------------------##----
-----------------------------------------------------------------------------------------------------------------------------------------------------------------------------------------------##----
------------------------------SS--------------------S-SSS--g-------------------QQQQQ-----#---USSSS-------------gQ-----------------------------------------------g------------S-----------------##----
-----------------------------------------------------------------------------------------##---------------------------------------------------------#------------------------------------------##----
-----T----------------SS-----------------QQQQ-------------TT-----------S-----------------##------------------###-------C---------------------------##-----------#-------T--------------T-------#-----
-----------------------------------#----------------------TT-----------------------------#-------------------###-----------------------------------##----------##-------T--------------TT------#-----
---------------------------------###----------------------TT-----------------------------#-----------------####------------------------------------##----------###------T--------------TT-------#----
-M---------------------k-ggg---####----------gg-----------TT------g--------------gggg----#---------g-------####---------k----------------------k-#-##------k---###------T--------------TT-------#----
XXXXXXXXX-----XXXXXXXXXXXXXXXXXXXXXXXXXXXXXXXXXX---XXXXXXXXXXXXXXXXXXXXXXX---XXXXXXXXXX--XXXXXXXXXXXXXXXXXXXXXXXXXXXXXXXXX---XXXXXXXXXXXXXXXXXXXXXXXXXXXXXXXXXXXXXXXXXXXX--XXXXXXXXXXXXXXXXXXXXXXXXXX
XXXXXXXXX-----XXXXXXXXXXXXXXXXXXXXXXXXXXXXXXXXXX---XXXXXXXXXXXXXXXXXXXXXXX---XXXXXXXXXX--XXXXXXXXXXXXXXXXXXXXXXXXXXXXXXXXX---XXXXXXXXXXXXXXXXXXXXXXXXXXXXXXXXXXXXXXXXXXXX--XXXXXXXXXXXXXXXXXXXXXXXXXX