----------------------------------------------------------------------------------------------------------------------------------------------------------------------------------------------------------------------
----------------------------------------------------------------------------------------------------------------------------------------------------------------------------------------------------------------------
----------------------------------------------------------------------------------------------------------------------------------------------------------------------------------------------------------------------
----------------------------------------------------------------------------------------------------------------------------------------------------------------------------------------------------------------------
----------------------------------------------------------------------------------------------------------------------------------------------------------------------------------------------------------------------
----------------------------------------------------------------------------------------------------------------------------------------------------------------------------------------------------------------------
--------------------------------------------------------------------------TT--------------------SSSS----TT------------------------SSS-------------------------SS----------------SS--------SSS-------------------------
--------------------------------------------------------------------------TT----------------------------TT------------------------------------------------------------------------------------------------------------
------------SSS-------------T----------------------------------------------X-----T----------------------XX----SS----------------------------------------S-----------TT------------------------------------------------
---------------------#####------------------------------------------#------------TT----------------------------------------------------T----------------------------TT------------------------------------------------
------SS------------##-###--------SSSSSSSS------TT------------TT---#-------S-----TTT---------------------------------------#-SSS------TT-----TT------t--------------TT----TT----------TT------TT------------tt--------
-------------------#-#####----------------------T--------------TT-##--------------TT--------------------------------------------------TT----TTTT-----t--------------TT----TT----------TT------TT------------tt--------
----------------TT########----------------TT-------------------TTT###-TT------TT----------------------TT-----tt--T------------------TTTT----TTTT-----t--------------TT--TTTT----------TT------TT------#-----tt--------
-M-------------TTT####-###----------------TT--T----------------TTT###-TT----k-TT---------t------------TT-----Tt--T---------#--------TTTT----TTT------t------------#-TT--TTTT----tt--T-TT----k-TT------#-----tt-----#--
XXXXXXXXXXXXXXXXXXXXXXXXXXXXXXXXXXXXXXXXXXXXXXXXXXXXXXXXXXXXXXXXXXXXXXXXXXXXXXXXXXXXXXXXXXXXXXXXXXXXXXXXXXXXXXXXXXXXXXXXXXXXXXXXXXXXXXXXXXXXXXXXXXXXXXXXXXXXXXXXXXX-XXXXXXXXXXXX---XXXXXXXXXXXXXXXXXXXXXXXXXXXXXXXXXXX
XXXXXXXXXXXXXXXXXXXXXXXXXXXXXXXXXXXXXXXXXXXXXXXXXXXXXXXXXXXXXXXXXXXXXXXXXXXXXXXXXXXXXXXXXXXXXXXXXXXXXXXXXXXXXXXXXXXXXXXXXXXXXXXXXXXXXXXXXXXXXXXXXXXXXXXXXXXXXXXXXXX-XXXXXXXXXXX-----XXXXXXXXXXXXXXXXXXXXXXXXXXXXXXXXXX