--------------------------------------------------------------------------------------------------------------------------------------------------------------
--------------------------------------------------------------------------------------------------------------------------------------------------------------
M-------------------------------------------------------------------------------------------------------------------------------------------------------------
S--SSSSSSSSSSSSSSSSSSSSSSSSSSSSSSSSSSSSSSSSSSSSSSSSSSSSSSSSSSSSSSSSSSSSSSSSSSSSSSSSSSSSSSSSSSSSSSSSSSSSSSSSSSSSSSSSSSSSSSSSSSSSSSSSSSS---------SSSSSSSSS------
S---------------SS------SSSS-------------------------------SSSSS----SS----------------------------------SS-------------------------------------------SSS------
S---------------SS---S--SSSS--------------------------------SSSS----SS----------------------------------SS-------------------------------------------SSS------
S-----SoSSSS----SS--SS---------------------------------------------------------------------------------------------------SooSSS-SSoooS------------------------
S-----S---S---------SS----SS-------------------------------------------------------------------------------------------S------SSSS----------------------------
S-----SS------------SS--------------------------------------------------SS---------------------------------------S-----S-SSS---SSS-SSS---------------S-S------
S-----SSS-----------SS--S--S-----------------#--------------------------SS----------------------------------S---SS-------SSS---SSS-------------------SoS------
S-----SS------------SS--SSSS-------------#-###-S--------------------SS--SS---------#------------------------SS--SS------SSS-----SS---S@QQ------#-#-#----------
S-----SS----SS---------------------------#-###-S-----------------------------------#-----T-------#---#--#S----------------------SS-------------#-###----------
S----SSS----SS-------------------------#-#-###SS-----S---------------------------#-#-#---T---------g-##-#S----------------------SS------------##-#-#-#-#------
S-----S-----SS---------------------T-#-#-#-#-----------------g-------------------#-#-#-g-T-------#-#-####-----------------kk-----------T---#-#-#-#-#----------
S---XXX-----XX--XXXXXXXXXXXXXXXXXXXXXXXXXXXXXXXXXXXXXX--XXXXXXXXXXXXXXXXXXXX--XXXXXXXXXXXXXXXXXXXXXXXXXXX----XXXXXXXXXXXXXXXXXXXXXXXXXXXXXXXXXXXXXXXXXXXXXXXXX
S---XXXX----XX-XXXXXXXXXXXXXXXXXXXXXXXXXXXXXXXXXXXXXXX--XXXXXXXXXXXXXXXXXXXX--XXXXXXXXXXXXXXXXXXXXXXXXXXX----XXXXXXXXXXXXXXXXXXXXXXXXXXXXXXXXXXXXXXXXXXXXXXXXX