---------------------------------------------------------------------------------------------------------------------------------------------------------------------
---------------------------------------------------------------------------------------------------------------------------------------------------------------------
---------------------------------------------------------------------------------------------------------------------------------------------------------------------
-----------------------------------------------------------------------------------------------------------ooo-------------------------------------------------------
----------------------------------------------------------------------------------------------------------------------------------%%---------------------------------
-------------------o-------------------ooo---------------------------------------------------------o---------------------oooo----||----------------------------------
---%%%%--------------------SSS-------SSS-------------------------------------------------------------------SSSSSSS-----SSS-------||----------------------------------
----||---------------------------------------------------------------------------------------------------------------------------||--------------------------oooo----
----||--------------SSS-----------SS------------------%%%---------------------SS----oo---------SSoooo----------------------------||------------------------SSS-------
--M-||-------------------------------------------------|--------------------------------------------S----------------------------||----------------|-----------------
--%%||----------------%%%--------------------%%|----%-||----------------------------%%%%%%SS-----------%%%------%%%%-------------||--S-----SSSSSS--|-%%---------SS---
---|||----------------||----------------------||------||----------------------%%%%%--|||-------SSS-----||--------||--------------||----------------|-|---------------
---|||----------------||----------------------||------||-----------------------|||---|||---------------||%|%-----||---%-%--------|-----------------|-----------------
---|||----------------||----------------------||------||-----------------------|||---|||---------------||||------||--------------|-----------------|-----------------
---|||XXXXXXX-%%%%%---||%%%-------------------||------||%%%%%%%%%%%%%-%%%%%%%%%|||---|||----%----------||||------||---%%%-%%%%%%%%%%%%XXXXXX%%%%%%%%%%%%%%%----------
---|||X-XXXXX--|||----||-|--------------------||------||-||||-|||||----||||%||-|||---|||---------------||||------||---||---|||-|||--||XXXX---||||--|||-|||-----------