------------------------------------------------------------------------------------------------------------------------------------------------------
------------------------------------------------------------------------------------------------------------------------------------------------------
------------------------------------------------------------------------------------------------------------------------------------------------------
------------------------------------------------------------------------------------------------------------------------------------------------------
------------------------------------------------------------------------------------------------------------------------------------------------------
-------------------------oooo-------------------o-------------------------------------------------------------------------ooo-o-----------------------
-------------------------%%%%---------------------------------------------------------------------%---------------------------------------------------
--------------------------||-------------------------------------------------------------------%|%%--------------------------|---%%%%%--------oo------
--------------------------||-------SSS-------------#--------------------------------------------||--------------------------||---||||-%------%%%%%----
--------------------------||-----------------------#--------------------------------------------||--------------------------||---||||---------|||-----
------------------------SS-%-%%--------------------#-------%%%%------------------%%%%%%--%%%%---||--------------%----------%%%%---|||---------|||-----
----------------------------||------------------------------|----------------%%%--||||----||----||--------------------------||----|||---------|||-----
---------%------------------||------------------------------|-----------------||--||------||----||-----------------------%%|||---|||----------|||-----
-M--------------------------||------------------------------|-----------------||--||------||----||------------------------||||---|||----%%----||||----
X%-X-----------XXXX---------||-----%-------XXXXXX-X%%%%-%%%%%%%%XXXXXXXXXXXXX-||--||------||----||XXXXXXXXXXXXXXXXXXXX----||||---|||----------||||---X
X--------------XXXX---------||-----%------XXXXXXXX-%||--%%%|||--%-XXXXXXXXXXX-||--||------||----||XXXXXXXXXXXXXXXXXXXX----||||---|||----------||||---X