--------------------------------------------------------------------------------------------------------------------------------------------------------------------------------
--------------------------------------------------------------------------------------------------------------------------------------------------------------------------------
--------------------------------------------------------------------------------------------------------------------------------------------------------------------------------
------------------------------------------------------------------------------------------------------------------------------------U-------------------------------------------
--------------------------------------------------------------------------------------------------------------------------------------------------------------------------------
--------------------------------------------------------------------------------------------------------------------------------------------K-----------------------------------
-----------------------------------------------------------------------------------------------------------------------------------------------------------------------SSS------
--------------------------------------------------------------------------------------------------------------------------------------------------------------------------------
--------------------------------------------------------------------------------------------------------------SS----------------------------------------------------------------
-------------------------------------*-----------------------------------------------------------------------------------------------------------------------S------------------
-------------------------------------#CS------------------------------------------------------------------------------------QQ-----------------------------SS#CS-------SS-------
-------------*-----*----------TT----T----K---*----------TT------------T------*-----*-----------*------TT-------------------------------------#---------*------------------------
---------*---*-----*----------TT----T--------*----------TT----TT-------------*-------*---------*------TT-----------*---*-------------------------------*-----------*------------
-M-----------------*----------TT-k--TT-------B----------TT----TT-------------B-------*---------*------TT-----------B---*-------------------------------B------------------------
XXXXXXXXXXXXXXXXXXXXXXXX------XXXXXXXXXXXXXXXXXX-------XXXXXXXXXXXXXXXXXXXXXXXXXXXXXXXXXXXXXXXXXXXXXXXXXXXXXXXXXXXXXXXXXXXXXXXXXXXXXXXXXXXXXXXXXXXXXXXXXXXXXXXXXXXXXXXXXXXXXXXX-
XXXXXXXXXXXXXXXXXXXXXXXX------XXXXXXXXXXXXXXXXXX-------XXXXXXXXXXXXXXXXXXXXXXXXXXXXXXXXXXXXXXXXXXXXXXXXXXXXXXXXXXXXXXXXXXXXXXXXXXXXXXXXXXXXXXXXXXXXXXXXXXXXXXXXXXXXXXXXXXXXXXX--