----------------------------------------------------------------------------------------------------------------------------------------------------------------------------------------------------------
----------------------------------------------------------------------------------------------------------------------------------------------------------------------------------------------------------
----------------------------------------------------------------------------------------------------------------------------------------------------------------------------------------------------------
----------------------------------------------------------------------------------------------------------------------------------------------------------------------------------------------------------
----------------------------------------------------------------------------------------------------------------------------------------------------------------------------------------------------------
----------------------------------------------------------------------------------------------------------------------------------------------------------------------------------------------------------
------SSSSSSSSS---!-------------------------------------SSSSSSSSS---------SS-----SSS--------SSS---------------------!---------------!-------------S-------------------------------------------------------
----------------------------------------------------------------------------------------------------------------------------------------------------------------------------------------------------------
--------------------------------S-SSSS-----------------------------------------#----------##------------------------------------------------------------------------------------S!S-----------------------
-----------------------------------------------------------------------------------------###--------------------------------------------------------------------------------------------------------------
--------------------------tt------------!S----!----##-----SS!S----------SS--------------###---------!-------------------##----------SS!S-------tt-----------SSSS------------------------------------------
--------------------------tt----------------------###-----------------------#----------###-----------------------------###---------------------tt---------------------------------------------------tt----
---------SS---------------tt----------------------###-----------------------##--------####----------------------------####---------------------tt----------------------tt----------------tt---------tt----
--M------------------g----tt---------------------####-##-------------g-g----####------####----------g-g----------g-#-#####------gg--------g----tt----------------------t-----------------t----------tt----
--XXXX-------S----XXXXXXXXXXXXXXXXXXXXXXXXXXXXXXXXXXXXXXXXXX-----S--XXXXXXXXXXXXXXXXXXXXXXXXXXXX--XXXXXXXXXXXXXXXXXXXXXXXXXXXXXXXXXXXXXXXXXXXXXXXXXXXXXXXXXXXXXXXXXXXXXXXXXXXXXXXXXXXXXXXXXXXXXXXXXXXXXXXX
--XXXX-----------XXXXXXXXXXXXXXXXXXXXXXXXXXXXXXXXXXXXXXXXXXX--------XXXXXXXXXXXXXXXXXXXXXXXXXXXX--XXXXXXXXXXXXXXXXXXXXXXXXXXXXXXXXXXXXXXXXXXXXXXXXXXXXXXXXXXXXXXXXXXXXXXXXXXXXXXXXXXXXXXXXXXXXXXXXXXXXXXXX