--------------------------------------------------------------------------------------------------------------------------------------------------------------
--------------------------------------------------------------------------------------------------------------------------------------------------------------
--------------------------------------------------------------------------------------------------------------------------------------------------------------
S---SSSSSSSSSSSSSSSSS-----SSSSSSSSSSSSSSSSSSSSSSSSSSSSSSSSSSSSSS----------SSSSSSSSSSSSSSSSSSSSSSSSSSSSSSSSSSSSSSSSSSSSSSSSSSSSSSSSSSSSSSSSSSSSSSSSSSSS--------
S-----------------SS-------------------------------------------------------------------------------------------------------------------------S----------------
S-----------------SS------------------------------------------------------------------------------------------------------------------------SS----------------
S-----------------SSSS----------------------------------------------------------------------------------------------------------------------Sooo--------------
S-------------------------------------------------------------------------------------------------------------------------------------------------------------
S-----------S-----------------------------SS-----------------------------------------------------------------------------------------------SSSSSS-------------
S-----------SSS---------------------------SS----------------------------------------oS--og-------------------------------------------------SSSSSS-------------
S----------SSS----------------------SS----SSSS----------S--------------------g-#----SS--SSS------------#------------------------SSTT------------SSSS----------
S-------------------------T---------------SS---------------------------------#-#---------------------#-#---#-#-#------------------TT--------------------------
S------------------------TT----#-#--------SS------------------TT---T-----T---###---------------------#-#-#-#-#-#------------------TT------------------SS------
SM---------------g-g--g--TT----#-#-----------------------------#---T-----T---#-#-----------g-------#-###-#-#-#-#------------------T#------------------S-------
XXXXXXXXXXXXXXXXXXXXXXXXXXXXXXXXXXXXXXXXXXXXXXXXXX---XXXXXXXXXXXXXXXXXXXXXXX-----XXXXXXXXXXXXXXXXXXXXXXXXXXXXXXXXXXXXXXXXXXXXXXXXXXXXXXXXXXXXXXXXXX---XXXXXXXX
XXXXXXXXXXXXXXXXXXXXXXXXXXXXXXXXXXXXXXXXXXXXXXXXXX--XXXXXXXXXXXXXXXXXXXXXXXX----XXXXXXXXXXXXXXXXXXXXXXXXXXXXXXXXXXXXXXXXXXXXXXXXXXXXXXXXXXXXXXXXXXXX--XXXXXXXX