--------------------------------------------------------------------------------------------------------------------------------------------------------------
--------------------------------------------------------------------------------------------------------------------------------------------------------------
--------------------------------------------------------------------------------------------------------------------------------------------------------------
S-----SSSSSSSSSSSSSSSSSSSSSSSSSSSSSSSSSSSSSSSSSSSSSSSS-------SSSSSSSSSSSSSSS-----------SSSSSSSSSSSSSSSSSSSSSSSSSSSSSSSSSSSSSSSSSSSSSSSSSSSSSSSSSSSSSSSSS-S----
S-----SS-----------S--SS----SS----------------------------------------------------------------------------------------------------------------SS--------------
S-----SS--------------------SS----------------------------------------------------------------------------------------------------------------SS--------------
S-----SS--S---ooooSS--------SS--------------------------------------oooooooooSSSS--------------------S---------------------------------------SSS--------------
S-----SS--SS----------------SS-----------------------------------------------------------------------SoS---------------------------------------S--------------
S-----SS--SS-SSSSSSS--------SS--------------------------------------SSSSSSSSSSSSSSS------------------SSS------------------------------SS--------SS------------
S-----SS--SS-SSS--SS------ooSS--------------------------------------SSSSSSSSSSS--SS---------------------------------------------------SS-----g--SSSS----------
S-------------------------SSSS--------------------------TT----------------SS------------------SS-------------gS#----STQ-----TT------SSSS----SSS--SSS----------
S----#---------------------------------T----------------TT----------------SS--------------TT-----------------#-#------------TT--------SS----------------------
S--#-#---------------#----------------TT----------------TT----------------SS--------------TT----------SS-----#-#------------TT---------S----------------------
SM---#---------------#-----S-----------T---T---------g--TT---g-g---------SS---------------TT-----g-----------#-#-k------g-g--#-------g------------------------
XXXXXXXXXXXXXXXXXXXXXXXXXXXXXXXXXXXXXXXXXXXXXX---XXXXXXXXXXXXXXXXXXXXXXXXX---------XXXXXXXXXXXXXXXXX--XXXXXXXXXXXXXXXXXXXXXXXXXX--XXXXXXXXXXXX--XXXX--XXXX----
XXXXXXXXXXXXXXXXXXXXXXXXXXXXXXXXXXXXXXXXXXXXXX---XXXXXXXXXXXXXXXXXXXXXXXXX-------X-XXXXXXXXXXXXXXXXX--XXXXXXXXXXXXXXXXXXXXXXXXXX-XXXXXXXXXXXXX--XXXX--XXXX----