------------------------------------------------------------------------------------------------------------------------------------------------------------------------------------------------------------------------------
------------------------------------------------------------------------------------------------------------------------------------------------------------------------------------------------------------------------------
------------------------------------------------------------------------------------------------------------------------------------------------------------------------------------------------------------------------------
------------------------------------------------------------------------------------------------------------------------------------------------------------------------------------------------------------------------------
------------------------------------------------------------------------------------------------------------------------------------------------------------------------------------------------------------------------------
----------------------------------##------------------------------------------------------------------------------------------------------------------------------------------------------------------------------------------
---Q-Q---------------------------###------------------------------------------------------------------------------------------------------------------------------------------------------------------------------------------
-------------------------------###-#------------------------------------------------------------------------------------------------------------------------------------------------oooo--------------------------------------
------------------------------#####-------------------------------------------------------------------------------------------------------------------------------------------------------------------------Q-----------------
----------------------------y######-------------------------------------------------------------------------------------------------------------------------------------------------------------------------------------------
----Q-----------------------#######---------------------------Q-------------------------Q-----------------------------------------------------------------------------------------T-------Q-----------------------------------
------------------------#--#######------------------------------------------------------------------------------------------------------------------------------------------------TT------------------------------------------
------------------------#-########------------------------------------------------------------------------------------------------------------------------------------------------TT------------------------------------------
-M-------------------#---#########---------y-------------------y---y---------------------------------------------------------------------------------------y----------------------TT-----------------y-----------------y------
XXXXXXXXXXXXXXXXXXXXXXXXXXXXXXXXXXXXXXXXXXXXXXXXXXXXXX--XXXXXXXXXXXXXXXXXXXXXXXXXXXXXXXXXXXXXX--XX--XXXXXXXXXXXXXXXXXXXXXX--XXXXXXXXXXXX--XXXXXXXXXXXXXXXXXXXXXXXXXXXXXXXXXXXXXXXXXXXXXXXXXXXXXXX-XXXXXXXXXXXXXXXXXXXXXXXXXXXX
XXXXXXXXXXXXXXXXXXXXXXXXXXXXXXXXXXXXXXXXXXXXXXXXXXXXXX--XXXXXXXXXXXXXXXXXXXXXXXXXXXXXXXXXXXXXX--XX--XXXXXXXXXXXXXXXXXXXXXX--XXXXXXXXXXXX--XXXXXXXXXXXXXXXXXXXXXXXXXXXXXXXXXXXXXXXXXXXXXXXXXXXXXXXXXXXXXXXXXXXXXXXXXXXXXXXXXXXX