----------------------------------------------------------------------------------------------------------------------------------------------------------------------------------------------------------
----------------------------------------------------------------------------------------------------------------------------------------------------------------------------------------------------------
----------------------------------------------------------------------------------------------------------------------------------------------------------------------------------------------------------
----------------------------------------------------------------------------------------------------------------------------------------------------------------------------------------------------------
----------------------------------------------------------------------------------------------------------------------------------------------------------------------------------------------------------
---------------------------------------------------------------------------------------------------------------------#------------------------------------------------------------------------------------
--------------------------------SSS------------------------------------------SSSSS---------------------------------S-S------------------------------------------------------------------------------------
----------------------------------------------------------------------------------------------------------------------------------------------------------------------------------------------------------
------------------SSS---------------------------------------S-------------------------------S------------------------#------------------------------------------------------------------------------------
-----------------------#---------------------------------------------------------------------------------------------#-----------------------------------------------------#------------------------------
----------------------##--------------------------------------------SSSSS------!S-----------------------------tt-----S-S--!S----S---S-----!----------------tt-----SS------S#------------------------------
---------------------###--------------------------------------------------------------------------------------tt-------------------------------------------tt-------------##------------------------------
----t---------------####----------------------------t---------------------------------------------------tt----tt--#---------------------tt---------t-------tt-----------------------------tt--------------
---Mtt-------------#####-------------g-g------------t-----------------------g-g-------------------g------t-----t-##---------------------tt-g-------t-------tt---------g-#-##---------g----tt-g------------
S--XXXXXXXXXXXXXXXXXXXXXXXXXXXXXXXXXXXXXXXXXXXXXXXXXXXXXXXXXXXXXXXXXXXXX---XXXXXXXXXXXXXXXXXXXXXXXXXXXXXXXXXXXXXXXXXXXXXXXXXXXXXXXXXXXXXXXXXXXXXXXXXXXXXXXXXXXXXXXXXXXXXXXXXXXXXXXXXXXXXXXXXXXXXXXXXXXXXXX
---XXXXXXXXXXXXXXXXXXXXXXXXXXXXXXXXXXXXXXXXXXXXXXXXXXXXXXXXXXXXXXXXXXXXX--XXXXXXXXXXXXXXXXXXXXXXXXXXXXXXXXXXXXXXXXXXXXXXXXXXXXXXXXXXXXXXXXXXXXXXXXXXXXXXXXXXXXXXXXXXXXXXXXXXXXXXXXXXXXXXXXXXXXXXXXXXXXXXXX