----------------------------------------------------------------------------------------------------------------------------------------------------------------------------------------------------------------------
----------------------------------------------------------------------------------------------------------------------------------------------------------------------------------------------------------------------
----------------------------------------------------------------------------------------------------------------------------------------------------------------------------------------------------------------------
----------------------------------------------------------------------------------------------------------------------------------------------------------------------------------------------------------------------
----------------------------------------------------------------------------------------------------------------------------------------------------------------------------------------------------------------------
----------------------------------------------------------------------------------------------------------------------------------------------------------------------------------------------------------------------
------------------------------S-----------------------SSS-------S-------SS--SS-----------------------------------SSSSS----------------------------------------------------------------SSS-------------S---------------
----------------------------------------------------------------------------------------------------------------------------------------------------------------------------------------------------------------------
--SSSS--------------------------------SS----------------------------------------------------SS----------------------------------------T---------T---------------------------------------------------------------------
---------------------------------#--------------------------------------------------------------------------------------------------##T---------TT--------------------------------------------------------------------
--------------TT-------------#--##---#-------------------SSS-----S----------T---------------------TT---S-----------S------T-------TT#-X---------TT--------------TT-------------------------T------------TT----TS------
--------------TT----------TT-----#------------------------------------------TT--------------------------------------------TT-----#TT--------TT--TT--------------TT----TT------------------TT------T-----TT----TT------
--------------TT--------##TT-#---#----------------TT--------------TT---------T------TT--TT--#------T-------TT-TT----------TT---###TT###-----TT--TT--------------TT----TT----TT------------TT------TT--T-TT----TT------
--M-----------TT-------###TT-#--##----------------TT--------------TT---------T------TT--TT-##------------t-T--TT----------TT---###TT-##-----TT--TT-------k------TT----TT----TT--------TT--TT------TT--T-TT----TT------
--XXXXXXXXXXXXXXXXXXXXXXXXXXXXXXXXXXXXXXXXXXXXXXXXXXXXXXXXXXXXXXXXXXXXXXXXXXXXXXXXXXXXXXXXXXXXXXXXXXXXXXXXXXXXXXXXXXXXXXXXXXXXXXXXXXXXXXXXXXXXXXXXXXXXXXXXXXXXXXXXXXXXXXXXXXXXXXXXXXXXXXXXXXXXXXXXXXXXXXXXXXXXXXXX---X
X-XXXXXXXXXXXXXXXXXXXXXXXXXXXXXXXXXXXXXXXXXXXXXXXXXXXXXXXXXXXXXXXXXXXXXXXXXXXXXXXXXXXXXXXXXXXXXXXXXXXXXXXXXXXXXXXXXXXXXXXXXXXXXXXXXXXXXXXXXXXXXXXXXXXXXXXXXXXXXXXXXXXXXXXXXXXXXXXXXXXXXXXXXXXXXXXXXXXXXXXXXXXXXXXX----