---------------------------------------------------------------------------------------------------------------------------------------------------------------------
---------------------------------------------------------------------------------------------------------------------------------------------------------------------
---------------------------------------------------------------------------------------------------------------------------------------------------------------------
---------------------------------------------------------------------------------------------------------------------------------------------------------------------
---------------------------------------------------------------------------------------------------------------------------------------------------------------------
----oo----------------------------------------------------------------------------------------------------------------oooo-------------------o-----------------------
------------------------------SS------SS---SS---------------%%%%----------------SS----SSS------SS--------S---%%%%%--SSS----------------SSSSS-------------------------
-------------------------------------------------------------||%----------------------------------------------|||----------------------------------------------------
-----SS-----SS-------------SS--------------------------------||------------------------------------------------||----------------S-----------SSS---------------------
-------------------------------------------------------------||------------------------------------------------||--------------SSS-------------------oo--------------
-----------%%%%-------%%%%-----%%%%---------%%%%%%-----------|||-----------------S-S%---%%%%S---------SSS------||-----------------------------------------SS---------
------------||--------%||-------||----------%||||------------|||--------------------|----||--------------------||-----------------------||--------|------------------
------------||--------|||-------|------------|||-------------||-------------------%%%----|---------------------||||--------------------|||-------||------------------
-M----------||--------|||-------------------||||-------------|---------------------||----|---------------------||||--------------------|||-------||----------------X-
XXXXX-%%%%%%||----%%%%|||%%%%%%%%%%--%%%-----|||-------%%%---XXXXXXXXXXX%%%%%%%----||----|---------------------||||--%%%%%%----------%%|||-------||--------%%%%XXXXXX
XXXXX--||||-||-----||--||-|-||||||----|------|||--------|----XXXXXXXXXXX-|||||-----||----|---------------------||||---||||-------------|||-------||---------||-XXXXXX