--------------------------------------------------------------------------------------------------------------------------------------------------------------------------------
--------------------------------------------------------------------------------------------------------------------------------------------------------------------------------
--------------------------------------------------------------------------------------------------------------------------------------------------------------------------------
--------------------------------------------------------------------------------------------------------------------------------------------------------------------------------
-------------------------------------------------------------------------------------------------------------------------------------------##-----------------------------------
------------------------------------------------------------------------------------------------------------------------------------------###-----------------------------------
--SS------SS--------------------SS------------------------------------SS----------------------------------------------------------------######-----------S---SSS----------------
---------------------------------------------------------------------------------------------------------------------------------------#######----------------------------------
----------------------SS---------------------------------------------------------------------------------------------------------------#######----------------------------------
---------------------------------------*----------------------------------------------------------------------------------------------########----------------------------------
---S----SSSSSS----------------------SSS#CS---------------------------SS-----------SS-----------------------##------------------------#######-#---#------------------------------
-----------------*-------*-------------------#-----*------TT---------------*-----------*------TT----------#-#-------TT--------------######---#---#-----------------*------------
-----------------*-------*-----------------*-#-----*------TT---*-----------*-----------*------TT----TT---####-------TT-----*-------#######---#---#-----------------*------------
-M---------------B-------B-----------------*-#-----*------TT---------------*-----------*------TT----TT--#####-------TT-k---*------########---#---#-----------------#---*--------
XXXXXXXXXXXXXXXXXXXXXXXXXXXXXXXXXXXXXXXXXXXXXXXXXXXXXXXXXXXXXXXXXXXXXXXXXXXXXXXXXXXXXXXXXX---XXXXXXXXXXXXXXXXXXXXXXXXXXXXXXXXXXXXXXXXXXXXXXXXXXXXXXXXXXXXXXXXXXXXXXXXXXXXXXXXXXX
XXXXXXXXXXXXXXXXXXXXXXXXXXXXXXXXXXXXXXXXXXXXXXXXXXXXXXXXXXXXXXXXXXXXXXXXXXXXXXXXXXXXXXXXXX---XXXXXXXXXXXXXXXXXXXXXXXXXXXXXXXXXXXXXXXXXXXXXXXXXXXXXXXXXXXXXXXXXXXXXXXXXXXXXXXXXXX