------------------------------------------------------------------------------------------------------------------------------------------------------
------------------------------------------------------------------------------------------------------------------------------------------------------
------------------------------------------------------------------------------------------------------------------------------------------------------
------------------------------------------------------------------------------------------------------------------------------------------------------
-----------------------g------------------------------------------------------------------------------------------------------------------------------
---------------------%%%%%----------------------------o%--------------------------------o--------oor-----%%%%%%-----ooooo---ooooo------%%%%-----------
----------------------||||-%%%%%------------%%%--------------------------------------%%%-------%%%%%------||||-----%%%%%%---%%%---------|-------#%#---
----------------------||||--||------------o-||--------------------------------------###---------|||-------||||------||||----||----------|--------##---
------S------%%%%%%%--||||---------------%%%||------------------------------------#####---------||||---%%%%%%%------||||----||----------|--------##---
--------------||||||--||||----------------||||-----------------------------------######---------||||----||||||--%%%-||||----||------%%%%|-------###---
--------------||||||--||||----------------||||------%#-------%%%%%%----SSSS------#######--%---%-||||----||||||------||||----||--%%%-------------##----
--------------||||||--||||----------------||||------##--------||||---------------####-##--------||||----||||||---|--||||----||---|--|-----------##----
--------------||||||--||||-----------%%%%-||||------##--------||||-----------------#--##--------||||----||||||------||||----%%---|--||-|--------##---X
-M------------||||||--||||------------|---||||------##----oo--||||--------------------##--------||||----||||||---|--||||----||---|--||----------##-#-X
XXXXXXXXXXXX--||||||--||||------------|---||||-XXXXXXXX--%%%--||||----------XXXXXXXXXXXXXXXXXX%-||||----||||||------||||----||--%%--||---%--XXXXXXXXXX
XXXXXXXXXXX---||||||--||||-------------|--||||-XXXXXXXX--%|---||||---------XXXXXXXXXXXXXXXXXXX--||||----||||--------||||----||--||--||--%----XXXXXXXXX