---------------------------------------------------------------------------------------------------------------------------------------------------------------------
---------------------------------------------------------------------------------------------------------------------------------------------------------------------
---------------------------------------------------------------------------------------------------------------------------------------------------------------------
---------------------------------------------------------------------------------------------------------------------------------------------------------------------
-----------------------------------------------------------------------------------------------------------------oo--------------------------------------------------
---------------------------------------------------------------------------------------------ooo-------oo------o%------------------o---------------------------------
-----------------------------S----%%%%------SSS------SSS------%SS-SSS-----------------------------SS----------------oo-------SS--------------------------------------
-----------------------------------||--------------------------|------------------------------------------------------ooo--------------------------------------------
----------------SS-----------------||--------------------------|-----------------------------SSS--------SS-------S----------------SS------SSooo-------ooo------------
-----------------------------------|||-------------------------|--------------------------------------------------SSS-------------S-----------------ooSS-------------
--------------%-----------------SS-|||-%-------------------SS-%%%%%------------------SSS----------%%%%------%%%%%--------%%%%%--------------------%%%----%%%%%%%-----
---------------%%%----%%%----------|||--|----------------------|||---------------------------------||-%%%----|||-----------||----------------------||-----|||||------
---------------||-------|----------|||--|----------------------|||---------------------------------||-||-----|||-----------||----------------------||-----|||||------
------M--------|--------|----------|||--|----------------------|||---------------------------------||-||-----|||-----------||----------------------||-----|||||------
------%%%%%%%%%%%%-%%%%%|%%%-------|||%%%%%%------XXXXX--------|||--------%%%%%XXXXXXXX%%%%%%%%----||%%|%%%%%|||--------%%%||-------%%%%%----------||-----|||||-XXXX-
-------||||||-|||----||-||---------||||-|||-------XXXXX--------|||---------|||||-XXXXXX--|||||%----||-||--||-|||---------|-||--------|||-----------||-----|||||-XXXXX