----------------------------------------------------------------------------------------------------------------------------------------------------------------------------------------------------------------------
----------------------------------------------------------------------------------------------------------------------------------------------------------------------------------------------------------------------
----------------------------------------------------------------------------------------------------------------------------------------------------------------------------------------------------------------------
----------------------------------------------------------------------------------------------------------------------------------------------------------------------------------------------------------------------
---------------------------------------------------------------------------------------------------------------------------------------------------------------------------------------------------------------S------
------------------------------------------------------------------------------------------TT--------------------------------------------------------------------------------------------------------------------------
----------------------------------------------------------------------S-------------------TT------SSSS--------------SCS-----SS--------SSS-----------------------------SS----------------------------------------------
------------------------------------------------------------------------------------------TT----------------------------------------------------------------------------------TT--------------------------------------
------------------------TT----------------------SSS---------SS------------------TT--------XX----##--------------------------------------------------TT------------------------TT-------------------------S--------#---
------------------------TT----------------TT------------------------------------TT-------------###--------------------------------------------------TT------------------------TT---------------------------------##---
----------------TT------------------------TT------------T-----------------------tX---------------##-------------TT-#------------------------------------TT----S---------------XX--SS---------------------------####---
--------T-------TT----------------TT------TT----------------------------TT------tt----TT-----#---##---------TT--TT-#------------------------TT----------TT-------------------------------------------------T-----##---
------#----T----TT---T------------TT------TT-------------------------T--TT------tt----TT----##---##-----tt--TT--TT-#----------TT-------t----TT----------TT------------------------------------------------TT--##-##---
-M-k--#---TT----TT---T------------TT-------T-------------------------T--TT------tt----TT----##---##-----tt--TT--TT-#----------TT------tt----TT---------TTT---------------------------------------------k--TT--##-##---
XXXXXXXXXXXXXXXXXXXXXXXXXXXXXXXXXXXXXXXXXXXXXXXXXXXXXXXXXXXXXXXXXXXXXXXXXXXXXXXXXX----XXXXXXXXXXXXXXXXXXXXXXXXXXXXXXXXXXXXXXXXXXXXXXXXXXXXXXXXXXXXXXXXXXXXXXXXXXXXXXXXXXXXXXXXXXXXXXXXXXXXXXXXXXXXXXXXXXXXXXXXXXXXXXXX
XXXXXXXXXXXXXXXXXXXXXXXXXXXXXXXXXXXXXXXXXXXXXXXXXXXXXXXXXXXXXXXXXXXXXXXXXXXXXXXXXX----XXXXXXXXXXXXXXXXXXXXXXXXXXXXXXXXXXXXXXXXXXXXXXXXXXXXXXXXXXXXXXXXXXXXXXXXXXXXX-XXXXXXXXXXXXXXXXXXXXXXXXXXXXXXXXXXXXXXXXXXXXXXXXXX