----------------------------------------------------------------------------------------------------------------------------------------------------------------------------------------------------
----------------------------------------------------------------------------------------------------------------------------------------------------------------------------------------------------
----------------------------------------------------------------------------------------------------------------------------------------------------------------------------------------------------
----------------------------------------------------------------------------------------------------------------------------------------------------------------------------------------------------
------------------------------------------------------------------------------------------------------------------------------------------------------------------------------------SQ--------------
---------------------------------------------------------------------------------------------#k-------------------------------------------------k---------------------------------------------------
---------SQS----------------------------------------------------------------SQSS---------g#####------------------------------------------------SQS-----------SSS------------------------------------
-------------------------------------------------------------------------------------------####-----------------------------------------------------------------------------------------------------
----------------------------------------------------------------------------------------#-#####---------------------------------------------SSQS---g##-----------------------S----------------------
----------------------------------------------------------------------------------------#######-----------------------------------------------------##----------------------------------------------
---------SS--------------------------SQSSS--------------------S---------------------#-#########---#-----------------------------------------------#-###-------S---S--------------------S--S---------
----------------------------------------------------------------------------------------#######---------------#-----------K-----------------------#####---------------------------------------------
------------------------------------------------------------------------TT--------------#######---------------#-----------#-----------------------#####---------------------------------------------
---M----------------------------------------K-------------------------g-TT--------------#######---gg----------#---------k-#---------------------------#----------------K----------------------------
---XXXXXXXXXXXXXXXXXXXXXXXXXXXXXXXXXXXXXXXXXXXXXXXXXXXXXXXXXXXXXXXXXXXXXXXXXXXXXX------XXXXXXXXXXXXXXXXXXXXXXXXXXXXXXXXXXXX----X--XXXXX---------------X------XXXXXXXXXXXXXXXXXXXXXXXXXXXXXXXXXXXX---
---XXXXXXXXXXXXXXXXXXXXXXXXXXXXXXXXXXXXXXXXXXXXXXXXXXXXXXXXXXXXXXXXXXXXXXXXXXXXXX------XXXXXXXXXXXXXXXXXXXXXXXXXXXXXXXXXXXX---XX--XXXXX----------------------XXXXXXXXXXXXXXXXXXXXXXXXXXXXXXXXXXXXX--