----------------------------------------------------------------------------------------------------------------------------------------------------------------------------------------------------------
----------------------------------------------------------------------------------------------------------------------------------------------------------------------------------------------------------
----------------------------------------------------------------------------------------------------------------------------------------------------------------------------------------------------------
----------------------------------------------------------------------------------------------------------------------------------------------------------------------------------------------------------
----------------------------------------------------------------------------------------------------------------------------------------------------------------------------------------------------------
----------------------------------------------------------------------------------------------------------------------------------------------------------------------------------------------------------
--------SS----------------------SSS-----------------------------------------------------!S--------SS--------------------S-S---------------------------------------------!---------------------------------
-----------------------------------------------------------------------------------------------------------------------------------------------------------------------------------#----------------------
----------------------------------------------------------------------------------------------------------------------------------------------------------------#-----------!-----##--#-------------------
-------------------------------------------------------------------------------------------------------------------------------------------------------------#--##---------------###--#-------------------
--------------S@S---------!-----------------------------S@S-------------------S!SSS!S---S@-----@S-----------------------S-----------------S---------t--------#--#-#--------------###--#-------------------
----------------------------------------------------------------------------------------------------------------------------------tt----------------t--------##--##-------------####--#-------------------
---------------------------------------------------------------------------------------------#----##-------------t----------------tt--#-------------t-----t#-###--#------------#####--##-------t----------
---M---------------------------g---g---------g-------------------g----------g-g----------g--##----##------------------------------tt--##--g---------t-----t#####--##----------##-###-###-------t-g--------
---XXXXXXXXXXXXXXXXXXXXXXXXXXXXXXXXXXXXXXXXXXXXXXXXXXXXXXXXXXXXXXXXXXXXXXXXXXXXXXXXXXXXXXXXXXXXXXXXXXXXXXXXXXXXXXXXXXXXXXXXXXXXXXXXXXXXXXXXXXXXXXXXXXXXXXXXXXXXXXXXXXXXXXXXXXXXXXXXXXXXXXXXXXXXXXXXXXXXXXX
--XXXXXXXXXXXXXXXXXXXXXXXXXXXXXXXXXXXXXXXXXXXXXXXXXXXXXXXXXXXXXXXXXXXXXXXXXXXXXXXXXXXXXXXXXXXXXXXXXXXXXXXXXXXXXXXXXXXXXXXXXXXXXXXXXXXXXXXXXXXXXXXXXXXXXXXXXXXXXXXXXXXXXXXXXXXXXXXXXXXXXXXXXXXXXXXXXXXXXXXX