----------------------------------------------------------------------------------------------------------------------------------------------------------------------------------------------------------
----------------------------------------------------------------------------------------------------------------------------------------------------------------------------------------------------------
----------------------------------------------------------------------------------------------------------------------------------------------------------------------------------------------------------
----------------------------------------------------------------------------------------------------------------------------------------------------------------------------------------------------------
----------------------------------------------------------------------------------------------------------------------------------------------------------------------------------------------------------
----------------------------------------------------------------------------------------------------------------------------------------------------------------------------------------------------------
----------------------------------------------------------------------------------------!-----------------------------------------!-----------!-----------------------------------##----------------------
---------------------------------------------------------------------------------------------------------------------------------------------------------------------------------###----------------------
--------------------------------------------------------------------------------------------------------------------------------------------------------------------------------####----------------------
------------------------------------------------------------------------------------------------------##-------------#---------------------------------------------------------#####----------------------
---------SSS---SSS------------------------------------tt------------!---S--S-----t-------------------###------S-S-S---------!-----SS----------!--------------------------------#####----------------------
-----#------------------------------------------------tt------------------------tt------------------####----------------------------------------------------------------------######----------------------
----###---------------------------------t-------------tt------t-----------------tt-----------------######-----------t#---------------------------------------------t---------#######---------------#------
-M-#####-------------g-----g------------t-------------tt------t-----------------tt--------g-------####--##--g-------tt-----------g-----------g---------------------t--------#########------g-g----###-----
XXXXXXXXXXXXXXXXXXXXXXXXXXXXXXXXXXXXXXXXXXXXXXXXXXXXXXXXXXXXXXXXXXXXXXXXXXXXXXXXXXXXXXXXXXXXXXXXXXXXXXXXXXXXXXXXXXXXXXXXXXXXXXXXXXXXXXXXXX--XXXXXXXXXXXXXXXXXXXXXXXXXXXXXXXXXXXXXXXXXXXXXXXXXXXXXXXXXXXX--
XXXXXXXXXXXXXXXXXXXXXXXXXXXXXXXXXXXXX-XXXXXXXXXXXXXXXXXXXXXXXXXXXXXXXXXXXXXXXXXXXXXXXXXXXXXXXXXXXXXXXXXXXXXXXXXXXXXXXXXXXXXXXXXXXXXXXXXXXX--XXXXXXXXXXXXXXXXXXXXXXXXXXXXXXXXXXXXXXXXXXXXXXXXXXXXXXXXXXXX--