----------------------------------------------------------------------------------------------------------------------------------------------------------------------------------------
----------------------------------------------------------------------------------------------------------------------------------------------------------------------------------------
----------------------------------------------------------------------------------------------------------------------------------------------------------------------------------------
----------------------------------------------------------------------------------------------------------------------------------------------------------------------------------------
----------------------------------------------------------------------------------------------------------------------------------------------------------------------------------------
----------------------------------------------------------------------------------------------------------------------------------------------------------------------------------------
-----------------------------#--------------SS--------------So----------------------------------------------------y------y--yyS---------------------------------------------------------
----------------------------##----------------------------------------------------------------------------------#S-------##SSS-------------S-----------------------------------y--------
---------------------------###---------------------------------------------#-----------------------------------##--------##----------------------------------------oo----------S--------
---------------------------###---------y----------------------------------##----------------------------------###1------##--------------------------------------##-----------##---------
----------------S--------#-###------------####----------------------------##--SC---------QS-------------------###------###---SSC-------------SS-------Q--------##------------###--------
------------------------##-###------#####-##----------------------------####--------------------------------#-###-----####------------------------------------####--------#####---------
------------------------##-###-----####-----------------------------##-#####---S---------------------------##-###-----####-----SSS---------------------------#####-------######---------
-M-------------y-----y-##--###----###-----------#-------SS---------#-#-----#-------------T------y--y------###-###------###-------------y-----y--------------######------######----------
XXXXXXXXXXXXXXXXXXXXXXXXXXXXXXXXXXXXXXXXX---XXXXXXXX------XXXXXXXXXXXX----------XXXXXXXXXXXXXXXXXXXXXXXXXXXXXXXXXXXXXXXXXX--------XXXXXXXXXXXXXXXXXXXXXXX-XXXXXXXX----XX--XXXX----------
XXXXXXXXXXXXXXXXXXXXXXXXXXXXXXXXXXXXXXXXXX--XXXXXXXX------XXXXXXXXXXXX----------XXXXXXXXXXXXXXXXXXXXXXXXXXXXXXXXXXXXXXXXXX--------XXXXXXXXXXXXXXXXXXXXXXX-XXXXXXXX----XX--XXXX----------