-------------------------------------------------------------------------------------------------------------------------------------------------------------------------------------------
-------------------------------------------------------------------------------------------------------------------------------------------------------------------------------------------
-------------------------------------------------------------------------------------------------------------------------------------------------------------------------------------------
S---SSSSS---------------SSSSSSSSSSSSSSSSSSSSSSSSSSSSSSSSSSSSSSSSSSSSSSSSSSSSSSSSSSSSSSSSSSSSSSSSSSSSSSSSSSSSSSSSSSSSSSSSSSSSSSSSSSSSSSSS----------SSSSS---SSSSSSSSSSSSSSSSSSSSSS--SSSSSSSSS
S-------------------------------------SSSSS-------------SSSSSSSSSSSSSSSSS--------------SSSSSSSSSSSSSSSS------------------------------------SSSSS-SSSSSSSSSSSSSS--------SSSSS-------------SS
S-----T-------------------------------SSSS--------------SSSSSSSSSSSSSSSSS--------------SSSSSSSSSSSSSSS-------------------------------------SSSSSSSSSSSSSSSSSSSS--------SSSS--------------SS
S-----TT-------------------------------SSS---------------SSSSSSSSSSSSSSS---------------SSSSSSSS-SQ---------------------------------------SSSSSSSSSSSSSSSSSSSSSSS----------SSSS---------S-S-
S-----TT-------------------------------------------------------------------------------------------------------------------------------------S-S-----------------------------------------S-
S--------------------SSS----SSSSS--S-----------------------------------------------------------------------TT----------------------------------------------------------------------------SS
S-------------------------SS-SSS--SS--oooooo---------------------------------------------------------------TT---------------------------------------ooooooo--------------------------------
S-----------TT------------SS------SS--SSSSSSS-S------------SSSSSSSSSSSST---------SSSS--SSSSSSSSSSSS--------TT--------------TSSS--T-------S--------SSSSSSSSS-SSS------------SSSSSSS---------
S-----------TT---------------------------------------------SSSSSSSSSSSTT---#-------S---SSSSSSSSSSSS--------TT-------------TT-----TT--------TT--##---------SSSSS----------------S-----------
S-----tt----TT------------------------------T--------------SSSSSSSSSS-TT----S----------SSSSSSSSSSSSSS#-----TT--------#----TT-----##--tt----TT--##--------SSSSSS------------T-------T-----SS
SM-----t----TT-----------------------------kTT--------------SSSSSSSS-kTT---T-----k-------SSSSSSSSSS-##----kT--------###---TT----#T#--------TT--##----------------k-------kkT-----k-------SS
XXXXXXXXXXXXXX--XX---------X-----XXX---XXXXXXXXXXXXXXXXXXXXXXXXXXXXXXXXXXXXXX-XXXXXXXXXXXXXXXXXXXXXXX-XXXXXXXXXXXXXXXXX--XXXXXXXXXXXXXXXXXXXX--XX----XXX-XX--XXXXXXXXXXXXXXXXXXXXXXXXXXX-XX
XXXXXXXXXXXXXX--XX---------X-----XXX----XXXXXXXXXXXXXXXXXXXXXXXXXXXXXXXXXXXXX-XXXXXXXXXXXXXXXXXXXXXXX-XXXXXXXXXXXXXXXXX--XXXXXXXXXXXXXXXXXXXX--XX----XXX--X-XXXXXXXXXXXXXXXXXXXXXXXXXXXX-XX