-----------------------------------------------------------------------------------------------------------------------------------------------------
-----------------------------------------------------------------------------------------------------------------------------------------------------
-----------------------------------------------------------------------------------------------------------------------------------------------------
-----------------------------------------------------------------------------------------------------------------------------------------------------
-----------------------------------------------------------------------------------------------------------------------------------------------------
-------------------------------o-----------------------------------o------------------------------------------------------o--------------------------
-------------oo--------------%S%-------------------ooo-----------%%%%-----%-%SS--o--------%%%--------------o--------------%%%%%----------------------
-----------------------------------------------------------o------||--o----|-----o----oo---|--------------%%%---------------||-----------------------
-------------%%---------------------------------%%%%%%---------%%%||-%%%-------%------%%%--|----------%%%%-|----------------||-----------------------
-------------||----S-%%%%%%%%----SSS--SS---------||||------------||||||--------|-|----||---|---SS--o---||--|-----o----------||----SSS----------------
------M------|||------||||||---------------------||||-----%%%%---||||||---------------||---|------%%%--||--|-----%%%-------||----------------|-------
------%%%%%%%%||------||||||---------------------||||------||----||||||--|------------||---|-------||--||--|-----------o---||----------------|-------
-------||||||||%%%%%%%%%%|||-----------------|%%|||||------||--%-||||||--|----%%%------|---|-----|-||--||--|---------------|-----------------||------
-------|||||||||-|||||||||||-------------%%%%%%-|||||--r---||----||||-|--|-----||-%%%%%|---|-----|-||--||--|-----------|---|-----------------||----X-
-------||||||||||||||||||||%%%------------|-|||-|||||%%%%%-|%-%%%%%%%%%%%%-----||-||||%%%%%%%%%%%%%%%%%%%%%--XXXX-%%%%%%%%%||----------------||-XXXXX
-------||||||||||||||||||||||-------------|-|||-|||||||||--||||-|-||||||||-----||-||||||||%%|%|-||||||||||---XX-XX-|||||||-|-----------|-----||--XXXX