--------------------------------------------------------------------------------------------------------------------------------------------------------------------------------
--------------------------------------------------------------------------------------------------------------------------------------------------------------------------------
--------------------------------------------------------------------------------------------------------------------------------------------------------------------------------
--------------------------------------------------------------------------------------------------------------------------------------------------------------------------------
--------------------------------------------------------------------------------------------------------------------------------------------------------------------------------
--------------------------------------------------------------------------------------------------------------------------------------------------------------------------------
------------------------------------------------------------------------------------------------------SSSS----------------------------------------------------------------------
--------------------------------------------------------------------------------------------------------------------------------------------------------------------------------
----------------------------------------------SS--------------------------------------------------------------------------------------------------------------------------------
------------------------------------------------------------K-------------------------------------------------------------------------------------------------------------------
------SSS-----------------------QQ--###S-----------------SSSSSSS------QQ--------------------------------------------------------S--------------------------------S--------------
-------K---*----------TT-------------------------------------------*--------------TT---------*----TT-------*-------------------K-------------------------#----------------------
-----------*---*------TT-----*---T-----------------------------------------*-----------*-----*-------------*-----------*-------------*---*---*------------TT----------TT--------
-M---------*---*------TT-----*---T-----------------------------------------*-----------*-------------------#------#----*-------------*---B---*---------#--TT----------TT--------
XXXXXXXXXXXXXXXXXXXXXXXXXXXXXXXXXXXXXXXXXXXXXXXXXXXXXXXXXXXXXXXXXXXXXXXXXXXXXXXXXXXXXXXXXXXXXXXXXXXXXXXXXXXXXXXXXXXXXXXXXXXXXXXXXXXXXXXXXXXXXXXX----XXXXXXXXXXXXXXXXXXXXXXXXXXXX
XXXXXXXXXXXXXXXXXXXXXXXXXXXXXXXXXXXXXXXXXXXXXXXXXXXXXXXXXXXXXXXXXXXXXXXXXXXXXXXXXXXXXXXXXXXXXXXXXXXXXXXXXXXXXXXXXXXXXXXXXXXXXXXXXXXXXXXXXXXXXXXX----XXXXXXXXXXXXXXXXXXXXXXXXXXXX