------------------------------------------------------------------------------------------------------------------------------------------------------
------------------------------------------------------------------------------------------------------------------------------------------------------
------------------------------------------------------------------------------------------------------------------------------------------------------
------------------------------------------------------------------------------------------------------------------------------------------------------
-------------------------------------------------------------------------####-------------------------------------------------------------------------
--------------------------%%%%%%%---------------------oo-----------------#####--------oo---------------------------R------------------oo--oo--oo------
----SSS##------------------||-||-------------------%%%%-------------SSS#######-#SS--%%%%---------------%%%%---------%%%%---------R-SS------%%%--------
--------#------------------||-||------------oo------||-----------------########-----||------------------|------------||---o---------------------------
-------|#-----------------%%%%||--------------------||-----------------########-----||-------------##---%%%%%%%------%|--#%-----------------|---------
------||---------------#--||||||-----o%%%-----------||----------------##########----||-------------##----|||||-----|||||--#-----------------||--------
------||---------------#--||||||------||----------SSS|----------------##########----||------------##-----|||||-----|-|||-##----------%%%%%-%%%%-------
------||------------------||||||------||-----------------------%%%%---#########-----||-----oo----###-----|||||-----||-||-##-----------||----||--------
X-----||------------------||||||------||------------------------||---########-#-----|------------###-----|||||--------||-##-----------||----||--------
XM----||-%%%%------r---#--||||||--%%%-||-----r------------------||-----###----##--%-|------------###------||||---%%%%--|--#-----------||----||--------
XXXXXX||--||-------XXXX%%-||||||--||--||XXXXXXXXXXXX----%%%%----||----XXXXXXXXXXXXX-|-------%XXXXXXX--%%%-||||----||--||XXXX----------||---X||XXXXXXXX
XXXXXX||--||------X|-XX|--||||||--||--||XXXXXXXXXXX-----%||-----||----XXXXXXXXXXXXX---------%%%XXXXX--||--||||----||--||XXXX----------||---XXXXXXXXXXX