-------------------------------------------------------------------------------------------------------------------------------------------------------------------------------------------------------------------------------------------------------------------------------------------------------------------------------------------------------------------------------------
-------------------------------------------------------------------------------------------------------------------------------------------------------------------------------------------------------------------------------------------------------------------------------------------------------------------------------------------------------------------------------------
-------------------------------------------------------------------------------------------------------------------------------------------------------------------------------------------------------------------------------------------------------------------------------------------------------------------------------------------------------------------------------------
-------------------------------------------------------------------------------------------------------------------------------------------------------------------------------------------------------------------------------------------------------------------------------------------------------------------------------------------------------------------------------------
-------------------------------------------------------------------------------------------------------------------------------------------------------------------------------------------------------------------------------------------------------------------------------------------------------------------------------------------------------------------------------------
-------------------------------------------------------------------------------------------------------------------------------------------------------------------------------------------------------------------------------------------------------------------------------------------------------------------------------------------------------------------------------------
-----------------------------------------------------------------------------------------t-----------------------------------------------------------------------S---------------------------------------------------------------------------------------------------------------------------------------------------oo--------------------------------------------------------------
------------------------------------------tt--------------------------------------------tt-------------------------------------------------------------------------------------------------------------------------------------------------------------------------------------------------------------------------------------------------------------------------------------------
------------------------------------------tt--------------------------------------------tt------------tt-----------------------------------------------------------------------------------------------------------------------------------------------------oo----------------------------------------------------------o-------------------------SSCSSS----------------------------
--------------------oo--------------------tt---------------------------oo-----------------------------tt---------------------------------------------------------------------------------------------------------------------------------------------------------------------------------------------------------------------------------------------------------------------#-------
--------------------------------------TT--tt------TT-------------o-------------------##--o------------tt-------------------------------t-------------------------------------------------------------------T-----------------------------------TT----------------------------------------------------------------------##----------------------------------------------------##------
--------------------------------------TT--tt------TT---------------------------------##---------------tt----TT------------------------tt-----------------------------o-------------------------------------------------------------------------TT------------------T---o---TT------TT----------------------TT--------#-##----------------------------------------------------#-------
-----------#--------------------------TT--tt-----TTT---------#----------------------###---------------------TT---------------#---------t----------------------#---------------------------------------------------------------------------------TT-------------------------TT------TT----------TT----------TT--------#-##--------------------------------------------------#-#-------
-Mgg--ggg--------------t-----ggg------TT--tt-----TT-----k-kk-#--------------------g####---------gggg--------TT----------gggk-#---------t-------------T-g------#---------k-k---------------------k-----ggg--------------------------------------gTT-----kk------------------TT------TT----ggg---TT----ggg---TT--------#-##------------gg---------ggg--------------gg------g##-#-------
XXXXXXXXXXXXXXXXXX--------XXXXXXXXXX--XX--XX--XXXXXXXXXXXXXXXXXXXXXX------XXXXXXXXXXXXXXXXXXXXXXXXXXXXXXXXXXXXX-XXXXXXXXXXXXXXXXXXXX--XXXX-X------XXXXXXXXX-X-X-XXXXXXX-X-XXXXXXX-X-XXX-X-X-XXXXXXXXXXXXXXXXXX-XX-X-XXX-X-X-X-X---X---XXXXXXXXXXXXXXXXXXXXXXXXXXXXX-XXXXXXXXXXXXXX-XX--XXXXXXXXXXXXXXXXXXXXXXXXXXXXXXX-XXXXXXXXXXXXXXXXXXXXXXXXXXXXXXXXXXXXXXXXXXXXXXXXXXXXXXXXXX--XX
XXXXXXXXXXXXXXXXXX----X---XXXXXXXXXX--XX--XX--XXXXXXXXXXXXXXXXXXXXXX------XXXXXXXXXXXXXXXXXXXXXXXXXXXXXXXXXXXXX-XXXXXXXXXXXXXXXXXXXX--XXXX-X------XXXXXXXXXXX-XXXXXXXXXXXXXXXXXXX-X-XXX-X-XXXXXXXXXXXXXXXXXXXXXXX-X-XXX-X-X-X-X---X-X-XXXXXXXXXXXXXXXXXXXXXXXXXXXXXXXXXXXXXXXXXXXX-XX--XXXXXXXXXXXXXXXXXXXXXXXXXXXXXXXXXXXXXXXXXXXXXXXXXXXXXXXXXXXXXXXXXXXXXXXXXXXXXXXXXXXXXXXXXX--XX