-----------------------------------------------------------------------------------------------------------------------------------------------------
-----------------------------------------------------------------------------------------------------------------------------------------------------
-----------------------------------------------------------------------------------------------------------------------------------------------------
-----------------------------------------o-----------------------------------------------------------------------------------------------------------
-----------------------------------------%%-------------------------------------------------------------------------%%%------------------------------
------M--------------------------------------------------------------------------------------------------------------|-------------------------------
------%%%-%---------------------------------------------------------------------------------o-----%%%----------------|-------------------------------
-------||------------o---SSS-------------------o---|---o---o-------SSS----SSSS--------------SSS----|--S--------------|-------------------------------
-------||-----------%%%-----------------------%%%--|--%%%-%%%--------------------------------------|--------------%%%%%%%----------------------------
-------||--------%%%-|-------------------------|---|---|---|-SSS---------------------|-------------|------SSS------||||----o---SSSS------------------
-------||---------||---------------------------|---|---|---|---------------------------------------|---------------||||------------------------------
-------||---------||---------------------------|---|---|---|--------------%%%%%%%%%------o---------|-----------%%%-||||------------------%%%%%%------
------%%%%--------|----------------------------|-%%%%%%%%--|---------------||-||||------%%%--------%%----||%%%%%||-||%%%%%%--------------|||||-------
-------||-%%%%----------------------------%%%%-||-||||||---|--------%------||-||||-------||%%%%%%%%|-----||-||||||-|||||||---------------||||--------
-------||-||XXXXXXXXXXXXXXXXX-XXXXXXXXXX--|||--||-||||||---|------------X|-||--||--------||-|||-||||-----||-||||||-||||||%%%%%%%---------||||--------
-------||-|||XXXXXXXXXXX----X-XXXXXXXXXX--|||--||-||||||---|---------------||--||--------||-|||-||||-----||-|||||||||||||||||||----------||||--------