---------------------------------------------------------------------------------------------------------------------------------------------------------------------
---------------------------------------------------------------------------------------------------------------------------------------------------------------------
---------------------------------------------------------------------------------------------------------------------------------------------------------------------
---------------------------------------------------------------------------------------------------------------------------------------------------------------------
------------------------oo--------------------------------------------------------------------------------------------------%SS--------------------------------------
-----------------------SS----------------------------------------------oo----o-----------------------------------------------|---------------------------------------
--------SS--------SSSS----%%%S--------------%%------------------SS-------------------------------------SSSS--------SS--------|--------------%%%----------------------
-------------ooo----------------------oo-----|-------------------------------------------------------------------------------|---------------|-----------------------
-----------S------------S-S----o-------------|------------------------SS------SS----------oo---------------------------------|-SS----------SS|--%%----------SSS------
-------------------------SS-----------------||-------------------------------------------------%%%%--------------------------|SS-------------|----|------------------
--%%%--------SS----%----------%%%%%---SSSS---|%%%%--%%%-------------------%%%%---S---%%%%--SS---||-----------%%%%--------------------SS--%%-------|%%%%--------------
--||---------------|-----------|||-----------||||----|---------------------||--------|||-------|||------------||----------------------------------||||---------------
--||--------------||-----------|||-----------||||-%%%|---------------------||--------|||-------|||------------||-------------------------|-------|||||---------------
-M||--------------||-----------|||-----------||||-||||---------------------||--------|||-------|||-------------|---------------------------------|||||---------------
XXXXX-------------||--------%%%|||-----------||||-||||%%%%%XX-%%%%--%%%-%%%||--------%%||------|||-%%%%%%%%--XX%%XXXXX%%-%%%%%%%-----------------|||||-----XXXXXXXXXX
XXXXX-------------||---------|-||------------|||--|-||-|||-X---||----|---|-||--------|-||------|||--|--|||---|||-XXXXXX---|||||------------------|||||------XXXXXXXXX