--------------------------------------------------------------------------------------------------------------------------------------------------------------
--------------------------------------------------------------------------------------------------------------------------------------------------------------
--------------------------------------------------------------------------------------------------------------------------------------------------------------
S----SSSSSSSSSSSSSSSSSSSSSSSSSSSSSSSSSSSSSSSSSSSSSSSS---------SSSSSSSSSSSSSSSSSSSSSSSSSSSSSSSSSSSSSSSSSSSSSSSSSSSSSSSSSSSSSSSSSSSSSSSSSSSSSSSSSSSSSSSSSS------
S-------------------SSSS------------------------------------------------------------------------------------------------SS------------------------------------
S-------------------SSSS------------------------------------------------------------------------------------------------SS------------------------------------
S---------------------SS--SS-ooooooooo---SSS----------------------oooooo----------------------oooo----------------------S----------------oooo-----------------
S----------------------S-------------------S-----------------------------------------------g-g-----S----------------------------------------------------------
S----------------------------SSSSSSSSSS---------------------------SSSSSS-------------------S-SSSSS---------o-----------------------S--SS-SSSSS----SS----------
S-----------------------------SSSS-SSSSS--------------------------SS--SS---g------------------SS-SSS-------------------------------S--SS-SSSSS----------------
S---------------------SSSS----SS-----SSS-----------------S------SS----SS--SS----------------------SS---S-SSS------QQ---------------S------SSSS----------------
S-----------------------------SS---------------------------------------------------------#---------S------SS-----------------------#---------S----------------
S-----------------------------SS--------------T----------------------------------------g-#----------------SS---------------------g-#-#------SS----------------
SM----------g--------------------------g-g----TT-g--------kk-g-------------------------###----------------SS---------------------#-#S#-----SSS----------------
XXXXXXXXXXXXXXXXXXXXXXXXXXXXXXXXXXXXXXXXXXXXXXXXXXXXXXXXXXXXXXXXXXXXXXXXXXXXXXXX--XXXXXXXX---XXXXXXXXXXX--XX--XXXXXX--XXXXXXXXXXXXXXXX--XXXXXX--XX--XXX-XXXXXX
XXXXXXXXXXXXXXXXXXXXXXXXXXXXXXXXXXXXXXXXXXXXXXXXXXXXXXXXXXXXXXXXXXXXXXXXXXXXXXXX--XXXXXXXX---XXXXXXXXXXX--XX--XXXXXX--XXXXXXXXXXXXXXXX--XXXXXX--XX--XXX-XXXXXX