-----------------------------------------------------------------------------------------------------------------------------------------------------
-----------------------------------------------------------------------------------------------------------------------------------------------------
-----------------------------------------------------------------------------------------------------------------------------------------------------
-------------------------------------------------------------------------------o---------------------------------------------------------------------
------------------------------------------------------------------------------%%%--------------------------------------------------------------------
-------------------------------------------------------------------------------|---o-----------------------------------------------------------------
--------------------------------------------%%%%%%%----------------------------|--------------SS---------------------------------------%%%-----------
------------SS-----SSS-------------SSS-------||--|------SS---------------%%----|---S-----------------S------SSS------------SSSS--------||------------
---------------------------------------------||--|---------------o-------------|---|---------------------------------------------------||------------
-----------------------------SSSS------------||--|---------------%-----------o-|-----------------SS----SSSS--------------------|-------||------------
---------------------------------------------||--|------------%%%%%-----%%%%%%%|------------r------------------------------------------||------------
--------------------------------------------|||----------------|-|-----|-||-||-|-%%%%%%%%%%%%%%%%--------------oo----------%%%%%%%-----||------------
--------------------------------------%%%%%-|||----------------|||-----|-||%||---|-||-||--||||||-%%-----------%%%%----------|||||------||-%%%%%------
-M-------------------------------------||-|-||||-----------%%--|||-----|-||-||-----||-||----||||||--------------|-%%%%%%%%%||||||------||--|||-----o-
XXXXXX------------XXX-----%%%----------||-|--|||-%----------|--|||-----|-||-||---%%%%%%%%%%|||||||---------%%%--|||||||||||||||||--%%%-||--||||----XX
XXXXXX-------------X-------|-----------||-|--||||-----------||-|||-----|-||-||----|||||||XX-||||||----------|--||||-|||||||||||||--|||-||--|||-----XX