------------------------------------------------------------------------------------------------------------------------------------------------------------------------------------------------------------------------------
------------------------------------------------------------------------------------------------------------------------------------------------------------------------------------------------------------------------------
------------------------------------------------------------------------------------------------------------------------------------------------------------------------------------------------------------------------------
------------------------------------------------------------------------------------------------------------------------------------------------------------------------------------------------------------------------------
------------------------------------------------------------------------------------------------------------------------------------------------------------------------------------------------------------------------------
---------------ooo------------------------------------------------------------------------------------------------------------------------------------------------------------------------------------------------------------
----------------Q-------------------Q-----------------------------------------------------------------------------------------Q------Q-Q--------------------------------------------------------------------------------------
--oooo--------------------------------------------------------------------------------------------------------------------oo--------------------------------------------------------------------------------------------------
----------------------------------------------Q-------------------------------------------------------------------------------------------------------#---Q-------------------------------------------------------------------
---------------#----------oooo----------------------------oo------------------------------oo-----------------------------------------------------------------------------------o---------------------------------------o------
--------------Q?S-------------------------------------------------------------------------------------#----------------------------Q-Q-Q----------------------------------Q---------------------------------------------------
---------------#--------------------------------------------------------------#---------------------------------------------------------------------#-------------------------------------------------------------------------
-------------###--------------------------------------TT----------------------#-------------#---------------------------T---------------------------#-------------------------------------------------------------------------
-M----------##--#----y--------------------------------TT---y------------------#----y---------------------------------------------y-------y-------y--#----------------y-----y--------------------------------------------------
XXXXXXXXXXXXXXXXXXXXXXXXXXXXXXXXXXXXXXXXXXXXXXXXXXXXXXXXXXXXXXXXXXXXXXXXXXXXXXX--XXXXXXXXXXXXXXXXXXXXXX---XX--XX--XXXXXXXXXXXXXXXXXXXXXXXXXXXXXXXXXXXXXXXXXXXXXXXXXXXXXXXXXXXX--XXXX-XX---XXXXXXXXXX--XXXXXXXXXXXXXXXXXXXXXXXX
XXXXXXXXXXXXXXXXXXXXXXXXXXXXXXXXXXXXXXXXXXXXXXXXXXXXXXXXXXXXXXXXXXXXXXXXXXXXXXXX-XXXXXXXXXXXXXXXXXXXXXX---XX--XX--XXXXXXXXXXXXXXXXXXXXXXXXXXXXXXXXXXXXXXXXXXXXXXXXXXXXXXXXXXXX--XXXX--X---XXXXXXXXXX--XXXXXXXXXXXXXXXXXXXXXXXX