----------------------------------------------------------------------------------------------------------------------------------------------------------------------------------------------------
----------------------------------------------------------------------------------------------------------------------------------------------------------------------------------------------------
----------------------------------------------------------------------------------------------------------------------------------------------------------------------------------------------------
----------------------------------------------------------------------------------------------------------------------------------------------------------------------------------------------------
----------------------------------------------------------------------------------------------------------------------------------------------------------------------------------------------------
--------------------------------kk------------------k-----------------------------------------------------------------------------------------------------------------------------------------------
--------SS----------------------SS------------------------------------------S---------#-----SS-S--SQSSSSSS-------------------------------------------#--##------SQS---------------------S-----------
------------------------------------g-S-----------------------------------------------#-------------------------------------------------------------######------------------------------------------
---------------QS-------------#-----###-----------------------------------------------#-----------------------------------#------------------------#######------------------------S-----------------
--------------------------------------#---------g-------------------------------------#-----------------------------------gg#---------------------########------------------------------------------
------------------------######----##--#---###---#-------TT-----T--T----T--------------#------SSSSS-SSS---g#---------------###---SS--------TT-----#########------S?SS------------------SSSS----------
-----------------------###--------##--#---------#-----------------T----TT------------##------------------##------T---------##-----------k-TT----#######-#-------------TT----------------------------
----------------------####-------###--#---------#----------------------TT-----------###-----#-----------###-----------------##------------TT----##--##----------------TT----------------------------
-----M--T-------------####--------##--#---------#---k---------k---T---gTT-----k----####-----#----------####---------------#-##----------g-TT----#---------------ggK---TT-------------------------#--
-----XXXX----XXXXXXXXXXXXX----XXXXXX--X---------XXXXXXXXXXXXXXXXXXXXXXXXXXXXXXXXXXXXXXXXXXXXXXXX--XXXXXXXXXXXXXXXXXXXXXXXXXXXX-XXXXXXXXXXXXX----X-----X----XXXXXXXXXXXXXXXXXXXXXXXXXXXXXXXXXXXXXXXXX
-----XXXX---XXXXXXXXXXXXXX-----XXXXX--X---------XXXXXXXXXXXXXXXXXXXXXXXXXXXXXXXXXXXXXXXXXXXXXXXX--XXXXXXXXXXXXXXXXXXXXXXXXXXXXXXXXXXXXXXXXX-----X---------XXXXXXXXXXXXXXXXXXXXXXXXXXXXXXXXXXXXXXXXXX