-------------------------------------------------------------------------------------------------------------------------------------------------------------------------------------------
-------------------------------------------------------------------------------------------------------------------------------------------------------------------------------------------
M------------------------------------------------------------------------------------------------------------------------------------------------------------------------------------------
S---SS----------------SSSSSSSSSSSSSSSSSSSSSSSSSSSSSSSSSSSSSSSSSSSSSSSSSSSSSSSSSSSSSSSSSSSSSSSSSSSSS---SSSSSSSSSSSSSSSSSSSSSSSSSSSSSSSSSS----SSSSSSSSSSSSSSSSSSSSSSSSSSSSSSSSSSSSSSSSSSSSSSS
S----------------------------------------------------------SSSSSSSSSSSSSSSSSSSSSSS-------------------------SSSSSSSSSSSS-------------------------------SSSSSSSSSSS--------------------------
S----------------------------------------------------------SSSSSSSSSSSSSSSSSSSSSSS-------------------------SSSSSSSSSSSS-------------------------------SSSSSSSSSSSS-------------------------
S----------------------------------------------------------SSSSSSSSSSSSSSSSSSSSSSS--SS-----SS-SS----------SSSSSSSSSSSSSS--------------------------------SSSSSSS----------------------------
S------------------------------------------------------------------------------------S-----------------------------------------------------------------------------------------------------
S--------------------------------------------------------S------------SS----SS-----------------------SS----------------------------------------TT------------------------------------------
S----------------------------------------------------------------------------------------------------S-----------------------------------T-----TT------------------------------------------
SS-S--SSSS----------Q-------------QQ-------S--SSSS--------------------------------------------QQ----------SSSSSSSSS---------------------TTT----TT------SSSSSSSSSSS-TSSSSQQQ--Q----SSSS-----
SS-S-------------------------t----------------SS---------------------------------------t------------------SSSSSSSSS---------------------TT----TTT----T-SSSSSSSSSS--T-----------------S----S
SSSS------------TT---#-------t-----#---t------SS---t--------------------------------SS-SS-----------------SSSSSSSSS---------------------TT----TTT----T-SSSSSSSSSS--T--------------SSSSSSSSS
SSSS------------TT--##------------##---t----------kt-----------------------------------S------------------SSSSSSSSS--------------------kTT----TT---#-T--SSSSSSSSS--T---------------------SS
XXXXXXXXXXXXXXXXXX--XX---XXXXXXXXXXX--XXXXXXXXXXXXXXXXXXXXXXXXXXXXXXXXXXXXXXXXXXX--XX--SX--XXX-----XXXXXXXXXXXXXXXXXXXXXXXXXXXXXXXXXXXXXXXXXXXXXX-XXXXXXXXXXXXXXXXXXXXXXXXXXXXXXXXXXXXX--XS
XXXXXXXXXXXXXXXXXX--XX---XXXXXXXXXXX--XXXXXXXXXXXXXXXXXXXXXXXXXXXXXXXXXXXXXXXXXXX--XX---X--XXX-----XXXXXXXXXXXXXXXXXXXXXXXXXXXXXXXXXXXXXXXXXXXXXX-XXXXXXXXXXXXXXXXXXXXXXXXXXXXXXXXXXXXX--XS