--------------------------------------------------------------------------------------------------------------------------------------------------------------
--------------------------------------------------------------------------------------------------------------------------------------------------------------
--------------------------------------------------------------------------------------------------------------------------------------------------------------
S---SSSSSSSSSSSSSSSSSSSSSSSSSSSSSSSSSS----SSSSSSSSSSSSSSSSSSSSSSSSSSSSSSSSSSSSSSSSSSSSSSSSSSSSSSSSSSSSSSSSSSSSSSSSSSSSSSSS-------SSSSSSSSS-----------SSS-S----
S----S--------------------------SS-----------------------------------------------------------------S----------------------------------------------------------
S----S--------------------------SS----------------------------------------------------------------SS----------------------------------------------------------
S----SoooS----SS----------------------------------------oooo--------------------------SS-------SooSS----------------------------------------------------------
S-------SS-----------------------------------------------------------------------------S----------------------------------------------------------------------
S----SSSSS----------------------------------------------SSSSS-------------------------SS--SS---SSSSS----------------------------------------------------------
S-------SS-----------------------------------------------SSS--------------------------SS--------SSSS----------------------------------------------------------
S-------SSS------------g-------SS--QQQ-------TT-----------SS----SSS-----------------------SS------SSQ--------------------------------@QQ-------g-#------------
S----------------------#-#-------------------TT-----------------SSS----------S-------------------------------#--#------------------------------#-#-----#-#----
S----g-#-------------S-#-#-------------------T-----T------------SS-----------S--------SS-------------------#-#-##-SS-------------------------#-#-#-----#-#----
SM---#-#-----------g---#-#-------------g-g---T---g-T----------------------------------SS-------------------###-#--SS------------------------#--#-#-----#-#----
XXXXXXXX--XXXXXXXXXXXXXXXXXXXXXXXXXXXXXXXXXXXXXXXXXXXXXXXXXXXXXXXX----XXXXXXXXXXXXX---XX---XXXXXXXXXXXXXXXXXXXXX-------XXXXXXXXXXXXXXXXXXXXXXXXXXXXXXXXXXXXXXX
XXXXXXXX--XXXXXXXXXXXXXXXXXXXXXXXXXXXXXXXXXXXXXXXXXXXXXXXXXXXXXXXX----XXXXXXXXXXXXX---XX---XXXXXXXXXXXXXXXXXXXXX-------XXXXXXXXXXXXXXXXXXXXXXXXXXXXXXXXXXXXXXX