-----------------------------------------------------------------------------------------------------------------------------------------------------
-----------------------------------------------------------------------------------------------------------------------------------------------------
-----------------------------------------------------------------------------------------------------------------------------------------------------
-----------------------------------------------------------------------------------------------------------------------------------------------------
-----------------------------------------------------------------------------------------------------------------------------------------------------
----------------------------------------------------------------------------------------------------%%%--o-------------------------------------------
----------------------------------------------------------------------------SS-----------------------|--%%%------------------------------------------
----SSSS--------S--------oo-----------SSSSS---------oo--------------SSS--------------SSS---------o---||--|S------S-----------------------------------
------------------------%%%%------------------------------------------------------------------%%%%%%-||--|-------------------------------------------
----------SS-------------||-----SS----------SSS---------------------------------SSSS-----------||||--||--|---SSS-------------------------------------
-------------------------||----------------------------------------------------------------%---||||--||%%%----------------%-----ooo------------------
------------------%%%%%--||-----------%%%%%%------------------------------------------------|%-||||--||-|--------------%%%%%-------------------------
-------------------|||---|-------------||||----------------%%%%-----------------------------||-||||--||-|---------------|||--------|-----------------
M------------|-----|||---|-------------||||----------------|||-------------------------%%%%%||-||||--||-|--o-----%%%%%-||||-%%%%%%%||--|-----------X-
X------------|X--%%|||-%%%%%%%-%%%%%%--||||----------%-----|||------------%%%---%-------|||||||||||--||%%%%%%-----|||--||||-||||||-||--||-XXXXXXXXXXX
X------------||----|||--|||||---||||---||||----------------|||-------------|----|-------|||||||||||--||||||-------|||||||||-|-||||-||--||-XXXXXXXXXXX