-------------------------------------------------------------------------------------------------------------------------------------------------------------------------------------------------------------------------------------------------------------------------------------------------------------------------------------------------------------------------------------
-------------------------------------------------------------------------------------------------------------------------------------------------------------------------------------------------------------------------------------------------------------------------------------------------------------------------------------------------------------------------------------
-------------------------------------------------------------------------------------------------------------------------------------------------------------------------------------------------------------------------------------------------------------------------------------------------------------------------------------------------------------------------------------
-------------------------------------------------------------------------------------------------------------------------------------------------------------------------------------------------------------------------------------------------------------------------------------------------------------------------------------------------------------------------------------
-------------------------------------------------------------------------------------------------------------------------------------------------------------------------------------------------------------------------------------------------------------------------------------------------------------------------------------------------------------------------------------
-------------------------------------------------------------------------------------------------------------------------------------------------------------------------------------------------------------------------------------------------------------------------------------------------------------------------------------------------------------------------------------
-------------------SSSSS-------------------------------------------------------------------------------------------------------------------------------------------------------o-----------------------------------------------------------------------------------------------------------------------------------------------------------------------------------------------------
-------------------------------------------------------------------------------------------------------------------------------------------------------------------------------o-----------#-------------o---------------------------o-----------------------------------------------------------------------------------------------------------------------------------------------
----------------------------------------------------------------------------------------------------------------------S--------------------------------------------------------------------#--------------------------------------------------------------------------------------SSSSS----------------------------------------------------------------------------------------------
-----------------------------------------------------------------------------------------------------------------------------------------------------------------o-------------------------------------------------------------------------------------------------------------------------------------------------------------------------------------------------------------------
--------------------------oo-------------------------------------------------------------------------------------------------------------------------------------------------o----------##-----------------------------------------TT----TT------------------------------------------------------------------------------------------------------------------------------------------
--------TT------------#--------------------------------------------------------o--------------------------------------------------------------------------------------------------------##-----------------------------------------TT----TT----------------------------------------------------------------#-------------------------------------------------------------------------
--------TT------------#-------------------#------------------#------------------------------#-#------------------------------------------------------------------------------------#---#-#-----------------------------------------TT----TT----------------------------------------------------------------#-------------------------------------------------------------------------
-M------TT------gggk-##---------------k---#-----k----gg------#-k------ggg---------k-k-------#-#--------------------------------------------------ggg------------------------------k#---#-#--------------------------------k-----gg-TT----TT----k----------------k------gg--------------------g---------g-#-#------gg------------------------ggg------------------------------kk------
XXXXXXXXXXXXXXXXXXXXXXXXXXXXXXXXXXXXXXXXX-X-XXXXXXXXXXXXXXXXXXXXXXXXXXXXXXXXXXXXXXXXXXXXXX-XX-X-XXXX--X---X-XXXXXXXXXX--X-X-X-XXXXX---XXXXX-XXXXXXXXXXXXXXXXX-X----------XX-X-X-XXXXXXXX-XX-------XXXXXXXXXXXXX-X-X-XXXXXXXXXXXXXXXXXXXXXXXXXXXXXXXXXXX-X-XXXXXXXXXXXXXXXXXXX--X-------XXXXXXXXXXXXXXXXXXXXXXXXXXXXXXXXXXXXXXXXXXXX-XXXXXXXXXXXXX-XXX------XXXXXXXXXXXXXXXXXXXXXXXXXX
XXXXXXXXXXXXXXXXXXXXXXXXXXXXXXXXXXXXXXXXXXXXXXXXXXXXXXXXXXXXXXXXXXXXXXXXXXXXXXXXXXXXXXXXXXXXX-XXXXXX--X---XXXXXXXXXXXX--X-X-X-XXXXX-X-XXXXXXXXXXXXXXXXXXXXXXX-XX--X-X----XX-XXXXXXXXXXXX-XX-------XXXXXXXXXXXXX-X-X-XXXXXXXXXXXXXXXXXXXXXXXXXXXXXXXXXXX-X-XXXXXXXXXXXXXXXXXXX-XX-------XXXXXXXXXXXXXXXXXXXXXXXXXXXXXXXXXXXXXXXXXXXXXXXXXXXXXXXXXXXXXX------XXXXXXXXXXXXXXXXXXXXXXXXXX