------------------------------------------------------------------------------------------------------------------------------------------------------
------------------------------------------------------------------------------------------------------------------------------------------------------
------------------------------------------------------------------------------------------------------------------------------------------------------
------------------------------------------------------------------------------------------------------------------------------------------------------
------------------------------------------------------------------------------------------------------------------------------------------------------
---------M----o-----oo-------oo-----------oo-----R--%%%%%%%-----------------------------------------------oo-------------------ooo-------%%%%%--------
---------%%%%%-------------%%%%----------------------|||||-------------------------------------------------%%----------------------%--S---||----------
----------|||---------------||---------o-------------|||||-------------------------------------------------##---------------------%%%-----||----------
--------|-|||---------------||-----------|----------||||||-----------%%%%%-------------------------------####---------------------||------||----------
--------|||||---------------||----------%%---------%%-||||------------|||---------------oo---------------####---------------------||----%||||---------
--------||||||------%%%%%---||----------||%%%-%%%%%---||||------oo----|||----%%%%%-----------------------####----------%%%%%------||-----|||||--------
--------||||||-------|||----||----------||||---|||----||||------------|||-----|||------------------------###------------|||-------||-----|||||--------
--------||||||-------|||----||-----%%%%-||||---|||----||||------------|||-----|||------------------------###------------|||-------||----%|||||--------
--------||||||%%--oo-|||----||------||--||||--||||----||||------------|||-oo--|||---%%%------------------#||-----------%||||------||-----|||||-----#--
--------|||||||---%%-|||----||------||--||||--||||----||||------------||------||----||------XXXXXXXXX-----||------%%----|||-------||-----|||||----XXXX
--------|||||-||-----|||----||------||--||||--||||----||||------------||------||-|--||----XXXXXXXXXX------||------------||||------||-----|||||----XXXX