------------------------------------------------------------------------------------------------------------------------------------------------------------------------------------------------------------------------------
------------------------------------------------------------------------------------------------------------------------------------------------------------------------------------------------------------------------------
------------------------------------------------------------------------------------------------------------------------------------------------------------------------------------------------------------------------------
------------------------------------------------------------------------------------------------------------------------------------------------------------------------------------------------------------------------------
--------------------------------------------------------------------------------------------------------------------------------------------------------------------------------------Q---------------------------------------
------------------------------------------------------------------------------------------------------------------------------------------------------------------------------------------------------------------------------
------------------------------------------------------------------------------------------------------------------------------------------------------------------------------------------------------------------------------
---------------------------------------------------------------------------------------------------------------------------------------------------------------------------------------##--------------------------------y----
--------------------------##-----------------------------------------------------------------------------------------------------------------------------------------------------###--###-----------------Q----------QQ?SS----
-------------------------###-----------------oo---------oo----------------------------------------------------------------------------------------------------------------------##########------------------------------------
------------------------####----------TT----o--o------------------------------TT------------------------------------------TT--------------------------------------Q------------###########--T---------------------------------
----------------------#-####----------TT--------------------------------------TT------------------------------------------TT--------------------------------------------------############------------------------------------
----T-----------------######----------TT--------------------------------------TT------------------------------------------TT-------------------------------------------------#############--------------------------T-----X---
-M--TT----------------#-###----y------TT-----------------------------y-----y--TT------------------------------------------TT---y-------y---y--------------------------------##############--TT----------------------T-----X---
XXXXXXXXXXXXXXXXXXXXXXXXXXX-XXXXXXXXXXXXXXXXXXXXXXXXXXXXXXXXXXXXXXXXXXXXXXXXXXXXXXXXXXXXXXX----XXXXXXXXXXXXXXXXXXXXXXXXXXXXXXXXXXXXXXXXXXXXXXXXXXXXXXXXXXXXXXXXXXXXXXXXXXXXXXXXXXXXXXXXXXXXXXXXXXXXXXXXXXXXXXXXXXXXXXXXXXXXXXX
XXXXXXXXXXXXXXXXXXXXXXXXXXXXXXXXXXXXXXXXXXXXXXXXXXXXXXXXXXXXXXXXXXXXXXXXXXXXXXXXXXXXXXXXXXX----XXXXXXXXXXXXXXXXXXXXXXXXXXXXXXXXXXXXXXXXXXXXXXXXXXXXXXXXXXXXXXXXXXXXXXXXXXXXXXXXXXXXXXXXXXXXXXXXXXXXXXXXXXXXXXXXXXXXXXXXXXXXXXX