----------------------------------------------------------------------------------------------------------------------------------------------------------------------------------------
----------------------------------------------------------------------------------------------------------------------------------------------------------------------------------------
----------------------------------------------------------------------------------------------------------------------------------------------------------------------------------------
----------------------------------------------------------------------------------------------------------------------------------------------------------------------------------------
----------------------------------------------------------------------------------------------------------------------------------------------------------------------------------------
---------------------------------------------------------------------------------------------------------------------------------------------------y------------------------------------
--------------------------oo-----------------####----------------y---S------------------#S---------#####-------------------------------------------###------------------SS--------------
-----------------------y--------------------###---------------SS-S--------------------------------###----------------#-----SSS--------------------###-----------------------------------
-----------------------##---------o----------##----------------------------------------------------#-----------------#----------------------------##------------------------------------
----------------------###--------------------###-----------------#---------------#---------------------------------###----------------------------##-------------------#-----------y----
----------------------###--------------------###------------y----###------------##----##----------#----------------###--####----S-------##-------####-----Qo---------###-----------##---
--------------------#-###-----------------TT-###-----SSS---------###-----------#-#---###---------#-----------------###--##---SSSS----y-###-------###----------------####----------##----
--------------------#-####----------------TT-###----------------####---------##------###---------------------------###---------------####-------##-#---------------#####---------###----
-M----------#---------####----------S---y-TT-###-------------#######--------SSS-------##--------------------------####--------------#####-----#----------------------#-#----------##----
XXXXXXXXXXXXXXXX----XXXXXX-X----------XXXXXXXXXXXXXXXXX-XXXXXXXXXXXX--XX----------XX--XX--XXXX--XXXXXXXXXXXXXXXXXXXXXX--XXXXXXXX--XXXXXXX---------XXXXXXXXXXX--XXXXXXXXXXXXXXXXXXXXXXX--
XXXXXXXXXXXXXXXX----XXXXXXXX----------XXXXXXXXXXXXXXXXXXXXXXXXXXXXXX--XX----------XX--XX--XXXX--XXXXXXXXXXXXXXXXXXXXXX--XXXXXXXX--XXXXXXX---------XXXXXXXXXXX--XXXXXXXXXXXXXXXXXXXXXXXX-