-------------------------------------------------------------------------------------------------------------------------------------------------------------------------------------------
-------------------------------------------------------------------------------------------------------------------------------------------------------------------------------------------
-------------------------------------------------------------------------------------------------------------------------------------------------------------------------------------------
S--SSSSSSSSSSSSSS-----------SSSSSSSSSSSSSSSSSSSSSSSSSSSSSSSSSSSSSSSSSSSSSSSSSSSSSSSSSSSSSSSSSSSSSSSSSSSSSSS-----------SSSSSSSSSSSSSSSSSSSSSSSSSSSSSSSSSSSSSSSSSSSSSSSSSSSSSSSSSSSSSSSSSSSSS
S-------------------------------------------SSSSSSSSSSSSSSSSSSSSSSSSSS------------SSSSSSSSSSSSSSSSSS-------------------------------------------------------------SSSSSSSSSSSSSS------------
S----------------------------SSS---------S-SSSSSSSSSSSSSSSSSSSSSSSSSSS------------SSSSSSSSSSSSSSSSSS-------------------------------------------------------------SSSSSSSSSSSSS-------------
S----------------------------SSS------------SSSSSSS------SSSSSSSSSSSSS-------------SSSSSSSSSSSSSSSSS---------------------------------SS--------S-S-----------------SSSSSSSSSSS-------------
S------------------------------------------------------------------------------------------------------------------------------------------------------------------------------------------
S------------------------------------------------------------------------------------------------------------------------------------------------------------------------------------------
S-----------------------------------------------------------------------------------------------------------------------------------------------------------------------------------------S
S---------------#-----TT-------SSSSS---------------SS-S-----SS----SSS------------SSSSSSSSSSSSSSSSSS-------------------------------------------SSS-QQ---------SSSSSSSSSSSSSS--------------SS
S--------------##-----TT--------SSS-----------SSSSSSS-ST------------------------SSSSSSSSSSSSSSSSSSS----##----tt-----------------------------------------------SSSSSSSSSS-----------TT----SS
S----------------TT--------tt---SSS----------tSSSSSSS-TT-------#----------------SSSSSSSSSSSSSSSSSSSSS--##-S--tt--------#--------------#-----------------------SSSSSSSSSS--------#--TT----SS
SMSS-----------k-TT-------ktt----------------tSSSSSSS-TT------##---------------kSSSSSSSSSSSSSSSSSS----###---kt--------##-------------##--------------------------SSSSSS--------#---TT----SS
XXXXXXXXXX---XXXXXX---XXXXXXXXXXXXXXXXXXXXXXXXXXXXXXXXXX-XXXXXXX---XXXXXX--XXXXXXXXXXXXXXXXXXXXXXXXXXXXXXXXXXXXXXXXXXXXXXXXXXXXXXXXXXXXXXXXXXXXXXXXXX--XXXXXXXX-X--XXXXXXXXXXXXXX--XX----XX
XXXXXXXXXX---XXXXX----XXXXXXXXXXXXXXXXXXXXXXXXXXXXXXXXXXXXXXXXXX---XXXXXX--XXXXXXXX-XXXXXXXXXXXXXXXXXXXXXXXXXXXXXXXXXXXXXXXXXXXXXXXXXXXXXXXXXXXXXXXXX--XXXXXXXXXX--XXXXXXXXXXXXXX--XX----XX