-----------------------------------------------------------------------------------------------------------------------------------------------------
-----------------------------------------------------------------------------------------------------------------------------------------------------
-------------------------------------------------------------------------------------------------------------------------------o---------------------
-------------------------------------------------------------------------------------------------------------------------------%%--------------------
---------------------------------------------------------------------------------------------------o---------------------------|---------------------
-------------------o--%%%-%%-------------------------------------------------------o--------------%%%----------o-----------o---||--------------------
-----------------%%%%--|--||---------------------%%%%---------------%%%-SSS-------%%%--------------|----------%%%%--------%%%--||-----o--------------
--------SSSS------||---|--||---o----SS----------SS-------SSSS--------|-----S-------|----SSS--------|-----------||--o%------|---||---------o-SSSSS----
------------------||---|--||----------------%------------------------|-------------|---------------|-----------||-%%%------|---||--------------------
--------------SS--||---|--||-SSS----------%%%%-%-|---SSS-------------|-------------|S--------------|-----------||--|-------|---||--------------------
--------------%%--||---|--||-----------%---|||---|-------------------|-------------|---------------|-----------|%%%|------%%%%-||--------------------
-------o---o--||--||---|--||-----------%---|-|---|---------------r---|-------------|---------|-----|-----------||--|-------||--||--------------------
-----%%%%--%%-||--||--%|%%||-----------|---|-----|-------o---%%%%%%%%%%------------|---------||%%%%|-----------||--|---|---||--|---------------------
-M----||-%%%--||--||---|--||-----------|---|-----|------%%%--|||||||||-----|-------|---------||-||-------------||-||---|---||--|-------------------X-
XXXX--||||||--||--||---||%%%%%---------|--%%%%%%%%%%-----|----||||||||-------------|---------||-||-------------||-||%%%%--%%%%%|---------------XXXXXX
XX-X--||||||--||--||---|---||----------|---||||||||------|----||||||||-------------|---------||-||------------||||||-|||---||------------------XXXXXX