--------------------------------------------------------------------------------------------------------------------------------------------------------------
--------------------------------------------------------------------------------------------------------------------------------------------------------------
--------------------------------------------------------------------------------------------------------------------------------------------------------------
S--SSSSSSSSSSSSSSSSSSSSSSSSSSSSSSSSSSSSSSSSSSSSSSSSSSSSSSSSSSSSSSSSSSSSSSSSSSSSSSSSSSSSSSSSSSSSSSSSSSSSSSSSSSSSSSSSSSSSSSSSSSSSSSSSSSSSSSS-------SSSSS--------
S-----------------------------------SS------------------------------------------------------------------------------------------------------------------------
S-----------------------------------SS------------------------------------------------------------------------------------------------------------------------
S---------------------------------------------------------------------------------------------SS--------------------------------------------------------------
S-------------------------------SS----------------------------------------------------------------------------------------------------------------------------
S---------SS--------------------SS----------------------------------------------------------------------------------------------------------------------------
S------S--SS-----------------------------------------------------------------------------------------------------------g--------------------------------------
S-----S------@QQQ-------------------S----------------------QQQ---#--#-##---S-----------------------------------------#---#-#-#-----SSS--SS---g-#--------------
S-----------------------T---------------------------------------##----##---------------------------------------------#-#-#-#-#---------------#-#--------------
S----------------------TT----T------------T----T---------------###-#####-----------------------------------------gS#-#-###-#-#---------------#-#--------------
SM---------------gg-----T----T-----------gTg-g-T--------------####-##-##---S----S-------------S------------------#---#-###-#-#-------------#-#-#--------------
SXXXXXXXXXXX--XXXXXXXXXXXXXXXX--XX--XXXXXXXXXXXXXXXXXXXXXXXXXXXXXXXXXXXXXXXXXX--XXXXXXXXXXXXXXXX----XXXXXXXXXXXXXXXXXXXXXXXXXXXXXXXXXXXXXX--XXXXXXXXXXXXXXXXXX
XXXXXXXXXXXX--XXXXXXXXXXXXXXXX--XX--XXXXXXXXXXXXXXXXXXXXXXXXXXXXXXXXXXXXXXXXXX--XXXXXXXXXXXXXXXX----XXXXXXXXXXXXXXXXXXXXXXXXXXXXXXXXXXXXXX--XXXXXXXXXXXXXXXXXX