------------------------------------------------------------------------------------------------------------------------------------------------------------------------------------------------------
------------------------------------------------------------------------------------------------------------------------------------------------------------------------------------------------------
------------------------------------------------------------------------------------------------------------------------------------------------------------------------------------------------------
------------------------------------------------------------------------------------------------------------------------------------------------------------------------------------------------------
------------------------------------------------------------------------------------------------------------------------------------------------------------------------------------------------------
------------------------------------------------------------------------------------------------------------------------------------------------------------------------------------------------------
---------------------------------------------T-----------------------------------------------------------------K----------------------------------------##--------------------------------------------
--------------------------------------------------------------------------------------------------------------------------------------------------------##--------------------------------------------
---------------------------------------------------------------------------------------------#----------------------------------------------------------##--------------------------------------------
--------------------------------#-----------------------------------------------------------##----------------------------------------------------------##------------------------------------K#------
----------#LSS----------#####----#--------------------------------------------------------####--------------------##------#LS--------------------------###----#LSS---------------##------------#------
----------#-------------#-----------------------------T----------------------------------##--#---------------------#------#---------------------------#-##----------------------##------------#-------
----------#-------------#-----------*---TT------------T---------------------------------####------TT----------------------#--------------------------##-----------------------------------------------
-M------k-#-------------#-----------*---TT----------kTT------gggg----ggg-----ggg-------#####--#---TT----ggg---------------#--ggg-------ggg----------###------------ggg------#--#-#------------#-------
XXXXXXXXXXXXXX--XX--XXXXXXXXXXXXXXXXXX--XXXXXXXXXXXXXXXXXXXXXXXXXXXXXXXXXXXXXXXXXXXXXXXXXXXXXXXXXXXXXXXXXXXXXXXXXXXXXXXXXXXXXXXXXXXXXXXXXXXXXXXXXXXXXXXXXXX---XXXXXXXXXXXXXXXXXXXXXXXXXXXXXXXXXXXXXXXX
XXXXXXXXXXXXXX--XX--XXXXXXXXXXXXXXXXXX--XXXXXXXXXXXXXXXXXXXXXXXXXXXXXXXXXXXXXXXXXXXXXXXXXXXXXXXXXXXXXXXXXXXXXXXXXXXXXXXXXXXXXXXXXXXXXXXXXXXXXXXXXXXXXXXXXX----XXXXXXXXXXXXXXXXXXXXXXXXXXXXXXXXXXXXXXXX