-----------------------------------------------------------------------------------------------------------------------------------------------------
-----------------------------------------------------------------------------------------------------------------------------------------------------
-----------------------------------------------------------------------------------------------------------------------------------------------------
---------------------------------------------------------------------------------------------o-------------------------------------------------------
------------------------------------------------------------------------------------------%-%%%------------------------------------------------------
---------------------%%%%-----------------------------------------------%%%--------------|---|-r---------------------------------o---o---------------
--------o--------------|-------------------------------------------------|-------------o-|--%%%%%------S----------------------------%-%--%-----------
-----------SSS--SS-----|---SSS-------SSS-------------o-----------o-------|-SS---------%|-|---||------SSS-----------------------------|-----oo--------
-------%%%%------------|--------------------------%%%%%%--------%%%--------------------|-|---||--------------------------------------|---%%%%--------
--------||-------------|--------SSS----------------||||----------|----SSS|-------------|-|---||--SS------SSSSS-------------------%|--|----||---S-----
--------||-------------|---------------------------|||||---------|-----------------%---|-----||----------------------------------||--|----||---------
----M---||-------------|--------------------%%%%%%%||||----------|----------------%%%%-|-----|||---------------------------------||--|----||---------
----%%%%%|%------------|---------------------|||||-||||----------|-----------------|||-||----|-||---------------------------------%%%%%%%%%|---------
-----||-||-------------|----------------------|||||||||----------|-r---------------|||-||----|-||---------------------------------|||||||--|-------#-
-----||-||------------||--------XXXXXXXXXXXXXXX||||%%%%%%-----%%%%%%-------------%-||||||----|-||------------XXXXXXXXXXXXXXX------||||||||%%%------XX
-----||-||-------------|---------%XXXXXXXXXX-XX|||||||||--------||||------------|--|||||-----|-||------------XXXXXXXXXXXXXX-------|||||||||||------XX