-----------------------------------------------------------------------------------------------------------------------------------------------------
-----------------------------------------------------------------------------------------------------------------------------------------------------
-----------------------------------------------------------------------------------------------------------------------------------------------------
---------------------------------------------------------------------------------------------------------------------------------o-------------------
--------------------------------------------------------------------------------------------------------------------------------%%%%-----------------
---------------------------------------------------------%%------------S---------------------------------------------------------||--o---------------
---------------------------------------------------------|-------o----------------------%%%----------------------------------%%%-||------------------
-------------SS----------------------SSSSSSSSSS----------|------%%SS-----------------o---|-SS--o------------------------------|--|------SSS----------
---------------------------------------------------------|-------|------------------%%%--|----%%%%%%%-------------------------|--||------------------
-----SSSS-------SSS--------------------------------------|-------|-----------S---o---|---|-----||--|---------o-----SSS--------|--||-----------S------
-----------%-|-----------------------------------------|||-------|-------------------|---|-----||--|--------%%%------------%%%|%%%%%%----------------
------------||-----------------------------------------|||-------|------%%%%%%%%%%%--|---|-----||--|---------|-------------|||%||||------------------
------------||-----------------------------------------|||-------|-%%%%--|||||||-|---||--|--|-%%%%%%%%-------|-------------||||||||------------------
-M----------||-------------------|---------------------|||-------|-%|||%-|||||||-|---||--|--|--||||||--------|---------%%%%||||||||----------------o-
XXXXXXX%%%%-||---------XXXXXXX-X%%%%%------------------|||------%%|||||--|||||||||---||--|--|--||||||----%%%%X%XXX------||-||||||||---------------%%%
XXXXX--|||--||--------XXXXXXXX--X||--------------------|||-------|-||||--|||||||||---||--|-----||||||-----|||||XX-------||-||||||||----------------|-