-----------------------------------------------------------------------------------------------------------------------------------------------------
-----------------------------------------------------------------------------------------------------------------------------------------------------
-----------------------------------------------------------------------------------------------------------------------------------------------------
-----------------------------------------------------------------------------------------o-----------------------------------------------------------
-----------------------------------------------------------------------------------------%%----------------------------------------------------------
--------------------------------------------------%%%------------------------------------|-------------------------------------------o---------------
-----------------------------------------%%%-------|%------------------------------------|---------S-------------------------------------------------
------------------------------------SS-------------|------------SSS----oo----------------|---o----S-------------------SSS----------------------------
------------------------------------------------%%||------------------%%%%--------------%%%----------------------------------------------------------
-------------------------------------------------|||---SSSSSSS---------||----------------|-----------SSS--SSS-----SS-----------------------SS--------
-----------------------------------------||%%%---|||-------------------||------------o---|-----------------------------------------------------------
-------------------------------------%%%%%%%||---|||-------------------||----------%%%%--|------------------------%%%--------------------------------
--------------------------------------||||||||---|||-------------------||-----------||--%%%%-%----%%%--------------|---------------------------------
M----------------------------------%%-||||||||---|||-------------------||--------|--||---||-||%-----|--------------|-------------------------------X-
X-----------------XXXXXXXXXXXXXXX---|-|||||||%%%%%||--------------%%%%%%%%%-%%%%%%%%%|---||-|||----||---X-XXXXXX---||%XXXXXXXXXXXXX%%--%%%%%XXXXXXXXX
X-----------------XXXXXXXXXXXXXX---||-||||||||||-|||---------------|||||||||||||||||-||--||--||----||-----XXX-X----||-XXXXXXXXXXX--|----|-||XXXXXXXXX