---------------------------------------------------------------------------------------------------------------------------------------------------X-
-----------------------------------------------------------------------------------------------------------------------------------------------------
-----------------------------------------------------------------------------------------------------------------------------------------------------
-----------------------------------------------------------------------------------------------------------------------------------------------------
-----------------------------------------------------------------------------------------------------------------------------------------------------
----------------oo---------------------------------------------------------------------------o------------------------------------------o------------
--------%%%%------------------------------------------------------%%%-------------------------------------------------------%%%----%%%%-SSS----------
--------||%------S--------SS-----------------------------------o---|-------------------------------------SSS-----------------|------|----------------
--------||---------------------------------------------------%%%%------------------------------------------------------------|------|----------------
--------||--SSSS-----SSS-----SSSS----------o-------------------|---o-SS------SSS---------------------------------------------|--r-S--------SSSS------
----%%%-||--------------------------------%%%------------------|--%%%-----------------------------------------------%%%%-----|%%%%-------------------
-----||-||---------------------------------|----%%%%%%%%%%%%%|-|---|-------------------------------------------------|||%%%%%%%||--------------------
-----||-||---------------------------------|-----|||||||||||||%%|%||-------------------------------------------%-%%--||||||||||||--------------------
XM---||-||-------o------o------------------|-----||||||||||||||||-||----------------------------------------%%%%%%%%-||||||||||||--------------------
XX-X-||-||------%%%%%%%%------XXXXXXXXXXXXXXXXXX-||||||||||||||||-||-------XXXXXXXXX---------XXXXXXXXXXX-----||||||--||||||||||||----XXXX--XX-XXXXXXX
---X-||-||-|-----||||%|-------XXXXXXXXXXXXXXXXXX-||||||||||||||||-||--------XXXXXXXX---------XXXXXXXXXXX-----||||||--||||-|||||||----|-X---X---XXX-XX