-----------------------------------------------------------------------------------------------------------------------------------------------------
-----------------------------------------------------------------------------------------------------------------------------------------------------
-----------------------------------------------------------------------------------------------------------------------------------------------------
-------------------o-------------------------------------------------------------------o------------------SSS----------------------------------------
------------------%%%--------------------------------------------SS-------------------%%%--------------------------%---------------------------------
-------------------|-------------------------------------------------------------------|-------------------------------------------------------------
----------%-%------|---%%%----------------------------%%%%-----------------------------|--------%%%----------------|-----S------%%%------------------
-------|---|-oo----|--------oo--oo---o---SSS-----------||-oo-------SS--o---------------|-o---o---|-------------o---|----------------o------oo--SSS---
-----%%%%-%|-------|--|%%%%----------------------------||-%-------------%--------------|--%%%%%%-|------------%%%-%%%%%%------%%%%%%%%----%%%%-------
------||---|-------|--|-||---|------------------SSS----||-|--SSSSS-------o------SSS----|--|--|---|-SS---o------|---||-|--------||--||------||--------
------||--||--%----|--|-||---|-------------------------||-|----------------------------------||o-|----%%%%-----|---||-|--------||--||-o----||--------
------||--||--||%%%|--|-||---|-------------------------||-|----------------------------------||--|-----||%%%%%%|---||-|--------||--||------||--------
-----%%%%%||--|||--|%%%%%%%%%%%%-----------------------||-|------------------------------%%%%%%%%%%----|||||||-|---||-|------%%%%%%%%%%%%%-||--------
-M--|||||-||--|||--|||||||--|||------|----------%%%%%%-||-----------------------------%%%||||-|||--o---|||||||-|---||-|-------||||||||||-r-||--------
XX--|||||-||--|||---|||-||--|||-----%%%---XX-----||-|--||--%-----------XXXXXXXX--------||||||-|||--%%%-|||||||---%%%||------%%||||||||||%%%%|------X-
-X--|||||-||--|||---|||-||--|||------|----XX-----||-|--||-|-|----------XXXXXXXX--------|||-||-|||-|-|--||||||||----|||-------||||||||||||||||--------