-----------------------------------------------------------------------------------------------------------------------------------------------------
-----------------------------------------------------------------------------------------------------------------------------------------------------
-----------------------------------------------------------------------------------------------------------------------------------------------------
-----------------------------------------------------------------------------------------------------------------------------------------------------
-----------------------------------------------------------------------------------------------------------------------------------------------------
---------------------------------------------------------------------------------o---------------------------------oo--------------------------------
------------------------------%%%-------------------------o-------------------------------------------------------%%%%------------SSS----------------
----------------oo------------||-----------------SSS-----------------------SSS---------------------SS--------o-----||--------------------------------
------------------------------||--------------------------|----------------------|--------------------------%%%----||--------------------------------
---------------S----SSS-------||-------------------------||---SSS----SSS---------|----------------------SS---------||------SS--------SS--------------
-----|------------------------||-------------------------||---------%%%----------|----------------------------|%---||--------------------------------
----||-----r---------%%%%%%---||-----------%%%%%---------|-------%%--|-------%%%%|---------|-----------------------||--|-------------------%%%%%-----
----||%%%%%%%%%%%-----||||----||------------|||----------|%%%%%--|---|--------||-|---------|------------------%%%%-||-%%%%%%%%%----%--------||-------
XM--||-|||||--||------||||----||------------|||----------|||||---|---|--------||-|---------|-------------%%%%%||||-||-||||||-||----|----%%%-|||----o-
XXX-||-||||||-||------||||----||------------|||----------|||||---|---|--------||-|---------|--------------|||||||||||-||||||-||----|-----|--||---X%%%
-X--||-||||||-||------||||----||------------|||-----------||||---|---|---------|||---------||-------------|||||||||||--|||||-||----|-----||||||----XX