-----------------------------------------------------------------------------------------------------------------------------------------------------
-----------------------------------------------------------------------------------------------------------------------------------------------------
-----------------------------------------------------------------------------------------------------------------------------------------------------
--------------------------oo-------------------------------------------------------------------------------------------------------------------------
---------------------------%%------------------------------------------------------------------------------------------------------------------------
---------------------------|-o-----------------------------------------------------------------------------------------------------------o-----------
---------------------------|-------%--------%%--%%%--------------------o----------------------------------o------------------------------------------
------SSSS-------o---------|---------o-------|---|-o-------o---o---o--%%%----------oSS---------------------%%------SSSS----------SSS-----------------
----------------%%%--------|---------|--%%%%-----|--------%%%-----%-%--|------%%%%----------------%%%------|-----------------oo----------------------
-----------------|-------S||SS-----|-|---||------|--SS-----|-------|---|-------||--------------%%--|-------|-SS-------------%%%%%--------oo----------
-----------------|---------|---------|---||o---------------|-------|%--|-------||--------------|---|-------|-----------------|||---------%%%---------
-----------------|-------------------|---||--o-------------|---%%%%|---|--%%%%%||--------------|---|-------|-----------------|||----%%%--|-----------
----------------||%%%%--------------%%%%%%%%%%%------------|----||||---|---||--||---------%%%%-|---|-------|----------------|||%%%---||--|-----------
-M----------%%%-||-|-|---------------|||||||||-------------|----||||---|---||--||----------||------|----%--|----------------|||||----||--|-----------
XXXX---------|--||-|%%%%-------------|||||||||----XXXXXXXXXXXXX%||||---|---||--||----------||-%%%%%%%%-----|----------------|||||----||--|------XX-XX
XXXX---------|--||-||||-------------||||||||||----XXXXXXXXXXXXX-||||---|---||-||||---------||||||||||---|--|----------------|||||----||----------X-X-