-----------------------------------------------------------------------------------------------------------------------------------------------------
-----------------------------------------------------------------------------------------------------------------------------------------------------
-----------------------------------------------------------------------------------------------------------------------------------------------------
-----------------------------------------------------------------------------------------------------------------------------------------------------
---------------------------------------------------------------------------------o-------------------------------------------------------------------
-------------o---------o---------------------------------------------------------%--------------------------------------%%%------------o-------------
------------%%%-%%%---%%%-%%%------------------%%-----------------------------%%%%---------------------------------------|--------------%%%%%--------
--SS---------|---|-----|--||----------o----o---|---o---SSS----------SSSS---o---|-|---o---o------SSS------SSSSS-----------|--SSS------SS--||----------
-------------|---|-----|%%%|--------------%%%--|--------------%%%---------%%%%-|-|%-%o%-%%%---------------------------%%%%%--------------||----------
-------------|---|-----|--||---o-----------|---|---------------|-----------||--|-|---|---|--S---------------------SSS---|||------|-o-----||----------
------------||-%%%%%---|--||--%%%----------|---|---------------|-----------||-%|%%%%%|%--|-------------o----------------|||-------%%%----||----------
-------%%%%-|||-|||----|--||---|-----------|---|---------------|-------o---||-||-||--|---|-------%%%%%%%%---------------|||-|%%%%%||-----||----------
--------||--|||%|||--%%%%%%----|---%%%%%%%-|---|---------------|%%%%%--|---||-||-||--|---|--------||||||----------------|||-||||||||-----||----------
M-------||--|||-|||-|-||||---o-|---|-r-||--%---|---------|-%%%%%%|||---|-r-||-||-||--|---|---%%%%%||||||-------------%%%|||-|||||||------||----------
X-------||--|||-|||-|-||||--%%%%%%%%%%|||-XXXX-|X%%%%%--%%%-||||||||--%%%%-||-||%%%%%%%%-|----||||||||||--------------|||||-|||||||------||---------X
X--------|--|||||||-|-||||----||||||||-||-||-X-|X||||----|--||||||||---||--||-|||||||||--|----||||||||||--------------|||||-|||||||------||----------