-----------------------------------------------------------------------------------------------------------------------------------------------------
-----------------------------------------------------------------------------------------------------------------------------------------------------
-----------------------------------------------------------------------------------------------------------------------------------------------------
-----------------------------------------------------------------------------------------------------------------------------------------------------
-----------------------------------------------------------------------------------------------------------------------------------------------------
-------------------------------%%-----%%%--o----------------------------------------%%%%---------------------------------------o-------------o-------
-------------------------------|-------|-%%%%%-------S-S--------%%%-------------%%%--||--------------------------------------%%%%-----------%%%------
-------------------------------|-------|--||----------S----------|----------SSS--|---|---S-o---o--SSS------------------------||--------------|-------
-------------------------------|-------|--||---------------------|---------------|---|---------------------------------------||--------------|-------
-----------------------o-------|-------|--||---SSS------SSS------|--SS-----------|---|-------S---------S---------------------||--------------|-------
M------------------------------|-----%%%%-||---------------------|---------------|---|------------------------o-----r-r------||--------------|-------
XX--%%%%%----------------------|------||--||---------------------|-----------o---|---|-----------------%%%%%%%--%%%%%%%%%%%%%||------|---%%%%||------
XX----||-----------------------|----%-||--||---------------------|----------%%%--|---|-----------------||||||----||||||-|||||%%%%%%--|----||-||------
XX%%--||-----------------------------|||--||---------------------|-----------|---|---|-----------%%%%%-||||||----|||||||||||||||||---|----||-||----o-
XXXXXXX|----------XXXXXXXXX%---------|||---|---------------------XXXXXXXXXX--||--|-%XXXXXX--------|||--||||||----||||%%%%%||||||||---|----||||-----X%
XXXXXXX|----------XXXXXXX%%----------|||--||---------------------XXXXXXXXXX--||--||-XXXXXX--------|||--||||||----|||||||||||||||||---|-----|||-------