-----------------------------------------------------------------------------------------------------------------------------------------------------
-----------------------------------------------------------------------------------------------------------------------------------------------------
-----------------------------------------------------------------------------------------------------------------------------------------------------
-------------------------------------------------------------------------------------------------------------------o---------------------------------
------------------------------------------------------------------------------------------------------------------%%---------------------------------
------------------------------------------------------------------------------------------------------------%%%%-------------------------------------
-------------------------------------------------------------------------------------------------------------||--------------------------------------
--------------SSSS---------------SSS------SSS-------------SSS--------o---o-------------o---S--------S--------||------SSS-o-------------------oo------
--------------------------------------------------------------------%%%-%%%-----------%%%--------------------||---------------------------%-%%%%-----
-------SSSSS----------------SS-----------------o---------o-----------|---|---o---------|-----SSS-------------||--------------------------|---||------
-----------------------------------------------------------------%%%-|---|--%%%--------|---------------------||--------------------------|---||------
------------------------------------------%%%%%%%-----------------||-|---|---|---------|---------------------||--------------------------|---||------
-------------------------------------------|--||---------|%%%-----|||||--|---|--%%%%---|-------------%%%%-%--|---------------------------||-%%%%-----
-M-----------------------------------------||-||-%%%%%%%-|-|------|||||--|---|---||----|---------%%%%|-|-----|----------%%%--------------||--||----o-
XXX-----------XXXXXXXXXXXXXX------%%%-----%%%%||--|||||--|-|------|||||%%%%%%%%%-||---%%%%--------|-||||----||XXXXX------|-----XXXXXXXXX-||--|-----%%
XX------------XXXXXXXXXXXXXX-------|-X--%-|||-||--||||---|-|-------||||||||||||||||----||---------|-||||----||XXXXX------|-----|XXXXXXXX-||--|-------