-----------------------------------------------------------------------------------------------------------------------------------------------------
-----------------------------------------------------------------------------------------------------------------------------------------------------
-----------------------------------------------------------------------------------------------------------------------------------------------------
-----------------------------------------------------------------------------------------------------------------------------------------------------
----------------------------------------%%%----------------------------------------------------------------------------------------------------------
--------------SS-------------------------|-----------------------------------------------------------------------------------------------------------
-----------------------------------------|------S-------------------------%%---------------------------%%---------------------------------%%%%-------
--------SS---------------------------%---|----S-----------------SS--oo-----SSo---o-------SSSS--o--SSSS-|-----|-o---------------------------||o-------
-------------------------------------|--%|-------------------------------------------o-------%%%%------|-%%%%%%%%---------------------oo---||--------
----SS-------------------------------|--||-------SSS---------------------o----------%%%------|||-------|--|--|||---------------------------||--------
-------------------------------------|--||-----------------------|------%%%----------|--%----|||----%%%||-|--|||------------o--------------||-%------
-----------------%--------%%%%%%%%%-||---|--------------%%%%-----|-------|-----------|--%%%%%|||-----||||||--|||------%%%%%%%%%%%%%%%%%%%%-||-|------
----------------||---------|||||||%%%%---|---------------|||---%%%%%%----|-----------|---|||-|||%-%%%%%||||--|||-------||||||||||||||||||--||||------
M-------------%-||---%%%%%|||||||||-||---------------------|-----|||-----|-----------|-%-|||||||---||||||||--|-|-------||||||||||||||||||--||||----o-
X-------%%%--||-||----|||-|||||||||-||---------XXXXXXXXXXX||----|||%%%%%%%%%%%%%%%%%%|---|||||||---||||||||%%%%%%%%%%%%-|||||||||||||||||--||||--X-XX
---------|---||-||----|||||||||||||-||---------XXXXXXXXXXXX|----||||||||||||||||||||-|---|||||||---||||||||||||||||-%--||||||||||||||||||--||||-XX-XX