-----------------------------------------------------------------------------------------------------------------------------------------------------
-----------------------------------------------------------------------------------------------------------------------------------------------------
-----------------------------------------------------------------------------------------------------------------------------------------------------
-----------------------------------------------------------------------------------------------------o-----------------------------------------------
-----------------------------------------------------------------------------------------------------------------------------------------------------
---------------------------------------------------------------------------------------------------------------------------o---o---------------------
-----------------------------------------------------------%%----------------------------------------------------------------------------------------
------------SS---------------SSS------------oo-SSS---------||--o---------------------------o--SSSS-----o------------------------SSS----SSSSS---------
--------------------------------------%%%%%%---------------||-%%%--o----------------------%%%%-------------------------------------------------------
--------oo---------------------o--SS---||||----------------||-||---o------------------SSS--|||-----SSSS------------------------o---------------------
---------------------------------------|||||---------------|---|--%%%-------------r-r------|||------------------------%%%%----%%%%-------------------
------------------------------%%%%%%%%-|||||---------------|---|---|--------%%%%%%%%%%%%%%%|||-------------------------||------||--------------------
-------------------------------||-|-|--|%%%%%--------------%|%%|---||-||-----|||||||||||||-|||-------------------------||---|--||--------------------
-M-----------------------------||-|-|--|||||------%%%------||--|---||-||-----||||||||-||||||||-------------------------|-------||--r-----------------
XXXXXXXXXXXXXXXXXXXXXXXXXXXX|||||-|-|--|||||-------|-------|||%%%%-||-|||----||||||||-||||||||------------X---------%%%%%%%%%%%%%%%%%%%--------XXXXXX
XXXXXXXXXXXXXXXXXXXXXXXXXXXXX||||-|---|||-||-------|-------|||-||--||-|||----||||||||-||||||||-----------------------|||||||||||||||||---------XXXXXX