-----------------------------------------------------------------------------------------------------------------------------------------------------
-----------------------------------------------------------------------------------------------------------------------------------------------------
-----------------------------------------------------------------------------------------------------------------------------------------------------
-------------------o---------------------------------------------------------------------------------------------------------------------------------
------------------%%%--------------------------------------------------------------------------------------------------------------------------------
-------------------|-----------o-------o--------------------------------------------------------------------oo-------|%------------------------------
-------------------|------------%-----%%%-%%%-SSSSo--------------S---------------o---------------------------%%%-----|----------------%S%------------
------SS-----------|-r-|---------------|---|---------ooo--------SS-------------o--------SSSS---------SSS----|-|--o---|----SSS--o---o---|------SSS----
-----------------%%%%%%%%%%------------|---|----------%%%--------|------------%%%---------------SS---------||||%%%%%%|%-------%%%%%%%--|-------------
--------SSS-------|||-||-|---------o---|---|-----SS----|---------|---SSS---o---|-----------------SS|-------|-||--||%-|---------||--|---|-SS----------
------------------|||-||||%-----r--%%--|%%%||----------|---------|--------%%%--|---------------------------|-||--||--|---------||--|-----------------
--------------%%%%||--|||||%%%%%%%%|-r-||-||||%--------|---------|---------|---|-----------------------------||--||--|---------||--------------------
---------------||-||%%%%%||-|||||-||%%%||-|||||--------|---------|---------|-%%%%%%%%%%%%%%------|--------%%%%%%%%%%%|----------|--------------------
-M---------%%%|||-|||||||||-|||||||||||||-||||--o------|---------|---------|--||||||||||||-------|----%----||||||||-||----------|--%%%%------------o-
XXXXX-------|||||-|||||||||-|||||||||||||-|||||%%%--%%%%%%%------|---------|--|||-||||||||-------|-----|---||||||||-||--------------|-----%%%%----%%%
XXXX--------|||||||||||||||-|||||||||||||-||||--|----|||||------||---------||--||-||||||||-------|-----|---||-|||||-||---------------------||------|-