-----------------------------------------------------------------------------------------------------------------------------------------------------
-----------------------------------------------------------------------------------------------------------------------------------------------------
-----------------------------------------------------------------------------------------------------------------------------------------------------
-------------------------------------------------------------------------------------------------------------------------------o---------------------
-----------------------------------------------------------------------------------------------------------------------------------------------------
-----------------------------------------------------------------------------------------------------------------------------------------------------
-------o----------------%----------o%-----------------------------------%-%-----------------------%%-------------------------------------------------
------M%---o----oo-----S--oo----SS%%%------------------SSS-----------------SSS---------o-------S---||-S------|-------------------------oo------------
------%|-%%%%-%%%%%----------------|----------------------------S-------------------------%%%------||--------|---------|---------------%-------------
-------|--||---|||---------|-o-----||-SS-----------S-------------SS------o-----SSS---------||------||----SS--|-----o---|--SSSS---------|--SSS--------
-------|--||---|||---------|-------|----------r-r--|--------------------------------------|||------||--------|---------|---------------|-------------
-------|--||---|||---------|-------|-----%%%%%%%%%||---o--%%%%%%-------------------%%%%%%||||-|----||-------%%%%%%%%%%-|---------------|-------------
------%%%-||--%%%%%%------%%%%%%%%||%------||||||-||--%%%--||||--|------------------|||||%%%%||----||--------||||--||--|---------------|-------------
------|||-||---|||||%%-----|||||---||------||||||-||---|---||||--|------------------|||||||||||----||--------||||--||--||--------------|----%%%%---#-
------|||-||--||||||-------|||||--|||------||||||-||---|---||||--|-----%%%---------%%%|||||||||--|-||--------||||--||--||---------XXX--------|-XXXXXX
------||--||--||||||-------|||||--|||-||---||||||-||---|---||||--|------%-----------|||||||||||--|-||--------||||--||--||---------XX---------||XXXXXX