-----------------------------------------------------------------------------------------------------------------------------------------------------
-----------------------------------------------------------------------------------------------------------------------------------------------------
-----------------------------------------------------------------------------------------------------------------------------------------------------
-----------------------------------------------------------------------------------------------------------------------------------------------------
-----------------------------------------------------------------------------------------------------------------------------------------------------
---------o---o---------------------------------------------------------------------------------------o-----------------------o-----------------------
--------%%%-----%%%--------------------S%S%oo--------------%%------o-------------------------%---%%%%%%----------------------------------------------
---------|------||-----------------------|-------S-----------------o--------------------%%%--|---||--|---SS-SSS--o--%%ooo------oo--------------------
---------|-%%%%%||--------------------------------------%%%%%-----%%%--o-----------------|---|---||-||---|-----------||-------%%%-----%%%------------
---------|--||||||--S------------SSS-----|--S--------o--||||-------|--%%%--o------SS-----|---|---||-||---|-----------||--------|-------||------------
-----------|||||||----------r-----------------------%%%--|||-------|---|--%%%-%%%--------|---|---|||||---|-----------||--|-----|-------||------------
-----------|||||||-----%%%%%%%%%%-----%%%%%%%%-%%%%%-|---|||-------|---|---|---|---------||--|-r-||-||---|---|-------||--------|-r-----||------------
------%%%%%%%%%%||------||||||||-------||||-||--|-||||---||%%%%%-%-|---|---|---|---------||--|%%%%%%%%%%-|---|-------||-%%%%%%%%%%%%%%%||%%----------
-M-----|||||||||||------||||||||-------||||-||--|-||||---||-|||||--|---|---|---|---------||--||-|||||||--|---|---|---||--|||%%%%%|-||--||-|--------X-
XXX----||||||||||%%%----||||||||-------||||-||--|-||||---||-|||||--%%%-|%--|-------------||--||-||||||-|-|---|---|---||--|||||||||-||--||-||XXXXXXXXX
XX-----|||||||||||||----||||||||-------||||-||--|-||||---||-|||||--||--||--|-------------||--||-|||||-||-|---|---|---||--|||||||||-||--||-||XXXXXXXXX